{
  "artists" : {
    "href" : "https://api.spotify.com/v1/search?query=CAPOZZI&type=artist&market=US&offset=0&limit=20",
    "items" : [ {
      "external_urls" : {
        "spotify" : "https://open.spotify.com/artist/1cNpMm9NSchdIe9RdGA1MC"
      },
      "followers" : {
        "href" : null,
        "total" : 2663
      },
      "genres" : [ "bass house" ],
      "href" : "https://api.spotify.com/v1/artists/1cNpMm9NSchdIe9RdGA1MC",
      "id" : "1cNpMm9NSchdIe9RdGA1MC",
      "images" : [ {
        "height" : 640,
        "url" : "https://i.scdn.co/image/ab6761610000e5eb77680c71ca3851e6030186bd",
        "width" : 640
      }, {
        "height" : 320,
        "url" : "https://i.scdn.co/image/ab6761610000517477680c71ca3851e6030186bd",
        "width" : 320
      }, {
        "height" : 160,
        "url" : "https://i.scdn.co/image/ab6761610000f17877680c71ca3851e6030186bd",
        "width" : 160
      } ],
      "name" : "Capozzi",
      "popularity" : 34,
      "type" : "artist",
      "uri" : "spotify:artist:1cNpMm9NSchdIe9RdGA1MC"
    }, {
      "external_urls" : {
        "spotify" : "https://open.spotify.com/artist/3ennUr5HMUHcIJfxuE0Ml2"
      },
      "followers" : {
        "href" : null,
        "total" : 53795
      },
      "genres" : [ "canzone napoletana", "italian adult pop" ],
      "href" : "https://api.spotify.com/v1/artists/3ennUr5HMUHcIJfxuE0Ml2",
      "id" : "3ennUr5HMUHcIJfxuE0Ml2",
      "images" : [ {
        "height" : 640,
        "url" : "https://i.scdn.co/image/ab6761610000e5eb3251736122320fd48b2b9e5a",
        "width" : 640
      }, {
        "height" : 320,
        "url" : "https://i.scdn.co/image/ab676161000051743251736122320fd48b2b9e5a",
        "width" : 320
      }, {
        "height" : 160,
        "url" : "https://i.scdn.co/image/ab6761610000f1783251736122320fd48b2b9e5a",
        "width" : 160
      } ],
      "name" : "Gianluca Capozzi",
      "popularity" : 45,
      "type" : "artist",
      "uri" : "spotify:artist:3ennUr5HMUHcIJfxuE0Ml2"
    }, {
      "external_urls" : {
        "spotify" : "https://open.spotify.com/artist/0cud3rChV5i40PKp6zZzMi"
      },
      "followers" : {
        "href" : null,
        "total" : 44
      },
      "genres" : [ ],
      "href" : "https://api.spotify.com/v1/artists/0cud3rChV5i40PKp6zZzMi",
      "id" : "0cud3rChV5i40PKp6zZzMi",
      "images" : [ {
        "height" : 640,
        "url" : "https://i.scdn.co/image/ab6761610000e5ebd953f694d5ccbf7e7f2f74ea",
        "width" : 640
      }, {
        "height" : 320,
        "url" : "https://i.scdn.co/image/ab67616100005174d953f694d5ccbf7e7f2f74ea",
        "width" : 320
      }, {
        "height" : 160,
        "url" : "https://i.scdn.co/image/ab6761610000f178d953f694d5ccbf7e7f2f74ea",
        "width" : 160
      } ],
      "name" : "Marcello Capozzi",
      "popularity" : 8,
      "type" : "artist",
      "uri" : "spotify:artist:0cud3rChV5i40PKp6zZzMi"
    }, {
      "external_urls" : {
        "spotify" : "https://open.spotify.com/artist/3dyJWVsJhXqiMg8NTolJTL"
      },
      "followers" : {
        "href" : null,
        "total" : 18
      },
      "genres" : [ ],
      "href" : "https://api.spotify.com/v1/artists/3dyJWVsJhXqiMg8NTolJTL",
      "id" : "3dyJWVsJhXqiMg8NTolJTL",
      "images" : [ {
        "height" : 640,
        "url" : "https://i.scdn.co/image/ab67616d0000b27382cfc4b67176c3518f9e6fe8",
        "width" : 640
      }, {
        "height" : 300,
        "url" : "https://i.scdn.co/image/ab67616d00001e0282cfc4b67176c3518f9e6fe8",
        "width" : 300
      }, {
        "height" : 64,
        "url" : "https://i.scdn.co/image/ab67616d0000485182cfc4b67176c3518f9e6fe8",
        "width" : 64
      } ],
      "name" : "Greg Capozzi",
      "popularity" : 2,
      "type" : "artist",
      "uri" : "spotify:artist:3dyJWVsJhXqiMg8NTolJTL"
    }, {
      "external_urls" : {
        "spotify" : "https://open.spotify.com/artist/0BNGtLflIsv5gVil67wsn7"
      },
      "followers" : {
        "href" : null,
        "total" : 0
      },
      "genres" : [ ],
      "href" : "https://api.spotify.com/v1/artists/0BNGtLflIsv5gVil67wsn7",
      "id" : "0BNGtLflIsv5gVil67wsn7",
      "images" : [ ],
      "name" : "Jo Capozzi",
      "popularity" : 0,
      "type" : "artist",
      "uri" : "spotify:artist:0BNGtLflIsv5gVil67wsn7"
    }, {
      "external_urls" : {
        "spotify" : "https://open.spotify.com/artist/0HSysdekS3nxCgKSC7HV1b"
      },
      "followers" : {
        "href" : null,
        "total" : 769
      },
      "genres" : [ "canzone napoletana" ],
      "href" : "https://api.spotify.com/v1/artists/0HSysdekS3nxCgKSC7HV1b",
      "id" : "0HSysdekS3nxCgKSC7HV1b",
      "images" : [ {
        "height" : 640,
        "url" : "https://i.scdn.co/image/ab67616d0000b27376be8348ab3d97829a00d5e4",
        "width" : 640
      }, {
        "height" : 300,
        "url" : "https://i.scdn.co/image/ab67616d00001e0276be8348ab3d97829a00d5e4",
        "width" : 300
      }, {
        "height" : 64,
        "url" : "https://i.scdn.co/image/ab67616d0000485176be8348ab3d97829a00d5e4",
        "width" : 64
      } ],
      "name" : "Lino Capozzi",
      "popularity" : 9,
      "type" : "artist",
      "uri" : "spotify:artist:0HSysdekS3nxCgKSC7HV1b"
    }, {
      "external_urls" : {
        "spotify" : "https://open.spotify.com/artist/6kFSBZ0xSwDwpvG4TWiVoa"
      },
      "followers" : {
        "href" : null,
        "total" : 11
      },
      "genres" : [ ],
      "href" : "https://api.spotify.com/v1/artists/6kFSBZ0xSwDwpvG4TWiVoa",
      "id" : "6kFSBZ0xSwDwpvG4TWiVoa",
      "images" : [ {
        "height" : 640,
        "url" : "https://i.scdn.co/image/ab67616d0000b2734261ddf77c8781b1d66514be",
        "width" : 640
      }, {
        "height" : 300,
        "url" : "https://i.scdn.co/image/ab67616d00001e024261ddf77c8781b1d66514be",
        "width" : 300
      }, {
        "height" : 64,
        "url" : "https://i.scdn.co/image/ab67616d000048514261ddf77c8781b1d66514be",
        "width" : 64
      } ],
      "name" : "Mae Capozzi",
      "popularity" : 0,
      "type" : "artist",
      "uri" : "spotify:artist:6kFSBZ0xSwDwpvG4TWiVoa"
    }, {
      "external_urls" : {
        "spotify" : "https://open.spotify.com/artist/0aw7DJmuYNEirAXcXPHFC2"
      },
      "followers" : {
        "href" : null,
        "total" : 8
      },
      "genres" : [ ],
      "href" : "https://api.spotify.com/v1/artists/0aw7DJmuYNEirAXcXPHFC2",
      "id" : "0aw7DJmuYNEirAXcXPHFC2",
      "images" : [ {
        "height" : 640,
        "url" : "https://i.scdn.co/image/ab67616d0000b2737753ce7b524a92da964fbbd6",
        "width" : 640
      }, {
        "height" : 300,
        "url" : "https://i.scdn.co/image/ab67616d00001e027753ce7b524a92da964fbbd6",
        "width" : 300
      }, {
        "height" : 64,
        "url" : "https://i.scdn.co/image/ab67616d000048517753ce7b524a92da964fbbd6",
        "width" : 64
      } ],
      "name" : "Jesse Capozzi",
      "popularity" : 0,
      "type" : "artist",
      "uri" : "spotify:artist:0aw7DJmuYNEirAXcXPHFC2"
    }, {
      "external_urls" : {
        "spotify" : "https://open.spotify.com/artist/6YWIfGab68Q5oZapi4ZHzf"
      },
      "followers" : {
        "href" : null,
        "total" : 0
      },
      "genres" : [ ],
      "href" : "https://api.spotify.com/v1/artists/6YWIfGab68Q5oZapi4ZHzf",
      "id" : "6YWIfGab68Q5oZapi4ZHzf",
      "images" : [ {
        "height" : 640,
        "url" : "https://i.scdn.co/image/ab67616d0000b273b50e4d4e8b76cacdebb52647",
        "width" : 640
      }, {
        "height" : 300,
        "url" : "https://i.scdn.co/image/ab67616d00001e02b50e4d4e8b76cacdebb52647",
        "width" : 300
      }, {
        "height" : 64,
        "url" : "https://i.scdn.co/image/ab67616d00004851b50e4d4e8b76cacdebb52647",
        "width" : 64
      } ],
      "name" : "A. Capozzi",
      "popularity" : 0,
      "type" : "artist",
      "uri" : "spotify:artist:6YWIfGab68Q5oZapi4ZHzf"
    }, {
      "external_urls" : {
        "spotify" : "https://open.spotify.com/artist/6FrSVXBfAOOv1nWdlcOdMj"
      },
      "followers" : {
        "href" : null,
        "total" : 13
      },
      "genres" : [ ],
      "href" : "https://api.spotify.com/v1/artists/6FrSVXBfAOOv1nWdlcOdMj",
      "id" : "6FrSVXBfAOOv1nWdlcOdMj",
      "images" : [ {
        "height" : 640,
        "url" : "https://i.scdn.co/image/ab6761610000e5ebd9caf126e68c01859db0e4c3",
        "width" : 640
      }, {
        "height" : 320,
        "url" : "https://i.scdn.co/image/ab67616100005174d9caf126e68c01859db0e4c3",
        "width" : 320
      }, {
        "height" : 160,
        "url" : "https://i.scdn.co/image/ab6761610000f178d9caf126e68c01859db0e4c3",
        "width" : 160
      } ],
      "name" : "Sevandrik Capozzi",
      "popularity" : 0,
      "type" : "artist",
      "uri" : "spotify:artist:6FrSVXBfAOOv1nWdlcOdMj"
    }, {
      "external_urls" : {
        "spotify" : "https://open.spotify.com/artist/6wQ9bpPy8oEtpWkqntmuhk"
      },
      "followers" : {
        "href" : null,
        "total" : 1
      },
      "genres" : [ ],
      "href" : "https://api.spotify.com/v1/artists/6wQ9bpPy8oEtpWkqntmuhk",
      "id" : "6wQ9bpPy8oEtpWkqntmuhk",
      "images" : [ ],
      "name" : "Furio Capozzi",
      "popularity" : 0,
      "type" : "artist",
      "uri" : "spotify:artist:6wQ9bpPy8oEtpWkqntmuhk"
    }, {
      "external_urls" : {
        "spotify" : "https://open.spotify.com/artist/6MqmpcN6Zh8KPbG5xa10He"
      },
      "followers" : {
        "href" : null,
        "total" : 47
      },
      "genres" : [ ],
      "href" : "https://api.spotify.com/v1/artists/6MqmpcN6Zh8KPbG5xa10He",
      "id" : "6MqmpcN6Zh8KPbG5xa10He",
      "images" : [ {
        "height" : 640,
        "url" : "https://i.scdn.co/image/ab6761610000e5ebddc17d1185cc8534efff834e",
        "width" : 640
      }, {
        "height" : 320,
        "url" : "https://i.scdn.co/image/ab67616100005174ddc17d1185cc8534efff834e",
        "width" : 320
      }, {
        "height" : 160,
        "url" : "https://i.scdn.co/image/ab6761610000f178ddc17d1185cc8534efff834e",
        "width" : 160
      } ],
      "name" : "Tim Capozzi",
      "popularity" : 0,
      "type" : "artist",
      "uri" : "spotify:artist:6MqmpcN6Zh8KPbG5xa10He"
    }, {
      "external_urls" : {
        "spotify" : "https://open.spotify.com/artist/3Rwot1dCdrNmgem9TdYlSV"
      },
      "followers" : {
        "href" : null,
        "total" : 0
      },
      "genres" : [ ],
      "href" : "https://api.spotify.com/v1/artists/3Rwot1dCdrNmgem9TdYlSV",
      "id" : "3Rwot1dCdrNmgem9TdYlSV",
      "images" : [ {
        "height" : 640,
        "url" : "https://i.scdn.co/image/ab67616d0000b27343d0c340506ae5034bcefd94",
        "width" : 640
      }, {
        "height" : 300,
        "url" : "https://i.scdn.co/image/ab67616d00001e0243d0c340506ae5034bcefd94",
        "width" : 300
      }, {
        "height" : 64,
        "url" : "https://i.scdn.co/image/ab67616d0000485143d0c340506ae5034bcefd94",
        "width" : 64
      } ],
      "name" : "Vin Capozzi",
      "popularity" : 0,
      "type" : "artist",
      "uri" : "spotify:artist:3Rwot1dCdrNmgem9TdYlSV"
    }, {
      "external_urls" : {
        "spotify" : "https://open.spotify.com/artist/06xHj4NajhkD7GEYbNsz5t"
      },
      "followers" : {
        "href" : null,
        "total" : 19
      },
      "genres" : [ ],
      "href" : "https://api.spotify.com/v1/artists/06xHj4NajhkD7GEYbNsz5t",
      "id" : "06xHj4NajhkD7GEYbNsz5t",
      "images" : [ {
        "height" : 640,
        "url" : "https://i.scdn.co/image/ab67616d0000b2738103719fdde935252ee776b1",
        "width" : 640
      }, {
        "height" : 300,
        "url" : "https://i.scdn.co/image/ab67616d00001e028103719fdde935252ee776b1",
        "width" : 300
      }, {
        "height" : 64,
        "url" : "https://i.scdn.co/image/ab67616d000048518103719fdde935252ee776b1",
        "width" : 64
      } ],
      "name" : "Catherine Capozzi",
      "popularity" : 0,
      "type" : "artist",
      "uri" : "spotify:artist:06xHj4NajhkD7GEYbNsz5t"
    }, {
      "external_urls" : {
        "spotify" : "https://open.spotify.com/artist/6TMMvONyf0cTJsNmLF2c5g"
      },
      "followers" : {
        "href" : null,
        "total" : 0
      },
      "genres" : [ ],
      "href" : "https://api.spotify.com/v1/artists/6TMMvONyf0cTJsNmLF2c5g",
      "id" : "6TMMvONyf0cTJsNmLF2c5g",
      "images" : [ {
        "height" : 640,
        "url" : "https://i.scdn.co/image/ab67616d0000b273366f6d3eb89c25dab4ed8333",
        "width" : 640
      }, {
        "height" : 300,
        "url" : "https://i.scdn.co/image/ab67616d00001e02366f6d3eb89c25dab4ed8333",
        "width" : 300
      }, {
        "height" : 64,
        "url" : "https://i.scdn.co/image/ab67616d00004851366f6d3eb89c25dab4ed8333",
        "width" : 64
      } ],
      "name" : "Andrew Capozzi",
      "popularity" : 15,
      "type" : "artist",
      "uri" : "spotify:artist:6TMMvONyf0cTJsNmLF2c5g"
    }, {
      "external_urls" : {
        "spotify" : "https://open.spotify.com/artist/3O9QQwUOR0DhhVpPtDPhGi"
      },
      "followers" : {
        "href" : null,
        "total" : 42
      },
      "genres" : [ ],
      "href" : "https://api.spotify.com/v1/artists/3O9QQwUOR0DhhVpPtDPhGi",
      "id" : "3O9QQwUOR0DhhVpPtDPhGi",
      "images" : [ {
        "height" : 640,
        "url" : "https://i.scdn.co/image/ab6761610000e5eb62a201ad12a3956cb9e82f10",
        "width" : 640
      }, {
        "height" : 320,
        "url" : "https://i.scdn.co/image/ab6761610000517462a201ad12a3956cb9e82f10",
        "width" : 320
      }, {
        "height" : 160,
        "url" : "https://i.scdn.co/image/ab6761610000f17862a201ad12a3956cb9e82f10",
        "width" : 160
      } ],
      "name" : "Isabella Capozzi",
      "popularity" : 0,
      "type" : "artist",
      "uri" : "spotify:artist:3O9QQwUOR0DhhVpPtDPhGi"
    }, {
      "external_urls" : {
        "spotify" : "https://open.spotify.com/artist/1qO93CHvD3eqcTDJpJgvEL"
      },
      "followers" : {
        "href" : null,
        "total" : 2
      },
      "genres" : [ ],
      "href" : "https://api.spotify.com/v1/artists/1qO93CHvD3eqcTDJpJgvEL",
      "id" : "1qO93CHvD3eqcTDJpJgvEL",
      "images" : [ {
        "height" : 640,
        "url" : "https://i.scdn.co/image/ab67616d0000b273865b4882c50c687183aa0fdc",
        "width" : 640
      }, {
        "height" : 300,
        "url" : "https://i.scdn.co/image/ab67616d00001e02865b4882c50c687183aa0fdc",
        "width" : 300
      }, {
        "height" : 64,
        "url" : "https://i.scdn.co/image/ab67616d00004851865b4882c50c687183aa0fdc",
        "width" : 64
      } ],
      "name" : "Antonio Capozzi",
      "popularity" : 0,
      "type" : "artist",
      "uri" : "spotify:artist:1qO93CHvD3eqcTDJpJgvEL"
    }, {
      "external_urls" : {
        "spotify" : "https://open.spotify.com/artist/4LvVrPCoXeJP2lVDyzwBYB"
      },
      "followers" : {
        "href" : null,
        "total" : 23
      },
      "genres" : [ ],
      "href" : "https://api.spotify.com/v1/artists/4LvVrPCoXeJP2lVDyzwBYB",
      "id" : "4LvVrPCoXeJP2lVDyzwBYB",
      "images" : [ {
        "height" : 640,
        "url" : "https://i.scdn.co/image/ab67616d0000b27364a494cfc3814eca89593ef0",
        "width" : 640
      }, {
        "height" : 300,
        "url" : "https://i.scdn.co/image/ab67616d00001e0264a494cfc3814eca89593ef0",
        "width" : 300
      }, {
        "height" : 64,
        "url" : "https://i.scdn.co/image/ab67616d0000485164a494cfc3814eca89593ef0",
        "width" : 64
      } ],
      "name" : "Salvatore Capozzi",
      "popularity" : 1,
      "type" : "artist",
      "uri" : "spotify:artist:4LvVrPCoXeJP2lVDyzwBYB"
    }, {
      "external_urls" : {
        "spotify" : "https://open.spotify.com/artist/64eg6O36ekXArsQvq9KxTD"
      },
      "followers" : {
        "href" : null,
        "total" : 28
      },
      "genres" : [ ],
      "href" : "https://api.spotify.com/v1/artists/64eg6O36ekXArsQvq9KxTD",
      "id" : "64eg6O36ekXArsQvq9KxTD",
      "images" : [ {
        "height" : 640,
        "url" : "https://i.scdn.co/image/ab6761610000e5ebe1a66be4b78376e5d598d354",
        "width" : 640
      }, {
        "height" : 320,
        "url" : "https://i.scdn.co/image/ab67616100005174e1a66be4b78376e5d598d354",
        "width" : 320
      }, {
        "height" : 160,
        "url" : "https://i.scdn.co/image/ab6761610000f178e1a66be4b78376e5d598d354",
        "width" : 160
      } ],
      "name" : "Salvio Capozzi",
      "popularity" : 1,
      "type" : "artist",
      "uri" : "spotify:artist:64eg6O36ekXArsQvq9KxTD"
    }, {
      "external_urls" : {
        "spotify" : "https://open.spotify.com/artist/1NQfaXAoYUe7VnPj4lCnOh"
      },
      "followers" : {
        "href" : null,
        "total" : 4
      },
      "genres" : [ ],
      "href" : "https://api.spotify.com/v1/artists/1NQfaXAoYUe7VnPj4lCnOh",
      "id" : "1NQfaXAoYUe7VnPj4lCnOh",
      "images" : [ {
        "height" : 640,
        "url" : "https://i.scdn.co/image/ab67616d0000b273d1b4de89a81a237327590c1d",
        "width" : 640
      }, {
        "height" : 300,
        "url" : "https://i.scdn.co/image/ab67616d00001e02d1b4de89a81a237327590c1d",
        "width" : 300
      }, {
        "height" : 64,
        "url" : "https://i.scdn.co/image/ab67616d00004851d1b4de89a81a237327590c1d",
        "width" : 64
      } ],
      "name" : "Manny Capozzi",
      "popularity" : 0,
      "type" : "artist",
      "uri" : "spotify:artist:1NQfaXAoYUe7VnPj4lCnOh"
    } ],
    "limit" : 20,
    "next" : "https://api.spotify.com/v1/search?query=CAPOZZI&type=artist&market=US&offset=20&limit=20",
    "offset" : 0,
    "previous" : null,
    "total" : 25
  }
}