{
  "artists" : {
    "href" : "https://api.spotify.com/v1/search?query=DOCTOR+P&type=artist&market=US&offset=0&limit=20",
    "items" : [ {
      "external_urls" : {
        "spotify" : "https://open.spotify.com/artist/0tgjwsn1Lpjj8kKEvWm0KQ"
      },
      "followers" : {
        "href" : null,
        "total" : 232516
      },
      "genres" : [ "brostep", "complextro", "dubstep", "edm", "electro house", "electronic trap", "filthstep", "gaming dubstep", "melodic dubstep", "moombahton" ],
      "href" : "https://api.spotify.com/v1/artists/0tgjwsn1Lpjj8kKEvWm0KQ",
      "id" : "0tgjwsn1Lpjj8kKEvWm0KQ",
      "images" : [ {
        "height" : 640,
        "url" : "https://i.scdn.co/image/ab6761610000e5eb15e32e839c37fab5e5db0cfa",
        "width" : 640
      }, {
        "height" : 320,
        "url" : "https://i.scdn.co/image/ab6761610000517415e32e839c37fab5e5db0cfa",
        "width" : 320
      }, {
        "height" : 160,
        "url" : "https://i.scdn.co/image/ab6761610000f17815e32e839c37fab5e5db0cfa",
        "width" : 160
      } ],
      "name" : "Doctor P",
      "popularity" : 50,
      "type" : "artist",
      "uri" : "spotify:artist:0tgjwsn1Lpjj8kKEvWm0KQ"
    }, {
      "external_urls" : {
        "spotify" : "https://open.spotify.com/artist/7ncQ3AmAxYqTv2vY46YclW"
      },
      "followers" : {
        "href" : null,
        "total" : 73936
      },
      "genres" : [ "mestissatge", "musica catalana" ],
      "href" : "https://api.spotify.com/v1/artists/7ncQ3AmAxYqTv2vY46YclW",
      "id" : "7ncQ3AmAxYqTv2vY46YclW",
      "images" : [ {
        "height" : 640,
        "url" : "https://i.scdn.co/image/ab6761610000e5eb3a9c92e6e203cf02846dc7dc",
        "width" : 640
      }, {
        "height" : 320,
        "url" : "https://i.scdn.co/image/ab676161000051743a9c92e6e203cf02846dc7dc",
        "width" : 320
      }, {
        "height" : 160,
        "url" : "https://i.scdn.co/image/ab6761610000f1783a9c92e6e203cf02846dc7dc",
        "width" : 160
      } ],
      "name" : "Doctor Prats",
      "popularity" : 47,
      "type" : "artist",
      "uri" : "spotify:artist:7ncQ3AmAxYqTv2vY46YclW"
    }, {
      "external_urls" : {
        "spotify" : "https://open.spotify.com/artist/4JORJY5QFhxluSZEUN0fSD"
      },
      "followers" : {
        "href" : null,
        "total" : 9
      },
      "genres" : [ ],
      "href" : "https://api.spotify.com/v1/artists/4JORJY5QFhxluSZEUN0fSD",
      "id" : "4JORJY5QFhxluSZEUN0fSD",
      "images" : [ ],
      "name" : "Doctor Scott Piper",
      "popularity" : 33,
      "type" : "artist",
      "uri" : "spotify:artist:4JORJY5QFhxluSZEUN0fSD"
    }, {
      "external_urls" : {
        "spotify" : "https://open.spotify.com/artist/4C7p8TbNGbAoaQ6jRR42ky"
      },
      "followers" : {
        "href" : null,
        "total" : 142
      },
      "genres" : [ ],
      "href" : "https://api.spotify.com/v1/artists/4C7p8TbNGbAoaQ6jRR42ky",
      "id" : "4C7p8TbNGbAoaQ6jRR42ky",
      "images" : [ {
        "height" : 640,
        "url" : "https://i.scdn.co/image/ab67616d0000b2732856d541fe0ef13813019205",
        "width" : 640
      }, {
        "height" : 300,
        "url" : "https://i.scdn.co/image/ab67616d00001e022856d541fe0ef13813019205",
        "width" : 300
      }, {
        "height" : 64,
        "url" : "https://i.scdn.co/image/ab67616d000048512856d541fe0ef13813019205",
        "width" : 64
      } ],
      "name" : "Doctor Pain Relief",
      "popularity" : 16,
      "type" : "artist",
      "uri" : "spotify:artist:4C7p8TbNGbAoaQ6jRR42ky"
    }, {
      "external_urls" : {
        "spotify" : "https://open.spotify.com/artist/3RzKUFibkTJSL1n4huA3oj"
      },
      "followers" : {
        "href" : null,
        "total" : 18
      },
      "genres" : [ ],
      "href" : "https://api.spotify.com/v1/artists/3RzKUFibkTJSL1n4huA3oj",
      "id" : "3RzKUFibkTJSL1n4huA3oj",
      "images" : [ ],
      "name" : "S. Brockhurst AKA Doctor P.",
      "popularity" : 26,
      "type" : "artist",
      "uri" : "spotify:artist:3RzKUFibkTJSL1n4huA3oj"
    }, {
      "external_urls" : {
        "spotify" : "https://open.spotify.com/artist/0q15IgHjDflzadIxeWwDPw"
      },
      "followers" : {
        "href" : null,
        "total" : 3709
      },
      "genres" : [ "czech punk", "czech rock" ],
      "href" : "https://api.spotify.com/v1/artists/0q15IgHjDflzadIxeWwDPw",
      "id" : "0q15IgHjDflzadIxeWwDPw",
      "images" : [ {
        "height" : 640,
        "url" : "https://i.scdn.co/image/ab67616d0000b273c658292358e1a8ada87e64c2",
        "width" : 640
      }, {
        "height" : 300,
        "url" : "https://i.scdn.co/image/ab67616d00001e02c658292358e1a8ada87e64c2",
        "width" : 300
      }, {
        "height" : 64,
        "url" : "https://i.scdn.co/image/ab67616d00004851c658292358e1a8ada87e64c2",
        "width" : 64
      } ],
      "name" : "Doctor P.P.",
      "popularity" : 31,
      "type" : "artist",
      "uri" : "spotify:artist:0q15IgHjDflzadIxeWwDPw"
    }, {
      "external_urls" : {
        "spotify" : "https://open.spotify.com/artist/1g2Xwk7fzuJfpOboElZxZx"
      },
      "followers" : {
        "href" : null,
        "total" : 1741
      },
      "genres" : [ ],
      "href" : "https://api.spotify.com/v1/artists/1g2Xwk7fzuJfpOboElZxZx",
      "id" : "1g2Xwk7fzuJfpOboElZxZx",
      "images" : [ {
        "height" : 640,
        "url" : "https://i.scdn.co/image/ab6761610000e5eb57e066c85c14912092db6e27",
        "width" : 640
      }, {
        "height" : 320,
        "url" : "https://i.scdn.co/image/ab6761610000517457e066c85c14912092db6e27",
        "width" : 320
      }, {
        "height" : 160,
        "url" : "https://i.scdn.co/image/ab6761610000f17857e066c85c14912092db6e27",
        "width" : 160
      } ],
      "name" : "Doctor Pheabes",
      "popularity" : 9,
      "type" : "artist",
      "uri" : "spotify:artist:1g2Xwk7fzuJfpOboElZxZx"
    }, {
      "external_urls" : {
        "spotify" : "https://open.spotify.com/artist/5KdikMkRPhRKy2WcQ5dfpc"
      },
      "followers" : {
        "href" : null,
        "total" : 138
      },
      "genres" : [ ],
      "href" : "https://api.spotify.com/v1/artists/5KdikMkRPhRKy2WcQ5dfpc",
      "id" : "5KdikMkRPhRKy2WcQ5dfpc",
      "images" : [ {
        "height" : 640,
        "url" : "https://i.scdn.co/image/ab6761610000e5eb42ceea6b671216b46d7ee501",
        "width" : 640
      }, {
        "height" : 320,
        "url" : "https://i.scdn.co/image/ab6761610000517442ceea6b671216b46d7ee501",
        "width" : 320
      }, {
        "height" : 160,
        "url" : "https://i.scdn.co/image/ab6761610000f17842ceea6b671216b46d7ee501",
        "width" : 160
      } ],
      "name" : "poop doctor",
      "popularity" : 9,
      "type" : "artist",
      "uri" : "spotify:artist:5KdikMkRPhRKy2WcQ5dfpc"
    }, {
      "external_urls" : {
        "spotify" : "https://open.spotify.com/artist/2FtC23TXF697JvPu5JsBJr"
      },
      "followers" : {
        "href" : null,
        "total" : 494
      },
      "genres" : [ ],
      "href" : "https://api.spotify.com/v1/artists/2FtC23TXF697JvPu5JsBJr",
      "id" : "2FtC23TXF697JvPu5JsBJr",
      "images" : [ {
        "height" : 640,
        "url" : "https://i.scdn.co/image/ab6761610000e5eb8670df755cdb975730537656",
        "width" : 640
      }, {
        "height" : 320,
        "url" : "https://i.scdn.co/image/ab676161000051748670df755cdb975730537656",
        "width" : 320
      }, {
        "height" : 160,
        "url" : "https://i.scdn.co/image/ab6761610000f1788670df755cdb975730537656",
        "width" : 160
      } ],
      "name" : "Doctor Pizza",
      "popularity" : 3,
      "type" : "artist",
      "uri" : "spotify:artist:2FtC23TXF697JvPu5JsBJr"
    }, {
      "external_urls" : {
        "spotify" : "https://open.spotify.com/artist/2fo9QZg1aYmBbOinI7saxK"
      },
      "followers" : {
        "href" : null,
        "total" : 700
      },
      "genres" : [ "funky breaks" ],
      "href" : "https://api.spotify.com/v1/artists/2fo9QZg1aYmBbOinI7saxK",
      "id" : "2fo9QZg1aYmBbOinI7saxK",
      "images" : [ {
        "height" : 640,
        "url" : "https://i.scdn.co/image/ab6761610000e5eb2d6fa0cea5f0a0c2dffdd7b6",
        "width" : 640
      }, {
        "height" : 320,
        "url" : "https://i.scdn.co/image/ab676161000051742d6fa0cea5f0a0c2dffdd7b6",
        "width" : 320
      }, {
        "height" : 160,
        "url" : "https://i.scdn.co/image/ab6761610000f1782d6fa0cea5f0a0c2dffdd7b6",
        "width" : 160
      } ],
      "name" : "Doctormusic Project",
      "popularity" : 11,
      "type" : "artist",
      "uri" : "spotify:artist:2fo9QZg1aYmBbOinI7saxK"
    }, {
      "external_urls" : {
        "spotify" : "https://open.spotify.com/artist/2XY6n4UYAghC6VanIiXAMs"
      },
      "followers" : {
        "href" : null,
        "total" : 6
      },
      "genres" : [ ],
      "href" : "https://api.spotify.com/v1/artists/2XY6n4UYAghC6VanIiXAMs",
      "id" : "2XY6n4UYAghC6VanIiXAMs",
      "images" : [ ],
      "name" : "Doctor Popular",
      "popularity" : 1,
      "type" : "artist",
      "uri" : "spotify:artist:2XY6n4UYAghC6VanIiXAMs"
    }, {
      "external_urls" : {
        "spotify" : "https://open.spotify.com/artist/00oozGTDbjqDkbsMlxi5Jp"
      },
      "followers" : {
        "href" : null,
        "total" : 40
      },
      "genres" : [ ],
      "href" : "https://api.spotify.com/v1/artists/00oozGTDbjqDkbsMlxi5Jp",
      "id" : "00oozGTDbjqDkbsMlxi5Jp",
      "images" : [ {
        "height" : 640,
        "url" : "https://i.scdn.co/image/ab6761610000e5ebd4fae44b57d541b79733b1e9",
        "width" : 640
      }, {
        "height" : 320,
        "url" : "https://i.scdn.co/image/ab67616100005174d4fae44b57d541b79733b1e9",
        "width" : 320
      }, {
        "height" : 160,
        "url" : "https://i.scdn.co/image/ab6761610000f178d4fae44b57d541b79733b1e9",
        "width" : 160
      } ],
      "name" : "The Plague Doctor",
      "popularity" : 8,
      "type" : "artist",
      "uri" : "spotify:artist:00oozGTDbjqDkbsMlxi5Jp"
    }, {
      "external_urls" : {
        "spotify" : "https://open.spotify.com/artist/5OHgmoQzHEX7jM75FVf1oR"
      },
      "followers" : {
        "href" : null,
        "total" : 263
      },
      "genres" : [ ],
      "href" : "https://api.spotify.com/v1/artists/5OHgmoQzHEX7jM75FVf1oR",
      "id" : "5OHgmoQzHEX7jM75FVf1oR",
      "images" : [ {
        "height" : 640,
        "url" : "https://i.scdn.co/image/ab67616d0000b273ee28d3326b7498f760c2b0c0",
        "width" : 640
      }, {
        "height" : 300,
        "url" : "https://i.scdn.co/image/ab67616d00001e02ee28d3326b7498f760c2b0c0",
        "width" : 300
      }, {
        "height" : 64,
        "url" : "https://i.scdn.co/image/ab67616d00004851ee28d3326b7498f760c2b0c0",
        "width" : 64
      } ],
      "name" : "Doctor Pablo & The Dub Syndicate",
      "popularity" : 4,
      "type" : "artist",
      "uri" : "spotify:artist:5OHgmoQzHEX7jM75FVf1oR"
    }, {
      "external_urls" : {
        "spotify" : "https://open.spotify.com/artist/1AOaxRk03CJjv52lOXdJwR"
      },
      "followers" : {
        "href" : null,
        "total" : 336
      },
      "genres" : [ ],
      "href" : "https://api.spotify.com/v1/artists/1AOaxRk03CJjv52lOXdJwR",
      "id" : "1AOaxRk03CJjv52lOXdJwR",
      "images" : [ {
        "height" : 640,
        "url" : "https://i.scdn.co/image/ab67616d0000b27386dc739e7437ba366ce0052a",
        "width" : 640
      }, {
        "height" : 300,
        "url" : "https://i.scdn.co/image/ab67616d00001e0286dc739e7437ba366ce0052a",
        "width" : 300
      }, {
        "height" : 64,
        "url" : "https://i.scdn.co/image/ab67616d0000485186dc739e7437ba366ce0052a",
        "width" : 64
      } ],
      "name" : "Frans Brüggen, André Rieu, Franz Vester, Gustav Leonhardt, Paul Doctor, Chamber Orchestra of Amsterdam, Concerto Amsterdam, Südwestdeutsches Kammerorchester, & Friedrich Tilegant",
      "popularity" : 10,
      "type" : "artist",
      "uri" : "spotify:artist:1AOaxRk03CJjv52lOXdJwR"
    }, {
      "external_urls" : {
        "spotify" : "https://open.spotify.com/artist/2hym6cn17jpk4BPOzyu9Id"
      },
      "followers" : {
        "href" : null,
        "total" : 4114
      },
      "genres" : [ "spanish rock" ],
      "href" : "https://api.spotify.com/v1/artists/2hym6cn17jpk4BPOzyu9Id",
      "id" : "2hym6cn17jpk4BPOzyu9Id",
      "images" : [ {
        "height" : 709,
        "url" : "https://i.scdn.co/image/c412fca56ccd07a5b628ca04a7fa04772b654486",
        "width" : 709
      }, {
        "height" : 640,
        "url" : "https://i.scdn.co/image/a301709f59caef1c07084687605182e135693935",
        "width" : 640
      }, {
        "height" : 200,
        "url" : "https://i.scdn.co/image/b658f55265f6e3c52bdc4671248304d8e34d8bac",
        "width" : 200
      }, {
        "height" : 64,
        "url" : "https://i.scdn.co/image/77637d5f14ae723ef9319ab97c1dce47cd39547e",
        "width" : 64
      } ],
      "name" : "Doctor Pitangú",
      "popularity" : 18,
      "type" : "artist",
      "uri" : "spotify:artist:2hym6cn17jpk4BPOzyu9Id"
    }, {
      "external_urls" : {
        "spotify" : "https://open.spotify.com/artist/5UNLgg7r81YMz34FGi6eTu"
      },
      "followers" : {
        "href" : null,
        "total" : 5
      },
      "genres" : [ ],
      "href" : "https://api.spotify.com/v1/artists/5UNLgg7r81YMz34FGi6eTu",
      "id" : "5UNLgg7r81YMz34FGi6eTu",
      "images" : [ {
        "height" : 640,
        "url" : "https://i.scdn.co/image/ab67616d0000b273a3a0ca4d932976ebc0a6c8a6",
        "width" : 640
      }, {
        "height" : 300,
        "url" : "https://i.scdn.co/image/ab67616d00001e02a3a0ca4d932976ebc0a6c8a6",
        "width" : 300
      }, {
        "height" : 64,
        "url" : "https://i.scdn.co/image/ab67616d00004851a3a0ca4d932976ebc0a6c8a6",
        "width" : 64
      } ],
      "name" : "Professor Doctor Doctor",
      "popularity" : 0,
      "type" : "artist",
      "uri" : "spotify:artist:5UNLgg7r81YMz34FGi6eTu"
    }, {
      "external_urls" : {
        "spotify" : "https://open.spotify.com/artist/3O2NhjHKCKZDexz4zfhJah"
      },
      "followers" : {
        "href" : null,
        "total" : 84
      },
      "genres" : [ ],
      "href" : "https://api.spotify.com/v1/artists/3O2NhjHKCKZDexz4zfhJah",
      "id" : "3O2NhjHKCKZDexz4zfhJah",
      "images" : [ {
        "height" : 640,
        "url" : "https://i.scdn.co/image/ab6761610000e5ebec2acfaf30f377d5d71d7c8c",
        "width" : 640
      }, {
        "height" : 320,
        "url" : "https://i.scdn.co/image/ab67616100005174ec2acfaf30f377d5d71d7c8c",
        "width" : 320
      }, {
        "height" : 160,
        "url" : "https://i.scdn.co/image/ab6761610000f178ec2acfaf30f377d5d71d7c8c",
        "width" : 160
      } ],
      "name" : "Doctor Popular",
      "popularity" : 0,
      "type" : "artist",
      "uri" : "spotify:artist:3O2NhjHKCKZDexz4zfhJah"
    }, {
      "external_urls" : {
        "spotify" : "https://open.spotify.com/artist/5ew55twQaO1nQ1RpLZdjBI"
      },
      "followers" : {
        "href" : null,
        "total" : 46
      },
      "genres" : [ ],
      "href" : "https://api.spotify.com/v1/artists/5ew55twQaO1nQ1RpLZdjBI",
      "id" : "5ew55twQaO1nQ1RpLZdjBI",
      "images" : [ {
        "height" : 640,
        "url" : "https://i.scdn.co/image/ab67616d0000b27392e193d3e567a4fc9a6fb974",
        "width" : 640
      }, {
        "height" : 300,
        "url" : "https://i.scdn.co/image/ab67616d00001e0292e193d3e567a4fc9a6fb974",
        "width" : 300
      }, {
        "height" : 64,
        "url" : "https://i.scdn.co/image/ab67616d0000485192e193d3e567a4fc9a6fb974",
        "width" : 64
      } ],
      "name" : "Doctor P",
      "popularity" : 0,
      "type" : "artist",
      "uri" : "spotify:artist:5ew55twQaO1nQ1RpLZdjBI"
    }, {
      "external_urls" : {
        "spotify" : "https://open.spotify.com/artist/0KS0TkuXHDmcGRlLz4dmcg"
      },
      "followers" : {
        "href" : null,
        "total" : 534
      },
      "genres" : [ "nueva trova chilena" ],
      "href" : "https://api.spotify.com/v1/artists/0KS0TkuXHDmcGRlLz4dmcg",
      "id" : "0KS0TkuXHDmcGRlLz4dmcg",
      "images" : [ {
        "height" : 640,
        "url" : "https://i.scdn.co/image/ab67616d0000b2736be46731d68122e0bf96cfb7",
        "width" : 640
      }, {
        "height" : 300,
        "url" : "https://i.scdn.co/image/ab67616d00001e026be46731d68122e0bf96cfb7",
        "width" : 300
      }, {
        "height" : 64,
        "url" : "https://i.scdn.co/image/ab67616d000048516be46731d68122e0bf96cfb7",
        "width" : 64
      } ],
      "name" : "Doctor Pez",
      "popularity" : 5,
      "type" : "artist",
      "uri" : "spotify:artist:0KS0TkuXHDmcGRlLz4dmcg"
    }, {
      "external_urls" : {
        "spotify" : "https://open.spotify.com/artist/6hYL7ZRdRZ38IqNBcIVvZM"
      },
      "followers" : {
        "href" : null,
        "total" : 0
      },
      "genres" : [ ],
      "href" : "https://api.spotify.com/v1/artists/6hYL7ZRdRZ38IqNBcIVvZM",
      "id" : "6hYL7ZRdRZ38IqNBcIVvZM",
      "images" : [ {
        "height" : 640,
        "url" : "https://i.scdn.co/image/ab67616d0000b27366c8acee19f2e3da05b75f0d",
        "width" : 640
      }, {
        "height" : 300,
        "url" : "https://i.scdn.co/image/ab67616d00001e0266c8acee19f2e3da05b75f0d",
        "width" : 300
      }, {
        "height" : 64,
        "url" : "https://i.scdn.co/image/ab67616d0000485166c8acee19f2e3da05b75f0d",
        "width" : 64
      } ],
      "name" : "Doctor Pizz",
      "popularity" : 0,
      "type" : "artist",
      "uri" : "spotify:artist:6hYL7ZRdRZ38IqNBcIVvZM"
    } ],
    "limit" : 20,
    "next" : "https://api.spotify.com/v1/search?query=DOCTOR+P&type=artist&market=US&offset=20&limit=20",
    "offset" : 0,
    "previous" : null,
    "total" : 157
  }
}