{
  "artists" : {
    "href" : "https://api.spotify.com/v1/search?query=GEM+&type=artist&market=US&offset=0&limit=20",
    "items" : [ {
      "external_urls" : {
        "spotify" : "https://open.spotify.com/artist/5plcM0NxqZcnAWQVECcjWN"
      },
      "followers" : {
        "href" : null,
        "total" : 86514
      },
      "genres" : [ "gymcore" ],
      "href" : "https://api.spotify.com/v1/artists/5plcM0NxqZcnAWQVECcjWN",
      "id" : "5plcM0NxqZcnAWQVECcjWN",
      "images" : [ {
        "height" : 640,
        "url" : "https://i.scdn.co/image/ab6761610000e5eb22d43fbd8cdd7fe4cd04ef2d",
        "width" : 640
      }, {
        "height" : 320,
        "url" : "https://i.scdn.co/image/ab6761610000517422d43fbd8cdd7fe4cd04ef2d",
        "width" : 320
      }, {
        "height" : 160,
        "url" : "https://i.scdn.co/image/ab6761610000f17822d43fbd8cdd7fe4cd04ef2d",
        "width" : 160
      } ],
      "name" : "Gemini Syndrome",
      "popularity" : 51,
      "type" : "artist",
      "uri" : "spotify:artist:5plcM0NxqZcnAWQVECcjWN"
    }, {
      "external_urls" : {
        "spotify" : "https://open.spotify.com/artist/1Zkxm1dM3HI3QkTmxUEVQA"
      },
      "followers" : {
        "href" : null,
        "total" : 63328
      },
      "genres" : [ "corrido", "corridos tumbados", "musica mexicana", "nueva musica mexicana", "sierreno" ],
      "href" : "https://api.spotify.com/v1/artists/1Zkxm1dM3HI3QkTmxUEVQA",
      "id" : "1Zkxm1dM3HI3QkTmxUEVQA",
      "images" : [ {
        "height" : 640,
        "url" : "https://i.scdn.co/image/ab6761610000e5ebe8deaea76caebb8ac14bf7fa",
        "width" : 640
      }, {
        "height" : 320,
        "url" : "https://i.scdn.co/image/ab67616100005174e8deaea76caebb8ac14bf7fa",
        "width" : 320
      }, {
        "height" : 160,
        "url" : "https://i.scdn.co/image/ab6761610000f178e8deaea76caebb8ac14bf7fa",
        "width" : 160
      } ],
      "name" : "Los Gemelos De Sinaloa",
      "popularity" : 70,
      "type" : "artist",
      "uri" : "spotify:artist:1Zkxm1dM3HI3QkTmxUEVQA"
    }, {
      "external_urls" : {
        "spotify" : "https://open.spotify.com/artist/0hzpkELoMWjaZ3Qiz3ya6t"
      },
      "followers" : {
        "href" : null,
        "total" : 6
      },
      "genres" : [ ],
      "href" : "https://api.spotify.com/v1/artists/0hzpkELoMWjaZ3Qiz3ya6t",
      "id" : "0hzpkELoMWjaZ3Qiz3ya6t",
      "images" : [ {
        "height" : 640,
        "url" : "https://i.scdn.co/image/ab67616d0000b2737581325c39dc5f3f85e88bc4",
        "width" : 640
      }, {
        "height" : 300,
        "url" : "https://i.scdn.co/image/ab67616d00001e027581325c39dc5f3f85e88bc4",
        "width" : 300
      }, {
        "height" : 64,
        "url" : "https://i.scdn.co/image/ab67616d000048517581325c39dc5f3f85e88bc4",
        "width" : 64
      } ],
      "name" : "GEM",
      "popularity" : 0,
      "type" : "artist",
      "uri" : "spotify:artist:0hzpkELoMWjaZ3Qiz3ya6t"
    }, {
      "external_urls" : {
        "spotify" : "https://open.spotify.com/artist/5WooWF4HvIcgW0BDA2VBPN"
      },
      "followers" : {
        "href" : null,
        "total" : 1124
      },
      "genres" : [ ],
      "href" : "https://api.spotify.com/v1/artists/5WooWF4HvIcgW0BDA2VBPN",
      "id" : "5WooWF4HvIcgW0BDA2VBPN",
      "images" : [ {
        "height" : 640,
        "url" : "https://i.scdn.co/image/ab6761610000e5eb03cb8a7ea0c43f2164d3e744",
        "width" : 640
      }, {
        "height" : 320,
        "url" : "https://i.scdn.co/image/ab6761610000517403cb8a7ea0c43f2164d3e744",
        "width" : 320
      }, {
        "height" : 160,
        "url" : "https://i.scdn.co/image/ab6761610000f17803cb8a7ea0c43f2164d3e744",
        "width" : 160
      } ],
      "name" : "Gemstar",
      "popularity" : 55,
      "type" : "artist",
      "uri" : "spotify:artist:5WooWF4HvIcgW0BDA2VBPN"
    }, {
      "external_urls" : {
        "spotify" : "https://open.spotify.com/artist/6d47Z08T4snK50HgTEHo5Z"
      },
      "followers" : {
        "href" : null,
        "total" : 801135
      },
      "genres" : [ "dance pop", "hyphy", "pop rap", "rap", "southern hip hop" ],
      "href" : "https://api.spotify.com/v1/artists/6d47Z08T4snK50HgTEHo5Z",
      "id" : "6d47Z08T4snK50HgTEHo5Z",
      "images" : [ {
        "height" : 640,
        "url" : "https://i.scdn.co/image/ab6761610000e5ebf62e660e474c18ad7443641c",
        "width" : 640
      }, {
        "height" : 320,
        "url" : "https://i.scdn.co/image/ab67616100005174f62e660e474c18ad7443641c",
        "width" : 320
      }, {
        "height" : 160,
        "url" : "https://i.scdn.co/image/ab6761610000f178f62e660e474c18ad7443641c",
        "width" : 160
      } ],
      "name" : "Sage The Gemini",
      "popularity" : 70,
      "type" : "artist",
      "uri" : "spotify:artist:6d47Z08T4snK50HgTEHo5Z"
    }, {
      "external_urls" : {
        "spotify" : "https://open.spotify.com/artist/2Xsp09dOPxmI83WRdFXeDN"
      },
      "followers" : {
        "href" : null,
        "total" : 2059
      },
      "genres" : [ ],
      "href" : "https://api.spotify.com/v1/artists/2Xsp09dOPxmI83WRdFXeDN",
      "id" : "2Xsp09dOPxmI83WRdFXeDN",
      "images" : [ {
        "height" : 640,
        "url" : "https://i.scdn.co/image/ab67616d0000b2732f5dd5001fdd44ce967c9f10",
        "width" : 640
      }, {
        "height" : 300,
        "url" : "https://i.scdn.co/image/ab67616d00001e022f5dd5001fdd44ce967c9f10",
        "width" : 300
      }, {
        "height" : 64,
        "url" : "https://i.scdn.co/image/ab67616d000048512f5dd5001fdd44ce967c9f10",
        "width" : 64
      } ],
      "name" : "GEM Sisters",
      "popularity" : 10,
      "type" : "artist",
      "uri" : "spotify:artist:2Xsp09dOPxmI83WRdFXeDN"
    }, {
      "external_urls" : {
        "spotify" : "https://open.spotify.com/artist/67IWlRdLy3UcfY3q968euj"
      },
      "followers" : {
        "href" : null,
        "total" : 50902
      },
      "genres" : [ ],
      "href" : "https://api.spotify.com/v1/artists/67IWlRdLy3UcfY3q968euj",
      "id" : "67IWlRdLy3UcfY3q968euj",
      "images" : [ {
        "height" : 640,
        "url" : "https://i.scdn.co/image/ab6761610000e5ebd32f698baebd877f9edf2ea9",
        "width" : 640
      }, {
        "height" : 320,
        "url" : "https://i.scdn.co/image/ab67616100005174d32f698baebd877f9edf2ea9",
        "width" : 320
      }, {
        "height" : 160,
        "url" : "https://i.scdn.co/image/ab6761610000f178d32f698baebd877f9edf2ea9",
        "width" : 160
      } ],
      "name" : "GEMINI",
      "popularity" : 54,
      "type" : "artist",
      "uri" : "spotify:artist:67IWlRdLy3UcfY3q968euj"
    }, {
      "external_urls" : {
        "spotify" : "https://open.spotify.com/artist/4BpthbilmXNgzS65Pz8BG3"
      },
      "followers" : {
        "href" : null,
        "total" : 26
      },
      "genres" : [ ],
      "href" : "https://api.spotify.com/v1/artists/4BpthbilmXNgzS65Pz8BG3",
      "id" : "4BpthbilmXNgzS65Pz8BG3",
      "images" : [ ],
      "name" : "GEM",
      "popularity" : 8,
      "type" : "artist",
      "uri" : "spotify:artist:4BpthbilmXNgzS65Pz8BG3"
    }, {
      "external_urls" : {
        "spotify" : "https://open.spotify.com/artist/4i2qe6NHlNFfwcQpi6dpFC"
      },
      "followers" : {
        "href" : null,
        "total" : 980
      },
      "genres" : [ ],
      "href" : "https://api.spotify.com/v1/artists/4i2qe6NHlNFfwcQpi6dpFC",
      "id" : "4i2qe6NHlNFfwcQpi6dpFC",
      "images" : [ {
        "height" : 640,
        "url" : "https://i.scdn.co/image/ab6761610000e5eb0176f05ff8b8915c47ebfc61",
        "width" : 640
      }, {
        "height" : 320,
        "url" : "https://i.scdn.co/image/ab676161000051740176f05ff8b8915c47ebfc61",
        "width" : 320
      }, {
        "height" : 160,
        "url" : "https://i.scdn.co/image/ab6761610000f1780176f05ff8b8915c47ebfc61",
        "width" : 160
      } ],
      "name" : "Gemma Casimaty",
      "popularity" : 52,
      "type" : "artist",
      "uri" : "spotify:artist:4i2qe6NHlNFfwcQpi6dpFC"
    }, {
      "external_urls" : {
        "spotify" : "https://open.spotify.com/artist/7aRC4L63dBn3CiLDuWaLSI"
      },
      "followers" : {
        "href" : null,
        "total" : 1849442
      },
      "genres" : [ "mandopop" ],
      "href" : "https://api.spotify.com/v1/artists/7aRC4L63dBn3CiLDuWaLSI",
      "id" : "7aRC4L63dBn3CiLDuWaLSI",
      "images" : [ {
        "height" : 640,
        "url" : "https://i.scdn.co/image/ab6761610000e5eba2f44146517d33b2cf01f1ea",
        "width" : 640
      }, {
        "height" : 320,
        "url" : "https://i.scdn.co/image/ab67616100005174a2f44146517d33b2cf01f1ea",
        "width" : 320
      }, {
        "height" : 160,
        "url" : "https://i.scdn.co/image/ab6761610000f178a2f44146517d33b2cf01f1ea",
        "width" : 160
      } ],
      "name" : "G.E.M.",
      "popularity" : 65,
      "type" : "artist",
      "uri" : "spotify:artist:7aRC4L63dBn3CiLDuWaLSI"
    }, {
      "external_urls" : {
        "spotify" : "https://open.spotify.com/artist/2xDPAyBBrzjOPC4kYKDHIE"
      },
      "followers" : {
        "href" : null,
        "total" : 2288
      },
      "genres" : [ ],
      "href" : "https://api.spotify.com/v1/artists/2xDPAyBBrzjOPC4kYKDHIE",
      "id" : "2xDPAyBBrzjOPC4kYKDHIE",
      "images" : [ {
        "height" : 640,
        "url" : "https://i.scdn.co/image/ab6761610000e5eb73a9c07f4c32508c5f698fe9",
        "width" : 640
      }, {
        "height" : 320,
        "url" : "https://i.scdn.co/image/ab6761610000517473a9c07f4c32508c5f698fe9",
        "width" : 320
      }, {
        "height" : 160,
        "url" : "https://i.scdn.co/image/ab6761610000f17873a9c07f4c32508c5f698fe9",
        "width" : 160
      } ],
      "name" : "GEM",
      "popularity" : 36,
      "type" : "artist",
      "uri" : "spotify:artist:2xDPAyBBrzjOPC4kYKDHIE"
    }, {
      "external_urls" : {
        "spotify" : "https://open.spotify.com/artist/1m2PzkUZ98iiaspQT2FDmY"
      },
      "followers" : {
        "href" : null,
        "total" : 391
      },
      "genres" : [ ],
      "href" : "https://api.spotify.com/v1/artists/1m2PzkUZ98iiaspQT2FDmY",
      "id" : "1m2PzkUZ98iiaspQT2FDmY",
      "images" : [ {
        "height" : 640,
        "url" : "https://i.scdn.co/image/ab67616d0000b2732293c680ecaae7d3c444658c",
        "width" : 640
      }, {
        "height" : 300,
        "url" : "https://i.scdn.co/image/ab67616d00001e022293c680ecaae7d3c444658c",
        "width" : 300
      }, {
        "height" : 64,
        "url" : "https://i.scdn.co/image/ab67616d000048512293c680ecaae7d3c444658c",
        "width" : 64
      } ],
      "name" : "Gemini",
      "popularity" : 43,
      "type" : "artist",
      "uri" : "spotify:artist:1m2PzkUZ98iiaspQT2FDmY"
    }, {
      "external_urls" : {
        "spotify" : "https://open.spotify.com/artist/7aGBJiUws3qcoRhY2lUizy"
      },
      "followers" : {
        "href" : null,
        "total" : 920
      },
      "genres" : [ ],
      "href" : "https://api.spotify.com/v1/artists/7aGBJiUws3qcoRhY2lUizy",
      "id" : "7aGBJiUws3qcoRhY2lUizy",
      "images" : [ {
        "height" : 640,
        "url" : "https://i.scdn.co/image/ab6761610000e5ebb3713f3555e4d4eb4cd1f37e",
        "width" : 640
      }, {
        "height" : 320,
        "url" : "https://i.scdn.co/image/ab67616100005174b3713f3555e4d4eb4cd1f37e",
        "width" : 320
      }, {
        "height" : 160,
        "url" : "https://i.scdn.co/image/ab6761610000f178b3713f3555e4d4eb4cd1f37e",
        "width" : 160
      } ],
      "name" : "Gemp",
      "popularity" : 49,
      "type" : "artist",
      "uri" : "spotify:artist:7aGBJiUws3qcoRhY2lUizy"
    }, {
      "external_urls" : {
        "spotify" : "https://open.spotify.com/artist/22HH0b5ZPy0TwAbwUDhOfX"
      },
      "followers" : {
        "href" : null,
        "total" : 15229
      },
      "genres" : [ "sad lo-fi" ],
      "href" : "https://api.spotify.com/v1/artists/22HH0b5ZPy0TwAbwUDhOfX",
      "id" : "22HH0b5ZPy0TwAbwUDhOfX",
      "images" : [ {
        "height" : 640,
        "url" : "https://i.scdn.co/image/ab6761610000e5eb4c82ac2dcca69d26e94ca338",
        "width" : 640
      }, {
        "height" : 320,
        "url" : "https://i.scdn.co/image/ab676161000051744c82ac2dcca69d26e94ca338",
        "width" : 320
      }, {
        "height" : 160,
        "url" : "https://i.scdn.co/image/ab6761610000f1784c82ac2dcca69d26e94ca338",
        "width" : 160
      } ],
      "name" : "Gemini Aaliyah",
      "popularity" : 47,
      "type" : "artist",
      "uri" : "spotify:artist:22HH0b5ZPy0TwAbwUDhOfX"
    }, {
      "external_urls" : {
        "spotify" : "https://open.spotify.com/artist/4QNqXfa129rAppgBSQY4bq"
      },
      "followers" : {
        "href" : null,
        "total" : 6874
      },
      "genres" : [ "high vibe" ],
      "href" : "https://api.spotify.com/v1/artists/4QNqXfa129rAppgBSQY4bq",
      "id" : "4QNqXfa129rAppgBSQY4bq",
      "images" : [ {
        "height" : 640,
        "url" : "https://i.scdn.co/image/ab6761610000e5eb1f992879c3f1f9a5f83dc69b",
        "width" : 640
      }, {
        "height" : 320,
        "url" : "https://i.scdn.co/image/ab676161000051741f992879c3f1f9a5f83dc69b",
        "width" : 320
      }, {
        "height" : 160,
        "url" : "https://i.scdn.co/image/ab6761610000f1781f992879c3f1f9a5f83dc69b",
        "width" : 160
      } ],
      "name" : "Geminelle",
      "popularity" : 40,
      "type" : "artist",
      "uri" : "spotify:artist:4QNqXfa129rAppgBSQY4bq"
    }, {
      "external_urls" : {
        "spotify" : "https://open.spotify.com/artist/5oi5DXLFdDZKjwlVxRY3GS"
      },
      "followers" : {
        "href" : null,
        "total" : 990
      },
      "genres" : [ ],
      "href" : "https://api.spotify.com/v1/artists/5oi5DXLFdDZKjwlVxRY3GS",
      "id" : "5oi5DXLFdDZKjwlVxRY3GS",
      "images" : [ {
        "height" : 640,
        "url" : "https://i.scdn.co/image/ab67616d0000b2733cb5ec1a47bd2729bcc596b9",
        "width" : 640
      }, {
        "height" : 300,
        "url" : "https://i.scdn.co/image/ab67616d00001e023cb5ec1a47bd2729bcc596b9",
        "width" : 300
      }, {
        "height" : 64,
        "url" : "https://i.scdn.co/image/ab67616d000048513cb5ec1a47bd2729bcc596b9",
        "width" : 64
      } ],
      "name" : "Paul Gemignani",
      "popularity" : 43,
      "type" : "artist",
      "uri" : "spotify:artist:5oi5DXLFdDZKjwlVxRY3GS"
    }, {
      "external_urls" : {
        "spotify" : "https://open.spotify.com/artist/3SU7pCbOPCUMboKnxMvHVW"
      },
      "followers" : {
        "href" : null,
        "total" : 25372
      },
      "genres" : [ "brooklyn indie", "chillwave", "vaporwave" ],
      "href" : "https://api.spotify.com/v1/artists/3SU7pCbOPCUMboKnxMvHVW",
      "id" : "3SU7pCbOPCUMboKnxMvHVW",
      "images" : [ {
        "height" : 640,
        "url" : "https://i.scdn.co/image/ab6761610000e5ebb9dc13d3da76deca9645650c",
        "width" : 640
      }, {
        "height" : 320,
        "url" : "https://i.scdn.co/image/ab67616100005174b9dc13d3da76deca9645650c",
        "width" : 320
      }, {
        "height" : 160,
        "url" : "https://i.scdn.co/image/ab6761610000f178b9dc13d3da76deca9645650c",
        "width" : 160
      } ],
      "name" : "Neggy Gemmy",
      "popularity" : 42,
      "type" : "artist",
      "uri" : "spotify:artist:3SU7pCbOPCUMboKnxMvHVW"
    }, {
      "external_urls" : {
        "spotify" : "https://open.spotify.com/artist/1blgL26JbtaUUKUEMR6Hs2"
      },
      "followers" : {
        "href" : null,
        "total" : 20149
      },
      "genres" : [ "irish singer-songwriter" ],
      "href" : "https://api.spotify.com/v1/artists/1blgL26JbtaUUKUEMR6Hs2",
      "id" : "1blgL26JbtaUUKUEMR6Hs2",
      "images" : [ {
        "height" : 999,
        "url" : "https://i.scdn.co/image/f16f2967a0080174c8276bb8d071c399e61fb779",
        "width" : 1000
      }, {
        "height" : 639,
        "url" : "https://i.scdn.co/image/e10bb8ef487157d4158ce294ef0540a8a9837afb",
        "width" : 640
      }, {
        "height" : 200,
        "url" : "https://i.scdn.co/image/4f3a01d23083cd4ec402dbd6201c9ca64e838525",
        "width" : 200
      }, {
        "height" : 64,
        "url" : "https://i.scdn.co/image/65a26548468d99bed7a182517569d7d5a0912fbb",
        "width" : 64
      } ],
      "name" : "Gemma Hayes",
      "popularity" : 45,
      "type" : "artist",
      "uri" : "spotify:artist:1blgL26JbtaUUKUEMR6Hs2"
    }, {
      "external_urls" : {
        "spotify" : "https://open.spotify.com/artist/6WnCnGe06iOO6fTPYAPF03"
      },
      "followers" : {
        "href" : null,
        "total" : 16746
      },
      "genres" : [ "pop r&b" ],
      "href" : "https://api.spotify.com/v1/artists/6WnCnGe06iOO6fTPYAPF03",
      "id" : "6WnCnGe06iOO6fTPYAPF03",
      "images" : [ {
        "height" : 640,
        "url" : "https://i.scdn.co/image/ab6761610000e5ebd3390be31b2a7f00834dd61d",
        "width" : 640
      }, {
        "height" : 320,
        "url" : "https://i.scdn.co/image/ab67616100005174d3390be31b2a7f00834dd61d",
        "width" : 320
      }, {
        "height" : 160,
        "url" : "https://i.scdn.co/image/ab6761610000f178d3390be31b2a7f00834dd61d",
        "width" : 160
      } ],
      "name" : "Gemaine",
      "popularity" : 37,
      "type" : "artist",
      "uri" : "spotify:artist:6WnCnGe06iOO6fTPYAPF03"
    }, {
      "external_urls" : {
        "spotify" : "https://open.spotify.com/artist/3Qubu5zXcOh0EIb2bDwMdB"
      },
      "followers" : {
        "href" : null,
        "total" : 14216
      },
      "genres" : [ "g-house", "russian edm" ],
      "href" : "https://api.spotify.com/v1/artists/3Qubu5zXcOh0EIb2bDwMdB",
      "id" : "3Qubu5zXcOh0EIb2bDwMdB",
      "images" : [ {
        "height" : 640,
        "url" : "https://i.scdn.co/image/ab6761610000e5eb2eea529402dbaa29a6c14035",
        "width" : 640
      }, {
        "height" : 320,
        "url" : "https://i.scdn.co/image/ab676161000051742eea529402dbaa29a6c14035",
        "width" : 320
      }, {
        "height" : 160,
        "url" : "https://i.scdn.co/image/ab6761610000f1782eea529402dbaa29a6c14035",
        "width" : 160
      } ],
      "name" : "WYR GEMI",
      "popularity" : 52,
      "type" : "artist",
      "uri" : "spotify:artist:3Qubu5zXcOh0EIb2bDwMdB"
    } ],
    "limit" : 20,
    "next" : "https://api.spotify.com/v1/search?query=GEM+&type=artist&market=US&offset=20&limit=20",
    "offset" : 0,
    "previous" : null,
    "total" : 3393
  }
}