{
  "artists" : {
    "href" : "https://api.spotify.com/v1/search?query=KID&type=artist&market=US&offset=0&limit=20",
    "items" : [ {
      "external_urls" : {
        "spotify" : "https://open.spotify.com/artist/0fA0VVWsXO9YnASrzqfmYu"
      },
      "followers" : {
        "href" : null,
        "total" : 5659013
      },
      "genres" : [ "hip hop", "ohio hip hop", "rap" ],
      "href" : "https://api.spotify.com/v1/artists/0fA0VVWsXO9YnASrzqfmYu",
      "id" : "0fA0VVWsXO9YnASrzqfmYu",
      "images" : [ {
        "height" : 640,
        "url" : "https://i.scdn.co/image/ab6761610000e5eb876faa285687786c3d314ae0",
        "width" : 640
      }, {
        "height" : 320,
        "url" : "https://i.scdn.co/image/ab67616100005174876faa285687786c3d314ae0",
        "width" : 320
      }, {
        "height" : 160,
        "url" : "https://i.scdn.co/image/ab6761610000f178876faa285687786c3d314ae0",
        "width" : 160
      } ],
      "name" : "Kid Cudi",
      "popularity" : 86,
      "type" : "artist",
      "uri" : "spotify:artist:0fA0VVWsXO9YnASrzqfmYu"
    }, {
      "external_urls" : {
        "spotify" : "https://open.spotify.com/artist/5pXe6yFchq1oyYK3rq2A8i"
      },
      "followers" : {
        "href" : null,
        "total" : 16151
      },
      "genres" : [ "scandipop" ],
      "href" : "https://api.spotify.com/v1/artists/5pXe6yFchq1oyYK3rq2A8i",
      "id" : "5pXe6yFchq1oyYK3rq2A8i",
      "images" : [ {
        "height" : 640,
        "url" : "https://i.scdn.co/image/ab6761610000e5eb5258f9f8d752f4485539eb91",
        "width" : 640
      }, {
        "height" : 320,
        "url" : "https://i.scdn.co/image/ab676161000051745258f9f8d752f4485539eb91",
        "width" : 320
      }, {
        "height" : 160,
        "url" : "https://i.scdn.co/image/ab6761610000f1785258f9f8d752f4485539eb91",
        "width" : 160
      } ],
      "name" : "KIDDO",
      "popularity" : 72,
      "type" : "artist",
      "uri" : "spotify:artist:5pXe6yFchq1oyYK3rq2A8i"
    }, {
      "external_urls" : {
        "spotify" : "https://open.spotify.com/artist/7dOBabd5O4CvKrg4iriHTM"
      },
      "followers" : {
        "href" : null,
        "total" : 1936496
      },
      "genres" : [ "alternative metal", "nu metal" ],
      "href" : "https://api.spotify.com/v1/artists/7dOBabd5O4CvKrg4iriHTM",
      "id" : "7dOBabd5O4CvKrg4iriHTM",
      "images" : [ {
        "height" : 640,
        "url" : "https://i.scdn.co/image/ab6761610000e5eb2306846cafba63385008dc21",
        "width" : 640
      }, {
        "height" : 320,
        "url" : "https://i.scdn.co/image/ab676161000051742306846cafba63385008dc21",
        "width" : 320
      }, {
        "height" : 160,
        "url" : "https://i.scdn.co/image/ab6761610000f1782306846cafba63385008dc21",
        "width" : 160
      } ],
      "name" : "Kid Rock",
      "popularity" : 72,
      "type" : "artist",
      "uri" : "spotify:artist:7dOBabd5O4CvKrg4iriHTM"
    }, {
      "external_urls" : {
        "spotify" : "https://open.spotify.com/artist/2tIP7SsRs7vjIcLrU85W8J"
      },
      "followers" : {
        "href" : null,
        "total" : 3486469
      },
      "genres" : [ "australian hip hop" ],
      "href" : "https://api.spotify.com/v1/artists/2tIP7SsRs7vjIcLrU85W8J",
      "id" : "2tIP7SsRs7vjIcLrU85W8J",
      "images" : [ {
        "height" : 640,
        "url" : "https://i.scdn.co/image/ab6761610000e5eb152a7ee8fc0469aaeb015f02",
        "width" : 640
      }, {
        "height" : 320,
        "url" : "https://i.scdn.co/image/ab67616100005174152a7ee8fc0469aaeb015f02",
        "width" : 320
      }, {
        "height" : 160,
        "url" : "https://i.scdn.co/image/ab6761610000f178152a7ee8fc0469aaeb015f02",
        "width" : 160
      } ],
      "name" : "The Kid LAROI",
      "popularity" : 88,
      "type" : "artist",
      "uri" : "spotify:artist:2tIP7SsRs7vjIcLrU85W8J"
    }, {
      "external_urls" : {
        "spotify" : "https://open.spotify.com/artist/24GH6HcPkYaFXgTkAADTts"
      },
      "followers" : {
        "href" : null,
        "total" : 15848
      },
      "genres" : [ "dark trap", "meme rap" ],
      "href" : "https://api.spotify.com/v1/artists/24GH6HcPkYaFXgTkAADTts",
      "id" : "24GH6HcPkYaFXgTkAADTts",
      "images" : [ {
        "height" : 640,
        "url" : "https://i.scdn.co/image/ab6761610000e5eb16b0aba5044e72dc7117c105",
        "width" : 640
      }, {
        "height" : 320,
        "url" : "https://i.scdn.co/image/ab6761610000517416b0aba5044e72dc7117c105",
        "width" : 320
      }, {
        "height" : 160,
        "url" : "https://i.scdn.co/image/ab6761610000f17816b0aba5044e72dc7117c105",
        "width" : 160
      } ],
      "name" : "KIDx",
      "popularity" : 47,
      "type" : "artist",
      "uri" : "spotify:artist:24GH6HcPkYaFXgTkAADTts"
    }, {
      "external_urls" : {
        "spotify" : "https://open.spotify.com/artist/1Vvvx45Apu6dQqwuZQxtgW"
      },
      "followers" : {
        "href" : null,
        "total" : 786462
      },
      "genres" : [ "children's music" ],
      "href" : "https://api.spotify.com/v1/artists/1Vvvx45Apu6dQqwuZQxtgW",
      "id" : "1Vvvx45Apu6dQqwuZQxtgW",
      "images" : [ {
        "height" : 640,
        "url" : "https://i.scdn.co/image/ab6761610000e5eb1a97a24c458764dfe071a7ef",
        "width" : 640
      }, {
        "height" : 320,
        "url" : "https://i.scdn.co/image/ab676161000051741a97a24c458764dfe071a7ef",
        "width" : 320
      }, {
        "height" : 160,
        "url" : "https://i.scdn.co/image/ab6761610000f1781a97a24c458764dfe071a7ef",
        "width" : 160
      } ],
      "name" : "Kidz Bop Kids",
      "popularity" : 71,
      "type" : "artist",
      "uri" : "spotify:artist:1Vvvx45Apu6dQqwuZQxtgW"
    }, {
      "external_urls" : {
        "spotify" : "https://open.spotify.com/artist/2dIgFjalVxs4ThymZ67YCE"
      },
      "followers" : {
        "href" : null,
        "total" : 7478223
      },
      "genres" : [ "k-pop", "k-pop boy group" ],
      "href" : "https://api.spotify.com/v1/artists/2dIgFjalVxs4ThymZ67YCE",
      "id" : "2dIgFjalVxs4ThymZ67YCE",
      "images" : [ {
        "height" : 640,
        "url" : "https://i.scdn.co/image/ab6761610000e5ebb6501e0b3fcde145838f4724",
        "width" : 640
      }, {
        "height" : 320,
        "url" : "https://i.scdn.co/image/ab67616100005174b6501e0b3fcde145838f4724",
        "width" : 320
      }, {
        "height" : 160,
        "url" : "https://i.scdn.co/image/ab6761610000f178b6501e0b3fcde145838f4724",
        "width" : 160
      } ],
      "name" : "Stray Kids",
      "popularity" : 85,
      "type" : "artist",
      "uri" : "spotify:artist:2dIgFjalVxs4ThymZ67YCE"
    }, {
      "external_urls" : {
        "spotify" : "https://open.spotify.com/artist/1NxxU87AMi8ImvGnwudNcc"
      },
      "followers" : {
        "href" : null,
        "total" : 2130
      },
      "genres" : [ "indie rockism" ],
      "href" : "https://api.spotify.com/v1/artists/1NxxU87AMi8ImvGnwudNcc",
      "id" : "1NxxU87AMi8ImvGnwudNcc",
      "images" : [ {
        "height" : 640,
        "url" : "https://i.scdn.co/image/ab6761610000e5eb58b0af8a5cecd0cdbd85501b",
        "width" : 640
      }, {
        "height" : 320,
        "url" : "https://i.scdn.co/image/ab6761610000517458b0af8a5cecd0cdbd85501b",
        "width" : 320
      }, {
        "height" : 160,
        "url" : "https://i.scdn.co/image/ab6761610000f17858b0af8a5cecd0cdbd85501b",
        "width" : 160
      } ],
      "name" : "KIDS",
      "popularity" : 21,
      "type" : "artist",
      "uri" : "spotify:artist:1NxxU87AMi8ImvGnwudNcc"
    }, {
      "external_urls" : {
        "spotify" : "https://open.spotify.com/artist/1pPmIToKXyGdsCF6LmqLmI"
      },
      "followers" : {
        "href" : null,
        "total" : 2804017
      },
      "genres" : [ "atl hip hop", "hip hop", "melodic rap", "plugg", "pop rap", "rap", "southern hip hop", "trap", "vapor trap" ],
      "href" : "https://api.spotify.com/v1/artists/1pPmIToKXyGdsCF6LmqLmI",
      "id" : "1pPmIToKXyGdsCF6LmqLmI",
      "images" : [ {
        "height" : 640,
        "url" : "https://i.scdn.co/image/ab6761610000e5eb059569db8ca2f11e5e7cdf16",
        "width" : 640
      }, {
        "height" : 320,
        "url" : "https://i.scdn.co/image/ab67616100005174059569db8ca2f11e5e7cdf16",
        "width" : 320
      }, {
        "height" : 160,
        "url" : "https://i.scdn.co/image/ab6761610000f178059569db8ca2f11e5e7cdf16",
        "width" : 160
      } ],
      "name" : "Rich The Kid",
      "popularity" : 75,
      "type" : "artist",
      "uri" : "spotify:artist:1pPmIToKXyGdsCF6LmqLmI"
    }, {
      "external_urls" : {
        "spotify" : "https://open.spotify.com/artist/6PE8wWhRb5kaxl1zXHuFTr"
      },
      "followers" : {
        "href" : null,
        "total" : 3846
      },
      "genres" : [ "sad rap" ],
      "href" : "https://api.spotify.com/v1/artists/6PE8wWhRb5kaxl1zXHuFTr",
      "id" : "6PE8wWhRb5kaxl1zXHuFTr",
      "images" : [ {
        "height" : 640,
        "url" : "https://i.scdn.co/image/ab6761610000e5ebc4af939c82a755dbb842e8db",
        "width" : 640
      }, {
        "height" : 320,
        "url" : "https://i.scdn.co/image/ab67616100005174c4af939c82a755dbb842e8db",
        "width" : 320
      }, {
        "height" : 160,
        "url" : "https://i.scdn.co/image/ab6761610000f178c4af939c82a755dbb842e8db",
        "width" : 160
      } ],
      "name" : "KID E$s",
      "popularity" : 37,
      "type" : "artist",
      "uri" : "spotify:artist:6PE8wWhRb5kaxl1zXHuFTr"
    }, {
      "external_urls" : {
        "spotify" : "https://open.spotify.com/artist/6KZDXtSj0SzGOV705nNeh3"
      },
      "followers" : {
        "href" : null,
        "total" : 2811023
      },
      "genres" : [ "dance pop", "hip hop", "pop rap", "rap", "southern hip hop", "trap" ],
      "href" : "https://api.spotify.com/v1/artists/6KZDXtSj0SzGOV705nNeh3",
      "id" : "6KZDXtSj0SzGOV705nNeh3",
      "images" : [ {
        "height" : 640,
        "url" : "https://i.scdn.co/image/ab6761610000e5eb39345e9059608b051a900e22",
        "width" : 640
      }, {
        "height" : 320,
        "url" : "https://i.scdn.co/image/ab6761610000517439345e9059608b051a900e22",
        "width" : 320
      }, {
        "height" : 160,
        "url" : "https://i.scdn.co/image/ab6761610000f17839345e9059608b051a900e22",
        "width" : 160
      } ],
      "name" : "Kid Ink",
      "popularity" : 73,
      "type" : "artist",
      "uri" : "spotify:artist:6KZDXtSj0SzGOV705nNeh3"
    }, {
      "external_urls" : {
        "spotify" : "https://open.spotify.com/artist/7Ap8xCd7d0xon5XnkLvn4i"
      },
      "followers" : {
        "href" : null,
        "total" : 46428
      },
      "genres" : [ "danish hip hop", "danish pop" ],
      "href" : "https://api.spotify.com/v1/artists/7Ap8xCd7d0xon5XnkLvn4i",
      "id" : "7Ap8xCd7d0xon5XnkLvn4i",
      "images" : [ {
        "height" : 640,
        "url" : "https://i.scdn.co/image/ab6761610000e5ebd3e2d62dd8006fc27c75fe36",
        "width" : 640
      }, {
        "height" : 320,
        "url" : "https://i.scdn.co/image/ab67616100005174d3e2d62dd8006fc27c75fe36",
        "width" : 320
      }, {
        "height" : 160,
        "url" : "https://i.scdn.co/image/ab6761610000f178d3e2d62dd8006fc27c75fe36",
        "width" : 160
      } ],
      "name" : "KIDD",
      "popularity" : 55,
      "type" : "artist",
      "uri" : "spotify:artist:7Ap8xCd7d0xon5XnkLvn4i"
    }, {
      "external_urls" : {
        "spotify" : "https://open.spotify.com/artist/5edcHuf8pWH3I00WTorajM"
      },
      "followers" : {
        "href" : null,
        "total" : 125587
      },
      "genres" : [ ],
      "href" : "https://api.spotify.com/v1/artists/5edcHuf8pWH3I00WTorajM",
      "id" : "5edcHuf8pWH3I00WTorajM",
      "images" : [ {
        "height" : 640,
        "url" : "https://i.scdn.co/image/ab6761610000e5eb5901d68fd48e8090163fa302",
        "width" : 640
      }, {
        "height" : 320,
        "url" : "https://i.scdn.co/image/ab676161000051745901d68fd48e8090163fa302",
        "width" : 320
      }, {
        "height" : 160,
        "url" : "https://i.scdn.co/image/ab6761610000f1785901d68fd48e8090163fa302",
        "width" : 160
      } ],
      "name" : "Kidd G",
      "popularity" : 64,
      "type" : "artist",
      "uri" : "spotify:artist:5edcHuf8pWH3I00WTorajM"
    }, {
      "external_urls" : {
        "spotify" : "https://open.spotify.com/artist/55sqUPMFLCw4TESTAfh6lq"
      },
      "followers" : {
        "href" : null,
        "total" : 16
      },
      "genres" : [ ],
      "href" : "https://api.spotify.com/v1/artists/55sqUPMFLCw4TESTAfh6lq",
      "id" : "55sqUPMFLCw4TESTAfh6lq",
      "images" : [ {
        "height" : 640,
        "url" : "https://i.scdn.co/image/ab67616d0000b273d548c6d9d12ae2005a253801",
        "width" : 640
      }, {
        "height" : 300,
        "url" : "https://i.scdn.co/image/ab67616d00001e02d548c6d9d12ae2005a253801",
        "width" : 300
      }, {
        "height" : 64,
        "url" : "https://i.scdn.co/image/ab67616d00004851d548c6d9d12ae2005a253801",
        "width" : 64
      } ],
      "name" : "KID",
      "popularity" : 14,
      "type" : "artist",
      "uri" : "spotify:artist:55sqUPMFLCw4TESTAfh6lq"
    }, {
      "external_urls" : {
        "spotify" : "https://open.spotify.com/artist/2hPgGN4uhvXAxiXQBIXOmE"
      },
      "followers" : {
        "href" : null,
        "total" : 884653
      },
      "genres" : [ "hip hop", "rap" ],
      "href" : "https://api.spotify.com/v1/artists/2hPgGN4uhvXAxiXQBIXOmE",
      "id" : "2hPgGN4uhvXAxiXQBIXOmE",
      "images" : [ {
        "height" : 640,
        "url" : "https://i.scdn.co/image/ab6761610000e5eb22c693c66a5494d88194d543",
        "width" : 640
      }, {
        "height" : 320,
        "url" : "https://i.scdn.co/image/ab6761610000517422c693c66a5494d88194d543",
        "width" : 320
      }, {
        "height" : 160,
        "url" : "https://i.scdn.co/image/ab6761610000f17822c693c66a5494d88194d543",
        "width" : 160
      } ],
      "name" : "KIDS SEE GHOSTS",
      "popularity" : 67,
      "type" : "artist",
      "uri" : "spotify:artist:2hPgGN4uhvXAxiXQBIXOmE"
    }, {
      "external_urls" : {
        "spotify" : "https://open.spotify.com/artist/3tVQdUvClmAT7URs9V3rsp"
      },
      "followers" : {
        "href" : null,
        "total" : 1830708
      },
      "genres" : [ "afro dancehall", "afropop", "azonto", "nigerian hip hop", "nigerian pop" ],
      "href" : "https://api.spotify.com/v1/artists/3tVQdUvClmAT7URs9V3rsp",
      "id" : "3tVQdUvClmAT7URs9V3rsp",
      "images" : [ {
        "height" : 640,
        "url" : "https://i.scdn.co/image/ab6761610000e5eb9050b61368975fda051cdc06",
        "width" : 640
      }, {
        "height" : 320,
        "url" : "https://i.scdn.co/image/ab676161000051749050b61368975fda051cdc06",
        "width" : 320
      }, {
        "height" : 160,
        "url" : "https://i.scdn.co/image/ab6761610000f1789050b61368975fda051cdc06",
        "width" : 160
      } ],
      "name" : "WizKid",
      "popularity" : 80,
      "type" : "artist",
      "uri" : "spotify:artist:3tVQdUvClmAT7URs9V3rsp"
    }, {
      "external_urls" : {
        "spotify" : "https://open.spotify.com/artist/7epmfBKl7ZzyjVZf9Hlx8A"
      },
      "followers" : {
        "href" : null,
        "total" : 138
      },
      "genres" : [ ],
      "href" : "https://api.spotify.com/v1/artists/7epmfBKl7ZzyjVZf9Hlx8A",
      "id" : "7epmfBKl7ZzyjVZf9Hlx8A",
      "images" : [ {
        "height" : 640,
        "url" : "https://i.scdn.co/image/ab6761610000e5eb62ca1756406cf91b8258203b",
        "width" : 640
      }, {
        "height" : 320,
        "url" : "https://i.scdn.co/image/ab6761610000517462ca1756406cf91b8258203b",
        "width" : 320
      }, {
        "height" : 160,
        "url" : "https://i.scdn.co/image/ab6761610000f17862ca1756406cf91b8258203b",
        "width" : 160
      } ],
      "name" : "KID",
      "popularity" : 19,
      "type" : "artist",
      "uri" : "spotify:artist:7epmfBKl7ZzyjVZf9Hlx8A"
    }, {
      "external_urls" : {
        "spotify" : "https://open.spotify.com/artist/6UWui6Csqc1ywqnDzjOWnk"
      },
      "followers" : {
        "href" : null,
        "total" : 68701
      },
      "genres" : [ "chill r&b" ],
      "href" : "https://api.spotify.com/v1/artists/6UWui6Csqc1ywqnDzjOWnk",
      "id" : "6UWui6Csqc1ywqnDzjOWnk",
      "images" : [ {
        "height" : 640,
        "url" : "https://i.scdn.co/image/ab6761610000e5ebe3d59426b12dd9d1f1f3b43a",
        "width" : 640
      }, {
        "height" : 320,
        "url" : "https://i.scdn.co/image/ab67616100005174e3d59426b12dd9d1f1f3b43a",
        "width" : 320
      }, {
        "height" : 160,
        "url" : "https://i.scdn.co/image/ab6761610000f178e3d59426b12dd9d1f1f3b43a",
        "width" : 160
      } ],
      "name" : "Kid Travis",
      "popularity" : 66,
      "type" : "artist",
      "uri" : "spotify:artist:6UWui6Csqc1ywqnDzjOWnk"
    }, {
      "external_urls" : {
        "spotify" : "https://open.spotify.com/artist/4d13UpWG4bB9rdlUeQNoS5"
      },
      "followers" : {
        "href" : null,
        "total" : 511
      },
      "genres" : [ ],
      "href" : "https://api.spotify.com/v1/artists/4d13UpWG4bB9rdlUeQNoS5",
      "id" : "4d13UpWG4bB9rdlUeQNoS5",
      "images" : [ {
        "height" : 640,
        "url" : "https://i.scdn.co/image/ab6761610000e5eb8ceae1aef306f3fddbff265f",
        "width" : 640
      }, {
        "height" : 320,
        "url" : "https://i.scdn.co/image/ab676161000051748ceae1aef306f3fddbff265f",
        "width" : 320
      }, {
        "height" : 160,
        "url" : "https://i.scdn.co/image/ab6761610000f1788ceae1aef306f3fddbff265f",
        "width" : 160
      } ],
      "name" : "KID",
      "popularity" : 26,
      "type" : "artist",
      "uri" : "spotify:artist:4d13UpWG4bB9rdlUeQNoS5"
    }, {
      "external_urls" : {
        "spotify" : "https://open.spotify.com/artist/5vGXVYudNgm9E7jhXMM0Ro"
      },
      "followers" : {
        "href" : null,
        "total" : 99822
      },
      "genres" : [ "indiana hip hop", "indie pop rap", "pop rap" ],
      "href" : "https://api.spotify.com/v1/artists/5vGXVYudNgm9E7jhXMM0Ro",
      "id" : "5vGXVYudNgm9E7jhXMM0Ro",
      "images" : [ {
        "height" : 640,
        "url" : "https://i.scdn.co/image/ab6761610000e5ebd6eabb03c164a98cd19876d9",
        "width" : 640
      }, {
        "height" : 320,
        "url" : "https://i.scdn.co/image/ab67616100005174d6eabb03c164a98cd19876d9",
        "width" : 320
      }, {
        "height" : 160,
        "url" : "https://i.scdn.co/image/ab6761610000f178d6eabb03c164a98cd19876d9",
        "width" : 160
      } ],
      "name" : "Kid Quill",
      "popularity" : 58,
      "type" : "artist",
      "uri" : "spotify:artist:5vGXVYudNgm9E7jhXMM0Ro"
    } ],
    "limit" : 20,
    "next" : "https://api.spotify.com/v1/search?query=KID&type=artist&market=US&offset=20&limit=20",
    "offset" : 0,
    "previous" : null,
    "total" : 10032
  }
}