{
  "artists" : {
    "href" : "https://api.spotify.com/v1/search?query=MAD+DOG&type=artist&market=US&offset=0&limit=20",
    "items" : [ {
      "external_urls" : {
        "spotify" : "https://open.spotify.com/artist/18RtsuKFWko5JfeMsIi0YP"
      },
      "followers" : {
        "href" : null,
        "total" : 10434
      },
      "genres" : [ "arrocha", "funk pop", "sertanejo pop" ],
      "href" : "https://api.spotify.com/v1/artists/18RtsuKFWko5JfeMsIi0YP",
      "id" : "18RtsuKFWko5JfeMsIi0YP",
      "images" : [ {
        "height" : 640,
        "url" : "https://i.scdn.co/image/ab6761610000e5eb78a7d438fad33be0b939fd85",
        "width" : 640
      }, {
        "height" : 320,
        "url" : "https://i.scdn.co/image/ab6761610000517478a7d438fad33be0b939fd85",
        "width" : 320
      }, {
        "height" : 160,
        "url" : "https://i.scdn.co/image/ab6761610000f17878a7d438fad33be0b939fd85",
        "width" : 160
      } ],
      "name" : "Mad Dogz",
      "popularity" : 63,
      "type" : "artist",
      "uri" : "spotify:artist:18RtsuKFWko5JfeMsIi0YP"
    }, {
      "external_urls" : {
        "spotify" : "https://open.spotify.com/artist/7oX7rzli18XsB2WFd88oW4"
      },
      "followers" : {
        "href" : null,
        "total" : 77479
      },
      "genres" : [ "gabba", "happy hardcore", "hardcore techno", "uptempo hardcore" ],
      "href" : "https://api.spotify.com/v1/artists/7oX7rzli18XsB2WFd88oW4",
      "id" : "7oX7rzli18XsB2WFd88oW4",
      "images" : [ {
        "height" : 640,
        "url" : "https://i.scdn.co/image/ab6761610000e5eb75770cd028210da2ec0ddc1a",
        "width" : 640
      }, {
        "height" : 320,
        "url" : "https://i.scdn.co/image/ab6761610000517475770cd028210da2ec0ddc1a",
        "width" : 320
      }, {
        "height" : 160,
        "url" : "https://i.scdn.co/image/ab6761610000f17875770cd028210da2ec0ddc1a",
        "width" : 160
      } ],
      "name" : "Dj Mad Dog",
      "popularity" : 50,
      "type" : "artist",
      "uri" : "spotify:artist:7oX7rzli18XsB2WFd88oW4"
    }, {
      "external_urls" : {
        "spotify" : "https://open.spotify.com/artist/11bLrAGMCRADXyeRks7OC0"
      },
      "followers" : {
        "href" : null,
        "total" : 82
      },
      "genres" : [ ],
      "href" : "https://api.spotify.com/v1/artists/11bLrAGMCRADXyeRks7OC0",
      "id" : "11bLrAGMCRADXyeRks7OC0",
      "images" : [ {
        "height" : 640,
        "url" : "https://i.scdn.co/image/ab67616d0000b273d38998cdab3b86d4693c27a7",
        "width" : 640
      }, {
        "height" : 300,
        "url" : "https://i.scdn.co/image/ab67616d00001e02d38998cdab3b86d4693c27a7",
        "width" : 300
      }, {
        "height" : 64,
        "url" : "https://i.scdn.co/image/ab67616d00004851d38998cdab3b86d4693c27a7",
        "width" : 64
      } ],
      "name" : "Mad Dog",
      "popularity" : 20,
      "type" : "artist",
      "uri" : "spotify:artist:11bLrAGMCRADXyeRks7OC0"
    }, {
      "external_urls" : {
        "spotify" : "https://open.spotify.com/artist/1mSYpJ1EIm18MC57GLGkg7"
      },
      "followers" : {
        "href" : null,
        "total" : 36
      },
      "genres" : [ ],
      "href" : "https://api.spotify.com/v1/artists/1mSYpJ1EIm18MC57GLGkg7",
      "id" : "1mSYpJ1EIm18MC57GLGkg7",
      "images" : [ {
        "height" : 640,
        "url" : "https://i.scdn.co/image/ab6761610000e5eb528abae4dc2446a110490dca",
        "width" : 640
      }, {
        "height" : 320,
        "url" : "https://i.scdn.co/image/ab67616100005174528abae4dc2446a110490dca",
        "width" : 320
      }, {
        "height" : 160,
        "url" : "https://i.scdn.co/image/ab6761610000f178528abae4dc2446a110490dca",
        "width" : 160
      } ],
      "name" : "Mad Dog Friedman",
      "popularity" : 21,
      "type" : "artist",
      "uri" : "spotify:artist:1mSYpJ1EIm18MC57GLGkg7"
    }, {
      "external_urls" : {
        "spotify" : "https://open.spotify.com/artist/1r8jaR5XdYJIeuqpjHoNDx"
      },
      "followers" : {
        "href" : null,
        "total" : 456
      },
      "genres" : [ ],
      "href" : "https://api.spotify.com/v1/artists/1r8jaR5XdYJIeuqpjHoNDx",
      "id" : "1r8jaR5XdYJIeuqpjHoNDx",
      "images" : [ {
        "height" : 640,
        "url" : "https://i.scdn.co/image/ab6761610000e5eb01ed48f82d99ff94af8f15c4",
        "width" : 640
      }, {
        "height" : 320,
        "url" : "https://i.scdn.co/image/ab6761610000517401ed48f82d99ff94af8f15c4",
        "width" : 320
      }, {
        "height" : 160,
        "url" : "https://i.scdn.co/image/ab6761610000f17801ed48f82d99ff94af8f15c4",
        "width" : 160
      } ],
      "name" : "mad dog",
      "popularity" : 10,
      "type" : "artist",
      "uri" : "spotify:artist:1r8jaR5XdYJIeuqpjHoNDx"
    }, {
      "external_urls" : {
        "spotify" : "https://open.spotify.com/artist/5tq6ZR8deNfSf9m4kBQYj3"
      },
      "followers" : {
        "href" : null,
        "total" : 63
      },
      "genres" : [ ],
      "href" : "https://api.spotify.com/v1/artists/5tq6ZR8deNfSf9m4kBQYj3",
      "id" : "5tq6ZR8deNfSf9m4kBQYj3",
      "images" : [ {
        "height" : 640,
        "url" : "https://i.scdn.co/image/ab6761610000e5ebea8e48f748e17d7c853098dc",
        "width" : 640
      }, {
        "height" : 320,
        "url" : "https://i.scdn.co/image/ab67616100005174ea8e48f748e17d7c853098dc",
        "width" : 320
      }, {
        "height" : 160,
        "url" : "https://i.scdn.co/image/ab6761610000f178ea8e48f748e17d7c853098dc",
        "width" : 160
      } ],
      "name" : "Mad Dog Blues",
      "popularity" : 9,
      "type" : "artist",
      "uri" : "spotify:artist:5tq6ZR8deNfSf9m4kBQYj3"
    }, {
      "external_urls" : {
        "spotify" : "https://open.spotify.com/artist/0EZYfqDudmncpxOTV8TcDU"
      },
      "followers" : {
        "href" : null,
        "total" : 10377
      },
      "genres" : [ "devon indie" ],
      "href" : "https://api.spotify.com/v1/artists/0EZYfqDudmncpxOTV8TcDU",
      "id" : "0EZYfqDudmncpxOTV8TcDU",
      "images" : [ {
        "height" : 640,
        "url" : "https://i.scdn.co/image/ab6761610000e5ebc351951934ec1111ef3c59d9",
        "width" : 640
      }, {
        "height" : 320,
        "url" : "https://i.scdn.co/image/ab67616100005174c351951934ec1111ef3c59d9",
        "width" : 320
      }, {
        "height" : 160,
        "url" : "https://i.scdn.co/image/ab6761610000f178c351951934ec1111ef3c59d9",
        "width" : 160
      } ],
      "name" : "Mad Dog Mcrea",
      "popularity" : 32,
      "type" : "artist",
      "uri" : "spotify:artist:0EZYfqDudmncpxOTV8TcDU"
    }, {
      "external_urls" : {
        "spotify" : "https://open.spotify.com/artist/7gohvq3ztqnuLJfqQhe5op"
      },
      "followers" : {
        "href" : null,
        "total" : 19
      },
      "genres" : [ ],
      "href" : "https://api.spotify.com/v1/artists/7gohvq3ztqnuLJfqQhe5op",
      "id" : "7gohvq3ztqnuLJfqQhe5op",
      "images" : [ ],
      "name" : "Mad Dog's Filthy Little Secret",
      "popularity" : 6,
      "type" : "artist",
      "uri" : "spotify:artist:7gohvq3ztqnuLJfqQhe5op"
    }, {
      "external_urls" : {
        "spotify" : "https://open.spotify.com/artist/4GJI3tAz3TJmpVzKJbfDSX"
      },
      "followers" : {
        "href" : null,
        "total" : 2
      },
      "genres" : [ ],
      "href" : "https://api.spotify.com/v1/artists/4GJI3tAz3TJmpVzKJbfDSX",
      "id" : "4GJI3tAz3TJmpVzKJbfDSX",
      "images" : [ ],
      "name" : "Mad Dog",
      "popularity" : 2,
      "type" : "artist",
      "uri" : "spotify:artist:4GJI3tAz3TJmpVzKJbfDSX"
    }, {
      "external_urls" : {
        "spotify" : "https://open.spotify.com/artist/4y0zhAtkUsoot9IY1U8uvC"
      },
      "followers" : {
        "href" : null,
        "total" : 1
      },
      "genres" : [ ],
      "href" : "https://api.spotify.com/v1/artists/4y0zhAtkUsoot9IY1U8uvC",
      "id" : "4y0zhAtkUsoot9IY1U8uvC",
      "images" : [ {
        "height" : 640,
        "url" : "https://i.scdn.co/image/ab67616d0000b273e5ef828c191a7e9387b27c0b",
        "width" : 640
      }, {
        "height" : 300,
        "url" : "https://i.scdn.co/image/ab67616d00001e02e5ef828c191a7e9387b27c0b",
        "width" : 300
      }, {
        "height" : 64,
        "url" : "https://i.scdn.co/image/ab67616d00004851e5ef828c191a7e9387b27c0b",
        "width" : 64
      } ],
      "name" : "Mad Doggie",
      "popularity" : 2,
      "type" : "artist",
      "uri" : "spotify:artist:4y0zhAtkUsoot9IY1U8uvC"
    }, {
      "external_urls" : {
        "spotify" : "https://open.spotify.com/artist/1uzkHS7XittpyObk3I7E8D"
      },
      "followers" : {
        "href" : null,
        "total" : 9
      },
      "genres" : [ ],
      "href" : "https://api.spotify.com/v1/artists/1uzkHS7XittpyObk3I7E8D",
      "id" : "1uzkHS7XittpyObk3I7E8D",
      "images" : [ {
        "height" : 640,
        "url" : "https://i.scdn.co/image/ab67616d0000b273fe0029edc2b9477cd5cc5935",
        "width" : 640
      }, {
        "height" : 300,
        "url" : "https://i.scdn.co/image/ab67616d00001e02fe0029edc2b9477cd5cc5935",
        "width" : 300
      }, {
        "height" : 64,
        "url" : "https://i.scdn.co/image/ab67616d00004851fe0029edc2b9477cd5cc5935",
        "width" : 64
      } ],
      "name" : "Mad Dog",
      "popularity" : 2,
      "type" : "artist",
      "uri" : "spotify:artist:1uzkHS7XittpyObk3I7E8D"
    }, {
      "external_urls" : {
        "spotify" : "https://open.spotify.com/artist/5kRGPNrvAUJIVNHaHeRSxQ"
      },
      "followers" : {
        "href" : null,
        "total" : 1122
      },
      "genres" : [ "deep psychobilly", "psychobilly" ],
      "href" : "https://api.spotify.com/v1/artists/5kRGPNrvAUJIVNHaHeRSxQ",
      "id" : "5kRGPNrvAUJIVNHaHeRSxQ",
      "images" : [ {
        "height" : 640,
        "url" : "https://i.scdn.co/image/ab67616d0000b273cfeb2ef2ee71fcf5adcfad7c",
        "width" : 640
      }, {
        "height" : 300,
        "url" : "https://i.scdn.co/image/ab67616d00001e02cfeb2ef2ee71fcf5adcfad7c",
        "width" : 300
      }, {
        "height" : 64,
        "url" : "https://i.scdn.co/image/ab67616d00004851cfeb2ef2ee71fcf5adcfad7c",
        "width" : 64
      } ],
      "name" : "Mad Dog Cole",
      "popularity" : 7,
      "type" : "artist",
      "uri" : "spotify:artist:5kRGPNrvAUJIVNHaHeRSxQ"
    }, {
      "external_urls" : {
        "spotify" : "https://open.spotify.com/artist/4vprThuUwSxZg8IZXle0pz"
      },
      "followers" : {
        "href" : null,
        "total" : 34
      },
      "genres" : [ ],
      "href" : "https://api.spotify.com/v1/artists/4vprThuUwSxZg8IZXle0pz",
      "id" : "4vprThuUwSxZg8IZXle0pz",
      "images" : [ ],
      "name" : "The Mad Dog Reflex",
      "popularity" : 9,
      "type" : "artist",
      "uri" : "spotify:artist:4vprThuUwSxZg8IZXle0pz"
    }, {
      "external_urls" : {
        "spotify" : "https://open.spotify.com/artist/1hufAimDz39khPDgeV29ue"
      },
      "followers" : {
        "href" : null,
        "total" : 0
      },
      "genres" : [ ],
      "href" : "https://api.spotify.com/v1/artists/1hufAimDz39khPDgeV29ue",
      "id" : "1hufAimDz39khPDgeV29ue",
      "images" : [ ],
      "name" : "Mad dog made it",
      "popularity" : 0,
      "type" : "artist",
      "uri" : "spotify:artist:1hufAimDz39khPDgeV29ue"
    }, {
      "external_urls" : {
        "spotify" : "https://open.spotify.com/artist/0DP94BvrUSwSiRzkqHa3vg"
      },
      "followers" : {
        "href" : null,
        "total" : 255
      },
      "genres" : [ "lincoln ne indie" ],
      "href" : "https://api.spotify.com/v1/artists/0DP94BvrUSwSiRzkqHa3vg",
      "id" : "0DP94BvrUSwSiRzkqHa3vg",
      "images" : [ {
        "height" : 640,
        "url" : "https://i.scdn.co/image/ab67616d0000b2733cb17506e4fff712996d2588",
        "width" : 640
      }, {
        "height" : 300,
        "url" : "https://i.scdn.co/image/ab67616d00001e023cb17506e4fff712996d2588",
        "width" : 300
      }, {
        "height" : 64,
        "url" : "https://i.scdn.co/image/ab67616d000048513cb17506e4fff712996d2588",
        "width" : 64
      } ],
      "name" : "Mad Dog and the 20/20s",
      "popularity" : 3,
      "type" : "artist",
      "uri" : "spotify:artist:0DP94BvrUSwSiRzkqHa3vg"
    }, {
      "external_urls" : {
        "spotify" : "https://open.spotify.com/artist/6hRHSzL5NgMgXYCuJ5CrX9"
      },
      "followers" : {
        "href" : null,
        "total" : 1
      },
      "genres" : [ ],
      "href" : "https://api.spotify.com/v1/artists/6hRHSzL5NgMgXYCuJ5CrX9",
      "id" : "6hRHSzL5NgMgXYCuJ5CrX9",
      "images" : [ {
        "height" : 640,
        "url" : "https://i.scdn.co/image/ab67616d0000b2737517baa7483aad9be0c88e61",
        "width" : 640
      }, {
        "height" : 300,
        "url" : "https://i.scdn.co/image/ab67616d00001e027517baa7483aad9be0c88e61",
        "width" : 300
      }, {
        "height" : 64,
        "url" : "https://i.scdn.co/image/ab67616d000048517517baa7483aad9be0c88e61",
        "width" : 64
      } ],
      "name" : "Mad Dog",
      "popularity" : 0,
      "type" : "artist",
      "uri" : "spotify:artist:6hRHSzL5NgMgXYCuJ5CrX9"
    }, {
      "external_urls" : {
        "spotify" : "https://open.spotify.com/artist/5ZJ4IvmwBZPX2bOhpQw8n0"
      },
      "followers" : {
        "href" : null,
        "total" : 218
      },
      "genres" : [ "dirty texas rap" ],
      "href" : "https://api.spotify.com/v1/artists/5ZJ4IvmwBZPX2bOhpQw8n0",
      "id" : "5ZJ4IvmwBZPX2bOhpQw8n0",
      "images" : [ ],
      "name" : "Mad Dog Clique",
      "popularity" : 4,
      "type" : "artist",
      "uri" : "spotify:artist:5ZJ4IvmwBZPX2bOhpQw8n0"
    }, {
      "external_urls" : {
        "spotify" : "https://open.spotify.com/artist/7KmtoSXqP3W2jYuWvyxIuK"
      },
      "followers" : {
        "href" : null,
        "total" : 2
      },
      "genres" : [ ],
      "href" : "https://api.spotify.com/v1/artists/7KmtoSXqP3W2jYuWvyxIuK",
      "id" : "7KmtoSXqP3W2jYuWvyxIuK",
      "images" : [ {
        "height" : 640,
        "url" : "https://i.scdn.co/image/ab67616d0000b273a2222485181b7dc4050978d8",
        "width" : 640
      }, {
        "height" : 300,
        "url" : "https://i.scdn.co/image/ab67616d00001e02a2222485181b7dc4050978d8",
        "width" : 300
      }, {
        "height" : 64,
        "url" : "https://i.scdn.co/image/ab67616d00004851a2222485181b7dc4050978d8",
        "width" : 64
      } ],
      "name" : "MaDD DogS",
      "popularity" : 0,
      "type" : "artist",
      "uri" : "spotify:artist:7KmtoSXqP3W2jYuWvyxIuK"
    }, {
      "external_urls" : {
        "spotify" : "https://open.spotify.com/artist/6pd1q2vLV34JJkAmVKS3yP"
      },
      "followers" : {
        "href" : null,
        "total" : 437
      },
      "genres" : [ "bay area hip hop" ],
      "href" : "https://api.spotify.com/v1/artists/6pd1q2vLV34JJkAmVKS3yP",
      "id" : "6pd1q2vLV34JJkAmVKS3yP",
      "images" : [ {
        "height" : 640,
        "url" : "https://i.scdn.co/image/ab6761610000e5ebe82a6b25a76d2c217abe7882",
        "width" : 640
      }, {
        "height" : 320,
        "url" : "https://i.scdn.co/image/ab67616100005174e82a6b25a76d2c217abe7882",
        "width" : 320
      }, {
        "height" : 160,
        "url" : "https://i.scdn.co/image/ab6761610000f178e82a6b25a76d2c217abe7882",
        "width" : 160
      } ],
      "name" : "Mad Dogg",
      "popularity" : 1,
      "type" : "artist",
      "uri" : "spotify:artist:6pd1q2vLV34JJkAmVKS3yP"
    }, {
      "external_urls" : {
        "spotify" : "https://open.spotify.com/artist/5Zstb0KSBVRAHVqb8rffcu"
      },
      "followers" : {
        "href" : null,
        "total" : 0
      },
      "genres" : [ ],
      "href" : "https://api.spotify.com/v1/artists/5Zstb0KSBVRAHVqb8rffcu",
      "id" : "5Zstb0KSBVRAHVqb8rffcu",
      "images" : [ ],
      "name" : "Mad-Dog",
      "popularity" : 0,
      "type" : "artist",
      "uri" : "spotify:artist:5Zstb0KSBVRAHVqb8rffcu"
    } ],
    "limit" : 20,
    "next" : "https://api.spotify.com/v1/search?query=MAD+DOG&type=artist&market=US&offset=20&limit=20",
    "offset" : 0,
    "previous" : null,
    "total" : 145
  }
}