{
  "artists" : {
    "href" : "https://api.spotify.com/v1/search?query=SOREN&type=artist&market=US&offset=0&limit=20",
    "items" : [ {
      "external_urls" : {
        "spotify" : "https://open.spotify.com/artist/2F5B5YgPDinjL9x35lkkke"
      },
      "followers" : {
        "href" : null,
        "total" : 181
      },
      "genres" : [ ],
      "href" : "https://api.spotify.com/v1/artists/2F5B5YgPDinjL9x35lkkke",
      "id" : "2F5B5YgPDinjL9x35lkkke",
      "images" : [ {
        "height" : 640,
        "url" : "https://i.scdn.co/image/ab6761610000e5ebd9f3874d08c2e3eb0a744f38",
        "width" : 640
      }, {
        "height" : 320,
        "url" : "https://i.scdn.co/image/ab67616100005174d9f3874d08c2e3eb0a744f38",
        "width" : 320
      }, {
        "height" : 160,
        "url" : "https://i.scdn.co/image/ab6761610000f178d9f3874d08c2e3eb0a744f38",
        "width" : 160
      } ],
      "name" : "Søren Søstrom",
      "popularity" : 51,
      "type" : "artist",
      "uri" : "spotify:artist:2F5B5YgPDinjL9x35lkkke"
    }, {
      "external_urls" : {
        "spotify" : "https://open.spotify.com/artist/4nmvmUQiWmoz5AsRoxW41b"
      },
      "followers" : {
        "href" : null,
        "total" : 280
      },
      "genres" : [ ],
      "href" : "https://api.spotify.com/v1/artists/4nmvmUQiWmoz5AsRoxW41b",
      "id" : "4nmvmUQiWmoz5AsRoxW41b",
      "images" : [ {
        "height" : 640,
        "url" : "https://i.scdn.co/image/ab67616d0000b273c6bcb8105b8e468aad024a8e",
        "width" : 640
      }, {
        "height" : 300,
        "url" : "https://i.scdn.co/image/ab67616d00001e02c6bcb8105b8e468aad024a8e",
        "width" : 300
      }, {
        "height" : 64,
        "url" : "https://i.scdn.co/image/ab67616d00004851c6bcb8105b8e468aad024a8e",
        "width" : 64
      } ],
      "name" : "Jørg Sorensen",
      "popularity" : 54,
      "type" : "artist",
      "uri" : "spotify:artist:4nmvmUQiWmoz5AsRoxW41b"
    }, {
      "external_urls" : {
        "spotify" : "https://open.spotify.com/artist/5HAvpiAJqMMyW1ZtTkHhkq"
      },
      "followers" : {
        "href" : null,
        "total" : 204
      },
      "genres" : [ ],
      "href" : "https://api.spotify.com/v1/artists/5HAvpiAJqMMyW1ZtTkHhkq",
      "id" : "5HAvpiAJqMMyW1ZtTkHhkq",
      "images" : [ {
        "height" : 640,
        "url" : "https://i.scdn.co/image/ab6761610000e5eb465b718204c444908b496347",
        "width" : 640
      }, {
        "height" : 320,
        "url" : "https://i.scdn.co/image/ab67616100005174465b718204c444908b496347",
        "width" : 320
      }, {
        "height" : 160,
        "url" : "https://i.scdn.co/image/ab6761610000f178465b718204c444908b496347",
        "width" : 160
      } ],
      "name" : "SOREN",
      "popularity" : 13,
      "type" : "artist",
      "uri" : "spotify:artist:5HAvpiAJqMMyW1ZtTkHhkq"
    }, {
      "external_urls" : {
        "spotify" : "https://open.spotify.com/artist/54h5UZPx5rj7dEDGaofoaj"
      },
      "followers" : {
        "href" : null,
        "total" : 575
      },
      "genres" : [ ],
      "href" : "https://api.spotify.com/v1/artists/54h5UZPx5rj7dEDGaofoaj",
      "id" : "54h5UZPx5rj7dEDGaofoaj",
      "images" : [ {
        "height" : 640,
        "url" : "https://i.scdn.co/image/ab67616d0000b2735a2ce3879025bb153f29a208",
        "width" : 640
      }, {
        "height" : 300,
        "url" : "https://i.scdn.co/image/ab67616d00001e025a2ce3879025bb153f29a208",
        "width" : 300
      }, {
        "height" : 64,
        "url" : "https://i.scdn.co/image/ab67616d000048515a2ce3879025bb153f29a208",
        "width" : 64
      } ],
      "name" : "Søren Jeremiassen",
      "popularity" : 47,
      "type" : "artist",
      "uri" : "spotify:artist:54h5UZPx5rj7dEDGaofoaj"
    }, {
      "external_urls" : {
        "spotify" : "https://open.spotify.com/artist/0iojZ8SUQSv6zl4hv3nLe0"
      },
      "followers" : {
        "href" : null,
        "total" : 9
      },
      "genres" : [ ],
      "href" : "https://api.spotify.com/v1/artists/0iojZ8SUQSv6zl4hv3nLe0",
      "id" : "0iojZ8SUQSv6zl4hv3nLe0",
      "images" : [ {
        "height" : 640,
        "url" : "https://i.scdn.co/image/ab67616d0000b273b46d88413b07c7174f2d09ae",
        "width" : 640
      }, {
        "height" : 300,
        "url" : "https://i.scdn.co/image/ab67616d00001e02b46d88413b07c7174f2d09ae",
        "width" : 300
      }, {
        "height" : 64,
        "url" : "https://i.scdn.co/image/ab67616d00004851b46d88413b07c7174f2d09ae",
        "width" : 64
      } ],
      "name" : "SÖREN",
      "popularity" : 0,
      "type" : "artist",
      "uri" : "spotify:artist:0iojZ8SUQSv6zl4hv3nLe0"
    }, {
      "external_urls" : {
        "spotify" : "https://open.spotify.com/artist/3EPBoq3UlOpWoABQpdDSCB"
      },
      "followers" : {
        "href" : null,
        "total" : 4553
      },
      "genres" : [ "indie poptimism" ],
      "href" : "https://api.spotify.com/v1/artists/3EPBoq3UlOpWoABQpdDSCB",
      "id" : "3EPBoq3UlOpWoABQpdDSCB",
      "images" : [ {
        "height" : 640,
        "url" : "https://i.scdn.co/image/ab6761610000e5ebeec8fc75bb431e04843eea5d",
        "width" : 640
      }, {
        "height" : 320,
        "url" : "https://i.scdn.co/image/ab67616100005174eec8fc75bb431e04843eea5d",
        "width" : 320
      }, {
        "height" : 160,
        "url" : "https://i.scdn.co/image/ab6761610000f178eec8fc75bb431e04843eea5d",
        "width" : 160
      } ],
      "name" : "Soren Bryce",
      "popularity" : 43,
      "type" : "artist",
      "uri" : "spotify:artist:3EPBoq3UlOpWoABQpdDSCB"
    }, {
      "external_urls" : {
        "spotify" : "https://open.spotify.com/artist/7waR4b5Jd0R39qLTFhOJWh"
      },
      "followers" : {
        "href" : null,
        "total" : 6346
      },
      "genres" : [ "ballet class" ],
      "href" : "https://api.spotify.com/v1/artists/7waR4b5Jd0R39qLTFhOJWh",
      "id" : "7waR4b5Jd0R39qLTFhOJWh",
      "images" : [ {
        "height" : 640,
        "url" : "https://i.scdn.co/image/ab6761610000e5ebdca7c611bf1cc4dbf4879742",
        "width" : 640
      }, {
        "height" : 320,
        "url" : "https://i.scdn.co/image/ab67616100005174dca7c611bf1cc4dbf4879742",
        "width" : 320
      }, {
        "height" : 160,
        "url" : "https://i.scdn.co/image/ab6761610000f178dca7c611bf1cc4dbf4879742",
        "width" : 160
      } ],
      "name" : "Søren Bebe",
      "popularity" : 45,
      "type" : "artist",
      "uri" : "spotify:artist:7waR4b5Jd0R39qLTFhOJWh"
    }, {
      "external_urls" : {
        "spotify" : "https://open.spotify.com/artist/2EZtpQoE2woRpkaRhzmpj6"
      },
      "followers" : {
        "href" : null,
        "total" : 10074
      },
      "genres" : [ "classical guitar" ],
      "href" : "https://api.spotify.com/v1/artists/2EZtpQoE2woRpkaRhzmpj6",
      "id" : "2EZtpQoE2woRpkaRhzmpj6",
      "images" : [ {
        "height" : 640,
        "url" : "https://i.scdn.co/image/ab6761610000e5eb2bf83c8dcb71cbbc711c1d89",
        "width" : 640
      }, {
        "height" : 320,
        "url" : "https://i.scdn.co/image/ab676161000051742bf83c8dcb71cbbc711c1d89",
        "width" : 320
      }, {
        "height" : 160,
        "url" : "https://i.scdn.co/image/ab6761610000f1782bf83c8dcb71cbbc711c1d89",
        "width" : 160
      } ],
      "name" : "Søren Bødker Madsen",
      "popularity" : 36,
      "type" : "artist",
      "uri" : "spotify:artist:2EZtpQoE2woRpkaRhzmpj6"
    }, {
      "external_urls" : {
        "spotify" : "https://open.spotify.com/artist/2WEnEhykuEchFvocXqNLJm"
      },
      "followers" : {
        "href" : null,
        "total" : 58
      },
      "genres" : [ ],
      "href" : "https://api.spotify.com/v1/artists/2WEnEhykuEchFvocXqNLJm",
      "id" : "2WEnEhykuEchFvocXqNLJm",
      "images" : [ {
        "height" : 640,
        "url" : "https://i.scdn.co/image/ab6761610000e5ebbc5e3df513c165ee3fad28ec",
        "width" : 640
      }, {
        "height" : 320,
        "url" : "https://i.scdn.co/image/ab67616100005174bc5e3df513c165ee3fad28ec",
        "width" : 320
      }, {
        "height" : 160,
        "url" : "https://i.scdn.co/image/ab6761610000f178bc5e3df513c165ee3fad28ec",
        "width" : 160
      } ],
      "name" : "Scott Sorenson",
      "popularity" : 44,
      "type" : "artist",
      "uri" : "spotify:artist:2WEnEhykuEchFvocXqNLJm"
    }, {
      "external_urls" : {
        "spotify" : "https://open.spotify.com/artist/32sqNe2WFtog9WufAVd8EI"
      },
      "followers" : {
        "href" : null,
        "total" : 3331
      },
      "genres" : [ "danish jazz", "jazz trio", "swedish jazz" ],
      "href" : "https://api.spotify.com/v1/artists/32sqNe2WFtog9WufAVd8EI",
      "id" : "32sqNe2WFtog9WufAVd8EI",
      "images" : [ {
        "height" : 640,
        "url" : "https://i.scdn.co/image/ab6761610000e5ebafd807eaeb39982ba56541e7",
        "width" : 640
      }, {
        "height" : 320,
        "url" : "https://i.scdn.co/image/ab67616100005174afd807eaeb39982ba56541e7",
        "width" : 320
      }, {
        "height" : 160,
        "url" : "https://i.scdn.co/image/ab6761610000f178afd807eaeb39982ba56541e7",
        "width" : 160
      } ],
      "name" : "Søren Bebe Trio",
      "popularity" : 32,
      "type" : "artist",
      "uri" : "spotify:artist:32sqNe2WFtog9WufAVd8EI"
    }, {
      "external_urls" : {
        "spotify" : "https://open.spotify.com/artist/1gNqCEatbX4cKskpTzyAsI"
      },
      "followers" : {
        "href" : null,
        "total" : 98140
      },
      "genres" : [ "persian hip hop" ],
      "href" : "https://api.spotify.com/v1/artists/1gNqCEatbX4cKskpTzyAsI",
      "id" : "1gNqCEatbX4cKskpTzyAsI",
      "images" : [ {
        "height" : 640,
        "url" : "https://i.scdn.co/image/ab6761610000e5ebc59978503fcd616506614ff6",
        "width" : 640
      }, {
        "height" : 320,
        "url" : "https://i.scdn.co/image/ab67616100005174c59978503fcd616506614ff6",
        "width" : 320
      }, {
        "height" : 160,
        "url" : "https://i.scdn.co/image/ab6761610000f178c59978503fcd616506614ff6",
        "width" : 160
      } ],
      "name" : "Ali Sorena",
      "popularity" : 42,
      "type" : "artist",
      "uri" : "spotify:artist:1gNqCEatbX4cKskpTzyAsI"
    }, {
      "external_urls" : {
        "spotify" : "https://open.spotify.com/artist/1bHfoau7ud3dvN33mMtzuj"
      },
      "followers" : {
        "href" : null,
        "total" : 61
      },
      "genres" : [ ],
      "href" : "https://api.spotify.com/v1/artists/1bHfoau7ud3dvN33mMtzuj",
      "id" : "1bHfoau7ud3dvN33mMtzuj",
      "images" : [ {
        "height" : 640,
        "url" : "https://i.scdn.co/image/ab67616d0000b2730edecef41bf6f69cedf48acc",
        "width" : 640
      }, {
        "height" : 300,
        "url" : "https://i.scdn.co/image/ab67616d00001e020edecef41bf6f69cedf48acc",
        "width" : 300
      }, {
        "height" : 64,
        "url" : "https://i.scdn.co/image/ab67616d000048510edecef41bf6f69cedf48acc",
        "width" : 64
      } ],
      "name" : "Søren Tarding",
      "popularity" : 31,
      "type" : "artist",
      "uri" : "spotify:artist:1bHfoau7ud3dvN33mMtzuj"
    }, {
      "external_urls" : {
        "spotify" : "https://open.spotify.com/artist/3At4Mlu41eYFIYJRWGlHLH"
      },
      "followers" : {
        "href" : null,
        "total" : 5
      },
      "genres" : [ ],
      "href" : "https://api.spotify.com/v1/artists/3At4Mlu41eYFIYJRWGlHLH",
      "id" : "3At4Mlu41eYFIYJRWGlHLH",
      "images" : [ {
        "height" : 640,
        "url" : "https://i.scdn.co/image/ab67616d0000b2737d04109ec7cd38f86e3fa946",
        "width" : 640
      }, {
        "height" : 300,
        "url" : "https://i.scdn.co/image/ab67616d00001e027d04109ec7cd38f86e3fa946",
        "width" : 300
      }, {
        "height" : 64,
        "url" : "https://i.scdn.co/image/ab67616d000048517d04109ec7cd38f86e3fa946",
        "width" : 64
      } ],
      "name" : "Soren Holmes",
      "popularity" : 22,
      "type" : "artist",
      "uri" : "spotify:artist:3At4Mlu41eYFIYJRWGlHLH"
    }, {
      "external_urls" : {
        "spotify" : "https://open.spotify.com/artist/2bBwgipozoGyWbyz3ugk9V"
      },
      "followers" : {
        "href" : null,
        "total" : 5912
      },
      "genres" : [ "otacore" ],
      "href" : "https://api.spotify.com/v1/artists/2bBwgipozoGyWbyz3ugk9V",
      "id" : "2bBwgipozoGyWbyz3ugk9V",
      "images" : [ {
        "height" : 640,
        "url" : "https://i.scdn.co/image/ab6761610000e5eb2927ae1f04f57974943898a3",
        "width" : 640
      }, {
        "height" : 320,
        "url" : "https://i.scdn.co/image/ab676161000051742927ae1f04f57974943898a3",
        "width" : 320
      }, {
        "height" : 160,
        "url" : "https://i.scdn.co/image/ab6761610000f1782927ae1f04f57974943898a3",
        "width" : 160
      } ],
      "name" : "Lars Sorensen",
      "popularity" : 44,
      "type" : "artist",
      "uri" : "spotify:artist:2bBwgipozoGyWbyz3ugk9V"
    }, {
      "external_urls" : {
        "spotify" : "https://open.spotify.com/artist/4OZUZ4yeIl8vnkVoHpE28v"
      },
      "followers" : {
        "href" : null,
        "total" : 13044
      },
      "genres" : [ ],
      "href" : "https://api.spotify.com/v1/artists/4OZUZ4yeIl8vnkVoHpE28v",
      "id" : "4OZUZ4yeIl8vnkVoHpE28v",
      "images" : [ {
        "height" : 640,
        "url" : "https://i.scdn.co/image/ab6761610000e5eba0ce46874fb1a0bef15f8bcc",
        "width" : 640
      }, {
        "height" : 320,
        "url" : "https://i.scdn.co/image/ab67616100005174a0ce46874fb1a0bef15f8bcc",
        "width" : 320
      }, {
        "height" : 160,
        "url" : "https://i.scdn.co/image/ab6761610000f178a0ce46874fb1a0bef15f8bcc",
        "width" : 160
      } ],
      "name" : "Bethany Sorenson",
      "popularity" : 33,
      "type" : "artist",
      "uri" : "spotify:artist:4OZUZ4yeIl8vnkVoHpE28v"
    }, {
      "external_urls" : {
        "spotify" : "https://open.spotify.com/artist/6MYMJYT47jkswGILYReQdJ"
      },
      "followers" : {
        "href" : null,
        "total" : 62
      },
      "genres" : [ ],
      "href" : "https://api.spotify.com/v1/artists/6MYMJYT47jkswGILYReQdJ",
      "id" : "6MYMJYT47jkswGILYReQdJ",
      "images" : [ {
        "height" : 640,
        "url" : "https://i.scdn.co/image/ab6761610000e5eb3d769af6458a20e0b921cc61",
        "width" : 640
      }, {
        "height" : 320,
        "url" : "https://i.scdn.co/image/ab676161000051743d769af6458a20e0b921cc61",
        "width" : 320
      }, {
        "height" : 160,
        "url" : "https://i.scdn.co/image/ab6761610000f1783d769af6458a20e0b921cc61",
        "width" : 160
      } ],
      "name" : "Soren",
      "popularity" : 20,
      "type" : "artist",
      "uri" : "spotify:artist:6MYMJYT47jkswGILYReQdJ"
    }, {
      "external_urls" : {
        "spotify" : "https://open.spotify.com/artist/1pHmvfaQOkeNiOAAQFN2fb"
      },
      "followers" : {
        "href" : null,
        "total" : 31
      },
      "genres" : [ ],
      "href" : "https://api.spotify.com/v1/artists/1pHmvfaQOkeNiOAAQFN2fb",
      "id" : "1pHmvfaQOkeNiOAAQFN2fb",
      "images" : [ {
        "height" : 640,
        "url" : "https://i.scdn.co/image/ab6761610000e5eb3107c931be7f5d935562e6e9",
        "width" : 640
      }, {
        "height" : 320,
        "url" : "https://i.scdn.co/image/ab676161000051743107c931be7f5d935562e6e9",
        "width" : 320
      }, {
        "height" : 160,
        "url" : "https://i.scdn.co/image/ab6761610000f1783107c931be7f5d935562e6e9",
        "width" : 160
      } ],
      "name" : "Jacob Sorenson",
      "popularity" : 31,
      "type" : "artist",
      "uri" : "spotify:artist:1pHmvfaQOkeNiOAAQFN2fb"
    }, {
      "external_urls" : {
        "spotify" : "https://open.spotify.com/artist/1hd6KAPESP6KkjilB1RxFZ"
      },
      "followers" : {
        "href" : null,
        "total" : 13
      },
      "genres" : [ ],
      "href" : "https://api.spotify.com/v1/artists/1hd6KAPESP6KkjilB1RxFZ",
      "id" : "1hd6KAPESP6KkjilB1RxFZ",
      "images" : [ {
        "height" : 640,
        "url" : "https://i.scdn.co/image/ab6761610000e5ebb1352029c8bd7f04986616de",
        "width" : 640
      }, {
        "height" : 320,
        "url" : "https://i.scdn.co/image/ab67616100005174b1352029c8bd7f04986616de",
        "width" : 320
      }, {
        "height" : 160,
        "url" : "https://i.scdn.co/image/ab6761610000f178b1352029c8bd7f04986616de",
        "width" : 160
      } ],
      "name" : "Soren Gray",
      "popularity" : 20,
      "type" : "artist",
      "uri" : "spotify:artist:1hd6KAPESP6KkjilB1RxFZ"
    }, {
      "external_urls" : {
        "spotify" : "https://open.spotify.com/artist/3UtnHWhOJ3UXTyuWmdFqUN"
      },
      "followers" : {
        "href" : null,
        "total" : 369
      },
      "genres" : [ ],
      "href" : "https://api.spotify.com/v1/artists/3UtnHWhOJ3UXTyuWmdFqUN",
      "id" : "3UtnHWhOJ3UXTyuWmdFqUN",
      "images" : [ {
        "height" : 640,
        "url" : "https://i.scdn.co/image/ab6761610000e5eba11786271e1e9859e7570caa",
        "width" : 640
      }, {
        "height" : 320,
        "url" : "https://i.scdn.co/image/ab67616100005174a11786271e1e9859e7570caa",
        "width" : 320
      }, {
        "height" : 160,
        "url" : "https://i.scdn.co/image/ab6761610000f178a11786271e1e9859e7570caa",
        "width" : 160
      } ],
      "name" : "Sorenza Nuryanti",
      "popularity" : 20,
      "type" : "artist",
      "uri" : "spotify:artist:3UtnHWhOJ3UXTyuWmdFqUN"
    }, {
      "external_urls" : {
        "spotify" : "https://open.spotify.com/artist/14U00lrwrlwVofSYM3KaUz"
      },
      "followers" : {
        "href" : null,
        "total" : 271
      },
      "genres" : [ "lds youth" ],
      "href" : "https://api.spotify.com/v1/artists/14U00lrwrlwVofSYM3KaUz",
      "id" : "14U00lrwrlwVofSYM3KaUz",
      "images" : [ ],
      "name" : "Kainoa Sorensen",
      "popularity" : 29,
      "type" : "artist",
      "uri" : "spotify:artist:14U00lrwrlwVofSYM3KaUz"
    } ],
    "limit" : 20,
    "next" : "https://api.spotify.com/v1/search?query=SOREN&type=artist&market=US&offset=20&limit=20",
    "offset" : 0,
    "previous" : null,
    "total" : 973
  }
}