{
  "artists" : {
    "href" : "https://api.spotify.com/v1/search?query=TNT&type=artist&market=US&offset=0&limit=20",
    "items" : [ {
      "external_urls" : {
        "spotify" : "https://open.spotify.com/artist/1CqOLQmjzVWXQTiIN5Wucs"
      },
      "followers" : {
        "href" : null,
        "total" : 27112
      },
      "genres" : [ "euphoric hardstyle" ],
      "href" : "https://api.spotify.com/v1/artists/1CqOLQmjzVWXQTiIN5Wucs",
      "id" : "1CqOLQmjzVWXQTiIN5Wucs",
      "images" : [ {
        "height" : 640,
        "url" : "https://i.scdn.co/image/ab6761610000e5eb280882afc9b45609f7b1a403",
        "width" : 640
      }, {
        "height" : 320,
        "url" : "https://i.scdn.co/image/ab67616100005174280882afc9b45609f7b1a403",
        "width" : 320
      }, {
        "height" : 160,
        "url" : "https://i.scdn.co/image/ab6761610000f178280882afc9b45609f7b1a403",
        "width" : 160
      } ],
      "name" : "TNT",
      "popularity" : 55,
      "type" : "artist",
      "uri" : "spotify:artist:1CqOLQmjzVWXQTiIN5Wucs"
    }, {
      "external_urls" : {
        "spotify" : "https://open.spotify.com/artist/363VbwpX9anvrThJ2qDwBy"
      },
      "followers" : {
        "href" : null,
        "total" : 24756
      },
      "genres" : [ "glam metal", "hard rock" ],
      "href" : "https://api.spotify.com/v1/artists/363VbwpX9anvrThJ2qDwBy",
      "id" : "363VbwpX9anvrThJ2qDwBy",
      "images" : [ {
        "height" : 1000,
        "url" : "https://i.scdn.co/image/89b75fb8deca0b6606409e19757cf86422c8c993",
        "width" : 1000
      }, {
        "height" : 640,
        "url" : "https://i.scdn.co/image/cff4414fd72f6ab9178b92c45046825d0899483a",
        "width" : 640
      }, {
        "height" : 200,
        "url" : "https://i.scdn.co/image/b7efd5452c2dba312ce2d9f73dae61ece1732891",
        "width" : 200
      }, {
        "height" : 64,
        "url" : "https://i.scdn.co/image/22153993c84e7d339c9fb577ff2c5e58a25fe8f9",
        "width" : 64
      } ],
      "name" : "TNT",
      "popularity" : 38,
      "type" : "artist",
      "uri" : "spotify:artist:363VbwpX9anvrThJ2qDwBy"
    }, {
      "external_urls" : {
        "spotify" : "https://open.spotify.com/artist/25rFpVof2UHKHeSjpXX3vH"
      },
      "followers" : {
        "href" : null,
        "total" : 7662
      },
      "genres" : [ ],
      "href" : "https://api.spotify.com/v1/artists/25rFpVof2UHKHeSjpXX3vH",
      "id" : "25rFpVof2UHKHeSjpXX3vH",
      "images" : [ {
        "height" : 640,
        "url" : "https://i.scdn.co/image/ab6761610000e5ebf3e445bd1dcb2d28d3c6165a",
        "width" : 640
      }, {
        "height" : 320,
        "url" : "https://i.scdn.co/image/ab67616100005174f3e445bd1dcb2d28d3c6165a",
        "width" : 320
      }, {
        "height" : 160,
        "url" : "https://i.scdn.co/image/ab6761610000f178f3e445bd1dcb2d28d3c6165a",
        "width" : 160
      } ],
      "name" : "TNT Tez",
      "popularity" : 30,
      "type" : "artist",
      "uri" : "spotify:artist:25rFpVof2UHKHeSjpXX3vH"
    }, {
      "external_urls" : {
        "spotify" : "https://open.spotify.com/artist/6I36DXLxkJxYeq82tDH4zz"
      },
      "followers" : {
        "href" : null,
        "total" : 45582
      },
      "genres" : [ "chinese idol pop" ],
      "href" : "https://api.spotify.com/v1/artists/6I36DXLxkJxYeq82tDH4zz",
      "id" : "6I36DXLxkJxYeq82tDH4zz",
      "images" : [ {
        "height" : 640,
        "url" : "https://i.scdn.co/image/ab67616d0000b2731a3b9142291144fee07f775d",
        "width" : 640
      }, {
        "height" : 300,
        "url" : "https://i.scdn.co/image/ab67616d00001e021a3b9142291144fee07f775d",
        "width" : 300
      }, {
        "height" : 64,
        "url" : "https://i.scdn.co/image/ab67616d000048511a3b9142291144fee07f775d",
        "width" : 64
      } ],
      "name" : "時代少年團",
      "popularity" : 47,
      "type" : "artist",
      "uri" : "spotify:artist:6I36DXLxkJxYeq82tDH4zz"
    }, {
      "external_urls" : {
        "spotify" : "https://open.spotify.com/artist/5ZlTahBDaSfwpXRDqUHXOG"
      },
      "followers" : {
        "href" : null,
        "total" : 611
      },
      "genres" : [ "hmong pop" ],
      "href" : "https://api.spotify.com/v1/artists/5ZlTahBDaSfwpXRDqUHXOG",
      "id" : "5ZlTahBDaSfwpXRDqUHXOG",
      "images" : [ {
        "height" : 640,
        "url" : "https://i.scdn.co/image/ab67616d0000b27357382c4f02352e34d93c3de4",
        "width" : 640
      }, {
        "height" : 300,
        "url" : "https://i.scdn.co/image/ab67616d00001e0257382c4f02352e34d93c3de4",
        "width" : 300
      }, {
        "height" : 64,
        "url" : "https://i.scdn.co/image/ab67616d0000485157382c4f02352e34d93c3de4",
        "width" : 64
      } ],
      "name" : "Tn't",
      "popularity" : 17,
      "type" : "artist",
      "uri" : "spotify:artist:5ZlTahBDaSfwpXRDqUHXOG"
    }, {
      "external_urls" : {
        "spotify" : "https://open.spotify.com/artist/08JgwNI4e9gEhbb5dZotBj"
      },
      "followers" : {
        "href" : null,
        "total" : 10032
      },
      "genres" : [ "pinoy idol pop" ],
      "href" : "https://api.spotify.com/v1/artists/08JgwNI4e9gEhbb5dZotBj",
      "id" : "08JgwNI4e9gEhbb5dZotBj",
      "images" : [ {
        "height" : 640,
        "url" : "https://i.scdn.co/image/ab6761610000e5eb73724527eb851a2368128240",
        "width" : 640
      }, {
        "height" : 320,
        "url" : "https://i.scdn.co/image/ab6761610000517473724527eb851a2368128240",
        "width" : 320
      }, {
        "height" : 160,
        "url" : "https://i.scdn.co/image/ab6761610000f17873724527eb851a2368128240",
        "width" : 160
      } ],
      "name" : "TNT Boys",
      "popularity" : 31,
      "type" : "artist",
      "uri" : "spotify:artist:08JgwNI4e9gEhbb5dZotBj"
    }, {
      "external_urls" : {
        "spotify" : "https://open.spotify.com/artist/60Pyz9AxmJ36x1iM4zl4Yo"
      },
      "followers" : {
        "href" : null,
        "total" : 29
      },
      "genres" : [ ],
      "href" : "https://api.spotify.com/v1/artists/60Pyz9AxmJ36x1iM4zl4Yo",
      "id" : "60Pyz9AxmJ36x1iM4zl4Yo",
      "images" : [ {
        "height" : 640,
        "url" : "https://i.scdn.co/image/ab67616d0000b27379a465617074bbb3545e0aab",
        "width" : 640
      }, {
        "height" : 300,
        "url" : "https://i.scdn.co/image/ab67616d00001e0279a465617074bbb3545e0aab",
        "width" : 300
      }, {
        "height" : 64,
        "url" : "https://i.scdn.co/image/ab67616d0000485179a465617074bbb3545e0aab",
        "width" : 64
      } ],
      "name" : "Tntdabomb",
      "popularity" : 19,
      "type" : "artist",
      "uri" : "spotify:artist:60Pyz9AxmJ36x1iM4zl4Yo"
    }, {
      "external_urls" : {
        "spotify" : "https://open.spotify.com/artist/5DDuwU1X2Aqdp3CxfXstRe"
      },
      "followers" : {
        "href" : null,
        "total" : 658
      },
      "genres" : [ "lo-fi indie" ],
      "href" : "https://api.spotify.com/v1/artists/5DDuwU1X2Aqdp3CxfXstRe",
      "id" : "5DDuwU1X2Aqdp3CxfXstRe",
      "images" : [ {
        "height" : 640,
        "url" : "https://i.scdn.co/image/ab6761610000e5eb27fc743f5db547c5db13d9ac",
        "width" : 640
      }, {
        "height" : 320,
        "url" : "https://i.scdn.co/image/ab6761610000517427fc743f5db547c5db13d9ac",
        "width" : 320
      }, {
        "height" : 160,
        "url" : "https://i.scdn.co/image/ab6761610000f17827fc743f5db547c5db13d9ac",
        "width" : 160
      } ],
      "name" : "Hotline TNT",
      "popularity" : 26,
      "type" : "artist",
      "uri" : "spotify:artist:5DDuwU1X2Aqdp3CxfXstRe"
    }, {
      "external_urls" : {
        "spotify" : "https://open.spotify.com/artist/2vrHQpgjWU0lh1EVfoZ2Bm"
      },
      "followers" : {
        "href" : null,
        "total" : 3705
      },
      "genres" : [ ],
      "href" : "https://api.spotify.com/v1/artists/2vrHQpgjWU0lh1EVfoZ2Bm",
      "id" : "2vrHQpgjWU0lh1EVfoZ2Bm",
      "images" : [ {
        "height" : 640,
        "url" : "https://i.scdn.co/image/ab6761610000e5eb9a2791f3419f72c26639b8e2",
        "width" : 640
      }, {
        "height" : 320,
        "url" : "https://i.scdn.co/image/ab676161000051749a2791f3419f72c26639b8e2",
        "width" : 320
      }, {
        "height" : 160,
        "url" : "https://i.scdn.co/image/ab6761610000f1789a2791f3419f72c26639b8e2",
        "width" : 160
      } ],
      "name" : "TNT 313",
      "popularity" : 19,
      "type" : "artist",
      "uri" : "spotify:artist:2vrHQpgjWU0lh1EVfoZ2Bm"
    }, {
      "external_urls" : {
        "spotify" : "https://open.spotify.com/artist/5fl0o2vzDHaGrmaPFNA82W"
      },
      "followers" : {
        "href" : null,
        "total" : 40
      },
      "genres" : [ ],
      "href" : "https://api.spotify.com/v1/artists/5fl0o2vzDHaGrmaPFNA82W",
      "id" : "5fl0o2vzDHaGrmaPFNA82W",
      "images" : [ {
        "height" : 640,
        "url" : "https://i.scdn.co/image/ab67616d0000b273c92a29ee86198fbb62096166",
        "width" : 640
      }, {
        "height" : 300,
        "url" : "https://i.scdn.co/image/ab67616d00001e02c92a29ee86198fbb62096166",
        "width" : 300
      }, {
        "height" : 64,
        "url" : "https://i.scdn.co/image/ab67616d00004851c92a29ee86198fbb62096166",
        "width" : 64
      } ],
      "name" : "ROCK TNT",
      "popularity" : 22,
      "type" : "artist",
      "uri" : "spotify:artist:5fl0o2vzDHaGrmaPFNA82W"
    }, {
      "external_urls" : {
        "spotify" : "https://open.spotify.com/artist/707k62nFnrWfAmYF9qFcI6"
      },
      "followers" : {
        "href" : null,
        "total" : 1568
      },
      "genres" : [ ],
      "href" : "https://api.spotify.com/v1/artists/707k62nFnrWfAmYF9qFcI6",
      "id" : "707k62nFnrWfAmYF9qFcI6",
      "images" : [ {
        "height" : 640,
        "url" : "https://i.scdn.co/image/ab6761610000e5eb422dfcc0d7c4804517b3db5e",
        "width" : 640
      }, {
        "height" : 320,
        "url" : "https://i.scdn.co/image/ab67616100005174422dfcc0d7c4804517b3db5e",
        "width" : 320
      }, {
        "height" : 160,
        "url" : "https://i.scdn.co/image/ab6761610000f178422dfcc0d7c4804517b3db5e",
        "width" : 160
      } ],
      "name" : "TNT Family",
      "popularity" : 24,
      "type" : "artist",
      "uri" : "spotify:artist:707k62nFnrWfAmYF9qFcI6"
    }, {
      "external_urls" : {
        "spotify" : "https://open.spotify.com/artist/4ljGaqO3BLQFsZKlV63RLF"
      },
      "followers" : {
        "href" : null,
        "total" : 3271
      },
      "genres" : [ ],
      "href" : "https://api.spotify.com/v1/artists/4ljGaqO3BLQFsZKlV63RLF",
      "id" : "4ljGaqO3BLQFsZKlV63RLF",
      "images" : [ {
        "height" : 640,
        "url" : "https://i.scdn.co/image/ab67616d0000b27304b43e1ee351954597bb9d82",
        "width" : 640
      }, {
        "height" : 300,
        "url" : "https://i.scdn.co/image/ab67616d00001e0204b43e1ee351954597bb9d82",
        "width" : 300
      }, {
        "height" : 64,
        "url" : "https://i.scdn.co/image/ab67616d0000485104b43e1ee351954597bb9d82",
        "width" : 64
      } ],
      "name" : "TNT Band",
      "popularity" : 31,
      "type" : "artist",
      "uri" : "spotify:artist:4ljGaqO3BLQFsZKlV63RLF"
    }, {
      "external_urls" : {
        "spotify" : "https://open.spotify.com/artist/1Lh63kBVAUK7R7AZfHyhhW"
      },
      "followers" : {
        "href" : null,
        "total" : 27
      },
      "genres" : [ ],
      "href" : "https://api.spotify.com/v1/artists/1Lh63kBVAUK7R7AZfHyhhW",
      "id" : "1Lh63kBVAUK7R7AZfHyhhW",
      "images" : [ {
        "height" : 640,
        "url" : "https://i.scdn.co/image/ab67616d0000b273cb5722b2ec9d672d4baa03d3",
        "width" : 640
      }, {
        "height" : 300,
        "url" : "https://i.scdn.co/image/ab67616d00001e02cb5722b2ec9d672d4baa03d3",
        "width" : 300
      }, {
        "height" : 64,
        "url" : "https://i.scdn.co/image/ab67616d00004851cb5722b2ec9d672d4baa03d3",
        "width" : 64
      } ],
      "name" : "T.N.Tink",
      "popularity" : 22,
      "type" : "artist",
      "uri" : "spotify:artist:1Lh63kBVAUK7R7AZfHyhhW"
    }, {
      "external_urls" : {
        "spotify" : "https://open.spotify.com/artist/4ZktJgNfPItKIS2yRgOqm5"
      },
      "followers" : {
        "href" : null,
        "total" : 1977
      },
      "genres" : [ ],
      "href" : "https://api.spotify.com/v1/artists/4ZktJgNfPItKIS2yRgOqm5",
      "id" : "4ZktJgNfPItKIS2yRgOqm5",
      "images" : [ {
        "height" : 640,
        "url" : "https://i.scdn.co/image/ab67616d0000b2738fdc161301deb6a71354f443",
        "width" : 640
      }, {
        "height" : 300,
        "url" : "https://i.scdn.co/image/ab67616d00001e028fdc161301deb6a71354f443",
        "width" : 300
      }, {
        "height" : 64,
        "url" : "https://i.scdn.co/image/ab67616d000048518fdc161301deb6a71354f443",
        "width" : 64
      } ],
      "name" : "TNT",
      "popularity" : 29,
      "type" : "artist",
      "uri" : "spotify:artist:4ZktJgNfPItKIS2yRgOqm5"
    }, {
      "external_urls" : {
        "spotify" : "https://open.spotify.com/artist/6HksFPf744jPiVJ1sxiHdB"
      },
      "followers" : {
        "href" : null,
        "total" : 28517
      },
      "genres" : [ "rock gaucho" ],
      "href" : "https://api.spotify.com/v1/artists/6HksFPf744jPiVJ1sxiHdB",
      "id" : "6HksFPf744jPiVJ1sxiHdB",
      "images" : [ {
        "height" : 640,
        "url" : "https://i.scdn.co/image/ab67616d0000b273e37f57c3c8553dfbd657e806",
        "width" : 640
      }, {
        "height" : 300,
        "url" : "https://i.scdn.co/image/ab67616d00001e02e37f57c3c8553dfbd657e806",
        "width" : 300
      }, {
        "height" : 64,
        "url" : "https://i.scdn.co/image/ab67616d00004851e37f57c3c8553dfbd657e806",
        "width" : 64
      } ],
      "name" : "TNT",
      "popularity" : 41,
      "type" : "artist",
      "uri" : "spotify:artist:6HksFPf744jPiVJ1sxiHdB"
    }, {
      "external_urls" : {
        "spotify" : "https://open.spotify.com/artist/5Iz4CLdpV7OMVGfAg6Xrft"
      },
      "followers" : {
        "href" : null,
        "total" : 1
      },
      "genres" : [ ],
      "href" : "https://api.spotify.com/v1/artists/5Iz4CLdpV7OMVGfAg6Xrft",
      "id" : "5Iz4CLdpV7OMVGfAg6Xrft",
      "images" : [ ],
      "name" : "TNT inc.",
      "popularity" : 18,
      "type" : "artist",
      "uri" : "spotify:artist:5Iz4CLdpV7OMVGfAg6Xrft"
    }, {
      "external_urls" : {
        "spotify" : "https://open.spotify.com/artist/7rLOY138SbcBY9Rob0sbbE"
      },
      "followers" : {
        "href" : null,
        "total" : 194
      },
      "genres" : [ ],
      "href" : "https://api.spotify.com/v1/artists/7rLOY138SbcBY9Rob0sbbE",
      "id" : "7rLOY138SbcBY9Rob0sbbE",
      "images" : [ {
        "height" : 640,
        "url" : "https://i.scdn.co/image/ab67616d0000b27362b32643ac47b6b477712009",
        "width" : 640
      }, {
        "height" : 300,
        "url" : "https://i.scdn.co/image/ab67616d00001e0262b32643ac47b6b477712009",
        "width" : 300
      }, {
        "height" : 64,
        "url" : "https://i.scdn.co/image/ab67616d0000485162b32643ac47b6b477712009",
        "width" : 64
      } ],
      "name" : "TNT",
      "popularity" : 12,
      "type" : "artist",
      "uri" : "spotify:artist:7rLOY138SbcBY9Rob0sbbE"
    }, {
      "external_urls" : {
        "spotify" : "https://open.spotify.com/artist/5T4zvVxfRyAFhjJdFXKK75"
      },
      "followers" : {
        "href" : null,
        "total" : 330
      },
      "genres" : [ ],
      "href" : "https://api.spotify.com/v1/artists/5T4zvVxfRyAFhjJdFXKK75",
      "id" : "5T4zvVxfRyAFhjJdFXKK75",
      "images" : [ {
        "height" : 640,
        "url" : "https://i.scdn.co/image/ab67616d0000b2731ac846995aff7a171278ef5b",
        "width" : 640
      }, {
        "height" : 300,
        "url" : "https://i.scdn.co/image/ab67616d00001e021ac846995aff7a171278ef5b",
        "width" : 300
      }, {
        "height" : 64,
        "url" : "https://i.scdn.co/image/ab67616d000048511ac846995aff7a171278ef5b",
        "width" : 64
      } ],
      "name" : "TNT",
      "popularity" : 24,
      "type" : "artist",
      "uri" : "spotify:artist:5T4zvVxfRyAFhjJdFXKK75"
    }, {
      "external_urls" : {
        "spotify" : "https://open.spotify.com/artist/0RmjYTsrUBw08KS2YIgTP2"
      },
      "followers" : {
        "href" : null,
        "total" : 3419
      },
      "genres" : [ "classic hungarian pop" ],
      "href" : "https://api.spotify.com/v1/artists/0RmjYTsrUBw08KS2YIgTP2",
      "id" : "0RmjYTsrUBw08KS2YIgTP2",
      "images" : [ {
        "height" : 640,
        "url" : "https://i.scdn.co/image/ab67616d0000b2731a1aa2062739ceadc71dec99",
        "width" : 640
      }, {
        "height" : 300,
        "url" : "https://i.scdn.co/image/ab67616d00001e021a1aa2062739ceadc71dec99",
        "width" : 300
      }, {
        "height" : 64,
        "url" : "https://i.scdn.co/image/ab67616d000048511a1aa2062739ceadc71dec99",
        "width" : 64
      } ],
      "name" : "TNT",
      "popularity" : 35,
      "type" : "artist",
      "uri" : "spotify:artist:0RmjYTsrUBw08KS2YIgTP2"
    }, {
      "external_urls" : {
        "spotify" : "https://open.spotify.com/artist/2PVBO21XP9aojjyaBpvKZn"
      },
      "followers" : {
        "href" : null,
        "total" : 16
      },
      "genres" : [ ],
      "href" : "https://api.spotify.com/v1/artists/2PVBO21XP9aojjyaBpvKZn",
      "id" : "2PVBO21XP9aojjyaBpvKZn",
      "images" : [ {
        "height" : 640,
        "url" : "https://i.scdn.co/image/ab6761610000e5eb4029f3da51a13f2d9119c67b",
        "width" : 640
      }, {
        "height" : 320,
        "url" : "https://i.scdn.co/image/ab676161000051744029f3da51a13f2d9119c67b",
        "width" : 320
      }, {
        "height" : 160,
        "url" : "https://i.scdn.co/image/ab6761610000f1784029f3da51a13f2d9119c67b",
        "width" : 160
      } ],
      "name" : "TNT DayHalli",
      "popularity" : 13,
      "type" : "artist",
      "uri" : "spotify:artist:2PVBO21XP9aojjyaBpvKZn"
    } ],
    "limit" : 20,
    "next" : "https://api.spotify.com/v1/search?query=TNT&type=artist&market=US&offset=20&limit=20",
    "offset" : 0,
    "previous" : null,
    "total" : 520
  }
}