{
  "artists" : {
    "href" : "https://api.spotify.com/v1/search?query=WILKINSON&type=artist&market=US&offset=0&limit=20",
    "items" : [ {
      "external_urls" : {
        "spotify" : "https://open.spotify.com/artist/6m8itYST9ADjBIYevXSb1r"
      },
      "followers" : {
        "href" : null,
        "total" : 196846
      },
      "genres" : [ "dancefloor dnb", "drum and bass", "house" ],
      "href" : "https://api.spotify.com/v1/artists/6m8itYST9ADjBIYevXSb1r",
      "id" : "6m8itYST9ADjBIYevXSb1r",
      "images" : [ {
        "height" : 640,
        "url" : "https://i.scdn.co/image/ab6761610000e5eb14c11c33f3a5f81f8827c45e",
        "width" : 640
      }, {
        "height" : 320,
        "url" : "https://i.scdn.co/image/ab6761610000517414c11c33f3a5f81f8827c45e",
        "width" : 320
      }, {
        "height" : 160,
        "url" : "https://i.scdn.co/image/ab6761610000f17814c11c33f3a5f81f8827c45e",
        "width" : 160
      } ],
      "name" : "Wilkinson",
      "popularity" : 70,
      "type" : "artist",
      "uri" : "spotify:artist:6m8itYST9ADjBIYevXSb1r"
    }, {
      "external_urls" : {
        "spotify" : "https://open.spotify.com/artist/6SMnTebrWs1rHYurPhS9lO"
      },
      "followers" : {
        "href" : null,
        "total" : 8
      },
      "genres" : [ ],
      "href" : "https://api.spotify.com/v1/artists/6SMnTebrWs1rHYurPhS9lO",
      "id" : "6SMnTebrWs1rHYurPhS9lO",
      "images" : [ {
        "height" : 676,
        "url" : "https://i.scdn.co/image/9b01d15dc5174076b138833ca2a5cfef1a7b379c",
        "width" : 1000
      }, {
        "height" : 432,
        "url" : "https://i.scdn.co/image/944b31157f3226eb85ca15a342e25ba4f36c0e6b",
        "width" : 639
      }, {
        "height" : 135,
        "url" : "https://i.scdn.co/image/5b272f082422e1e9125f74dd262ff11a157b4d9a",
        "width" : 200
      }, {
        "height" : 43,
        "url" : "https://i.scdn.co/image/989e6c73cde039c77ddcec7955f8ed5a5242e08e",
        "width" : 64
      } ],
      "name" : "WILKINSON",
      "popularity" : 0,
      "type" : "artist",
      "uri" : "spotify:artist:6SMnTebrWs1rHYurPhS9lO"
    }, {
      "external_urls" : {
        "spotify" : "https://open.spotify.com/artist/17VaTNp7RfgYr5JAJKTqAv"
      },
      "followers" : {
        "href" : null,
        "total" : 25079
      },
      "genres" : [ "canadian country", "country" ],
      "href" : "https://api.spotify.com/v1/artists/17VaTNp7RfgYr5JAJKTqAv",
      "id" : "17VaTNp7RfgYr5JAJKTqAv",
      "images" : [ {
        "height" : 605,
        "url" : "https://i.scdn.co/image/92f3cf0deb913aa484a2b173aa5bbe30c38c13fd",
        "width" : 900
      }, {
        "height" : 430,
        "url" : "https://i.scdn.co/image/3409bda72a523f27d0e19443db70d35ad96c41aa",
        "width" : 640
      }, {
        "height" : 134,
        "url" : "https://i.scdn.co/image/68b47bae553574a08d274ebbc0e4c80dfb8dab53",
        "width" : 199
      }, {
        "height" : 43,
        "url" : "https://i.scdn.co/image/a5f19286c50fb35f8c7f3b9d7544165831fe53ad",
        "width" : 64
      } ],
      "name" : "The Wilkinsons",
      "popularity" : 36,
      "type" : "artist",
      "uri" : "spotify:artist:17VaTNp7RfgYr5JAJKTqAv"
    }, {
      "external_urls" : {
        "spotify" : "https://open.spotify.com/artist/2xotqeudHAi6eXva57U5nK"
      },
      "followers" : {
        "href" : null,
        "total" : 14761
      },
      "genres" : [ ],
      "href" : "https://api.spotify.com/v1/artists/2xotqeudHAi6eXva57U5nK",
      "id" : "2xotqeudHAi6eXva57U5nK",
      "images" : [ {
        "height" : 640,
        "url" : "https://i.scdn.co/image/ab6761610000e5ebe109bf2b834251722e8a792b",
        "width" : 640
      }, {
        "height" : 320,
        "url" : "https://i.scdn.co/image/ab67616100005174e109bf2b834251722e8a792b",
        "width" : 320
      }, {
        "height" : 160,
        "url" : "https://i.scdn.co/image/ab6761610000f178e109bf2b834251722e8a792b",
        "width" : 160
      } ],
      "name" : "Mark Wilkinson",
      "popularity" : 54,
      "type" : "artist",
      "uri" : "spotify:artist:2xotqeudHAi6eXva57U5nK"
    }, {
      "external_urls" : {
        "spotify" : "https://open.spotify.com/artist/4hKV8PcRBaHZqBJjSn8OJE"
      },
      "followers" : {
        "href" : null,
        "total" : 14229
      },
      "genres" : [ "hollywood", "show tunes", "west end" ],
      "href" : "https://api.spotify.com/v1/artists/4hKV8PcRBaHZqBJjSn8OJE",
      "id" : "4hKV8PcRBaHZqBJjSn8OJE",
      "images" : [ {
        "height" : 1500,
        "url" : "https://i.scdn.co/image/8342768be08c1c9bf4af1d4584a103bcb3042704",
        "width" : 1000
      }, {
        "height" : 960,
        "url" : "https://i.scdn.co/image/84346918064039f5b5effd161f3baa9486737c86",
        "width" : 640
      }, {
        "height" : 300,
        "url" : "https://i.scdn.co/image/3873a1791e4e2e78e8fba242b897175a7d699436",
        "width" : 200
      }, {
        "height" : 96,
        "url" : "https://i.scdn.co/image/c37e38f767eabb855daa7a8e7dd1595faac7ac02",
        "width" : 64
      } ],
      "name" : "Colm Wilkinson",
      "popularity" : 46,
      "type" : "artist",
      "uri" : "spotify:artist:4hKV8PcRBaHZqBJjSn8OJE"
    }, {
      "external_urls" : {
        "spotify" : "https://open.spotify.com/artist/1oz0b5sALQVf4cxxEPe8XL"
      },
      "followers" : {
        "href" : null,
        "total" : 221
      },
      "genres" : [ ],
      "href" : "https://api.spotify.com/v1/artists/1oz0b5sALQVf4cxxEPe8XL",
      "id" : "1oz0b5sALQVf4cxxEPe8XL",
      "images" : [ {
        "height" : 640,
        "url" : "https://i.scdn.co/image/ab67616d0000b273f3bd6a549ea69026d25407ed",
        "width" : 640
      }, {
        "height" : 300,
        "url" : "https://i.scdn.co/image/ab67616d00001e02f3bd6a549ea69026d25407ed",
        "width" : 300
      }, {
        "height" : 64,
        "url" : "https://i.scdn.co/image/ab67616d00004851f3bd6a549ea69026d25407ed",
        "width" : 64
      } ],
      "name" : "Mark Wilkinson",
      "popularity" : 39,
      "type" : "artist",
      "uri" : "spotify:artist:1oz0b5sALQVf4cxxEPe8XL"
    }, {
      "external_urls" : {
        "spotify" : "https://open.spotify.com/artist/3Sg7YfE4C7jfzmacocosU8"
      },
      "followers" : {
        "href" : null,
        "total" : 21
      },
      "genres" : [ ],
      "href" : "https://api.spotify.com/v1/artists/3Sg7YfE4C7jfzmacocosU8",
      "id" : "3Sg7YfE4C7jfzmacocosU8",
      "images" : [ {
        "height" : 640,
        "url" : "https://i.scdn.co/image/ab67616d0000b2735d96cc1d8077ad94f6980702",
        "width" : 640
      }, {
        "height" : 300,
        "url" : "https://i.scdn.co/image/ab67616d00001e025d96cc1d8077ad94f6980702",
        "width" : 300
      }, {
        "height" : 64,
        "url" : "https://i.scdn.co/image/ab67616d000048515d96cc1d8077ad94f6980702",
        "width" : 64
      } ],
      "name" : "Ted Wilkinson",
      "popularity" : 36,
      "type" : "artist",
      "uri" : "spotify:artist:3Sg7YfE4C7jfzmacocosU8"
    }, {
      "external_urls" : {
        "spotify" : "https://open.spotify.com/artist/53kIScw6RQZohcbnya4sHf"
      },
      "followers" : {
        "href" : null,
        "total" : 681
      },
      "genres" : [ ],
      "href" : "https://api.spotify.com/v1/artists/53kIScw6RQZohcbnya4sHf",
      "id" : "53kIScw6RQZohcbnya4sHf",
      "images" : [ {
        "height" : 640,
        "url" : "https://i.scdn.co/image/ab6761610000e5ebb76ccdc3325d7b769edb243d",
        "width" : 640
      }, {
        "height" : 320,
        "url" : "https://i.scdn.co/image/ab67616100005174b76ccdc3325d7b769edb243d",
        "width" : 320
      }, {
        "height" : 160,
        "url" : "https://i.scdn.co/image/ab6761610000f178b76ccdc3325d7b769edb243d",
        "width" : 160
      } ],
      "name" : "Graham Wilkinson",
      "popularity" : 21,
      "type" : "artist",
      "uri" : "spotify:artist:53kIScw6RQZohcbnya4sHf"
    }, {
      "external_urls" : {
        "spotify" : "https://open.spotify.com/artist/3ne3SEMgvdZidZkEKXcKEw"
      },
      "followers" : {
        "href" : null,
        "total" : 87
      },
      "genres" : [ ],
      "href" : "https://api.spotify.com/v1/artists/3ne3SEMgvdZidZkEKXcKEw",
      "id" : "3ne3SEMgvdZidZkEKXcKEw",
      "images" : [ ],
      "name" : "Wilkinson feat. Iman",
      "popularity" : 9,
      "type" : "artist",
      "uri" : "spotify:artist:3ne3SEMgvdZidZkEKXcKEw"
    }, {
      "external_urls" : {
        "spotify" : "https://open.spotify.com/artist/6zFI7h2SJ1nqnLTlCGfdoS"
      },
      "followers" : {
        "href" : null,
        "total" : 79
      },
      "genres" : [ ],
      "href" : "https://api.spotify.com/v1/artists/6zFI7h2SJ1nqnLTlCGfdoS",
      "id" : "6zFI7h2SJ1nqnLTlCGfdoS",
      "images" : [ {
        "height" : 640,
        "url" : "https://i.scdn.co/image/ab67616d0000b27320181a1f8a0ed1abd5d05055",
        "width" : 640
      }, {
        "height" : 300,
        "url" : "https://i.scdn.co/image/ab67616d00001e0220181a1f8a0ed1abd5d05055",
        "width" : 300
      }, {
        "height" : 64,
        "url" : "https://i.scdn.co/image/ab67616d0000485120181a1f8a0ed1abd5d05055",
        "width" : 64
      } ],
      "name" : "Rosemary Wilkinson",
      "popularity" : 17,
      "type" : "artist",
      "uri" : "spotify:artist:6zFI7h2SJ1nqnLTlCGfdoS"
    }, {
      "external_urls" : {
        "spotify" : "https://open.spotify.com/artist/7I0tuZLgKzhtDV1oRAW9Pt"
      },
      "followers" : {
        "href" : null,
        "total" : 32
      },
      "genres" : [ ],
      "href" : "https://api.spotify.com/v1/artists/7I0tuZLgKzhtDV1oRAW9Pt",
      "id" : "7I0tuZLgKzhtDV1oRAW9Pt",
      "images" : [ {
        "height" : 640,
        "url" : "https://i.scdn.co/image/ab67616d0000b27368c92dd49529cb0752a29064",
        "width" : 640
      }, {
        "height" : 300,
        "url" : "https://i.scdn.co/image/ab67616d00001e02446eae982b6adc997c362c96",
        "width" : 300
      }, {
        "height" : 64,
        "url" : "https://i.scdn.co/image/ab67616d00004851446eae982b6adc997c362c96",
        "width" : 64
      } ],
      "name" : "Forrest Wilkinson",
      "popularity" : 11,
      "type" : "artist",
      "uri" : "spotify:artist:7I0tuZLgKzhtDV1oRAW9Pt"
    }, {
      "external_urls" : {
        "spotify" : "https://open.spotify.com/artist/7wCwsYzI3eds4Gi9wRXeqZ"
      },
      "followers" : {
        "href" : null,
        "total" : 0
      },
      "genres" : [ ],
      "href" : "https://api.spotify.com/v1/artists/7wCwsYzI3eds4Gi9wRXeqZ",
      "id" : "7wCwsYzI3eds4Gi9wRXeqZ",
      "images" : [ {
        "height" : 640,
        "url" : "https://i.scdn.co/image/ab67616d0000b273a8ae705e0168edf588e7e3b7",
        "width" : 640
      }, {
        "height" : 300,
        "url" : "https://i.scdn.co/image/ab67616d00001e02a8ae705e0168edf588e7e3b7",
        "width" : 300
      }, {
        "height" : 64,
        "url" : "https://i.scdn.co/image/ab67616d00004851a8ae705e0168edf588e7e3b7",
        "width" : 64
      } ],
      "name" : "Kelsie Wilkinson",
      "popularity" : 10,
      "type" : "artist",
      "uri" : "spotify:artist:7wCwsYzI3eds4Gi9wRXeqZ"
    }, {
      "external_urls" : {
        "spotify" : "https://open.spotify.com/artist/2iZipNgD7Zbwfr6yiJCxYK"
      },
      "followers" : {
        "href" : null,
        "total" : 138
      },
      "genres" : [ ],
      "href" : "https://api.spotify.com/v1/artists/2iZipNgD7Zbwfr6yiJCxYK",
      "id" : "2iZipNgD7Zbwfr6yiJCxYK",
      "images" : [ {
        "height" : 640,
        "url" : "https://i.scdn.co/image/ab67616d0000b273d7a1d0375566abb12c780ac9",
        "width" : 640
      }, {
        "height" : 300,
        "url" : "https://i.scdn.co/image/ab67616d00001e02d7a1d0375566abb12c780ac9",
        "width" : 300
      }, {
        "height" : 64,
        "url" : "https://i.scdn.co/image/ab67616d00004851d7a1d0375566abb12c780ac9",
        "width" : 64
      } ],
      "name" : "Wilkinson Tri-Cycle",
      "popularity" : 1,
      "type" : "artist",
      "uri" : "spotify:artist:2iZipNgD7Zbwfr6yiJCxYK"
    }, {
      "external_urls" : {
        "spotify" : "https://open.spotify.com/artist/0pCPOSHGGah0NyD2AH2Ic0"
      },
      "followers" : {
        "href" : null,
        "total" : 735
      },
      "genres" : [ ],
      "href" : "https://api.spotify.com/v1/artists/0pCPOSHGGah0NyD2AH2Ic0",
      "id" : "0pCPOSHGGah0NyD2AH2Ic0",
      "images" : [ {
        "height" : 640,
        "url" : "https://i.scdn.co/image/ab6761610000e5eb669b263886d2ade1f99250a0",
        "width" : 640
      }, {
        "height" : 320,
        "url" : "https://i.scdn.co/image/ab67616100005174669b263886d2ade1f99250a0",
        "width" : 320
      }, {
        "height" : 160,
        "url" : "https://i.scdn.co/image/ab6761610000f178669b263886d2ade1f99250a0",
        "width" : 160
      } ],
      "name" : "Simon Wilkinson",
      "popularity" : 14,
      "type" : "artist",
      "uri" : "spotify:artist:0pCPOSHGGah0NyD2AH2Ic0"
    }, {
      "external_urls" : {
        "spotify" : "https://open.spotify.com/artist/4Wy4Z2AV572irMroU3Bi3p"
      },
      "followers" : {
        "href" : null,
        "total" : 211
      },
      "genres" : [ "classical contralto" ],
      "href" : "https://api.spotify.com/v1/artists/4Wy4Z2AV572irMroU3Bi3p",
      "id" : "4Wy4Z2AV572irMroU3Bi3p",
      "images" : [ {
        "height" : 1000,
        "url" : "https://i.scdn.co/image/1ee5a0dbe9ad7ea7e43036423b4a3a6b49b977a7",
        "width" : 1000
      }, {
        "height" : 640,
        "url" : "https://i.scdn.co/image/6746bd957c96d42eb0952dc4be42ee8e8fdfe5f8",
        "width" : 640
      }, {
        "height" : 200,
        "url" : "https://i.scdn.co/image/172101bb275a0dfa391ac74cdd213344d68b2900",
        "width" : 200
      }, {
        "height" : 64,
        "url" : "https://i.scdn.co/image/df607c4d1cfea13bbc526bafd3f5532f06766b6b",
        "width" : 64
      } ],
      "name" : "Clare Wilkinson",
      "popularity" : 16,
      "type" : "artist",
      "uri" : "spotify:artist:4Wy4Z2AV572irMroU3Bi3p"
    }, {
      "external_urls" : {
        "spotify" : "https://open.spotify.com/artist/7mvUGdzHzpZtgn1EYnJ2bB"
      },
      "followers" : {
        "href" : null,
        "total" : 8
      },
      "genres" : [ ],
      "href" : "https://api.spotify.com/v1/artists/7mvUGdzHzpZtgn1EYnJ2bB",
      "id" : "7mvUGdzHzpZtgn1EYnJ2bB",
      "images" : [ {
        "height" : 640,
        "url" : "https://i.scdn.co/image/ab67616d0000b273a13241db2749aa546a7f5224",
        "width" : 640
      }, {
        "height" : 300,
        "url" : "https://i.scdn.co/image/ab67616d00001e02a13241db2749aa546a7f5224",
        "width" : 300
      }, {
        "height" : 64,
        "url" : "https://i.scdn.co/image/ab67616d00004851a13241db2749aa546a7f5224",
        "width" : 64
      } ],
      "name" : "Romeo Wilkinson",
      "popularity" : 6,
      "type" : "artist",
      "uri" : "spotify:artist:7mvUGdzHzpZtgn1EYnJ2bB"
    }, {
      "external_urls" : {
        "spotify" : "https://open.spotify.com/artist/4JJLUvntCHpUfaDdkvD5w4"
      },
      "followers" : {
        "href" : null,
        "total" : 104
      },
      "genres" : [ ],
      "href" : "https://api.spotify.com/v1/artists/4JJLUvntCHpUfaDdkvD5w4",
      "id" : "4JJLUvntCHpUfaDdkvD5w4",
      "images" : [ {
        "height" : 640,
        "url" : "https://i.scdn.co/image/ab6761610000e5ebacdf71861b28bc5a2f4aef3a",
        "width" : 640
      }, {
        "height" : 320,
        "url" : "https://i.scdn.co/image/ab67616100005174acdf71861b28bc5a2f4aef3a",
        "width" : 320
      }, {
        "height" : 160,
        "url" : "https://i.scdn.co/image/ab6761610000f178acdf71861b28bc5a2f4aef3a",
        "width" : 160
      } ],
      "name" : "Wilkinson Blades",
      "popularity" : 0,
      "type" : "artist",
      "uri" : "spotify:artist:4JJLUvntCHpUfaDdkvD5w4"
    }, {
      "external_urls" : {
        "spotify" : "https://open.spotify.com/artist/4agUAVaXI5mWbWWYL2vO5F"
      },
      "followers" : {
        "href" : null,
        "total" : 0
      },
      "genres" : [ ],
      "href" : "https://api.spotify.com/v1/artists/4agUAVaXI5mWbWWYL2vO5F",
      "id" : "4agUAVaXI5mWbWWYL2vO5F",
      "images" : [ {
        "height" : 640,
        "url" : "https://i.scdn.co/image/ab67616d0000b2734bb0cedddd644a0214412794",
        "width" : 640
      }, {
        "height" : 300,
        "url" : "https://i.scdn.co/image/ab67616d00001e024bb0cedddd644a0214412794",
        "width" : 300
      }, {
        "height" : 64,
        "url" : "https://i.scdn.co/image/ab67616d000048514bb0cedddd644a0214412794",
        "width" : 64
      } ],
      "name" : "Ryan Wilkinson",
      "popularity" : 10,
      "type" : "artist",
      "uri" : "spotify:artist:4agUAVaXI5mWbWWYL2vO5F"
    }, {
      "external_urls" : {
        "spotify" : "https://open.spotify.com/artist/1JWZctA1KwrR7gKO8byzbV"
      },
      "followers" : {
        "href" : null,
        "total" : 33
      },
      "genres" : [ ],
      "href" : "https://api.spotify.com/v1/artists/1JWZctA1KwrR7gKO8byzbV",
      "id" : "1JWZctA1KwrR7gKO8byzbV",
      "images" : [ {
        "height" : 640,
        "url" : "https://i.scdn.co/image/ab67616d0000b273d3f5458af5a137d809866310",
        "width" : 640
      }, {
        "height" : 300,
        "url" : "https://i.scdn.co/image/ab67616d00001e02d3f5458af5a137d809866310",
        "width" : 300
      }, {
        "height" : 64,
        "url" : "https://i.scdn.co/image/ab67616d00004851d3f5458af5a137d809866310",
        "width" : 64
      } ],
      "name" : "Kristin Wilkinson",
      "popularity" : 11,
      "type" : "artist",
      "uri" : "spotify:artist:1JWZctA1KwrR7gKO8byzbV"
    }, {
      "external_urls" : {
        "spotify" : "https://open.spotify.com/artist/0rHrWDMg9otaANTeyEmUMd"
      },
      "followers" : {
        "href" : null,
        "total" : 0
      },
      "genres" : [ ],
      "href" : "https://api.spotify.com/v1/artists/0rHrWDMg9otaANTeyEmUMd",
      "id" : "0rHrWDMg9otaANTeyEmUMd",
      "images" : [ {
        "height" : 640,
        "url" : "https://i.scdn.co/image/ab67616d0000b273e1f27402c09d883e71ffada7",
        "width" : 640
      }, {
        "height" : 300,
        "url" : "https://i.scdn.co/image/ab67616d00001e02e1f27402c09d883e71ffada7",
        "width" : 300
      }, {
        "height" : 64,
        "url" : "https://i.scdn.co/image/ab67616d00004851e1f27402c09d883e71ffada7",
        "width" : 64
      } ],
      "name" : "Marcelo Wilkinson",
      "popularity" : 6,
      "type" : "artist",
      "uri" : "spotify:artist:0rHrWDMg9otaANTeyEmUMd"
    } ],
    "limit" : 20,
    "next" : "https://api.spotify.com/v1/search?query=WILKINSON&type=artist&market=US&offset=20&limit=20",
    "offset" : 0,
    "previous" : null,
    "total" : 380
  }
}