{
  "artists" : {
    "href" : "https://api.spotify.com/v1/search?query=+Black+Coffee&type=artist&market=US&offset=0&limit=20",
    "items" : [ {
      "external_urls" : {
        "spotify" : "https://open.spotify.com/artist/6wMr4zKPrrR0UVz08WtUWc"
      },
      "followers" : {
        "href" : null,
        "total" : 805180
      },
      "genres" : [ "afro house", "deep house", "south african house", "south african pop dance" ],
      "href" : "https://api.spotify.com/v1/artists/6wMr4zKPrrR0UVz08WtUWc",
      "id" : "6wMr4zKPrrR0UVz08WtUWc",
      "images" : [ {
        "height" : 640,
        "url" : "https://i.scdn.co/image/ab6761610000e5ebf864b62fe4d5946c8187a61d",
        "width" : 640
      }, {
        "height" : 320,
        "url" : "https://i.scdn.co/image/ab67616100005174f864b62fe4d5946c8187a61d",
        "width" : 320
      }, {
        "height" : 160,
        "url" : "https://i.scdn.co/image/ab6761610000f178f864b62fe4d5946c8187a61d",
        "width" : 160
      } ],
      "name" : "Black Coffee",
      "popularity" : 64,
      "type" : "artist",
      "uri" : "spotify:artist:6wMr4zKPrrR0UVz08WtUWc"
    }, {
      "external_urls" : {
        "spotify" : "https://open.spotify.com/artist/058DtdeNyfDb4Enlmy3XQA"
      },
      "followers" : {
        "href" : null,
        "total" : 4151
      },
      "genres" : [ ],
      "href" : "https://api.spotify.com/v1/artists/058DtdeNyfDb4Enlmy3XQA",
      "id" : "058DtdeNyfDb4Enlmy3XQA",
      "images" : [ {
        "height" : 640,
        "url" : "https://i.scdn.co/image/ab6761610000e5ebc3c8370af4a046c7a0a3ff39",
        "width" : 640
      }, {
        "height" : 320,
        "url" : "https://i.scdn.co/image/ab67616100005174c3c8370af4a046c7a0a3ff39",
        "width" : 320
      }, {
        "height" : 160,
        "url" : "https://i.scdn.co/image/ab6761610000f178c3c8370af4a046c7a0a3ff39",
        "width" : 160
      } ],
      "name" : "Black Coffee",
      "popularity" : 23,
      "type" : "artist",
      "uri" : "spotify:artist:058DtdeNyfDb4Enlmy3XQA"
    }, {
      "external_urls" : {
        "spotify" : "https://open.spotify.com/artist/3FtwBKVaAz21h1yMj46kt7"
      },
      "followers" : {
        "href" : null,
        "total" : 309
      },
      "genres" : [ ],
      "href" : "https://api.spotify.com/v1/artists/3FtwBKVaAz21h1yMj46kt7",
      "id" : "3FtwBKVaAz21h1yMj46kt7",
      "images" : [ {
        "height" : 640,
        "url" : "https://i.scdn.co/image/ab67616d0000b27321129095794671f70b1789a4",
        "width" : 640
      }, {
        "height" : 300,
        "url" : "https://i.scdn.co/image/ab67616d00001e0221129095794671f70b1789a4",
        "width" : 300
      }, {
        "height" : 64,
        "url" : "https://i.scdn.co/image/ab67616d0000485121129095794671f70b1789a4",
        "width" : 64
      } ],
      "name" : "Black Coffee",
      "popularity" : 11,
      "type" : "artist",
      "uri" : "spotify:artist:3FtwBKVaAz21h1yMj46kt7"
    }, {
      "external_urls" : {
        "spotify" : "https://open.spotify.com/artist/1jVs6LjJUSrLQSfqigkXOe"
      },
      "followers" : {
        "href" : null,
        "total" : 387
      },
      "genres" : [ ],
      "href" : "https://api.spotify.com/v1/artists/1jVs6LjJUSrLQSfqigkXOe",
      "id" : "1jVs6LjJUSrLQSfqigkXOe",
      "images" : [ {
        "height" : 640,
        "url" : "https://i.scdn.co/image/ab6761610000e5eb47ad173cb06675608d0afdbe",
        "width" : 640
      }, {
        "height" : 320,
        "url" : "https://i.scdn.co/image/ab6761610000517447ad173cb06675608d0afdbe",
        "width" : 320
      }, {
        "height" : 160,
        "url" : "https://i.scdn.co/image/ab6761610000f17847ad173cb06675608d0afdbe",
        "width" : 160
      } ],
      "name" : "Coffee Black",
      "popularity" : 4,
      "type" : "artist",
      "uri" : "spotify:artist:1jVs6LjJUSrLQSfqigkXOe"
    }, {
      "external_urls" : {
        "spotify" : "https://open.spotify.com/artist/45Rw7IvoNZJoJgy21xEWzw"
      },
      "followers" : {
        "href" : null,
        "total" : 5149
      },
      "genres" : [ ],
      "href" : "https://api.spotify.com/v1/artists/45Rw7IvoNZJoJgy21xEWzw",
      "id" : "45Rw7IvoNZJoJgy21xEWzw",
      "images" : [ {
        "height" : 640,
        "url" : "https://i.scdn.co/image/ab67616d0000b2732ff790410cb87cbfb8bd8181",
        "width" : 640
      }, {
        "height" : 300,
        "url" : "https://i.scdn.co/image/ab67616d00001e022ff790410cb87cbfb8bd8181",
        "width" : 300
      }, {
        "height" : 64,
        "url" : "https://i.scdn.co/image/ab67616d000048512ff790410cb87cbfb8bd8181",
        "width" : 64
      } ],
      "name" : "Black Coffee",
      "popularity" : 6,
      "type" : "artist",
      "uri" : "spotify:artist:45Rw7IvoNZJoJgy21xEWzw"
    }, {
      "external_urls" : {
        "spotify" : "https://open.spotify.com/artist/1dD2pNJdqfX6Zr4FGdfYrC"
      },
      "followers" : {
        "href" : null,
        "total" : 1
      },
      "genres" : [ ],
      "href" : "https://api.spotify.com/v1/artists/1dD2pNJdqfX6Zr4FGdfYrC",
      "id" : "1dD2pNJdqfX6Zr4FGdfYrC",
      "images" : [ ],
      "name" : "Coffee Black",
      "popularity" : 0,
      "type" : "artist",
      "uri" : "spotify:artist:1dD2pNJdqfX6Zr4FGdfYrC"
    }, {
      "external_urls" : {
        "spotify" : "https://open.spotify.com/artist/2NDGBpmwVrMTG5n2FFbPtU"
      },
      "followers" : {
        "href" : null,
        "total" : 420
      },
      "genres" : [ ],
      "href" : "https://api.spotify.com/v1/artists/2NDGBpmwVrMTG5n2FFbPtU",
      "id" : "2NDGBpmwVrMTG5n2FFbPtU",
      "images" : [ {
        "height" : 640,
        "url" : "https://i.scdn.co/image/ab67616d0000b273c6a7354feb0daf39f735a6f7",
        "width" : 640
      }, {
        "height" : 300,
        "url" : "https://i.scdn.co/image/ab67616d00001e02c6a7354feb0daf39f735a6f7",
        "width" : 300
      }, {
        "height" : 64,
        "url" : "https://i.scdn.co/image/ab67616d00004851c6a7354feb0daf39f735a6f7",
        "width" : 64
      } ],
      "name" : "Black Coffee",
      "popularity" : 6,
      "type" : "artist",
      "uri" : "spotify:artist:2NDGBpmwVrMTG5n2FFbPtU"
    }, {
      "external_urls" : {
        "spotify" : "https://open.spotify.com/artist/1Pa3VcqdZctNTa3rz7OVX9"
      },
      "followers" : {
        "href" : null,
        "total" : 2
      },
      "genres" : [ ],
      "href" : "https://api.spotify.com/v1/artists/1Pa3VcqdZctNTa3rz7OVX9",
      "id" : "1Pa3VcqdZctNTa3rz7OVX9",
      "images" : [ ],
      "name" : "Coffee Black",
      "popularity" : 0,
      "type" : "artist",
      "uri" : "spotify:artist:1Pa3VcqdZctNTa3rz7OVX9"
    }, {
      "external_urls" : {
        "spotify" : "https://open.spotify.com/artist/1bNmdlDjS2za7xQQbovzcA"
      },
      "followers" : {
        "href" : null,
        "total" : 267
      },
      "genres" : [ "sinogaze" ],
      "href" : "https://api.spotify.com/v1/artists/1bNmdlDjS2za7xQQbovzcA",
      "id" : "1bNmdlDjS2za7xQQbovzcA",
      "images" : [ {
        "height" : 640,
        "url" : "https://i.scdn.co/image/ab67616d0000b273bf0313e6b2337a69babf5f3c",
        "width" : 640
      }, {
        "height" : 300,
        "url" : "https://i.scdn.co/image/ab67616d00001e02bf0313e6b2337a69babf5f3c",
        "width" : 300
      }, {
        "height" : 64,
        "url" : "https://i.scdn.co/image/ab67616d00004851bf0313e6b2337a69babf5f3c",
        "width" : 64
      } ],
      "name" : "Black Coffee",
      "popularity" : 1,
      "type" : "artist",
      "uri" : "spotify:artist:1bNmdlDjS2za7xQQbovzcA"
    }, {
      "external_urls" : {
        "spotify" : "https://open.spotify.com/artist/3DCsdB4RoeKFU4mmNho3iY"
      },
      "followers" : {
        "href" : null,
        "total" : 0
      },
      "genres" : [ ],
      "href" : "https://api.spotify.com/v1/artists/3DCsdB4RoeKFU4mmNho3iY",
      "id" : "3DCsdB4RoeKFU4mmNho3iY",
      "images" : [ ],
      "name" : "Black Coffee",
      "popularity" : 0,
      "type" : "artist",
      "uri" : "spotify:artist:3DCsdB4RoeKFU4mmNho3iY"
    }, {
      "external_urls" : {
        "spotify" : "https://open.spotify.com/artist/48Hav5oOX9VfN8B5n0EASV"
      },
      "followers" : {
        "href" : null,
        "total" : 136
      },
      "genres" : [ ],
      "href" : "https://api.spotify.com/v1/artists/48Hav5oOX9VfN8B5n0EASV",
      "id" : "48Hav5oOX9VfN8B5n0EASV",
      "images" : [ {
        "height" : 640,
        "url" : "https://i.scdn.co/image/ab67616d0000b273cca755a0d548a9a72cc175ef",
        "width" : 640
      }, {
        "height" : 300,
        "url" : "https://i.scdn.co/image/ab67616d00001e02cca755a0d548a9a72cc175ef",
        "width" : 300
      }, {
        "height" : 64,
        "url" : "https://i.scdn.co/image/ab67616d00004851cca755a0d548a9a72cc175ef",
        "width" : 64
      } ],
      "name" : "Black Coffee",
      "popularity" : 0,
      "type" : "artist",
      "uri" : "spotify:artist:48Hav5oOX9VfN8B5n0EASV"
    }, {
      "external_urls" : {
        "spotify" : "https://open.spotify.com/artist/2fryjaDz4AeDC8oHnC22OF"
      },
      "followers" : {
        "href" : null,
        "total" : 36
      },
      "genres" : [ "semarang indie" ],
      "href" : "https://api.spotify.com/v1/artists/2fryjaDz4AeDC8oHnC22OF",
      "id" : "2fryjaDz4AeDC8oHnC22OF",
      "images" : [ {
        "height" : 640,
        "url" : "https://i.scdn.co/image/ab6761610000e5ebc508a25049c3e0ad9ef202bf",
        "width" : 640
      }, {
        "height" : 320,
        "url" : "https://i.scdn.co/image/ab67616100005174c508a25049c3e0ad9ef202bf",
        "width" : 320
      }, {
        "height" : 160,
        "url" : "https://i.scdn.co/image/ab6761610000f178c508a25049c3e0ad9ef202bf",
        "width" : 160
      } ],
      "name" : "Black Coffee Monologue",
      "popularity" : 2,
      "type" : "artist",
      "uri" : "spotify:artist:2fryjaDz4AeDC8oHnC22OF"
    }, {
      "external_urls" : {
        "spotify" : "https://open.spotify.com/artist/29ipjgPeuS0U2EPh1jJPCp"
      },
      "followers" : {
        "href" : null,
        "total" : 475
      },
      "genres" : [ ],
      "href" : "https://api.spotify.com/v1/artists/29ipjgPeuS0U2EPh1jJPCp",
      "id" : "29ipjgPeuS0U2EPh1jJPCp",
      "images" : [ {
        "height" : 640,
        "url" : "https://i.scdn.co/image/ab67616d0000b273c9b33813af1765ce1a00ab76",
        "width" : 640
      }, {
        "height" : 300,
        "url" : "https://i.scdn.co/image/ab67616d00001e02c9b33813af1765ce1a00ab76",
        "width" : 300
      }, {
        "height" : 64,
        "url" : "https://i.scdn.co/image/ab67616d00004851c9b33813af1765ce1a00ab76",
        "width" : 64
      } ],
      "name" : "Black Coffee",
      "popularity" : 0,
      "type" : "artist",
      "uri" : "spotify:artist:29ipjgPeuS0U2EPh1jJPCp"
    }, {
      "external_urls" : {
        "spotify" : "https://open.spotify.com/artist/5oF1yGPTe1kI4BVlgulNVH"
      },
      "followers" : {
        "href" : null,
        "total" : 17
      },
      "genres" : [ ],
      "href" : "https://api.spotify.com/v1/artists/5oF1yGPTe1kI4BVlgulNVH",
      "id" : "5oF1yGPTe1kI4BVlgulNVH",
      "images" : [ {
        "height" : 640,
        "url" : "https://i.scdn.co/image/ab6761610000e5eb152e039f977ad23cc51955aa",
        "width" : 640
      }, {
        "height" : 320,
        "url" : "https://i.scdn.co/image/ab67616100005174152e039f977ad23cc51955aa",
        "width" : 320
      }, {
        "height" : 160,
        "url" : "https://i.scdn.co/image/ab6761610000f178152e039f977ad23cc51955aa",
        "width" : 160
      } ],
      "name" : "Black Coffee",
      "popularity" : 0,
      "type" : "artist",
      "uri" : "spotify:artist:5oF1yGPTe1kI4BVlgulNVH"
    }, {
      "external_urls" : {
        "spotify" : "https://open.spotify.com/artist/004zi8JfpSAhGLvfhSvk7F"
      },
      "followers" : {
        "href" : null,
        "total" : 38
      },
      "genres" : [ "canadian rockabilly" ],
      "href" : "https://api.spotify.com/v1/artists/004zi8JfpSAhGLvfhSvk7F",
      "id" : "004zi8JfpSAhGLvfhSvk7F",
      "images" : [ {
        "height" : 640,
        "url" : "https://i.scdn.co/image/ab67616d0000b27321157bac91e57f4cdff3d44e",
        "width" : 640
      }, {
        "height" : 300,
        "url" : "https://i.scdn.co/image/ab67616d00001e0221157bac91e57f4cdff3d44e",
        "width" : 300
      }, {
        "height" : 64,
        "url" : "https://i.scdn.co/image/ab67616d0000485121157bac91e57f4cdff3d44e",
        "width" : 64
      } ],
      "name" : "Black Coffee Cowboys",
      "popularity" : 0,
      "type" : "artist",
      "uri" : "spotify:artist:004zi8JfpSAhGLvfhSvk7F"
    }, {
      "external_urls" : {
        "spotify" : "https://open.spotify.com/artist/749bYE2lP0Lf6GkhmBLuAE"
      },
      "followers" : {
        "href" : null,
        "total" : 123
      },
      "genres" : [ ],
      "href" : "https://api.spotify.com/v1/artists/749bYE2lP0Lf6GkhmBLuAE",
      "id" : "749bYE2lP0Lf6GkhmBLuAE",
      "images" : [ {
        "height" : 640,
        "url" : "https://i.scdn.co/image/ab67616d0000b273bedaef942d5088c060069898",
        "width" : 640
      }, {
        "height" : 300,
        "url" : "https://i.scdn.co/image/ab67616d00001e02bedaef942d5088c060069898",
        "width" : 300
      }, {
        "height" : 64,
        "url" : "https://i.scdn.co/image/ab67616d00004851bedaef942d5088c060069898",
        "width" : 64
      } ],
      "name" : "Black Coffee",
      "popularity" : 1,
      "type" : "artist",
      "uri" : "spotify:artist:749bYE2lP0Lf6GkhmBLuAE"
    }, {
      "external_urls" : {
        "spotify" : "https://open.spotify.com/artist/34fknwSENPNugIU0b6Ixce"
      },
      "followers" : {
        "href" : null,
        "total" : 0
      },
      "genres" : [ ],
      "href" : "https://api.spotify.com/v1/artists/34fknwSENPNugIU0b6Ixce",
      "id" : "34fknwSENPNugIU0b6Ixce",
      "images" : [ ],
      "name" : "Black Coffee",
      "popularity" : 3,
      "type" : "artist",
      "uri" : "spotify:artist:34fknwSENPNugIU0b6Ixce"
    }, {
      "external_urls" : {
        "spotify" : "https://open.spotify.com/artist/2EZ9oflJN0Zt9xYJ2c8t8L"
      },
      "followers" : {
        "href" : null,
        "total" : 63
      },
      "genres" : [ ],
      "href" : "https://api.spotify.com/v1/artists/2EZ9oflJN0Zt9xYJ2c8t8L",
      "id" : "2EZ9oflJN0Zt9xYJ2c8t8L",
      "images" : [ {
        "height" : 640,
        "url" : "https://i.scdn.co/image/ab6761610000e5ebee3ae9662882e9585018df13",
        "width" : 640
      }, {
        "height" : 320,
        "url" : "https://i.scdn.co/image/ab67616100005174ee3ae9662882e9585018df13",
        "width" : 320
      }, {
        "height" : 160,
        "url" : "https://i.scdn.co/image/ab6761610000f178ee3ae9662882e9585018df13",
        "width" : 160
      } ],
      "name" : "Strong Black Coffee",
      "popularity" : 0,
      "type" : "artist",
      "uri" : "spotify:artist:2EZ9oflJN0Zt9xYJ2c8t8L"
    }, {
      "external_urls" : {
        "spotify" : "https://open.spotify.com/artist/4eMxFQncJsFUgY4yWL1c0X"
      },
      "followers" : {
        "href" : null,
        "total" : 79
      },
      "genres" : [ ],
      "href" : "https://api.spotify.com/v1/artists/4eMxFQncJsFUgY4yWL1c0X",
      "id" : "4eMxFQncJsFUgY4yWL1c0X",
      "images" : [ {
        "height" : 640,
        "url" : "https://i.scdn.co/image/ab67616d0000b273bb3799599e8a00decf150333",
        "width" : 640
      }, {
        "height" : 300,
        "url" : "https://i.scdn.co/image/ab67616d00001e02bb3799599e8a00decf150333",
        "width" : 300
      }, {
        "height" : 64,
        "url" : "https://i.scdn.co/image/ab67616d00004851bb3799599e8a00decf150333",
        "width" : 64
      } ],
      "name" : "Black Coffee",
      "popularity" : 0,
      "type" : "artist",
      "uri" : "spotify:artist:4eMxFQncJsFUgY4yWL1c0X"
    }, {
      "external_urls" : {
        "spotify" : "https://open.spotify.com/artist/62lB4hmD6CnTgbVHiuMOpY"
      },
      "followers" : {
        "href" : null,
        "total" : 4
      },
      "genres" : [ ],
      "href" : "https://api.spotify.com/v1/artists/62lB4hmD6CnTgbVHiuMOpY",
      "id" : "62lB4hmD6CnTgbVHiuMOpY",
      "images" : [ {
        "height" : 640,
        "url" : "https://i.scdn.co/image/ab67616d0000b2738eac01defc469e5477bdcff0",
        "width" : 640
      }, {
        "height" : 300,
        "url" : "https://i.scdn.co/image/ab67616d00001e028eac01defc469e5477bdcff0",
        "width" : 300
      }, {
        "height" : 64,
        "url" : "https://i.scdn.co/image/ab67616d000048518eac01defc469e5477bdcff0",
        "width" : 64
      } ],
      "name" : "Coffee Black",
      "popularity" : 0,
      "type" : "artist",
      "uri" : "spotify:artist:62lB4hmD6CnTgbVHiuMOpY"
    } ],
    "limit" : 20,
    "next" : "https://api.spotify.com/v1/search?query=+Black+Coffee&type=artist&market=US&offset=20&limit=20",
    "offset" : 0,
    "previous" : null,
    "total" : 33
  }
}