{
  "artists" : {
    "href" : "https://api.spotify.com/v1/search?query=+DJ+Lord&type=artist&market=US&offset=0&limit=20",
    "items" : [ {
      "external_urls" : {
        "spotify" : "https://open.spotify.com/artist/7373Jduz47jMwApJDrM6WQ"
      },
      "followers" : {
        "href" : null,
        "total" : 38
      },
      "genres" : [ ],
      "href" : "https://api.spotify.com/v1/artists/7373Jduz47jMwApJDrM6WQ",
      "id" : "7373Jduz47jMwApJDrM6WQ",
      "images" : [ ],
      "name" : "DJ Lord Such",
      "popularity" : 21,
      "type" : "artist",
      "uri" : "spotify:artist:7373Jduz47jMwApJDrM6WQ"
    }, {
      "external_urls" : {
        "spotify" : "https://open.spotify.com/artist/63hY3EAEJsNb2IK3laXMHO"
      },
      "followers" : {
        "href" : null,
        "total" : 693
      },
      "genres" : [ ],
      "href" : "https://api.spotify.com/v1/artists/63hY3EAEJsNb2IK3laXMHO",
      "id" : "63hY3EAEJsNb2IK3laXMHO",
      "images" : [ {
        "height" : 640,
        "url" : "https://i.scdn.co/image/ab6761610000e5eb9398c3e076c98cef2ca323cb",
        "width" : 640
      }, {
        "height" : 320,
        "url" : "https://i.scdn.co/image/ab676161000051749398c3e076c98cef2ca323cb",
        "width" : 320
      }, {
        "height" : 160,
        "url" : "https://i.scdn.co/image/ab6761610000f1789398c3e076c98cef2ca323cb",
        "width" : 160
      } ],
      "name" : "DJ Lord",
      "popularity" : 8,
      "type" : "artist",
      "uri" : "spotify:artist:63hY3EAEJsNb2IK3laXMHO"
    }, {
      "external_urls" : {
        "spotify" : "https://open.spotify.com/artist/25AgjapgoTdZUNyJv5mzut"
      },
      "followers" : {
        "href" : null,
        "total" : 54
      },
      "genres" : [ ],
      "href" : "https://api.spotify.com/v1/artists/25AgjapgoTdZUNyJv5mzut",
      "id" : "25AgjapgoTdZUNyJv5mzut",
      "images" : [ ],
      "name" : "DJ Lord Sear",
      "popularity" : 10,
      "type" : "artist",
      "uri" : "spotify:artist:25AgjapgoTdZUNyJv5mzut"
    }, {
      "external_urls" : {
        "spotify" : "https://open.spotify.com/artist/0agPE5FPp5xt3EgXQ00OKg"
      },
      "followers" : {
        "href" : null,
        "total" : 89
      },
      "genres" : [ ],
      "href" : "https://api.spotify.com/v1/artists/0agPE5FPp5xt3EgXQ00OKg",
      "id" : "0agPE5FPp5xt3EgXQ00OKg",
      "images" : [ {
        "height" : 640,
        "url" : "https://i.scdn.co/image/ab6761610000e5ebcbde80c499a6a8803d24a4cf",
        "width" : 640
      }, {
        "height" : 320,
        "url" : "https://i.scdn.co/image/ab67616100005174cbde80c499a6a8803d24a4cf",
        "width" : 320
      }, {
        "height" : 160,
        "url" : "https://i.scdn.co/image/ab6761610000f178cbde80c499a6a8803d24a4cf",
        "width" : 160
      } ],
      "name" : "DJ LORD",
      "popularity" : 0,
      "type" : "artist",
      "uri" : "spotify:artist:0agPE5FPp5xt3EgXQ00OKg"
    }, {
      "external_urls" : {
        "spotify" : "https://open.spotify.com/artist/5R9oXMQ26xJlNAHnuSTVhn"
      },
      "followers" : {
        "href" : null,
        "total" : 3
      },
      "genres" : [ ],
      "href" : "https://api.spotify.com/v1/artists/5R9oXMQ26xJlNAHnuSTVhn",
      "id" : "5R9oXMQ26xJlNAHnuSTVhn",
      "images" : [ {
        "height" : 640,
        "url" : "https://i.scdn.co/image/ab67616d0000b2738729c72241600c29a05bd57b",
        "width" : 640
      }, {
        "height" : 300,
        "url" : "https://i.scdn.co/image/ab67616d00001e028729c72241600c29a05bd57b",
        "width" : 300
      }, {
        "height" : 64,
        "url" : "https://i.scdn.co/image/ab67616d000048518729c72241600c29a05bd57b",
        "width" : 64
      } ],
      "name" : "DJ lord_evil",
      "popularity" : 0,
      "type" : "artist",
      "uri" : "spotify:artist:5R9oXMQ26xJlNAHnuSTVhn"
    }, {
      "external_urls" : {
        "spotify" : "https://open.spotify.com/artist/73bO5KM8j5d7OCCYApFtQF"
      },
      "followers" : {
        "href" : null,
        "total" : 120
      },
      "genres" : [ ],
      "href" : "https://api.spotify.com/v1/artists/73bO5KM8j5d7OCCYApFtQF",
      "id" : "73bO5KM8j5d7OCCYApFtQF",
      "images" : [ {
        "height" : 640,
        "url" : "https://i.scdn.co/image/ab67616d0000b273c9bafbf4238e535cb44eec2a",
        "width" : 640
      }, {
        "height" : 300,
        "url" : "https://i.scdn.co/image/ab67616d00001e02c9bafbf4238e535cb44eec2a",
        "width" : 300
      }, {
        "height" : 64,
        "url" : "https://i.scdn.co/image/ab67616d00004851c9bafbf4238e535cb44eec2a",
        "width" : 64
      } ],
      "name" : "DJ Lordjazz",
      "popularity" : 1,
      "type" : "artist",
      "uri" : "spotify:artist:73bO5KM8j5d7OCCYApFtQF"
    }, {
      "external_urls" : {
        "spotify" : "https://open.spotify.com/artist/6JfyxO0rmw24krSYqBRGgx"
      },
      "followers" : {
        "href" : null,
        "total" : 1
      },
      "genres" : [ ],
      "href" : "https://api.spotify.com/v1/artists/6JfyxO0rmw24krSYqBRGgx",
      "id" : "6JfyxO0rmw24krSYqBRGgx",
      "images" : [ {
        "height" : 640,
        "url" : "https://i.scdn.co/image/ab67616d0000b2735b6cc4336cc4d4e252d2638e",
        "width" : 640
      }, {
        "height" : 300,
        "url" : "https://i.scdn.co/image/ab67616d00001e025b6cc4336cc4d4e252d2638e",
        "width" : 300
      }, {
        "height" : 64,
        "url" : "https://i.scdn.co/image/ab67616d000048515b6cc4336cc4d4e252d2638e",
        "width" : 64
      } ],
      "name" : "Dj Lord",
      "popularity" : 0,
      "type" : "artist",
      "uri" : "spotify:artist:6JfyxO0rmw24krSYqBRGgx"
    }, {
      "external_urls" : {
        "spotify" : "https://open.spotify.com/artist/7zAO11um5mahkLCCdA3BzL"
      },
      "followers" : {
        "href" : null,
        "total" : 36
      },
      "genres" : [ ],
      "href" : "https://api.spotify.com/v1/artists/7zAO11um5mahkLCCdA3BzL",
      "id" : "7zAO11um5mahkLCCdA3BzL",
      "images" : [ {
        "height" : 640,
        "url" : "https://i.scdn.co/image/ab67616d0000b273fe586137ae81ec6fe131fa82",
        "width" : 640
      }, {
        "height" : 300,
        "url" : "https://i.scdn.co/image/ab67616d00001e02fe586137ae81ec6fe131fa82",
        "width" : 300
      }, {
        "height" : 64,
        "url" : "https://i.scdn.co/image/ab67616d00004851fe586137ae81ec6fe131fa82",
        "width" : 64
      } ],
      "name" : "DJ Lord Ron",
      "popularity" : 0,
      "type" : "artist",
      "uri" : "spotify:artist:7zAO11um5mahkLCCdA3BzL"
    }, {
      "external_urls" : {
        "spotify" : "https://open.spotify.com/artist/0pbiF0fRqvx5nS2GH9Ov3n"
      },
      "followers" : {
        "href" : null,
        "total" : 1
      },
      "genres" : [ ],
      "href" : "https://api.spotify.com/v1/artists/0pbiF0fRqvx5nS2GH9Ov3n",
      "id" : "0pbiF0fRqvx5nS2GH9Ov3n",
      "images" : [ {
        "height" : 640,
        "url" : "https://i.scdn.co/image/ab67616d0000b27333b6c7419e4365e475afc551",
        "width" : 640
      }, {
        "height" : 300,
        "url" : "https://i.scdn.co/image/ab67616d00001e0233b6c7419e4365e475afc551",
        "width" : 300
      }, {
        "height" : 64,
        "url" : "https://i.scdn.co/image/ab67616d0000485133b6c7419e4365e475afc551",
        "width" : 64
      } ],
      "name" : "Dj Lordziggy",
      "popularity" : 0,
      "type" : "artist",
      "uri" : "spotify:artist:0pbiF0fRqvx5nS2GH9Ov3n"
    }, {
      "external_urls" : {
        "spotify" : "https://open.spotify.com/artist/7HyEiPYGpbbL9jWVXrB0hs"
      },
      "followers" : {
        "href" : null,
        "total" : 69
      },
      "genres" : [ ],
      "href" : "https://api.spotify.com/v1/artists/7HyEiPYGpbbL9jWVXrB0hs",
      "id" : "7HyEiPYGpbbL9jWVXrB0hs",
      "images" : [ {
        "height" : 640,
        "url" : "https://i.scdn.co/image/ab67616d0000b273b3812eeaa13a292173e2afac",
        "width" : 640
      }, {
        "height" : 300,
        "url" : "https://i.scdn.co/image/ab67616d00001e02b3812eeaa13a292173e2afac",
        "width" : 300
      }, {
        "height" : 64,
        "url" : "https://i.scdn.co/image/ab67616d00004851b3812eeaa13a292173e2afac",
        "width" : 64
      } ],
      "name" : "Dj Lordjazz",
      "popularity" : 0,
      "type" : "artist",
      "uri" : "spotify:artist:7HyEiPYGpbbL9jWVXrB0hs"
    }, {
      "external_urls" : {
        "spotify" : "https://open.spotify.com/artist/5wimmgZages4f80R1GY5ki"
      },
      "followers" : {
        "href" : null,
        "total" : 44
      },
      "genres" : [ ],
      "href" : "https://api.spotify.com/v1/artists/5wimmgZages4f80R1GY5ki",
      "id" : "5wimmgZages4f80R1GY5ki",
      "images" : [ {
        "height" : 640,
        "url" : "https://i.scdn.co/image/ab67616d0000b27390326412b742afa3bce53685",
        "width" : 640
      }, {
        "height" : 300,
        "url" : "https://i.scdn.co/image/ab67616d00001e0290326412b742afa3bce53685",
        "width" : 300
      }, {
        "height" : 64,
        "url" : "https://i.scdn.co/image/ab67616d0000485190326412b742afa3bce53685",
        "width" : 64
      } ],
      "name" : "DJ Lord",
      "popularity" : 0,
      "type" : "artist",
      "uri" : "spotify:artist:5wimmgZages4f80R1GY5ki"
    }, {
      "external_urls" : {
        "spotify" : "https://open.spotify.com/artist/5XT9t4Xe27Jhb2RkqdhaYP"
      },
      "followers" : {
        "href" : null,
        "total" : 10
      },
      "genres" : [ ],
      "href" : "https://api.spotify.com/v1/artists/5XT9t4Xe27Jhb2RkqdhaYP",
      "id" : "5XT9t4Xe27Jhb2RkqdhaYP",
      "images" : [ ],
      "name" : "DJ Lord Chamy",
      "popularity" : 0,
      "type" : "artist",
      "uri" : "spotify:artist:5XT9t4Xe27Jhb2RkqdhaYP"
    }, {
      "external_urls" : {
        "spotify" : "https://open.spotify.com/artist/4Sc8bpIIvXMQG0HFHwxPIw"
      },
      "followers" : {
        "href" : null,
        "total" : 1
      },
      "genres" : [ ],
      "href" : "https://api.spotify.com/v1/artists/4Sc8bpIIvXMQG0HFHwxPIw",
      "id" : "4Sc8bpIIvXMQG0HFHwxPIw",
      "images" : [ ],
      "name" : "DJ Lord Fader",
      "popularity" : 0,
      "type" : "artist",
      "uri" : "spotify:artist:4Sc8bpIIvXMQG0HFHwxPIw"
    }, {
      "external_urls" : {
        "spotify" : "https://open.spotify.com/artist/5Pgp5xRG7nk6ChgDAYW0D8"
      },
      "followers" : {
        "href" : null,
        "total" : 33
      },
      "genres" : [ ],
      "href" : "https://api.spotify.com/v1/artists/5Pgp5xRG7nk6ChgDAYW0D8",
      "id" : "5Pgp5xRG7nk6ChgDAYW0D8",
      "images" : [ {
        "height" : 640,
        "url" : "https://i.scdn.co/image/ab6761610000e5eb053573471e47ee6d192d8e83",
        "width" : 640
      }, {
        "height" : 320,
        "url" : "https://i.scdn.co/image/ab67616100005174053573471e47ee6d192d8e83",
        "width" : 320
      }, {
        "height" : 160,
        "url" : "https://i.scdn.co/image/ab6761610000f178053573471e47ee6d192d8e83",
        "width" : 160
      } ],
      "name" : "Lordz Djs",
      "popularity" : 0,
      "type" : "artist",
      "uri" : "spotify:artist:5Pgp5xRG7nk6ChgDAYW0D8"
    }, {
      "external_urls" : {
        "spotify" : "https://open.spotify.com/artist/5Z9zDj2eCFRYrLhWe1PrM8"
      },
      "followers" : {
        "href" : null,
        "total" : 9
      },
      "genres" : [ ],
      "href" : "https://api.spotify.com/v1/artists/5Z9zDj2eCFRYrLhWe1PrM8",
      "id" : "5Z9zDj2eCFRYrLhWe1PrM8",
      "images" : [ {
        "height" : 640,
        "url" : "https://i.scdn.co/image/ab67616d0000b273197fed0de0b048a3202a2bc2",
        "width" : 640
      }, {
        "height" : 300,
        "url" : "https://i.scdn.co/image/ab67616d00001e02197fed0de0b048a3202a2bc2",
        "width" : 300
      }, {
        "height" : 64,
        "url" : "https://i.scdn.co/image/ab67616d00004851197fed0de0b048a3202a2bc2",
        "width" : 64
      } ],
      "name" : "DJ Lord Up",
      "popularity" : 2,
      "type" : "artist",
      "uri" : "spotify:artist:5Z9zDj2eCFRYrLhWe1PrM8"
    }, {
      "external_urls" : {
        "spotify" : "https://open.spotify.com/artist/5pV3OJzXXEjzvwsKZ2x09s"
      },
      "followers" : {
        "href" : null,
        "total" : 121
      },
      "genres" : [ ],
      "href" : "https://api.spotify.com/v1/artists/5pV3OJzXXEjzvwsKZ2x09s",
      "id" : "5pV3OJzXXEjzvwsKZ2x09s",
      "images" : [ {
        "height" : 640,
        "url" : "https://i.scdn.co/image/ab6761610000e5ebc363d01ffad2505c85e76cc1",
        "width" : 640
      }, {
        "height" : 320,
        "url" : "https://i.scdn.co/image/ab67616100005174c363d01ffad2505c85e76cc1",
        "width" : 320
      }, {
        "height" : 160,
        "url" : "https://i.scdn.co/image/ab6761610000f178c363d01ffad2505c85e76cc1",
        "width" : 160
      } ],
      "name" : "Lord Djax",
      "popularity" : 0,
      "type" : "artist",
      "uri" : "spotify:artist:5pV3OJzXXEjzvwsKZ2x09s"
    }, {
      "external_urls" : {
        "spotify" : "https://open.spotify.com/artist/1swEBKnEIYVBauorvEXEUq"
      },
      "followers" : {
        "href" : null,
        "total" : 21
      },
      "genres" : [ ],
      "href" : "https://api.spotify.com/v1/artists/1swEBKnEIYVBauorvEXEUq",
      "id" : "1swEBKnEIYVBauorvEXEUq",
      "images" : [ {
        "height" : 640,
        "url" : "https://i.scdn.co/image/ab67616d0000b2731f80cebf0c563333b97cb5c3",
        "width" : 640
      }, {
        "height" : 300,
        "url" : "https://i.scdn.co/image/ab67616d00001e021f80cebf0c563333b97cb5c3",
        "width" : 300
      }, {
        "height" : 64,
        "url" : "https://i.scdn.co/image/ab67616d000048511f80cebf0c563333b97cb5c3",
        "width" : 64
      } ],
      "name" : "DJ Lord Vampirick",
      "popularity" : 0,
      "type" : "artist",
      "uri" : "spotify:artist:1swEBKnEIYVBauorvEXEUq"
    }, {
      "external_urls" : {
        "spotify" : "https://open.spotify.com/artist/2pJJPAXGc2AvCf9CoUy2LA"
      },
      "followers" : {
        "href" : null,
        "total" : 41
      },
      "genres" : [ ],
      "href" : "https://api.spotify.com/v1/artists/2pJJPAXGc2AvCf9CoUy2LA",
      "id" : "2pJJPAXGc2AvCf9CoUy2LA",
      "images" : [ {
        "height" : 640,
        "url" : "https://i.scdn.co/image/ab6761610000e5ebe80fe8373e47c87d5b3ad0c0",
        "width" : 640
      }, {
        "height" : 320,
        "url" : "https://i.scdn.co/image/ab67616100005174e80fe8373e47c87d5b3ad0c0",
        "width" : 320
      }, {
        "height" : 160,
        "url" : "https://i.scdn.co/image/ab6761610000f178e80fe8373e47c87d5b3ad0c0",
        "width" : 160
      } ],
      "name" : "Lord Djeezy",
      "popularity" : 0,
      "type" : "artist",
      "uri" : "spotify:artist:2pJJPAXGc2AvCf9CoUy2LA"
    }, {
      "external_urls" : {
        "spotify" : "https://open.spotify.com/artist/35Fm0yAHZGb4chqpsUIuUU"
      },
      "followers" : {
        "href" : null,
        "total" : 11
      },
      "genres" : [ ],
      "href" : "https://api.spotify.com/v1/artists/35Fm0yAHZGb4chqpsUIuUU",
      "id" : "35Fm0yAHZGb4chqpsUIuUU",
      "images" : [ {
        "height" : 640,
        "url" : "https://i.scdn.co/image/ab67616d0000b273f9664b0ad2dad7e70cd56030",
        "width" : 640
      }, {
        "height" : 300,
        "url" : "https://i.scdn.co/image/ab67616d00001e02f9664b0ad2dad7e70cd56030",
        "width" : 300
      }, {
        "height" : 64,
        "url" : "https://i.scdn.co/image/ab67616d00004851f9664b0ad2dad7e70cd56030",
        "width" : 64
      } ],
      "name" : "Lord Djinnx",
      "popularity" : 0,
      "type" : "artist",
      "uri" : "spotify:artist:35Fm0yAHZGb4chqpsUIuUU"
    }, {
      "external_urls" : {
        "spotify" : "https://open.spotify.com/artist/05dhsxOlbqrTcFCuhVnXGC"
      },
      "followers" : {
        "href" : null,
        "total" : 0
      },
      "genres" : [ ],
      "href" : "https://api.spotify.com/v1/artists/05dhsxOlbqrTcFCuhVnXGC",
      "id" : "05dhsxOlbqrTcFCuhVnXGC",
      "images" : [ ],
      "name" : "Dj Lord",
      "popularity" : 0,
      "type" : "artist",
      "uri" : "spotify:artist:05dhsxOlbqrTcFCuhVnXGC"
    } ],
    "limit" : 20,
    "next" : "https://api.spotify.com/v1/search?query=+DJ+Lord&type=artist&market=US&offset=20&limit=20",
    "offset" : 0,
    "previous" : null,
    "total" : 49
  }
}