{
  "artists" : {
    "href" : "https://api.spotify.com/v1/search?query=+Raveena&type=artist&market=US&offset=0&limit=20",
    "items" : [ {
      "external_urls" : {
        "spotify" : "https://open.spotify.com/artist/2kQnsbKnIiMahOetwlfcaS"
      },
      "followers" : {
        "href" : null,
        "total" : 387055
      },
      "genres" : [ "alternative r&b", "chill r&b", "high vibe", "indie r&b", "indie soul" ],
      "href" : "https://api.spotify.com/v1/artists/2kQnsbKnIiMahOetwlfcaS",
      "id" : "2kQnsbKnIiMahOetwlfcaS",
      "images" : [ {
        "height" : 640,
        "url" : "https://i.scdn.co/image/ab6761610000e5eb6b95816dfe55be49610a9e1f",
        "width" : 640
      }, {
        "height" : 320,
        "url" : "https://i.scdn.co/image/ab676161000051746b95816dfe55be49610a9e1f",
        "width" : 320
      }, {
        "height" : 160,
        "url" : "https://i.scdn.co/image/ab6761610000f1786b95816dfe55be49610a9e1f",
        "width" : 160
      } ],
      "name" : "Raveena",
      "popularity" : 64,
      "type" : "artist",
      "uri" : "spotify:artist:2kQnsbKnIiMahOetwlfcaS"
    }, {
      "external_urls" : {
        "spotify" : "https://open.spotify.com/artist/5II26ULdW25JT4tbUISamb"
      },
      "followers" : {
        "href" : null,
        "total" : 13708
      },
      "genres" : [ ],
      "href" : "https://api.spotify.com/v1/artists/5II26ULdW25JT4tbUISamb",
      "id" : "5II26ULdW25JT4tbUISamb",
      "images" : [ {
        "height" : 640,
        "url" : "https://i.scdn.co/image/ab6761610000e5eb067649c1bed7bfbc8c768c95",
        "width" : 640
      }, {
        "height" : 320,
        "url" : "https://i.scdn.co/image/ab67616100005174067649c1bed7bfbc8c768c95",
        "width" : 320
      }, {
        "height" : 160,
        "url" : "https://i.scdn.co/image/ab6761610000f178067649c1bed7bfbc8c768c95",
        "width" : 160
      } ],
      "name" : "Raveena Mehta",
      "popularity" : 14,
      "type" : "artist",
      "uri" : "spotify:artist:5II26ULdW25JT4tbUISamb"
    }, {
      "external_urls" : {
        "spotify" : "https://open.spotify.com/artist/3JShaTOiYkvAT6XoaU38se"
      },
      "followers" : {
        "href" : null,
        "total" : 114
      },
      "genres" : [ ],
      "href" : "https://api.spotify.com/v1/artists/3JShaTOiYkvAT6XoaU38se",
      "id" : "3JShaTOiYkvAT6XoaU38se",
      "images" : [ {
        "height" : 640,
        "url" : "https://i.scdn.co/image/ab6761610000e5ebd31d4f5e63bee57960da7732",
        "width" : 640
      }, {
        "height" : 320,
        "url" : "https://i.scdn.co/image/ab67616100005174d31d4f5e63bee57960da7732",
        "width" : 320
      }, {
        "height" : 160,
        "url" : "https://i.scdn.co/image/ab6761610000f178d31d4f5e63bee57960da7732",
        "width" : 160
      } ],
      "name" : "Raveena Paul",
      "popularity" : 16,
      "type" : "artist",
      "uri" : "spotify:artist:3JShaTOiYkvAT6XoaU38se"
    }, {
      "external_urls" : {
        "spotify" : "https://open.spotify.com/artist/6JD4o8VZJfxmNipA1JM5ZJ"
      },
      "followers" : {
        "href" : null,
        "total" : 152
      },
      "genres" : [ ],
      "href" : "https://api.spotify.com/v1/artists/6JD4o8VZJfxmNipA1JM5ZJ",
      "id" : "6JD4o8VZJfxmNipA1JM5ZJ",
      "images" : [ {
        "height" : 640,
        "url" : "https://i.scdn.co/image/ab67616d0000b27376eca560538f5d7c265b2404",
        "width" : 640
      }, {
        "height" : 300,
        "url" : "https://i.scdn.co/image/ab67616d00001e0276eca560538f5d7c265b2404",
        "width" : 300
      }, {
        "height" : 64,
        "url" : "https://i.scdn.co/image/ab67616d0000485176eca560538f5d7c265b2404",
        "width" : 64
      } ],
      "name" : "Raveena",
      "popularity" : 2,
      "type" : "artist",
      "uri" : "spotify:artist:6JD4o8VZJfxmNipA1JM5ZJ"
    }, {
      "external_urls" : {
        "spotify" : "https://open.spotify.com/artist/6ako72peuAstMWF0pGN5P9"
      },
      "followers" : {
        "href" : null,
        "total" : 4761
      },
      "genres" : [ ],
      "href" : "https://api.spotify.com/v1/artists/6ako72peuAstMWF0pGN5P9",
      "id" : "6ako72peuAstMWF0pGN5P9",
      "images" : [ {
        "height" : 640,
        "url" : "https://i.scdn.co/image/ab67616d0000b27349484fc80352463c62cf02a3",
        "width" : 640
      }, {
        "height" : 300,
        "url" : "https://i.scdn.co/image/ab67616d00001e0249484fc80352463c62cf02a3",
        "width" : 300
      }, {
        "height" : 64,
        "url" : "https://i.scdn.co/image/ab67616d0000485149484fc80352463c62cf02a3",
        "width" : 64
      } ],
      "name" : "raveena mehta",
      "popularity" : 5,
      "type" : "artist",
      "uri" : "spotify:artist:6ako72peuAstMWF0pGN5P9"
    }, {
      "external_urls" : {
        "spotify" : "https://open.spotify.com/artist/6lsDs47lFLxVlad5Sdwkup"
      },
      "followers" : {
        "href" : null,
        "total" : 1
      },
      "genres" : [ ],
      "href" : "https://api.spotify.com/v1/artists/6lsDs47lFLxVlad5Sdwkup",
      "id" : "6lsDs47lFLxVlad5Sdwkup",
      "images" : [ ],
      "name" : "Raveena Rabi",
      "popularity" : 0,
      "type" : "artist",
      "uri" : "spotify:artist:6lsDs47lFLxVlad5Sdwkup"
    }, {
      "external_urls" : {
        "spotify" : "https://open.spotify.com/artist/4YoYI0jGSMZlM7FXgcxueA"
      },
      "followers" : {
        "href" : null,
        "total" : 4
      },
      "genres" : [ ],
      "href" : "https://api.spotify.com/v1/artists/4YoYI0jGSMZlM7FXgcxueA",
      "id" : "4YoYI0jGSMZlM7FXgcxueA",
      "images" : [ {
        "height" : 640,
        "url" : "https://i.scdn.co/image/ab67616d0000b2732a7d7e53c42c5df3732e3e20",
        "width" : 640
      }, {
        "height" : 300,
        "url" : "https://i.scdn.co/image/ab67616d00001e022a7d7e53c42c5df3732e3e20",
        "width" : 300
      }, {
        "height" : 64,
        "url" : "https://i.scdn.co/image/ab67616d000048512a7d7e53c42c5df3732e3e20",
        "width" : 64
      } ],
      "name" : "Raveena Paul",
      "popularity" : 0,
      "type" : "artist",
      "uri" : "spotify:artist:4YoYI0jGSMZlM7FXgcxueA"
    }, {
      "external_urls" : {
        "spotify" : "https://open.spotify.com/artist/5nppFDWF3Hfbuj8sIGrG8F"
      },
      "followers" : {
        "href" : null,
        "total" : 0
      },
      "genres" : [ ],
      "href" : "https://api.spotify.com/v1/artists/5nppFDWF3Hfbuj8sIGrG8F",
      "id" : "5nppFDWF3Hfbuj8sIGrG8F",
      "images" : [ ],
      "name" : "Raveena Dhaha",
      "popularity" : 0,
      "type" : "artist",
      "uri" : "spotify:artist:5nppFDWF3Hfbuj8sIGrG8F"
    }, {
      "external_urls" : {
        "spotify" : "https://open.spotify.com/artist/2CzLAJPTOHExfkLqbz7to9"
      },
      "followers" : {
        "href" : null,
        "total" : 0
      },
      "genres" : [ ],
      "href" : "https://api.spotify.com/v1/artists/2CzLAJPTOHExfkLqbz7to9",
      "id" : "2CzLAJPTOHExfkLqbz7to9",
      "images" : [ ],
      "name" : "Raveena Bishnoi",
      "popularity" : 3,
      "type" : "artist",
      "uri" : "spotify:artist:2CzLAJPTOHExfkLqbz7to9"
    }, {
      "external_urls" : {
        "spotify" : "https://open.spotify.com/artist/4ZQ2rl3Bil2ttt2LdGcAID"
      },
      "followers" : {
        "href" : null,
        "total" : 0
      },
      "genres" : [ ],
      "href" : "https://api.spotify.com/v1/artists/4ZQ2rl3Bil2ttt2LdGcAID",
      "id" : "4ZQ2rl3Bil2ttt2LdGcAID",
      "images" : [ ],
      "name" : "Raveena Dhana",
      "popularity" : 0,
      "type" : "artist",
      "uri" : "spotify:artist:4ZQ2rl3Bil2ttt2LdGcAID"
    }, {
      "external_urls" : {
        "spotify" : "https://open.spotify.com/artist/0qyFmLmQ41rnyr15XFXyg1"
      },
      "followers" : {
        "href" : null,
        "total" : 436
      },
      "genres" : [ ],
      "href" : "https://api.spotify.com/v1/artists/0qyFmLmQ41rnyr15XFXyg1",
      "id" : "0qyFmLmQ41rnyr15XFXyg1",
      "images" : [ ],
      "name" : "Raveena Tandon",
      "popularity" : 0,
      "type" : "artist",
      "uri" : "spotify:artist:0qyFmLmQ41rnyr15XFXyg1"
    }, {
      "external_urls" : {
        "spotify" : "https://open.spotify.com/artist/7gLK58RFNtQpq8spl1KOvN"
      },
      "followers" : {
        "href" : null,
        "total" : 3
      },
      "genres" : [ ],
      "href" : "https://api.spotify.com/v1/artists/7gLK58RFNtQpq8spl1KOvN",
      "id" : "7gLK58RFNtQpq8spl1KOvN",
      "images" : [ {
        "height" : 640,
        "url" : "https://i.scdn.co/image/ab67616d0000b2732931f5ed03ee71e59c5616dd",
        "width" : 640
      }, {
        "height" : 300,
        "url" : "https://i.scdn.co/image/ab67616d00001e022931f5ed03ee71e59c5616dd",
        "width" : 300
      }, {
        "height" : 64,
        "url" : "https://i.scdn.co/image/ab67616d000048512931f5ed03ee71e59c5616dd",
        "width" : 64
      } ],
      "name" : "Raveena's Music",
      "popularity" : 0,
      "type" : "artist",
      "uri" : "spotify:artist:7gLK58RFNtQpq8spl1KOvN"
    }, {
      "external_urls" : {
        "spotify" : "https://open.spotify.com/artist/4jnqgzYmGRPu3sufKuWu4m"
      },
      "followers" : {
        "href" : null,
        "total" : 1
      },
      "genres" : [ ],
      "href" : "https://api.spotify.com/v1/artists/4jnqgzYmGRPu3sufKuWu4m",
      "id" : "4jnqgzYmGRPu3sufKuWu4m",
      "images" : [ {
        "height" : 640,
        "url" : "https://i.scdn.co/image/ab67616d0000b273206f2e1803196625c24ad2c6",
        "width" : 640
      }, {
        "height" : 300,
        "url" : "https://i.scdn.co/image/ab67616d00001e02206f2e1803196625c24ad2c6",
        "width" : 300
      }, {
        "height" : 64,
        "url" : "https://i.scdn.co/image/ab67616d00004851206f2e1803196625c24ad2c6",
        "width" : 64
      } ],
      "name" : "Raveena Jain",
      "popularity" : 0,
      "type" : "artist",
      "uri" : "spotify:artist:4jnqgzYmGRPu3sufKuWu4m"
    }, {
      "external_urls" : {
        "spotify" : "https://open.spotify.com/artist/1gteEjMvRiH3GB7LNs51hB"
      },
      "followers" : {
        "href" : null,
        "total" : 7
      },
      "genres" : [ ],
      "href" : "https://api.spotify.com/v1/artists/1gteEjMvRiH3GB7LNs51hB",
      "id" : "1gteEjMvRiH3GB7LNs51hB",
      "images" : [ ],
      "name" : "Raveena Tondon",
      "popularity" : 0,
      "type" : "artist",
      "uri" : "spotify:artist:1gteEjMvRiH3GB7LNs51hB"
    }, {
      "external_urls" : {
        "spotify" : "https://open.spotify.com/artist/7KYFWfSqo2upTCuigHx2qH"
      },
      "followers" : {
        "href" : null,
        "total" : 0
      },
      "genres" : [ ],
      "href" : "https://api.spotify.com/v1/artists/7KYFWfSqo2upTCuigHx2qH",
      "id" : "7KYFWfSqo2upTCuigHx2qH",
      "images" : [ ],
      "name" : "Raveena Bishnoi",
      "popularity" : 2,
      "type" : "artist",
      "uri" : "spotify:artist:7KYFWfSqo2upTCuigHx2qH"
    }, {
      "external_urls" : {
        "spotify" : "https://open.spotify.com/artist/6jtg7WpiArFavsSkoSAaWt"
      },
      "followers" : {
        "href" : null,
        "total" : 0
      },
      "genres" : [ ],
      "href" : "https://api.spotify.com/v1/artists/6jtg7WpiArFavsSkoSAaWt",
      "id" : "6jtg7WpiArFavsSkoSAaWt",
      "images" : [ ],
      "name" : "Raveena Taurani",
      "popularity" : 0,
      "type" : "artist",
      "uri" : "spotify:artist:6jtg7WpiArFavsSkoSAaWt"
    }, {
      "external_urls" : {
        "spotify" : "https://open.spotify.com/artist/4rzT12gpcMAJlRV4bCf2ct"
      },
      "followers" : {
        "href" : null,
        "total" : 0
      },
      "genres" : [ ],
      "href" : "https://api.spotify.com/v1/artists/4rzT12gpcMAJlRV4bCf2ct",
      "id" : "4rzT12gpcMAJlRV4bCf2ct",
      "images" : [ {
        "height" : 640,
        "url" : "https://i.scdn.co/image/ab67616d0000b2731be1499a4b612d5eb6ec853b",
        "width" : 640
      }, {
        "height" : 300,
        "url" : "https://i.scdn.co/image/ab67616d00001e021be1499a4b612d5eb6ec853b",
        "width" : 300
      }, {
        "height" : 64,
        "url" : "https://i.scdn.co/image/ab67616d000048511be1499a4b612d5eb6ec853b",
        "width" : 64
      } ],
      "name" : "Raveena Shannon",
      "popularity" : 0,
      "type" : "artist",
      "uri" : "spotify:artist:4rzT12gpcMAJlRV4bCf2ct"
    }, {
      "external_urls" : {
        "spotify" : "https://open.spotify.com/artist/2oEpxmkRsA7xF3uqcX5sWf"
      },
      "followers" : {
        "href" : null,
        "total" : 0
      },
      "genres" : [ ],
      "href" : "https://api.spotify.com/v1/artists/2oEpxmkRsA7xF3uqcX5sWf",
      "id" : "2oEpxmkRsA7xF3uqcX5sWf",
      "images" : [ {
        "height" : 640,
        "url" : "https://i.scdn.co/image/ab67616d0000b27383baf26c8d7f64f8340d5f59",
        "width" : 640
      }, {
        "height" : 300,
        "url" : "https://i.scdn.co/image/ab67616d00001e0283baf26c8d7f64f8340d5f59",
        "width" : 300
      }, {
        "height" : 64,
        "url" : "https://i.scdn.co/image/ab67616d0000485183baf26c8d7f64f8340d5f59",
        "width" : 64
      } ],
      "name" : "Raveena Chaudhari",
      "popularity" : 0,
      "type" : "artist",
      "uri" : "spotify:artist:2oEpxmkRsA7xF3uqcX5sWf"
    }, {
      "external_urls" : {
        "spotify" : "https://open.spotify.com/artist/664hlaFCeX8FsMEff7RqSU"
      },
      "followers" : {
        "href" : null,
        "total" : 1
      },
      "genres" : [ ],
      "href" : "https://api.spotify.com/v1/artists/664hlaFCeX8FsMEff7RqSU",
      "id" : "664hlaFCeX8FsMEff7RqSU",
      "images" : [ {
        "height" : 640,
        "url" : "https://i.scdn.co/image/ab67616d0000b273aef9590f7db96568da5e828b",
        "width" : 640
      }, {
        "height" : 300,
        "url" : "https://i.scdn.co/image/ab67616d00001e02aef9590f7db96568da5e828b",
        "width" : 300
      }, {
        "height" : 64,
        "url" : "https://i.scdn.co/image/ab67616d00004851aef9590f7db96568da5e828b",
        "width" : 64
      } ],
      "name" : "Raveena Chaudhary",
      "popularity" : 0,
      "type" : "artist",
      "uri" : "spotify:artist:664hlaFCeX8FsMEff7RqSU"
    }, {
      "external_urls" : {
        "spotify" : "https://open.spotify.com/artist/3obTT8P08tfhvCr9EuUqjs"
      },
      "followers" : {
        "href" : null,
        "total" : 0
      },
      "genres" : [ ],
      "href" : "https://api.spotify.com/v1/artists/3obTT8P08tfhvCr9EuUqjs",
      "id" : "3obTT8P08tfhvCr9EuUqjs",
      "images" : [ ],
      "name" : "Raveena Bishoni",
      "popularity" : 0,
      "type" : "artist",
      "uri" : "spotify:artist:3obTT8P08tfhvCr9EuUqjs"
    } ],
    "limit" : 20,
    "next" : "https://api.spotify.com/v1/search?query=+Raveena&type=artist&market=US&offset=20&limit=20",
    "offset" : 0,
    "previous" : null,
    "total" : 31
  }
}