{
  "artists" : {
    "href" : "https://api.spotify.com/v1/search?query=+The+Hu&type=artist&market=US&offset=0&limit=20",
    "items" : [ {
      "external_urls" : {
        "spotify" : "https://open.spotify.com/artist/0b2B3PwcYzQAhuJacmcYgc"
      },
      "followers" : {
        "href" : null,
        "total" : 575738
      },
      "genres" : [ "oriental metal" ],
      "href" : "https://api.spotify.com/v1/artists/0b2B3PwcYzQAhuJacmcYgc",
      "id" : "0b2B3PwcYzQAhuJacmcYgc",
      "images" : [ {
        "height" : 640,
        "url" : "https://i.scdn.co/image/ab6761610000e5eb2ccdc24acf91ba14b1b2273a",
        "width" : 640
      }, {
        "height" : 320,
        "url" : "https://i.scdn.co/image/ab676161000051742ccdc24acf91ba14b1b2273a",
        "width" : 320
      }, {
        "height" : 160,
        "url" : "https://i.scdn.co/image/ab6761610000f1782ccdc24acf91ba14b1b2273a",
        "width" : 160
      } ],
      "name" : "The HU",
      "popularity" : 59,
      "type" : "artist",
      "uri" : "spotify:artist:0b2B3PwcYzQAhuJacmcYgc"
    }, {
      "external_urls" : {
        "spotify" : "https://open.spotify.com/artist/7A9yZMTrFZcgEWAX2kBfK6"
      },
      "followers" : {
        "href" : null,
        "total" : 1207276
      },
      "genres" : [ "album rock", "classic rock", "mellow gold", "new wave pop", "rock", "soft rock" ],
      "href" : "https://api.spotify.com/v1/artists/7A9yZMTrFZcgEWAX2kBfK6",
      "id" : "7A9yZMTrFZcgEWAX2kBfK6",
      "images" : [ {
        "height" : 640,
        "url" : "https://i.scdn.co/image/ab6761610000e5eb8dfb95eb4902b28206963614",
        "width" : 640
      }, {
        "height" : 320,
        "url" : "https://i.scdn.co/image/ab676161000051748dfb95eb4902b28206963614",
        "width" : 320
      }, {
        "height" : 160,
        "url" : "https://i.scdn.co/image/ab6761610000f1788dfb95eb4902b28206963614",
        "width" : 160
      } ],
      "name" : "Huey Lewis & The News",
      "popularity" : 67,
      "type" : "artist",
      "uri" : "spotify:artist:7A9yZMTrFZcgEWAX2kBfK6"
    }, {
      "external_urls" : {
        "spotify" : "https://open.spotify.com/artist/1aX2dmV8XoHYCOQRxjPESG"
      },
      "followers" : {
        "href" : null,
        "total" : 890686
      },
      "genres" : [ "art rock", "new romantic", "new wave", "new wave pop", "permanent wave", "sophisti-pop", "synthpop" ],
      "href" : "https://api.spotify.com/v1/artists/1aX2dmV8XoHYCOQRxjPESG",
      "id" : "1aX2dmV8XoHYCOQRxjPESG",
      "images" : [ {
        "height" : 640,
        "url" : "https://i.scdn.co/image/ab6761610000e5eb7d7b329ff3612234ebb2a6af",
        "width" : 640
      }, {
        "height" : 320,
        "url" : "https://i.scdn.co/image/ab676161000051747d7b329ff3612234ebb2a6af",
        "width" : 320
      }, {
        "height" : 160,
        "url" : "https://i.scdn.co/image/ab6761610000f1787d7b329ff3612234ebb2a6af",
        "width" : 160
      } ],
      "name" : "The Human League",
      "popularity" : 65,
      "type" : "artist",
      "uri" : "spotify:artist:1aX2dmV8XoHYCOQRxjPESG"
    }, {
      "external_urls" : {
        "spotify" : "https://open.spotify.com/artist/1NWjumiUC54F8S21p2W6cG"
      },
      "followers" : {
        "href" : null,
        "total" : 62508
      },
      "genres" : [ "high vibe" ],
      "href" : "https://api.spotify.com/v1/artists/1NWjumiUC54F8S21p2W6cG",
      "id" : "1NWjumiUC54F8S21p2W6cG",
      "images" : [ {
        "height" : 640,
        "url" : "https://i.scdn.co/image/ab6761610000e5ebd0264f737206ba946a197a00",
        "width" : 640
      }, {
        "height" : 320,
        "url" : "https://i.scdn.co/image/ab67616100005174d0264f737206ba946a197a00",
        "width" : 320
      }, {
        "height" : 160,
        "url" : "https://i.scdn.co/image/ab6761610000f178d0264f737206ba946a197a00",
        "width" : 160
      } ],
      "name" : "The Human Experience",
      "popularity" : 53,
      "type" : "artist",
      "uri" : "spotify:artist:1NWjumiUC54F8S21p2W6cG"
    }, {
      "external_urls" : {
        "spotify" : "https://open.spotify.com/artist/1zV9UjTUevjp5VUddqIUUn"
      },
      "followers" : {
        "href" : null,
        "total" : 23666
      },
      "genres" : [ ],
      "href" : "https://api.spotify.com/v1/artists/1zV9UjTUevjp5VUddqIUUn",
      "id" : "1zV9UjTUevjp5VUddqIUUn",
      "images" : [ {
        "height" : 640,
        "url" : "https://i.scdn.co/image/ab6761610000e5ebf0313c28a01d106fa9a1ec33",
        "width" : 640
      }, {
        "height" : 320,
        "url" : "https://i.scdn.co/image/ab67616100005174f0313c28a01d106fa9a1ec33",
        "width" : 320
      }, {
        "height" : 160,
        "url" : "https://i.scdn.co/image/ab6761610000f178f0313c28a01d106fa9a1ec33",
        "width" : 160
      } ],
      "name" : "Mr Hudson",
      "popularity" : 61,
      "type" : "artist",
      "uri" : "spotify:artist:1zV9UjTUevjp5VUddqIUUn"
    }, {
      "external_urls" : {
        "spotify" : "https://open.spotify.com/artist/1RCoE2Dq19lePKhPzt9vM5"
      },
      "followers" : {
        "href" : null,
        "total" : 71097
      },
      "genres" : [ "baroque pop", "chicago indie", "piano rock" ],
      "href" : "https://api.spotify.com/v1/artists/1RCoE2Dq19lePKhPzt9vM5",
      "id" : "1RCoE2Dq19lePKhPzt9vM5",
      "images" : [ {
        "height" : 665,
        "url" : "https://i.scdn.co/image/e8c67f5c0eca5fa128b82a88feeeac8a2f9ea796",
        "width" : 999
      }, {
        "height" : 426,
        "url" : "https://i.scdn.co/image/71fb1688fbe6c0f52310d4a2f9e1205526195917",
        "width" : 640
      }, {
        "height" : 133,
        "url" : "https://i.scdn.co/image/512fe4361ed3b5e0a81f4cddc63ac5a7082edfd6",
        "width" : 200
      }, {
        "height" : 43,
        "url" : "https://i.scdn.co/image/0161864d7f447603464232bd7f33d316872a2db8",
        "width" : 64
      } ],
      "name" : "The Hush Sound",
      "popularity" : 48,
      "type" : "artist",
      "uri" : "spotify:artist:1RCoE2Dq19lePKhPzt9vM5"
    }, {
      "external_urls" : {
        "spotify" : "https://open.spotify.com/artist/7jZycSvTyx0W9poD4PjEIG"
      },
      "followers" : {
        "href" : null,
        "total" : 228167
      },
      "genres" : [ "modern alternative rock", "modern rock", "rock" ],
      "href" : "https://api.spotify.com/v1/artists/7jZycSvTyx0W9poD4PjEIG",
      "id" : "7jZycSvTyx0W9poD4PjEIG",
      "images" : [ {
        "height" : 640,
        "url" : "https://i.scdn.co/image/ab6761610000e5eb115327a0e1baba9ad11cce42",
        "width" : 640
      }, {
        "height" : 320,
        "url" : "https://i.scdn.co/image/ab67616100005174115327a0e1baba9ad11cce42",
        "width" : 320
      }, {
        "height" : 160,
        "url" : "https://i.scdn.co/image/ab6761610000f178115327a0e1baba9ad11cce42",
        "width" : 160
      } ],
      "name" : "The Hunna",
      "popularity" : 59,
      "type" : "artist",
      "uri" : "spotify:artist:7jZycSvTyx0W9poD4PjEIG"
    }, {
      "external_urls" : {
        "spotify" : "https://open.spotify.com/artist/70eNABm9r2VXOGYW4r209H"
      },
      "followers" : {
        "href" : null,
        "total" : 155626
      },
      "genres" : [ "military rap" ],
      "href" : "https://api.spotify.com/v1/artists/70eNABm9r2VXOGYW4r209H",
      "id" : "70eNABm9r2VXOGYW4r209H",
      "images" : [ {
        "height" : 640,
        "url" : "https://i.scdn.co/image/ab6761610000e5eb8e4bc7a22d69d1fb08d4a7a3",
        "width" : 640
      }, {
        "height" : 320,
        "url" : "https://i.scdn.co/image/ab676161000051748e4bc7a22d69d1fb08d4a7a3",
        "width" : 320
      }, {
        "height" : 160,
        "url" : "https://i.scdn.co/image/ab6761610000f1788e4bc7a22d69d1fb08d4a7a3",
        "width" : 160
      } ],
      "name" : "Rob Bailey & The Hustle Standard",
      "popularity" : 61,
      "type" : "artist",
      "uri" : "spotify:artist:70eNABm9r2VXOGYW4r209H"
    }, {
      "external_urls" : {
        "spotify" : "https://open.spotify.com/artist/1fFdRZK1GDGXL7vRxxUWLH"
      },
      "followers" : {
        "href" : null,
        "total" : 32006
      },
      "genres" : [ "folk-pop", "hampton roads indie", "indiecoustica", "stomp and holler" ],
      "href" : "https://api.spotify.com/v1/artists/1fFdRZK1GDGXL7vRxxUWLH",
      "id" : "1fFdRZK1GDGXL7vRxxUWLH",
      "images" : [ {
        "height" : 640,
        "url" : "https://i.scdn.co/image/ab6761610000e5eb869ce97cfbd90ea129630102",
        "width" : 640
      }, {
        "height" : 320,
        "url" : "https://i.scdn.co/image/ab67616100005174869ce97cfbd90ea129630102",
        "width" : 320
      }, {
        "height" : 160,
        "url" : "https://i.scdn.co/image/ab6761610000f178869ce97cfbd90ea129630102",
        "width" : 160
      } ],
      "name" : "The Hunts",
      "popularity" : 46,
      "type" : "artist",
      "uri" : "spotify:artist:1fFdRZK1GDGXL7vRxxUWLH"
    }, {
      "external_urls" : {
        "spotify" : "https://open.spotify.com/artist/17XXKfRBMCWvLrqGoNkJXm"
      },
      "followers" : {
        "href" : null,
        "total" : 459712
      },
      "genres" : [ "adult standards", "brill building pop", "easy listening", "lounge" ],
      "href" : "https://api.spotify.com/v1/artists/17XXKfRBMCWvLrqGoNkJXm",
      "id" : "17XXKfRBMCWvLrqGoNkJXm",
      "images" : [ {
        "height" : 640,
        "url" : "https://i.scdn.co/image/ab6761610000e5eb0e3a1c90d55a7beb8b53ed01",
        "width" : 640
      }, {
        "height" : 320,
        "url" : "https://i.scdn.co/image/ab676161000051740e3a1c90d55a7beb8b53ed01",
        "width" : 320
      }, {
        "height" : 160,
        "url" : "https://i.scdn.co/image/ab6761610000f1780e3a1c90d55a7beb8b53ed01",
        "width" : 160
      } ],
      "name" : "Engelbert Humperdinck",
      "popularity" : 63,
      "type" : "artist",
      "uri" : "spotify:artist:17XXKfRBMCWvLrqGoNkJXm"
    }, {
      "external_urls" : {
        "spotify" : "https://open.spotify.com/artist/6yyePen2MpcNZVfKA9bDW7"
      },
      "followers" : {
        "href" : null,
        "total" : 1241
      },
      "genres" : [ ],
      "href" : "https://api.spotify.com/v1/artists/6yyePen2MpcNZVfKA9bDW7",
      "id" : "6yyePen2MpcNZVfKA9bDW7",
      "images" : [ ],
      "name" : "The Hunchback of Notre Dame Ensemble",
      "popularity" : 44,
      "type" : "artist",
      "uri" : "spotify:artist:6yyePen2MpcNZVfKA9bDW7"
    }, {
      "external_urls" : {
        "spotify" : "https://open.spotify.com/artist/2xLEV2jDreAOcpJXFNoXyt"
      },
      "followers" : {
        "href" : null,
        "total" : 93778
      },
      "genres" : [ "alternative country", "art pop", "folk", "indie pop", "new americana", "new orleans americana", "queer country", "stomp and holler" ],
      "href" : "https://api.spotify.com/v1/artists/2xLEV2jDreAOcpJXFNoXyt",
      "id" : "2xLEV2jDreAOcpJXFNoXyt",
      "images" : [ {
        "height" : 640,
        "url" : "https://i.scdn.co/image/ab6761610000e5ebdb9d5c653adddad3a6893b8e",
        "width" : 640
      }, {
        "height" : 320,
        "url" : "https://i.scdn.co/image/ab67616100005174db9d5c653adddad3a6893b8e",
        "width" : 320
      }, {
        "height" : 160,
        "url" : "https://i.scdn.co/image/ab6761610000f178db9d5c653adddad3a6893b8e",
        "width" : 160
      } ],
      "name" : "Hurray For The Riff Raff",
      "popularity" : 53,
      "type" : "artist",
      "uri" : "spotify:artist:2xLEV2jDreAOcpJXFNoXyt"
    }, {
      "external_urls" : {
        "spotify" : "https://open.spotify.com/artist/5WiIl5G8vdnkR60aEtaWo5"
      },
      "followers" : {
        "href" : null,
        "total" : 146
      },
      "genres" : [ ],
      "href" : "https://api.spotify.com/v1/artists/5WiIl5G8vdnkR60aEtaWo5",
      "id" : "5WiIl5G8vdnkR60aEtaWo5",
      "images" : [ ],
      "name" : "The Hunchback of Notre Dame Choir",
      "popularity" : 40,
      "type" : "artist",
      "uri" : "spotify:artist:5WiIl5G8vdnkR60aEtaWo5"
    }, {
      "external_urls" : {
        "spotify" : "https://open.spotify.com/artist/7KdxWrkwsSjIxyHL0HNtiv"
      },
      "followers" : {
        "href" : null,
        "total" : 13269
      },
      "genres" : [ "classic garage rock", "freakbeat", "psychedelic rock" ],
      "href" : "https://api.spotify.com/v1/artists/7KdxWrkwsSjIxyHL0HNtiv",
      "id" : "7KdxWrkwsSjIxyHL0HNtiv",
      "images" : [ {
        "height" : 640,
        "url" : "https://i.scdn.co/image/ab67616d0000b2739703c57642398ca531316d3e",
        "width" : 640
      }, {
        "height" : 300,
        "url" : "https://i.scdn.co/image/ab67616d00001e029703c57642398ca531316d3e",
        "width" : 300
      }, {
        "height" : 64,
        "url" : "https://i.scdn.co/image/ab67616d000048519703c57642398ca531316d3e",
        "width" : 64
      } ],
      "name" : "The Human Beinz",
      "popularity" : 43,
      "type" : "artist",
      "uri" : "spotify:artist:7KdxWrkwsSjIxyHL0HNtiv"
    }, {
      "external_urls" : {
        "spotify" : "https://open.spotify.com/artist/51lE580QM13Anmb3mK2j1e"
      },
      "followers" : {
        "href" : null,
        "total" : 135581
      },
      "genres" : [ "dreamo", "progressive jazz fusion", "progressive post-hardcore" ],
      "href" : "https://api.spotify.com/v1/artists/51lE580QM13Anmb3mK2j1e",
      "id" : "51lE580QM13Anmb3mK2j1e",
      "images" : [ {
        "height" : 640,
        "url" : "https://i.scdn.co/image/ab6761610000e5ebf7765397b583e208e6add057",
        "width" : 640
      }, {
        "height" : 320,
        "url" : "https://i.scdn.co/image/ab67616100005174f7765397b583e208e6add057",
        "width" : 320
      }, {
        "height" : 160,
        "url" : "https://i.scdn.co/image/ab6761610000f178f7765397b583e208e6add057",
        "width" : 160
      } ],
      "name" : "The Dear Hunter",
      "popularity" : 50,
      "type" : "artist",
      "uri" : "spotify:artist:51lE580QM13Anmb3mK2j1e"
    }, {
      "external_urls" : {
        "spotify" : "https://open.spotify.com/artist/2SDGIFzEh9xmE5zDKcMRkj"
      },
      "followers" : {
        "href" : null,
        "total" : 44118
      },
      "genres" : [ "deathcore", "djent", "melodic metalcore", "metalcore", "progressive metalcore" ],
      "href" : "https://api.spotify.com/v1/artists/2SDGIFzEh9xmE5zDKcMRkj",
      "id" : "2SDGIFzEh9xmE5zDKcMRkj",
      "images" : [ {
        "height" : 640,
        "url" : "https://i.scdn.co/image/ab6761610000e5eb32624a0f638be381c13a2a7d",
        "width" : 640
      }, {
        "height" : 320,
        "url" : "https://i.scdn.co/image/ab6761610000517432624a0f638be381c13a2a7d",
        "width" : 320
      }, {
        "height" : 160,
        "url" : "https://i.scdn.co/image/ab6761610000f17832624a0f638be381c13a2a7d",
        "width" : 160
      } ],
      "name" : "The Human Abstract",
      "popularity" : 34,
      "type" : "artist",
      "uri" : "spotify:artist:2SDGIFzEh9xmE5zDKcMRkj"
    }, {
      "external_urls" : {
        "spotify" : "https://open.spotify.com/artist/3Da81tOAhG3gdust5MNI2s"
      },
      "followers" : {
        "href" : null,
        "total" : 2967
      },
      "genres" : [ ],
      "href" : "https://api.spotify.com/v1/artists/3Da81tOAhG3gdust5MNI2s",
      "id" : "3Da81tOAhG3gdust5MNI2s",
      "images" : [ {
        "height" : 640,
        "url" : "https://i.scdn.co/image/ab6761610000e5eba0ab2f4c1d5d626d0778ad70",
        "width" : 640
      }, {
        "height" : 320,
        "url" : "https://i.scdn.co/image/ab67616100005174a0ab2f4c1d5d626d0778ad70",
        "width" : 320
      }, {
        "height" : 160,
        "url" : "https://i.scdn.co/image/ab6761610000f178a0ab2f4c1d5d626d0778ad70",
        "width" : 160
      } ],
      "name" : "The Humble Cheaters",
      "popularity" : 28,
      "type" : "artist",
      "uri" : "spotify:artist:3Da81tOAhG3gdust5MNI2s"
    }, {
      "external_urls" : {
        "spotify" : "https://open.spotify.com/artist/4xRbSPkcf7k6csMSV6vwAX"
      },
      "followers" : {
        "href" : null,
        "total" : 5780
      },
      "genres" : [ "rhode island indie" ],
      "href" : "https://api.spotify.com/v1/artists/4xRbSPkcf7k6csMSV6vwAX",
      "id" : "4xRbSPkcf7k6csMSV6vwAX",
      "images" : [ {
        "height" : 640,
        "url" : "https://i.scdn.co/image/ab67616d0000b27391d02413baec6b9a47f52333",
        "width" : 640
      }, {
        "height" : 300,
        "url" : "https://i.scdn.co/image/ab67616d00001e0291d02413baec6b9a47f52333",
        "width" : 300
      }, {
        "height" : 64,
        "url" : "https://i.scdn.co/image/ab67616d0000485191d02413baec6b9a47f52333",
        "width" : 64
      } ],
      "name" : "The Huntress and Holder of Hands",
      "popularity" : 29,
      "type" : "artist",
      "uri" : "spotify:artist:4xRbSPkcf7k6csMSV6vwAX"
    }, {
      "external_urls" : {
        "spotify" : "https://open.spotify.com/artist/5xwd7lKJeb2opUvYZnXFut"
      },
      "followers" : {
        "href" : null,
        "total" : 36501
      },
      "genres" : [ "canadian electronic" ],
      "href" : "https://api.spotify.com/v1/artists/5xwd7lKJeb2opUvYZnXFut",
      "id" : "5xwd7lKJeb2opUvYZnXFut",
      "images" : [ {
        "height" : 640,
        "url" : "https://i.scdn.co/image/ab6761610000e5ebf7ce457dc1e1b16339c110e2",
        "width" : 640
      }, {
        "height" : 320,
        "url" : "https://i.scdn.co/image/ab67616100005174f7ce457dc1e1b16339c110e2",
        "width" : 320
      }, {
        "height" : 160,
        "url" : "https://i.scdn.co/image/ab6761610000f178f7ce457dc1e1b16339c110e2",
        "width" : 160
      } ],
      "name" : "The Funk Hunters",
      "popularity" : 48,
      "type" : "artist",
      "uri" : "spotify:artist:5xwd7lKJeb2opUvYZnXFut"
    }, {
      "external_urls" : {
        "spotify" : "https://open.spotify.com/artist/5u2NBAnFhwtWNIWq0hnZHK"
      },
      "followers" : {
        "href" : null,
        "total" : 1284
      },
      "genres" : [ ],
      "href" : "https://api.spotify.com/v1/artists/5u2NBAnFhwtWNIWq0hnZHK",
      "id" : "5u2NBAnFhwtWNIWq0hnZHK",
      "images" : [ {
        "height" : 640,
        "url" : "https://i.scdn.co/image/ab6761610000e5eb34638c273d9028dde23ccb8d",
        "width" : 640
      }, {
        "height" : 320,
        "url" : "https://i.scdn.co/image/ab6761610000517434638c273d9028dde23ccb8d",
        "width" : 320
      }, {
        "height" : 160,
        "url" : "https://i.scdn.co/image/ab6761610000f17834638c273d9028dde23ccb8d",
        "width" : 160
      } ],
      "name" : "The Hussey Brothers",
      "popularity" : 27,
      "type" : "artist",
      "uri" : "spotify:artist:5u2NBAnFhwtWNIWq0hnZHK"
    } ],
    "limit" : 20,
    "next" : "https://api.spotify.com/v1/search?query=+The+Hu&type=artist&market=US&offset=20&limit=20",
    "offset" : 0,
    "previous" : null,
    "total" : 2228
  }
}