{
  "artists" : {
    "href" : "https://api.spotify.com/v1/search?query=BLUNTS+&type=artist&market=US&offset=0&limit=20",
    "items" : [ {
      "external_urls" : {
        "spotify" : "https://open.spotify.com/artist/4XxIRZXk8xgrBmt0SNq7E3"
      },
      "followers" : {
        "href" : null,
        "total" : 42046
      },
      "genres" : [ "dubstep", "electronic trap" ],
      "href" : "https://api.spotify.com/v1/artists/4XxIRZXk8xgrBmt0SNq7E3",
      "id" : "4XxIRZXk8xgrBmt0SNq7E3",
      "images" : [ {
        "height" : 640,
        "url" : "https://i.scdn.co/image/ab6761610000e5ebe445a4aa2ce626954bbf0427",
        "width" : 640
      }, {
        "height" : 320,
        "url" : "https://i.scdn.co/image/ab67616100005174e445a4aa2ce626954bbf0427",
        "width" : 320
      }, {
        "height" : 160,
        "url" : "https://i.scdn.co/image/ab6761610000f178e445a4aa2ce626954bbf0427",
        "width" : 160
      } ],
      "name" : "Blunts & Blondes",
      "popularity" : 50,
      "type" : "artist",
      "uri" : "spotify:artist:4XxIRZXk8xgrBmt0SNq7E3"
    }, {
      "external_urls" : {
        "spotify" : "https://open.spotify.com/artist/0o2wGsBkrCpGYXZ2zPX4L5"
      },
      "followers" : {
        "href" : null,
        "total" : 17
      },
      "genres" : [ ],
      "href" : "https://api.spotify.com/v1/artists/0o2wGsBkrCpGYXZ2zPX4L5",
      "id" : "0o2wGsBkrCpGYXZ2zPX4L5",
      "images" : [ {
        "height" : 640,
        "url" : "https://i.scdn.co/image/ab67616d0000b2731225b2c3de1bb1bf4ba11399",
        "width" : 640
      }, {
        "height" : 300,
        "url" : "https://i.scdn.co/image/ab67616d00001e021225b2c3de1bb1bf4ba11399",
        "width" : 300
      }, {
        "height" : 64,
        "url" : "https://i.scdn.co/image/ab67616d000048511225b2c3de1bb1bf4ba11399",
        "width" : 64
      } ],
      "name" : "BluntSmoker",
      "popularity" : 9,
      "type" : "artist",
      "uri" : "spotify:artist:0o2wGsBkrCpGYXZ2zPX4L5"
    }, {
      "external_urls" : {
        "spotify" : "https://open.spotify.com/artist/1u1vnvm0ZYGVaLCkNgnp6F"
      },
      "followers" : {
        "href" : null,
        "total" : 27
      },
      "genres" : [ ],
      "href" : "https://api.spotify.com/v1/artists/1u1vnvm0ZYGVaLCkNgnp6F",
      "id" : "1u1vnvm0ZYGVaLCkNgnp6F",
      "images" : [ ],
      "name" : "Bluntsmoker",
      "popularity" : 6,
      "type" : "artist",
      "uri" : "spotify:artist:1u1vnvm0ZYGVaLCkNgnp6F"
    }, {
      "external_urls" : {
        "spotify" : "https://open.spotify.com/artist/1Oeck2Wtp1u4I0rreGyQF8"
      },
      "followers" : {
        "href" : null,
        "total" : 743
      },
      "genres" : [ ],
      "href" : "https://api.spotify.com/v1/artists/1Oeck2Wtp1u4I0rreGyQF8",
      "id" : "1Oeck2Wtp1u4I0rreGyQF8",
      "images" : [ {
        "height" : 640,
        "url" : "https://i.scdn.co/image/ab6761610000e5eb4530637d7de49d6922bde08b",
        "width" : 640
      }, {
        "height" : 320,
        "url" : "https://i.scdn.co/image/ab676161000051744530637d7de49d6922bde08b",
        "width" : 320
      }, {
        "height" : 160,
        "url" : "https://i.scdn.co/image/ab6761610000f1784530637d7de49d6922bde08b",
        "width" : 160
      } ],
      "name" : "Blunts in the Garden",
      "popularity" : 28,
      "type" : "artist",
      "uri" : "spotify:artist:1Oeck2Wtp1u4I0rreGyQF8"
    }, {
      "external_urls" : {
        "spotify" : "https://open.spotify.com/artist/44nJNsLu2WAAuEiNLbOE9n"
      },
      "followers" : {
        "href" : null,
        "total" : 47
      },
      "genres" : [ ],
      "href" : "https://api.spotify.com/v1/artists/44nJNsLu2WAAuEiNLbOE9n",
      "id" : "44nJNsLu2WAAuEiNLbOE9n",
      "images" : [ {
        "height" : 640,
        "url" : "https://i.scdn.co/image/ab6761610000e5ebb59dd0cad96fc58532e7f14b",
        "width" : 640
      }, {
        "height" : 320,
        "url" : "https://i.scdn.co/image/ab67616100005174b59dd0cad96fc58532e7f14b",
        "width" : 320
      }, {
        "height" : 160,
        "url" : "https://i.scdn.co/image/ab6761610000f178b59dd0cad96fc58532e7f14b",
        "width" : 160
      } ],
      "name" : "B.L.U.N.T.S",
      "popularity" : 20,
      "type" : "artist",
      "uri" : "spotify:artist:44nJNsLu2WAAuEiNLbOE9n"
    }, {
      "external_urls" : {
        "spotify" : "https://open.spotify.com/artist/41UIOatlYt1ZazNFWUjaAc"
      },
      "followers" : {
        "href" : null,
        "total" : 19
      },
      "genres" : [ ],
      "href" : "https://api.spotify.com/v1/artists/41UIOatlYt1ZazNFWUjaAc",
      "id" : "41UIOatlYt1ZazNFWUjaAc",
      "images" : [ ],
      "name" : "Blunts LLA",
      "popularity" : 1,
      "type" : "artist",
      "uri" : "spotify:artist:41UIOatlYt1ZazNFWUjaAc"
    }, {
      "external_urls" : {
        "spotify" : "https://open.spotify.com/artist/7gGhxQCnmPEGMm776E64Zi"
      },
      "followers" : {
        "href" : null,
        "total" : 0
      },
      "genres" : [ ],
      "href" : "https://api.spotify.com/v1/artists/7gGhxQCnmPEGMm776E64Zi",
      "id" : "7gGhxQCnmPEGMm776E64Zi",
      "images" : [ ],
      "name" : "Young Blunts",
      "popularity" : 3,
      "type" : "artist",
      "uri" : "spotify:artist:7gGhxQCnmPEGMm776E64Zi"
    }, {
      "external_urls" : {
        "spotify" : "https://open.spotify.com/artist/6XqjIc4SATpiKfuNaAEVER"
      },
      "followers" : {
        "href" : null,
        "total" : 157
      },
      "genres" : [ "ragga jungle" ],
      "href" : "https://api.spotify.com/v1/artists/6XqjIc4SATpiKfuNaAEVER",
      "id" : "6XqjIc4SATpiKfuNaAEVER",
      "images" : [ {
        "height" : 640,
        "url" : "https://i.scdn.co/image/ab67616d0000b2736b0f8c5f01c3acc21fc34d8f",
        "width" : 640
      }, {
        "height" : 300,
        "url" : "https://i.scdn.co/image/ab67616d00001e026b0f8c5f01c3acc21fc34d8f",
        "width" : 300
      }, {
        "height" : 64,
        "url" : "https://i.scdn.co/image/ab67616d000048516b0f8c5f01c3acc21fc34d8f",
        "width" : 64
      } ],
      "name" : "Bluntskull",
      "popularity" : 5,
      "type" : "artist",
      "uri" : "spotify:artist:6XqjIc4SATpiKfuNaAEVER"
    }, {
      "external_urls" : {
        "spotify" : "https://open.spotify.com/artist/2Cc9NMU5R7kZOVZWYFGg8x"
      },
      "followers" : {
        "href" : null,
        "total" : 7
      },
      "genres" : [ ],
      "href" : "https://api.spotify.com/v1/artists/2Cc9NMU5R7kZOVZWYFGg8x",
      "id" : "2Cc9NMU5R7kZOVZWYFGg8x",
      "images" : [ {
        "height" : 640,
        "url" : "https://i.scdn.co/image/ab6761610000e5eb2eebe2a467573478638fa051",
        "width" : 640
      }, {
        "height" : 320,
        "url" : "https://i.scdn.co/image/ab676161000051742eebe2a467573478638fa051",
        "width" : 320
      }, {
        "height" : 160,
        "url" : "https://i.scdn.co/image/ab6761610000f1782eebe2a467573478638fa051",
        "width" : 160
      } ],
      "name" : "bluntsama",
      "popularity" : 0,
      "type" : "artist",
      "uri" : "spotify:artist:2Cc9NMU5R7kZOVZWYFGg8x"
    }, {
      "external_urls" : {
        "spotify" : "https://open.spotify.com/artist/4FzHTZbGZAvP1E5Qxpld1p"
      },
      "followers" : {
        "href" : null,
        "total" : 1
      },
      "genres" : [ ],
      "href" : "https://api.spotify.com/v1/artists/4FzHTZbGZAvP1E5Qxpld1p",
      "id" : "4FzHTZbGZAvP1E5Qxpld1p",
      "images" : [ {
        "height" : 640,
        "url" : "https://i.scdn.co/image/ab6761610000e5eb3f03ac9c8f344460f8a07d12",
        "width" : 640
      }, {
        "height" : 320,
        "url" : "https://i.scdn.co/image/ab676161000051743f03ac9c8f344460f8a07d12",
        "width" : 320
      }, {
        "height" : 160,
        "url" : "https://i.scdn.co/image/ab6761610000f1783f03ac9c8f344460f8a07d12",
        "width" : 160
      } ],
      "name" : "Bluntsteven",
      "popularity" : 0,
      "type" : "artist",
      "uri" : "spotify:artist:4FzHTZbGZAvP1E5Qxpld1p"
    }, {
      "external_urls" : {
        "spotify" : "https://open.spotify.com/artist/1z3dio09h7XL7kOTLon15c"
      },
      "followers" : {
        "href" : null,
        "total" : 75
      },
      "genres" : [ ],
      "href" : "https://api.spotify.com/v1/artists/1z3dio09h7XL7kOTLon15c",
      "id" : "1z3dio09h7XL7kOTLon15c",
      "images" : [ {
        "height" : 640,
        "url" : "https://i.scdn.co/image/ab6761610000e5eb08ef8683d0eb4ce1d281365c",
        "width" : 640
      }, {
        "height" : 320,
        "url" : "https://i.scdn.co/image/ab6761610000517408ef8683d0eb4ce1d281365c",
        "width" : 320
      }, {
        "height" : 160,
        "url" : "https://i.scdn.co/image/ab6761610000f17808ef8683d0eb4ce1d281365c",
        "width" : 160
      } ],
      "name" : "Bluntspeakers",
      "popularity" : 0,
      "type" : "artist",
      "uri" : "spotify:artist:1z3dio09h7XL7kOTLon15c"
    }, {
      "external_urls" : {
        "spotify" : "https://open.spotify.com/artist/2vvBT8DWUbjC5LoOyKF6vm"
      },
      "followers" : {
        "href" : null,
        "total" : 0
      },
      "genres" : [ ],
      "href" : "https://api.spotify.com/v1/artists/2vvBT8DWUbjC5LoOyKF6vm",
      "id" : "2vvBT8DWUbjC5LoOyKF6vm",
      "images" : [ ],
      "name" : "Bluntson",
      "popularity" : 0,
      "type" : "artist",
      "uri" : "spotify:artist:2vvBT8DWUbjC5LoOyKF6vm"
    }, {
      "external_urls" : {
        "spotify" : "https://open.spotify.com/artist/7jAPAZrGMqr7alOgOcZDNM"
      },
      "followers" : {
        "href" : null,
        "total" : 1141
      },
      "genres" : [ "manchester hip hop" ],
      "href" : "https://api.spotify.com/v1/artists/7jAPAZrGMqr7alOgOcZDNM",
      "id" : "7jAPAZrGMqr7alOgOcZDNM",
      "images" : [ {
        "height" : 640,
        "url" : "https://i.scdn.co/image/ab6761610000e5ebb4dfbfd4ab2d6bc537a931b6",
        "width" : 640
      }, {
        "height" : 320,
        "url" : "https://i.scdn.co/image/ab67616100005174b4dfbfd4ab2d6bc537a931b6",
        "width" : 320
      }, {
        "height" : 160,
        "url" : "https://i.scdn.co/image/ab6761610000f178b4dfbfd4ab2d6bc537a931b6",
        "width" : 160
      } ],
      "name" : "The Bluntskins",
      "popularity" : 9,
      "type" : "artist",
      "uri" : "spotify:artist:7jAPAZrGMqr7alOgOcZDNM"
    }, {
      "external_urls" : {
        "spotify" : "https://open.spotify.com/artist/3NOoG7IPMR71jybEffSvL1"
      },
      "followers" : {
        "href" : null,
        "total" : 0
      },
      "genres" : [ ],
      "href" : "https://api.spotify.com/v1/artists/3NOoG7IPMR71jybEffSvL1",
      "id" : "3NOoG7IPMR71jybEffSvL1",
      "images" : [ ],
      "name" : "Bluntskee",
      "popularity" : 0,
      "type" : "artist",
      "uri" : "spotify:artist:3NOoG7IPMR71jybEffSvL1"
    }, {
      "external_urls" : {
        "spotify" : "https://open.spotify.com/artist/2gFXVCiusyOBGSKwkSyozb"
      },
      "followers" : {
        "href" : null,
        "total" : 41
      },
      "genres" : [ ],
      "href" : "https://api.spotify.com/v1/artists/2gFXVCiusyOBGSKwkSyozb",
      "id" : "2gFXVCiusyOBGSKwkSyozb",
      "images" : [ {
        "height" : 640,
        "url" : "https://i.scdn.co/image/ab6761610000e5eb941599490bac79f02ac5b352",
        "width" : 640
      }, {
        "height" : 320,
        "url" : "https://i.scdn.co/image/ab67616100005174941599490bac79f02ac5b352",
        "width" : 320
      }, {
        "height" : 160,
        "url" : "https://i.scdn.co/image/ab6761610000f178941599490bac79f02ac5b352",
        "width" : 160
      } ],
      "name" : "bluntspork",
      "popularity" : 0,
      "type" : "artist",
      "uri" : "spotify:artist:2gFXVCiusyOBGSKwkSyozb"
    }, {
      "external_urls" : {
        "spotify" : "https://open.spotify.com/artist/4Dpjc2XyY9EJSH9GjUaOjf"
      },
      "followers" : {
        "href" : null,
        "total" : 1
      },
      "genres" : [ ],
      "href" : "https://api.spotify.com/v1/artists/4Dpjc2XyY9EJSH9GjUaOjf",
      "id" : "4Dpjc2XyY9EJSH9GjUaOjf",
      "images" : [ {
        "height" : 640,
        "url" : "https://i.scdn.co/image/ab67616d0000b273f1a527f30f4f6d9588dc02e1",
        "width" : 640
      }, {
        "height" : 300,
        "url" : "https://i.scdn.co/image/ab67616d00001e02f1a527f30f4f6d9588dc02e1",
        "width" : 300
      }, {
        "height" : 64,
        "url" : "https://i.scdn.co/image/ab67616d00004851f1a527f30f4f6d9588dc02e1",
        "width" : 64
      } ],
      "name" : "BluntSteve",
      "popularity" : 0,
      "type" : "artist",
      "uri" : "spotify:artist:4Dpjc2XyY9EJSH9GjUaOjf"
    }, {
      "external_urls" : {
        "spotify" : "https://open.spotify.com/artist/7xFK8iq4i5aAfARgmaOuZz"
      },
      "followers" : {
        "href" : null,
        "total" : 0
      },
      "genres" : [ ],
      "href" : "https://api.spotify.com/v1/artists/7xFK8iq4i5aAfARgmaOuZz",
      "id" : "7xFK8iq4i5aAfARgmaOuZz",
      "images" : [ ],
      "name" : "Bluntsama",
      "popularity" : 0,
      "type" : "artist",
      "uri" : "spotify:artist:7xFK8iq4i5aAfARgmaOuZz"
    }, {
      "external_urls" : {
        "spotify" : "https://open.spotify.com/artist/0iFrDNB5M50Bxezb8jk7gJ"
      },
      "followers" : {
        "href" : null,
        "total" : 17
      },
      "genres" : [ ],
      "href" : "https://api.spotify.com/v1/artists/0iFrDNB5M50Bxezb8jk7gJ",
      "id" : "0iFrDNB5M50Bxezb8jk7gJ",
      "images" : [ {
        "height" : 640,
        "url" : "https://i.scdn.co/image/ab6761610000e5eb3677bad8a61320240a8ad578",
        "width" : 640
      }, {
        "height" : 320,
        "url" : "https://i.scdn.co/image/ab676161000051743677bad8a61320240a8ad578",
        "width" : 320
      }, {
        "height" : 160,
        "url" : "https://i.scdn.co/image/ab6761610000f1783677bad8a61320240a8ad578",
        "width" : 160
      } ],
      "name" : "Victor Blunts",
      "popularity" : 5,
      "type" : "artist",
      "uri" : "spotify:artist:0iFrDNB5M50Bxezb8jk7gJ"
    }, {
      "external_urls" : {
        "spotify" : "https://open.spotify.com/artist/5t53tmtqaJb9aHhueg8TUQ"
      },
      "followers" : {
        "href" : null,
        "total" : 4
      },
      "genres" : [ ],
      "href" : "https://api.spotify.com/v1/artists/5t53tmtqaJb9aHhueg8TUQ",
      "id" : "5t53tmtqaJb9aHhueg8TUQ",
      "images" : [ {
        "height" : 640,
        "url" : "https://i.scdn.co/image/ab6761610000e5ebee9d59af79ca100a2699d90a",
        "width" : 640
      }, {
        "height" : 320,
        "url" : "https://i.scdn.co/image/ab67616100005174ee9d59af79ca100a2699d90a",
        "width" : 320
      }, {
        "height" : 160,
        "url" : "https://i.scdn.co/image/ab6761610000f178ee9d59af79ca100a2699d90a",
        "width" : 160
      } ],
      "name" : "BluntSmokke",
      "popularity" : 0,
      "type" : "artist",
      "uri" : "spotify:artist:5t53tmtqaJb9aHhueg8TUQ"
    }, {
      "external_urls" : {
        "spotify" : "https://open.spotify.com/artist/6I5Q0nZl0MdK4QiRF88QyI"
      },
      "followers" : {
        "href" : null,
        "total" : 0
      },
      "genres" : [ ],
      "href" : "https://api.spotify.com/v1/artists/6I5Q0nZl0MdK4QiRF88QyI",
      "id" : "6I5Q0nZl0MdK4QiRF88QyI",
      "images" : [ ],
      "name" : "Blunts in the Garden",
      "popularity" : 0,
      "type" : "artist",
      "uri" : "spotify:artist:6I5Q0nZl0MdK4QiRF88QyI"
    } ],
    "limit" : 20,
    "next" : "https://api.spotify.com/v1/search?query=BLUNTS+&type=artist&market=US&offset=20&limit=20",
    "offset" : 0,
    "previous" : null,
    "total" : 114
  }
}