{
  "artists" : {
    "href" : "https://api.spotify.com/v1/search?query=DAVID+GUETTA&type=artist&market=US&offset=0&limit=20",
    "items" : [ {
      "external_urls" : {
        "spotify" : "https://open.spotify.com/artist/1Cs0zKBU1kc0i8ypK3B9ai"
      },
      "followers" : {
        "href" : null,
        "total" : 24003730
      },
      "genres" : [ "big room", "dance pop", "edm", "pop", "pop dance", "pop rap" ],
      "href" : "https://api.spotify.com/v1/artists/1Cs0zKBU1kc0i8ypK3B9ai",
      "id" : "1Cs0zKBU1kc0i8ypK3B9ai",
      "images" : [ {
        "height" : 640,
        "url" : "https://i.scdn.co/image/ab6761610000e5eb75348e1aade2645ad9c58829",
        "width" : 640
      }, {
        "height" : 320,
        "url" : "https://i.scdn.co/image/ab6761610000517475348e1aade2645ad9c58829",
        "width" : 320
      }, {
        "height" : 160,
        "url" : "https://i.scdn.co/image/ab6761610000f17875348e1aade2645ad9c58829",
        "width" : 160
      } ],
      "name" : "David Guetta",
      "popularity" : 90,
      "type" : "artist",
      "uri" : "spotify:artist:1Cs0zKBU1kc0i8ypK3B9ai"
    }, {
      "external_urls" : {
        "spotify" : "https://open.spotify.com/artist/4E6qYqhEd16jLWcW6GegAv"
      },
      "followers" : {
        "href" : null,
        "total" : 3136
      },
      "genres" : [ ],
      "href" : "https://api.spotify.com/v1/artists/4E6qYqhEd16jLWcW6GegAv",
      "id" : "4E6qYqhEd16jLWcW6GegAv",
      "images" : [ ],
      "name" : "David Guetta - Nicki Minaj - Flo Rida",
      "popularity" : 28,
      "type" : "artist",
      "uri" : "spotify:artist:4E6qYqhEd16jLWcW6GegAv"
    }, {
      "external_urls" : {
        "spotify" : "https://open.spotify.com/artist/2CiLOas5B2knDiYXiQiJHu"
      },
      "followers" : {
        "href" : null,
        "total" : 1719
      },
      "genres" : [ ],
      "href" : "https://api.spotify.com/v1/artists/2CiLOas5B2knDiYXiQiJHu",
      "id" : "2CiLOas5B2knDiYXiQiJHu",
      "images" : [ ],
      "name" : "David Guetta - Afrojack - DEV - Timbaland",
      "popularity" : 2,
      "type" : "artist",
      "uri" : "spotify:artist:2CiLOas5B2knDiYXiQiJHu"
    }, {
      "external_urls" : {
        "spotify" : "https://open.spotify.com/artist/759wL1SXzQj1fVSxIjCmqP"
      },
      "followers" : {
        "href" : null,
        "total" : 685
      },
      "genres" : [ ],
      "href" : "https://api.spotify.com/v1/artists/759wL1SXzQj1fVSxIjCmqP",
      "id" : "759wL1SXzQj1fVSxIjCmqP",
      "images" : [ ],
      "name" : "Avicii - David Guetta",
      "popularity" : 12,
      "type" : "artist",
      "uri" : "spotify:artist:759wL1SXzQj1fVSxIjCmqP"
    }, {
      "external_urls" : {
        "spotify" : "https://open.spotify.com/artist/0ycV4LwXUzUwjK2lNFYIAH"
      },
      "followers" : {
        "href" : null,
        "total" : 122
      },
      "genres" : [ ],
      "href" : "https://api.spotify.com/v1/artists/0ycV4LwXUzUwjK2lNFYIAH",
      "id" : "0ycV4LwXUzUwjK2lNFYIAH",
      "images" : [ ],
      "name" : "David Guetta - will.i.am",
      "popularity" : 2,
      "type" : "artist",
      "uri" : "spotify:artist:0ycV4LwXUzUwjK2lNFYIAH"
    }, {
      "external_urls" : {
        "spotify" : "https://open.spotify.com/artist/0SnKYeRXt8tYXGPALlbt7G"
      },
      "followers" : {
        "href" : null,
        "total" : 19
      },
      "genres" : [ ],
      "href" : "https://api.spotify.com/v1/artists/0SnKYeRXt8tYXGPALlbt7G",
      "id" : "0SnKYeRXt8tYXGPALlbt7G",
      "images" : [ {
        "height" : 640,
        "url" : "https://i.scdn.co/image/ab67616d0000b27301d41185955aa0c28d9b9a80",
        "width" : 640
      }, {
        "height" : 300,
        "url" : "https://i.scdn.co/image/ab67616d00001e0201d41185955aa0c28d9b9a80",
        "width" : 300
      }, {
        "height" : 64,
        "url" : "https://i.scdn.co/image/ab67616d0000485101d41185955aa0c28d9b9a80",
        "width" : 64
      } ],
      "name" : "Davide Guettanal",
      "popularity" : 1,
      "type" : "artist",
      "uri" : "spotify:artist:0SnKYeRXt8tYXGPALlbt7G"
    }, {
      "external_urls" : {
        "spotify" : "https://open.spotify.com/artist/72k7N13lLevhDx1S5obbTv"
      },
      "followers" : {
        "href" : null,
        "total" : 33
      },
      "genres" : [ ],
      "href" : "https://api.spotify.com/v1/artists/72k7N13lLevhDx1S5obbTv",
      "id" : "72k7N13lLevhDx1S5obbTv",
      "images" : [ ],
      "name" : "David Guetta - Jessie J",
      "popularity" : 1,
      "type" : "artist",
      "uri" : "spotify:artist:72k7N13lLevhDx1S5obbTv"
    }, {
      "external_urls" : {
        "spotify" : "https://open.spotify.com/artist/2Ynfdcafn0FLKRt90xUVT3"
      },
      "followers" : {
        "href" : null,
        "total" : 2193
      },
      "genres" : [ ],
      "href" : "https://api.spotify.com/v1/artists/2Ynfdcafn0FLKRt90xUVT3",
      "id" : "2Ynfdcafn0FLKRt90xUVT3",
      "images" : [ ],
      "name" : "David Guetta - Akon",
      "popularity" : 1,
      "type" : "artist",
      "uri" : "spotify:artist:2Ynfdcafn0FLKRt90xUVT3"
    }, {
      "external_urls" : {
        "spotify" : "https://open.spotify.com/artist/5gJkh6TIwNBG8X3Ujp6kDP"
      },
      "followers" : {
        "href" : null,
        "total" : 788
      },
      "genres" : [ ],
      "href" : "https://api.spotify.com/v1/artists/5gJkh6TIwNBG8X3Ujp6kDP",
      "id" : "5gJkh6TIwNBG8X3Ujp6kDP",
      "images" : [ {
        "height" : 640,
        "url" : "https://i.scdn.co/image/ab67616d0000b273847cd617496c5b1e6016fb65",
        "width" : 640
      }, {
        "height" : 300,
        "url" : "https://i.scdn.co/image/ab67616d00001e02847cd617496c5b1e6016fb65",
        "width" : 300
      }, {
        "height" : 64,
        "url" : "https://i.scdn.co/image/ab67616d00004851847cd617496c5b1e6016fb65",
        "width" : 64
      } ],
      "name" : "David Guetta Versus David Bowie",
      "popularity" : 0,
      "type" : "artist",
      "uri" : "spotify:artist:5gJkh6TIwNBG8X3Ujp6kDP"
    }, {
      "external_urls" : {
        "spotify" : "https://open.spotify.com/artist/2NAEBnghSgcaiKiwWssGBy"
      },
      "followers" : {
        "href" : null,
        "total" : 28
      },
      "genres" : [ ],
      "href" : "https://api.spotify.com/v1/artists/2NAEBnghSgcaiKiwWssGBy",
      "id" : "2NAEBnghSgcaiKiwWssGBy",
      "images" : [ ],
      "name" : "apl.de.ap - David Guetta - will.i.am",
      "popularity" : 2,
      "type" : "artist",
      "uri" : "spotify:artist:2NAEBnghSgcaiKiwWssGBy"
    }, {
      "external_urls" : {
        "spotify" : "https://open.spotify.com/artist/199JnnR1ueJCqCXhtH1zVR"
      },
      "followers" : {
        "href" : null,
        "total" : 215
      },
      "genres" : [ ],
      "href" : "https://api.spotify.com/v1/artists/199JnnR1ueJCqCXhtH1zVR",
      "id" : "199JnnR1ueJCqCXhtH1zVR",
      "images" : [ ],
      "name" : "The David Guetta Selection",
      "popularity" : 0,
      "type" : "artist",
      "uri" : "spotify:artist:199JnnR1ueJCqCXhtH1zVR"
    }, {
      "external_urls" : {
        "spotify" : "https://open.spotify.com/artist/2Ag0k7tXQ2EQt5TWmfuf8K"
      },
      "followers" : {
        "href" : null,
        "total" : 352
      },
      "genres" : [ ],
      "href" : "https://api.spotify.com/v1/artists/2Ag0k7tXQ2EQt5TWmfuf8K",
      "id" : "2Ag0k7tXQ2EQt5TWmfuf8K",
      "images" : [ ],
      "name" : "David Guetta Listen Playlist Takeover",
      "popularity" : 0,
      "type" : "artist",
      "uri" : "spotify:artist:2Ag0k7tXQ2EQt5TWmfuf8K"
    }, {
      "external_urls" : {
        "spotify" : "https://open.spotify.com/artist/364HT83jh5GG5T0AfBJ4ix"
      },
      "followers" : {
        "href" : null,
        "total" : 649
      },
      "genres" : [ ],
      "href" : "https://api.spotify.com/v1/artists/364HT83jh5GG5T0AfBJ4ix",
      "id" : "364HT83jh5GG5T0AfBJ4ix",
      "images" : [ {
        "height" : 640,
        "url" : "https://i.scdn.co/image/ab67616d0000b27326a4683eed42b97588b81264",
        "width" : 640
      }, {
        "height" : 300,
        "url" : "https://i.scdn.co/image/ab67616d00001e0226a4683eed42b97588b81264",
        "width" : 300
      }, {
        "height" : 64,
        "url" : "https://i.scdn.co/image/ab67616d0000485126a4683eed42b97588b81264",
        "width" : 64
      } ],
      "name" : "David Guetta Dancestars",
      "popularity" : 1,
      "type" : "artist",
      "uri" : "spotify:artist:364HT83jh5GG5T0AfBJ4ix"
    }, {
      "external_urls" : {
        "spotify" : "https://open.spotify.com/artist/75HnVoPHM8DNvJYNvVJEIP"
      },
      "followers" : {
        "href" : null,
        "total" : 42
      },
      "genres" : [ ],
      "href" : "https://api.spotify.com/v1/artists/75HnVoPHM8DNvJYNvVJEIP",
      "id" : "75HnVoPHM8DNvJYNvVJEIP",
      "images" : [ {
        "height" : 640,
        "url" : "https://i.scdn.co/image/ab67616d0000b2730c589d195ae8a6588d82374e",
        "width" : 640
      }, {
        "height" : 300,
        "url" : "https://i.scdn.co/image/ab67616d00001e020c589d195ae8a6588d82374e",
        "width" : 300
      }, {
        "height" : 64,
        "url" : "https://i.scdn.co/image/ab67616d000048510c589d195ae8a6588d82374e",
        "width" : 64
      } ],
      "name" : "David Guetta Karaoke's Band",
      "popularity" : 0,
      "type" : "artist",
      "uri" : "spotify:artist:75HnVoPHM8DNvJYNvVJEIP"
    }, {
      "external_urls" : {
        "spotify" : "https://open.spotify.com/artist/6lUUWNw7Kw9CtwuTgJHZlH"
      },
      "followers" : {
        "href" : null,
        "total" : 146
      },
      "genres" : [ ],
      "href" : "https://api.spotify.com/v1/artists/6lUUWNw7Kw9CtwuTgJHZlH",
      "id" : "6lUUWNw7Kw9CtwuTgJHZlH",
      "images" : [ {
        "height" : 640,
        "url" : "https://i.scdn.co/image/ab67616d0000b273d218760b6fdb4e387592e702",
        "width" : 640
      }, {
        "height" : 300,
        "url" : "https://i.scdn.co/image/ab67616d00001e02d218760b6fdb4e387592e702",
        "width" : 300
      }, {
        "height" : 64,
        "url" : "https://i.scdn.co/image/ab67616d00004851d218760b6fdb4e387592e702",
        "width" : 64
      } ],
      "name" : "David Guetta Cover Band",
      "popularity" : 0,
      "type" : "artist",
      "uri" : "spotify:artist:6lUUWNw7Kw9CtwuTgJHZlH"
    }, {
      "external_urls" : {
        "spotify" : "https://open.spotify.com/artist/4wC0O2lKkOim5YyJxTJ7pv"
      },
      "followers" : {
        "href" : null,
        "total" : 108
      },
      "genres" : [ ],
      "href" : "https://api.spotify.com/v1/artists/4wC0O2lKkOim5YyJxTJ7pv",
      "id" : "4wC0O2lKkOim5YyJxTJ7pv",
      "images" : [ {
        "height" : 640,
        "url" : "https://i.scdn.co/image/ab67616d0000b273e290f41108dedd62758e256c",
        "width" : 640
      }, {
        "height" : 300,
        "url" : "https://i.scdn.co/image/ab67616d00001e02e290f41108dedd62758e256c",
        "width" : 300
      }, {
        "height" : 64,
        "url" : "https://i.scdn.co/image/ab67616d00004851e290f41108dedd62758e256c",
        "width" : 64
      } ],
      "name" : "Tribute To David Guetta",
      "popularity" : 0,
      "type" : "artist",
      "uri" : "spotify:artist:4wC0O2lKkOim5YyJxTJ7pv"
    }, {
      "external_urls" : {
        "spotify" : "https://open.spotify.com/artist/2fsR8RJp7Xspc2ivsCUtO8"
      },
      "followers" : {
        "href" : null,
        "total" : 60
      },
      "genres" : [ ],
      "href" : "https://api.spotify.com/v1/artists/2fsR8RJp7Xspc2ivsCUtO8",
      "id" : "2fsR8RJp7Xspc2ivsCUtO8",
      "images" : [ {
        "height" : 640,
        "url" : "https://i.scdn.co/image/ab67616d0000b273a76cc69701e7d9a12c581d35",
        "width" : 640
      }, {
        "height" : 300,
        "url" : "https://i.scdn.co/image/ab67616d00001e02a76cc69701e7d9a12c581d35",
        "width" : 300
      }, {
        "height" : 64,
        "url" : "https://i.scdn.co/image/ab67616d00004851a76cc69701e7d9a12c581d35",
        "width" : 64
      } ],
      "name" : "David Guetta Karaoke Band",
      "popularity" : 0,
      "type" : "artist",
      "uri" : "spotify:artist:2fsR8RJp7Xspc2ivsCUtO8"
    }, {
      "external_urls" : {
        "spotify" : "https://open.spotify.com/artist/79CzmlKTaQMthZBQCCJylZ"
      },
      "followers" : {
        "href" : null,
        "total" : 19
      },
      "genres" : [ ],
      "href" : "https://api.spotify.com/v1/artists/79CzmlKTaQMthZBQCCJylZ",
      "id" : "79CzmlKTaQMthZBQCCJylZ",
      "images" : [ ],
      "name" : "Made famous by David Guetta",
      "popularity" : 0,
      "type" : "artist",
      "uri" : "spotify:artist:79CzmlKTaQMthZBQCCJylZ"
    }, {
      "external_urls" : {
        "spotify" : "https://open.spotify.com/artist/2EJb6ILl6VzvGYb3d2ao6C"
      },
      "followers" : {
        "href" : null,
        "total" : 202
      },
      "genres" : [ ],
      "href" : "https://api.spotify.com/v1/artists/2EJb6ILl6VzvGYb3d2ao6C",
      "id" : "2EJb6ILl6VzvGYb3d2ao6C",
      "images" : [ ],
      "name" : "Made Famous By Rihanna & David Guetta",
      "popularity" : 9,
      "type" : "artist",
      "uri" : "spotify:artist:2EJb6ILl6VzvGYb3d2ao6C"
    }, {
      "external_urls" : {
        "spotify" : "https://open.spotify.com/artist/7cw7siKBoPOMakNVRWK0tW"
      },
      "followers" : {
        "href" : null,
        "total" : 274
      },
      "genres" : [ ],
      "href" : "https://api.spotify.com/v1/artists/7cw7siKBoPOMakNVRWK0tW",
      "id" : "7cw7siKBoPOMakNVRWK0tW",
      "images" : [ ],
      "name" : "Made famous by David Guetta feat Rihanna",
      "popularity" : 1,
      "type" : "artist",
      "uri" : "spotify:artist:7cw7siKBoPOMakNVRWK0tW"
    } ],
    "limit" : 20,
    "next" : "https://api.spotify.com/v1/search?query=DAVID+GUETTA&type=artist&market=US&offset=20&limit=20",
    "offset" : 0,
    "previous" : null,
    "total" : 25
  }
}