{
  "artists" : {
    "href" : "https://api.spotify.com/v1/search?query=KAYZO&type=artist&market=US&offset=0&limit=20",
    "items" : [ {
      "external_urls" : {
        "spotify" : "https://open.spotify.com/artist/72iCiKwu6nu6Qq9emIwzYv"
      },
      "followers" : {
        "href" : null,
        "total" : 176753
      },
      "genres" : [ "brostep", "dubstep", "edm", "electro house", "electronic trap" ],
      "href" : "https://api.spotify.com/v1/artists/72iCiKwu6nu6Qq9emIwzYv",
      "id" : "72iCiKwu6nu6Qq9emIwzYv",
      "images" : [ {
        "height" : 640,
        "url" : "https://i.scdn.co/image/ab6761610000e5eba791edded941e8acd62eb6bf",
        "width" : 640
      }, {
        "height" : 320,
        "url" : "https://i.scdn.co/image/ab67616100005174a791edded941e8acd62eb6bf",
        "width" : 320
      }, {
        "height" : 160,
        "url" : "https://i.scdn.co/image/ab6761610000f178a791edded941e8acd62eb6bf",
        "width" : 160
      } ],
      "name" : "Kayzo",
      "popularity" : 62,
      "type" : "artist",
      "uri" : "spotify:artist:72iCiKwu6nu6Qq9emIwzYv"
    }, {
      "external_urls" : {
        "spotify" : "https://open.spotify.com/artist/1kG8uHpUllOkwr48i8jK2x"
      },
      "followers" : {
        "href" : null,
        "total" : 5667
      },
      "genres" : [ ],
      "href" : "https://api.spotify.com/v1/artists/1kG8uHpUllOkwr48i8jK2x",
      "id" : "1kG8uHpUllOkwr48i8jK2x",
      "images" : [ {
        "height" : 640,
        "url" : "https://i.scdn.co/image/ab67616d0000b273010d414f1f239a9cee1b0c6b",
        "width" : 640
      }, {
        "height" : 300,
        "url" : "https://i.scdn.co/image/ab67616d00001e02010d414f1f239a9cee1b0c6b",
        "width" : 300
      }, {
        "height" : 64,
        "url" : "https://i.scdn.co/image/ab67616d00004851010d414f1f239a9cee1b0c6b",
        "width" : 64
      } ],
      "name" : "Kayzon Woods",
      "popularity" : 17,
      "type" : "artist",
      "uri" : "spotify:artist:1kG8uHpUllOkwr48i8jK2x"
    }, {
      "external_urls" : {
        "spotify" : "https://open.spotify.com/artist/6woBiyvMC89Gdh0q3sqjzW"
      },
      "followers" : {
        "href" : null,
        "total" : 11
      },
      "genres" : [ ],
      "href" : "https://api.spotify.com/v1/artists/6woBiyvMC89Gdh0q3sqjzW",
      "id" : "6woBiyvMC89Gdh0q3sqjzW",
      "images" : [ ],
      "name" : "KAYZO",
      "popularity" : 0,
      "type" : "artist",
      "uri" : "spotify:artist:6woBiyvMC89Gdh0q3sqjzW"
    }, {
      "external_urls" : {
        "spotify" : "https://open.spotify.com/artist/6ao1fY4otpaLH14Hi7cg33"
      },
      "followers" : {
        "href" : null,
        "total" : 1
      },
      "genres" : [ ],
      "href" : "https://api.spotify.com/v1/artists/6ao1fY4otpaLH14Hi7cg33",
      "id" : "6ao1fY4otpaLH14Hi7cg33",
      "images" : [ ],
      "name" : "Kayzo40",
      "popularity" : 0,
      "type" : "artist",
      "uri" : "spotify:artist:6ao1fY4otpaLH14Hi7cg33"
    }, {
      "external_urls" : {
        "spotify" : "https://open.spotify.com/artist/7JQvJroJUQ7nb2Q0c4Gfr8"
      },
      "followers" : {
        "href" : null,
        "total" : 5
      },
      "genres" : [ ],
      "href" : "https://api.spotify.com/v1/artists/7JQvJroJUQ7nb2Q0c4Gfr8",
      "id" : "7JQvJroJUQ7nb2Q0c4Gfr8",
      "images" : [ {
        "height" : 640,
        "url" : "https://i.scdn.co/image/ab67616d0000b273e94894d421b71e2ab70e9f79",
        "width" : 640
      }, {
        "height" : 300,
        "url" : "https://i.scdn.co/image/ab67616d00001e02e94894d421b71e2ab70e9f79",
        "width" : 300
      }, {
        "height" : 64,
        "url" : "https://i.scdn.co/image/ab67616d00004851e94894d421b71e2ab70e9f79",
        "width" : 64
      } ],
      "name" : "Kayzo",
      "popularity" : 0,
      "type" : "artist",
      "uri" : "spotify:artist:7JQvJroJUQ7nb2Q0c4Gfr8"
    }, {
      "external_urls" : {
        "spotify" : "https://open.spotify.com/artist/3Fibt65kYLChx3i9cUI5s2"
      },
      "followers" : {
        "href" : null,
        "total" : 5
      },
      "genres" : [ ],
      "href" : "https://api.spotify.com/v1/artists/3Fibt65kYLChx3i9cUI5s2",
      "id" : "3Fibt65kYLChx3i9cUI5s2",
      "images" : [ {
        "height" : 640,
        "url" : "https://i.scdn.co/image/ab67616d0000b273357bda9316c9fb21b190a151",
        "width" : 640
      }, {
        "height" : 300,
        "url" : "https://i.scdn.co/image/ab67616d00001e02357bda9316c9fb21b190a151",
        "width" : 300
      }, {
        "height" : 64,
        "url" : "https://i.scdn.co/image/ab67616d00004851357bda9316c9fb21b190a151",
        "width" : 64
      } ],
      "name" : "Kayzo Blayze",
      "popularity" : 0,
      "type" : "artist",
      "uri" : "spotify:artist:3Fibt65kYLChx3i9cUI5s2"
    }, {
      "external_urls" : {
        "spotify" : "https://open.spotify.com/artist/2e9Ag4KmByPljWwcc3tdoE"
      },
      "followers" : {
        "href" : null,
        "total" : 2
      },
      "genres" : [ ],
      "href" : "https://api.spotify.com/v1/artists/2e9Ag4KmByPljWwcc3tdoE",
      "id" : "2e9Ag4KmByPljWwcc3tdoE",
      "images" : [ {
        "height" : 640,
        "url" : "https://i.scdn.co/image/ab67616d0000b273af18b4830c9e271b13ae50c2",
        "width" : 640
      }, {
        "height" : 300,
        "url" : "https://i.scdn.co/image/ab67616d00001e02af18b4830c9e271b13ae50c2",
        "width" : 300
      }, {
        "height" : 64,
        "url" : "https://i.scdn.co/image/ab67616d00004851af18b4830c9e271b13ae50c2",
        "width" : 64
      } ],
      "name" : "KAYZON",
      "popularity" : 0,
      "type" : "artist",
      "uri" : "spotify:artist:2e9Ag4KmByPljWwcc3tdoE"
    }, {
      "external_urls" : {
        "spotify" : "https://open.spotify.com/artist/3mCAaTAteM1pkgsDFLXJVH"
      },
      "followers" : {
        "href" : null,
        "total" : 19
      },
      "genres" : [ ],
      "href" : "https://api.spotify.com/v1/artists/3mCAaTAteM1pkgsDFLXJVH",
      "id" : "3mCAaTAteM1pkgsDFLXJVH",
      "images" : [ {
        "height" : 640,
        "url" : "https://i.scdn.co/image/ab6761610000e5eba942b72dc3d21d35287733db",
        "width" : 640
      }, {
        "height" : 320,
        "url" : "https://i.scdn.co/image/ab67616100005174a942b72dc3d21d35287733db",
        "width" : 320
      }, {
        "height" : 160,
        "url" : "https://i.scdn.co/image/ab6761610000f178a942b72dc3d21d35287733db",
        "width" : 160
      } ],
      "name" : "Kayzor",
      "popularity" : 0,
      "type" : "artist",
      "uri" : "spotify:artist:3mCAaTAteM1pkgsDFLXJVH"
    }, {
      "external_urls" : {
        "spotify" : "https://open.spotify.com/artist/4CcY9LjGRGfF7aasa9N3bg"
      },
      "followers" : {
        "href" : null,
        "total" : 1
      },
      "genres" : [ ],
      "href" : "https://api.spotify.com/v1/artists/4CcY9LjGRGfF7aasa9N3bg",
      "id" : "4CcY9LjGRGfF7aasa9N3bg",
      "images" : [ {
        "height" : 640,
        "url" : "https://i.scdn.co/image/ab67616d0000b2739245764b560e93dcfbd40ed1",
        "width" : 640
      }, {
        "height" : 300,
        "url" : "https://i.scdn.co/image/ab67616d00001e029245764b560e93dcfbd40ed1",
        "width" : 300
      }, {
        "height" : 64,
        "url" : "https://i.scdn.co/image/ab67616d000048519245764b560e93dcfbd40ed1",
        "width" : 64
      } ],
      "name" : "Kayzon",
      "popularity" : 0,
      "type" : "artist",
      "uri" : "spotify:artist:4CcY9LjGRGfF7aasa9N3bg"
    }, {
      "external_urls" : {
        "spotify" : "https://open.spotify.com/artist/5VtsT8PYJP1ocA7SNmgt6E"
      },
      "followers" : {
        "href" : null,
        "total" : 55
      },
      "genres" : [ ],
      "href" : "https://api.spotify.com/v1/artists/5VtsT8PYJP1ocA7SNmgt6E",
      "id" : "5VtsT8PYJP1ocA7SNmgt6E",
      "images" : [ {
        "height" : 640,
        "url" : "https://i.scdn.co/image/ab6761610000e5eb2e4b637f5243d96e93875a4c",
        "width" : 640
      }, {
        "height" : 320,
        "url" : "https://i.scdn.co/image/ab676161000051742e4b637f5243d96e93875a4c",
        "width" : 320
      }, {
        "height" : 160,
        "url" : "https://i.scdn.co/image/ab6761610000f1782e4b637f5243d96e93875a4c",
        "width" : 160
      } ],
      "name" : "Kafi Kayzo",
      "popularity" : 1,
      "type" : "artist",
      "uri" : "spotify:artist:5VtsT8PYJP1ocA7SNmgt6E"
    }, {
      "external_urls" : {
        "spotify" : "https://open.spotify.com/artist/0wseGdtcHxFKgU2l4wCoEi"
      },
      "followers" : {
        "href" : null,
        "total" : 3
      },
      "genres" : [ ],
      "href" : "https://api.spotify.com/v1/artists/0wseGdtcHxFKgU2l4wCoEi",
      "id" : "0wseGdtcHxFKgU2l4wCoEi",
      "images" : [ {
        "height" : 640,
        "url" : "https://i.scdn.co/image/ab6761610000e5ebcfb5ae8162a27150877f713a",
        "width" : 640
      }, {
        "height" : 320,
        "url" : "https://i.scdn.co/image/ab67616100005174cfb5ae8162a27150877f713a",
        "width" : 320
      }, {
        "height" : 160,
        "url" : "https://i.scdn.co/image/ab6761610000f178cfb5ae8162a27150877f713a",
        "width" : 160
      } ],
      "name" : "Kayzon",
      "popularity" : 0,
      "type" : "artist",
      "uri" : "spotify:artist:0wseGdtcHxFKgU2l4wCoEi"
    }, {
      "external_urls" : {
        "spotify" : "https://open.spotify.com/artist/467pH5WhSGATNlqwEbTzi0"
      },
      "followers" : {
        "href" : null,
        "total" : 4
      },
      "genres" : [ ],
      "href" : "https://api.spotify.com/v1/artists/467pH5WhSGATNlqwEbTzi0",
      "id" : "467pH5WhSGATNlqwEbTzi0",
      "images" : [ ],
      "name" : "Kayzo",
      "popularity" : 0,
      "type" : "artist",
      "uri" : "spotify:artist:467pH5WhSGATNlqwEbTzi0"
    }, {
      "external_urls" : {
        "spotify" : "https://open.spotify.com/artist/2cthx64sFbuq5IPCbBWwEd"
      },
      "followers" : {
        "href" : null,
        "total" : 10
      },
      "genres" : [ ],
      "href" : "https://api.spotify.com/v1/artists/2cthx64sFbuq5IPCbBWwEd",
      "id" : "2cthx64sFbuq5IPCbBWwEd",
      "images" : [ {
        "height" : 640,
        "url" : "https://i.scdn.co/image/ab67616d0000b27343306d74cf94566e042cbe9a",
        "width" : 640
      }, {
        "height" : 300,
        "url" : "https://i.scdn.co/image/ab67616d00001e0243306d74cf94566e042cbe9a",
        "width" : 300
      }, {
        "height" : 64,
        "url" : "https://i.scdn.co/image/ab67616d0000485143306d74cf94566e042cbe9a",
        "width" : 64
      } ],
      "name" : "Kayzo",
      "popularity" : 0,
      "type" : "artist",
      "uri" : "spotify:artist:2cthx64sFbuq5IPCbBWwEd"
    }, {
      "external_urls" : {
        "spotify" : "https://open.spotify.com/artist/67gwj2e12mQJkyyH83DY4F"
      },
      "followers" : {
        "href" : null,
        "total" : 9
      },
      "genres" : [ ],
      "href" : "https://api.spotify.com/v1/artists/67gwj2e12mQJkyyH83DY4F",
      "id" : "67gwj2e12mQJkyyH83DY4F",
      "images" : [ ],
      "name" : "Kayzo",
      "popularity" : 0,
      "type" : "artist",
      "uri" : "spotify:artist:67gwj2e12mQJkyyH83DY4F"
    }, {
      "external_urls" : {
        "spotify" : "https://open.spotify.com/artist/2aDmuu0BvQSEs9qIv7v7By"
      },
      "followers" : {
        "href" : null,
        "total" : 1203
      },
      "genres" : [ ],
      "href" : "https://api.spotify.com/v1/artists/2aDmuu0BvQSEs9qIv7v7By",
      "id" : "2aDmuu0BvQSEs9qIv7v7By",
      "images" : [ ],
      "name" : "Kayzo",
      "popularity" : 0,
      "type" : "artist",
      "uri" : "spotify:artist:2aDmuu0BvQSEs9qIv7v7By"
    }, {
      "external_urls" : {
        "spotify" : "https://open.spotify.com/artist/6hFs0utjY3EaXNHQP2zTZt"
      },
      "followers" : {
        "href" : null,
        "total" : 30
      },
      "genres" : [ ],
      "href" : "https://api.spotify.com/v1/artists/6hFs0utjY3EaXNHQP2zTZt",
      "id" : "6hFs0utjY3EaXNHQP2zTZt",
      "images" : [ ],
      "name" : "Kayzo",
      "popularity" : 0,
      "type" : "artist",
      "uri" : "spotify:artist:6hFs0utjY3EaXNHQP2zTZt"
    }, {
      "external_urls" : {
        "spotify" : "https://open.spotify.com/artist/4R9W01XltWHkchhDSnhgmg"
      },
      "followers" : {
        "href" : null,
        "total" : 5
      },
      "genres" : [ ],
      "href" : "https://api.spotify.com/v1/artists/4R9W01XltWHkchhDSnhgmg",
      "id" : "4R9W01XltWHkchhDSnhgmg",
      "images" : [ {
        "height" : 640,
        "url" : "https://i.scdn.co/image/ab67616d0000b273a54bcd4cb2fdc7d47938e31e",
        "width" : 640
      }, {
        "height" : 300,
        "url" : "https://i.scdn.co/image/ab67616d00001e02a54bcd4cb2fdc7d47938e31e",
        "width" : 300
      }, {
        "height" : 64,
        "url" : "https://i.scdn.co/image/ab67616d00004851a54bcd4cb2fdc7d47938e31e",
        "width" : 64
      } ],
      "name" : "Dj Kayzo Cpt",
      "popularity" : 0,
      "type" : "artist",
      "uri" : "spotify:artist:4R9W01XltWHkchhDSnhgmg"
    }, {
      "external_urls" : {
        "spotify" : "https://open.spotify.com/artist/3KG398MZEnyOIBbdNYOXeS"
      },
      "followers" : {
        "href" : null,
        "total" : 3
      },
      "genres" : [ ],
      "href" : "https://api.spotify.com/v1/artists/3KG398MZEnyOIBbdNYOXeS",
      "id" : "3KG398MZEnyOIBbdNYOXeS",
      "images" : [ ],
      "name" : "Kayzo TSR",
      "popularity" : 0,
      "type" : "artist",
      "uri" : "spotify:artist:3KG398MZEnyOIBbdNYOXeS"
    }, {
      "external_urls" : {
        "spotify" : "https://open.spotify.com/artist/3jv0UNMqGwuaz4qzFmYtXP"
      },
      "followers" : {
        "href" : null,
        "total" : 3
      },
      "genres" : [ ],
      "href" : "https://api.spotify.com/v1/artists/3jv0UNMqGwuaz4qzFmYtXP",
      "id" : "3jv0UNMqGwuaz4qzFmYtXP",
      "images" : [ {
        "height" : 640,
        "url" : "https://i.scdn.co/image/ab6761610000e5eb26e301a3ad25fd3320102d0c",
        "width" : 640
      }, {
        "height" : 320,
        "url" : "https://i.scdn.co/image/ab6761610000517426e301a3ad25fd3320102d0c",
        "width" : 320
      }, {
        "height" : 160,
        "url" : "https://i.scdn.co/image/ab6761610000f17826e301a3ad25fd3320102d0c",
        "width" : 160
      } ],
      "name" : "Kayzoni",
      "popularity" : 0,
      "type" : "artist",
      "uri" : "spotify:artist:3jv0UNMqGwuaz4qzFmYtXP"
    }, {
      "external_urls" : {
        "spotify" : "https://open.spotify.com/artist/6dpr0I5cnPl80d1OINOSSh"
      },
      "followers" : {
        "href" : null,
        "total" : 0
      },
      "genres" : [ ],
      "href" : "https://api.spotify.com/v1/artists/6dpr0I5cnPl80d1OINOSSh",
      "id" : "6dpr0I5cnPl80d1OINOSSh",
      "images" : [ ],
      "name" : "Kayzotic",
      "popularity" : 0,
      "type" : "artist",
      "uri" : "spotify:artist:6dpr0I5cnPl80d1OINOSSh"
    } ],
    "limit" : 20,
    "next" : "https://api.spotify.com/v1/search?query=KAYZO&type=artist&market=US&offset=20&limit=20",
    "offset" : 0,
    "previous" : null,
    "total" : 34
  }
}