{
  "artists" : {
    "href" : "https://api.spotify.com/v1/search?query=KOVEN&type=artist&market=US&offset=0&limit=20",
    "items" : [ {
      "external_urls" : {
        "spotify" : "https://open.spotify.com/artist/3UCbp6D1lvILlxRJT9LnFa"
      },
      "followers" : {
        "href" : null,
        "total" : 89709
      },
      "genres" : [ "chillstep", "edm", "electro house", "gaming edm", "melodic dubstep" ],
      "href" : "https://api.spotify.com/v1/artists/3UCbp6D1lvILlxRJT9LnFa",
      "id" : "3UCbp6D1lvILlxRJT9LnFa",
      "images" : [ {
        "height" : 640,
        "url" : "https://i.scdn.co/image/ab6761610000e5eb2ea391350f25b01b6b7ca541",
        "width" : 640
      }, {
        "height" : 320,
        "url" : "https://i.scdn.co/image/ab676161000051742ea391350f25b01b6b7ca541",
        "width" : 320
      }, {
        "height" : 160,
        "url" : "https://i.scdn.co/image/ab6761610000f1782ea391350f25b01b6b7ca541",
        "width" : 160
      } ],
      "name" : "Koven",
      "popularity" : 60,
      "type" : "artist",
      "uri" : "spotify:artist:3UCbp6D1lvILlxRJT9LnFa"
    }, {
      "external_urls" : {
        "spotify" : "https://open.spotify.com/artist/2pkpqIb8x2VvL9NFeche19"
      },
      "followers" : {
        "href" : null,
        "total" : 608
      },
      "genres" : [ ],
      "href" : "https://api.spotify.com/v1/artists/2pkpqIb8x2VvL9NFeche19",
      "id" : "2pkpqIb8x2VvL9NFeche19",
      "images" : [ {
        "height" : 640,
        "url" : "https://i.scdn.co/image/ab6761610000e5eba0c231ce4a461bb5aeff3a66",
        "width" : 640
      }, {
        "height" : 320,
        "url" : "https://i.scdn.co/image/ab67616100005174a0c231ce4a461bb5aeff3a66",
        "width" : 320
      }, {
        "height" : 160,
        "url" : "https://i.scdn.co/image/ab6761610000f178a0c231ce4a461bb5aeff3a66",
        "width" : 160
      } ],
      "name" : "Koven Wei",
      "popularity" : 34,
      "type" : "artist",
      "uri" : "spotify:artist:2pkpqIb8x2VvL9NFeche19"
    }, {
      "external_urls" : {
        "spotify" : "https://open.spotify.com/artist/31VNYr7yK0xBD6MfIaucLJ"
      },
      "followers" : {
        "href" : null,
        "total" : 27804
      },
      "genres" : [ "black metal", "cyber metal", "melodic black metal", "norwegian metal", "sci-fi metal", "symphonic black metal" ],
      "href" : "https://api.spotify.com/v1/artists/31VNYr7yK0xBD6MfIaucLJ",
      "id" : "31VNYr7yK0xBD6MfIaucLJ",
      "images" : [ {
        "height" : 640,
        "url" : "https://i.scdn.co/image/ab67616d0000b2739b4f3e2e7dbecbec64bf3d77",
        "width" : 640
      }, {
        "height" : 300,
        "url" : "https://i.scdn.co/image/ab67616d00001e029b4f3e2e7dbecbec64bf3d77",
        "width" : 300
      }, {
        "height" : 64,
        "url" : "https://i.scdn.co/image/ab67616d000048519b4f3e2e7dbecbec64bf3d77",
        "width" : 64
      } ],
      "name" : "The Kovenant",
      "popularity" : 32,
      "type" : "artist",
      "uri" : "spotify:artist:31VNYr7yK0xBD6MfIaucLJ"
    }, {
      "external_urls" : {
        "spotify" : "https://open.spotify.com/artist/6O72twVZb3pjRJNU6FV9kg"
      },
      "followers" : {
        "href" : null,
        "total" : 69
      },
      "genres" : [ ],
      "href" : "https://api.spotify.com/v1/artists/6O72twVZb3pjRJNU6FV9kg",
      "id" : "6O72twVZb3pjRJNU6FV9kg",
      "images" : [ {
        "height" : 640,
        "url" : "https://i.scdn.co/image/ab67616d0000b273e3c8aac44a198c5d5ab18ad6",
        "width" : 640
      }, {
        "height" : 300,
        "url" : "https://i.scdn.co/image/ab67616d00001e02e3c8aac44a198c5d5ab18ad6",
        "width" : 300
      }, {
        "height" : 64,
        "url" : "https://i.scdn.co/image/ab67616d00004851e3c8aac44a198c5d5ab18ad6",
        "width" : 64
      } ],
      "name" : "Kovenant",
      "popularity" : 1,
      "type" : "artist",
      "uri" : "spotify:artist:6O72twVZb3pjRJNU6FV9kg"
    }, {
      "external_urls" : {
        "spotify" : "https://open.spotify.com/artist/6xzk27huwPEny7xDGiJo1p"
      },
      "followers" : {
        "href" : null,
        "total" : 955
      },
      "genres" : [ "classic french pop" ],
      "href" : "https://api.spotify.com/v1/artists/6xzk27huwPEny7xDGiJo1p",
      "id" : "6xzk27huwPEny7xDGiJo1p",
      "images" : [ {
        "height" : 640,
        "url" : "https://i.scdn.co/image/ab67616d0000b273d076a0829f9e16ca5a6c2fc3",
        "width" : 640
      }, {
        "height" : 300,
        "url" : "https://i.scdn.co/image/ab67616d00001e02d076a0829f9e16ca5a6c2fc3",
        "width" : 300
      }, {
        "height" : 64,
        "url" : "https://i.scdn.co/image/ab67616d00004851d076a0829f9e16ca5a6c2fc3",
        "width" : 64
      } ],
      "name" : "David Koven",
      "popularity" : 22,
      "type" : "artist",
      "uri" : "spotify:artist:6xzk27huwPEny7xDGiJo1p"
    }, {
      "external_urls" : {
        "spotify" : "https://open.spotify.com/artist/0XSnvusU5bonfjkqxw3xRY"
      },
      "followers" : {
        "href" : null,
        "total" : 2
      },
      "genres" : [ ],
      "href" : "https://api.spotify.com/v1/artists/0XSnvusU5bonfjkqxw3xRY",
      "id" : "0XSnvusU5bonfjkqxw3xRY",
      "images" : [ {
        "height" : 640,
        "url" : "https://i.scdn.co/image/ab67616d0000b273c24dd2f2bfee6cc15ae1b74b",
        "width" : 640
      }, {
        "height" : 300,
        "url" : "https://i.scdn.co/image/ab67616d00001e02c24dd2f2bfee6cc15ae1b74b",
        "width" : 300
      }, {
        "height" : 64,
        "url" : "https://i.scdn.co/image/ab67616d00004851c24dd2f2bfee6cc15ae1b74b",
        "width" : 64
      } ],
      "name" : "Diva Goodfriend-Koven",
      "popularity" : 5,
      "type" : "artist",
      "uri" : "spotify:artist:0XSnvusU5bonfjkqxw3xRY"
    }, {
      "external_urls" : {
        "spotify" : "https://open.spotify.com/artist/6Moa8rmxYgeJxyCj3zMdJB"
      },
      "followers" : {
        "href" : null,
        "total" : 0
      },
      "genres" : [ ],
      "href" : "https://api.spotify.com/v1/artists/6Moa8rmxYgeJxyCj3zMdJB",
      "id" : "6Moa8rmxYgeJxyCj3zMdJB",
      "images" : [ ],
      "name" : "Kovenski",
      "popularity" : 0,
      "type" : "artist",
      "uri" : "spotify:artist:6Moa8rmxYgeJxyCj3zMdJB"
    }, {
      "external_urls" : {
        "spotify" : "https://open.spotify.com/artist/0Pt4SemUm6XtYLapaxnuJW"
      },
      "followers" : {
        "href" : null,
        "total" : 12
      },
      "genres" : [ ],
      "href" : "https://api.spotify.com/v1/artists/0Pt4SemUm6XtYLapaxnuJW",
      "id" : "0Pt4SemUm6XtYLapaxnuJW",
      "images" : [ {
        "height" : 640,
        "url" : "https://i.scdn.co/image/ab67616d0000b2739df86ef1d97d8d2581e599b5",
        "width" : 640
      }, {
        "height" : 300,
        "url" : "https://i.scdn.co/image/ab67616d00001e029df86ef1d97d8d2581e599b5",
        "width" : 300
      }, {
        "height" : 64,
        "url" : "https://i.scdn.co/image/ab67616d000048519df86ef1d97d8d2581e599b5",
        "width" : 64
      } ],
      "name" : "Koven Dre",
      "popularity" : 0,
      "type" : "artist",
      "uri" : "spotify:artist:0Pt4SemUm6XtYLapaxnuJW"
    }, {
      "external_urls" : {
        "spotify" : "https://open.spotify.com/artist/5E0dK17YIlvDZ2sq6NnHM4"
      },
      "followers" : {
        "href" : null,
        "total" : 47
      },
      "genres" : [ ],
      "href" : "https://api.spotify.com/v1/artists/5E0dK17YIlvDZ2sq6NnHM4",
      "id" : "5E0dK17YIlvDZ2sq6NnHM4",
      "images" : [ {
        "height" : 640,
        "url" : "https://i.scdn.co/image/ab6761610000e5ebc00607430c330ebcd836cf3b",
        "width" : 640
      }, {
        "height" : 320,
        "url" : "https://i.scdn.co/image/ab67616100005174c00607430c330ebcd836cf3b",
        "width" : 320
      }, {
        "height" : 160,
        "url" : "https://i.scdn.co/image/ab6761610000f178c00607430c330ebcd836cf3b",
        "width" : 160
      } ],
      "name" : "Koventry",
      "popularity" : 0,
      "type" : "artist",
      "uri" : "spotify:artist:5E0dK17YIlvDZ2sq6NnHM4"
    }, {
      "external_urls" : {
        "spotify" : "https://open.spotify.com/artist/0XSMiyfuSJrOUfAnNU4uAD"
      },
      "followers" : {
        "href" : null,
        "total" : 1636
      },
      "genres" : [ ],
      "href" : "https://api.spotify.com/v1/artists/0XSMiyfuSJrOUfAnNU4uAD",
      "id" : "0XSMiyfuSJrOUfAnNU4uAD",
      "images" : [ {
        "height" : 640,
        "url" : "https://i.scdn.co/image/ab67616d0000b273ce4cbb17540d26df44f8d2e8",
        "width" : 640
      }, {
        "height" : 300,
        "url" : "https://i.scdn.co/image/ab67616d00001e02ce4cbb17540d26df44f8d2e8",
        "width" : 300
      }, {
        "height" : 64,
        "url" : "https://i.scdn.co/image/ab67616d00004851ce4cbb17540d26df44f8d2e8",
        "width" : 64
      } ],
      "name" : "Playlist Radio With Koven",
      "popularity" : 6,
      "type" : "artist",
      "uri" : "spotify:artist:0XSMiyfuSJrOUfAnNU4uAD"
    }, {
      "external_urls" : {
        "spotify" : "https://open.spotify.com/artist/5raiW82JlRUe0wUlVo0aqN"
      },
      "followers" : {
        "href" : null,
        "total" : 2
      },
      "genres" : [ ],
      "href" : "https://api.spotify.com/v1/artists/5raiW82JlRUe0wUlVo0aqN",
      "id" : "5raiW82JlRUe0wUlVo0aqN",
      "images" : [ {
        "height" : 640,
        "url" : "https://i.scdn.co/image/ab67616d0000b27340978501a44cf2edc581cec7",
        "width" : 640
      }, {
        "height" : 300,
        "url" : "https://i.scdn.co/image/ab67616d00001e0240978501a44cf2edc581cec7",
        "width" : 300
      }, {
        "height" : 64,
        "url" : "https://i.scdn.co/image/ab67616d0000485140978501a44cf2edc581cec7",
        "width" : 64
      } ],
      "name" : "Kovennt",
      "popularity" : 0,
      "type" : "artist",
      "uri" : "spotify:artist:5raiW82JlRUe0wUlVo0aqN"
    }, {
      "external_urls" : {
        "spotify" : "https://open.spotify.com/artist/1klyeJA77OoEQtSt755y9z"
      },
      "followers" : {
        "href" : null,
        "total" : 7
      },
      "genres" : [ "american romanticism", "operetta" ],
      "href" : "https://api.spotify.com/v1/artists/1klyeJA77OoEQtSt755y9z",
      "id" : "1klyeJA77OoEQtSt755y9z",
      "images" : [ ],
      "name" : "Reginald De Koven",
      "popularity" : 0,
      "type" : "artist",
      "uri" : "spotify:artist:1klyeJA77OoEQtSt755y9z"
    }, {
      "external_urls" : {
        "spotify" : "https://open.spotify.com/artist/1ibmvdiF3hGS6dzByeWneW"
      },
      "followers" : {
        "href" : null,
        "total" : 2
      },
      "genres" : [ ],
      "href" : "https://api.spotify.com/v1/artists/1ibmvdiF3hGS6dzByeWneW",
      "id" : "1ibmvdiF3hGS6dzByeWneW",
      "images" : [ ],
      "name" : "R. DE KOVEN",
      "popularity" : 0,
      "type" : "artist",
      "uri" : "spotify:artist:1ibmvdiF3hGS6dzByeWneW"
    }, {
      "external_urls" : {
        "spotify" : "https://open.spotify.com/artist/6V1ZhwZShoOVTOCkKaWFn6"
      },
      "followers" : {
        "href" : null,
        "total" : 0
      },
      "genres" : [ ],
      "href" : "https://api.spotify.com/v1/artists/6V1ZhwZShoOVTOCkKaWFn6",
      "id" : "6V1ZhwZShoOVTOCkKaWFn6",
      "images" : [ {
        "height" : 640,
        "url" : "https://i.scdn.co/image/ab67616d0000b27326bcab278205a95d554a2ccc",
        "width" : 640
      }, {
        "height" : 300,
        "url" : "https://i.scdn.co/image/ab67616d00001e0226bcab278205a95d554a2ccc",
        "width" : 300
      }, {
        "height" : 64,
        "url" : "https://i.scdn.co/image/ab67616d0000485126bcab278205a95d554a2ccc",
        "width" : 64
      } ],
      "name" : "Nina Kovensky",
      "popularity" : 0,
      "type" : "artist",
      "uri" : "spotify:artist:6V1ZhwZShoOVTOCkKaWFn6"
    }, {
      "external_urls" : {
        "spotify" : "https://open.spotify.com/artist/7ekecNoUGK3RdUeWTtEzw6"
      },
      "followers" : {
        "href" : null,
        "total" : 125
      },
      "genres" : [ "canadian modern jazz" ],
      "href" : "https://api.spotify.com/v1/artists/7ekecNoUGK3RdUeWTtEzw6",
      "id" : "7ekecNoUGK3RdUeWTtEzw6",
      "images" : [ {
        "height" : 640,
        "url" : "https://i.scdn.co/image/ab6761610000e5eb852713d8e39a641c67f150f9",
        "width" : 640
      }, {
        "height" : 320,
        "url" : "https://i.scdn.co/image/ab67616100005174852713d8e39a641c67f150f9",
        "width" : 320
      }, {
        "height" : 160,
        "url" : "https://i.scdn.co/image/ab6761610000f178852713d8e39a641c67f150f9",
        "width" : 160
      } ],
      "name" : "Steve Koven Trio",
      "popularity" : 1,
      "type" : "artist",
      "uri" : "spotify:artist:7ekecNoUGK3RdUeWTtEzw6"
    }, {
      "external_urls" : {
        "spotify" : "https://open.spotify.com/artist/5znF0Coqe57VWKVNyXIgxN"
      },
      "followers" : {
        "href" : null,
        "total" : 1
      },
      "genres" : [ ],
      "href" : "https://api.spotify.com/v1/artists/5znF0Coqe57VWKVNyXIgxN",
      "id" : "5znF0Coqe57VWKVNyXIgxN",
      "images" : [ ],
      "name" : "Violeta Kovensky",
      "popularity" : 0,
      "type" : "artist",
      "uri" : "spotify:artist:5znF0Coqe57VWKVNyXIgxN"
    }, {
      "external_urls" : {
        "spotify" : "https://open.spotify.com/artist/6Jmeyo8FPp0I3ZMKeUgtP9"
      },
      "followers" : {
        "href" : null,
        "total" : 8
      },
      "genres" : [ ],
      "href" : "https://api.spotify.com/v1/artists/6Jmeyo8FPp0I3ZMKeUgtP9",
      "id" : "6Jmeyo8FPp0I3ZMKeUgtP9",
      "images" : [ {
        "height" : 640,
        "url" : "https://i.scdn.co/image/ab6761610000e5ebe76edfb0ff91aa67c0328c92",
        "width" : 640
      }, {
        "height" : 320,
        "url" : "https://i.scdn.co/image/ab67616100005174e76edfb0ff91aa67c0328c92",
        "width" : 320
      }, {
        "height" : 160,
        "url" : "https://i.scdn.co/image/ab6761610000f178e76edfb0ff91aa67c0328c92",
        "width" : 160
      } ],
      "name" : "Nita Koven",
      "popularity" : 0,
      "type" : "artist",
      "uri" : "spotify:artist:6Jmeyo8FPp0I3ZMKeUgtP9"
    }, {
      "external_urls" : {
        "spotify" : "https://open.spotify.com/artist/1sklU33HTHByMdvJtlSRGf"
      },
      "followers" : {
        "href" : null,
        "total" : 51
      },
      "genres" : [ ],
      "href" : "https://api.spotify.com/v1/artists/1sklU33HTHByMdvJtlSRGf",
      "id" : "1sklU33HTHByMdvJtlSRGf",
      "images" : [ {
        "height" : 640,
        "url" : "https://i.scdn.co/image/ab6761610000e5eb47b058d24f7d4b3be101db6f",
        "width" : 640
      }, {
        "height" : 320,
        "url" : "https://i.scdn.co/image/ab6761610000517447b058d24f7d4b3be101db6f",
        "width" : 320
      }, {
        "height" : 160,
        "url" : "https://i.scdn.co/image/ab6761610000f17847b058d24f7d4b3be101db6f",
        "width" : 160
      } ],
      "name" : "Steve Koven",
      "popularity" : 0,
      "type" : "artist",
      "uri" : "spotify:artist:1sklU33HTHByMdvJtlSRGf"
    }, {
      "external_urls" : {
        "spotify" : "https://open.spotify.com/artist/4F1s5BbFqHzz8OUb7lxvUM"
      },
      "followers" : {
        "href" : null,
        "total" : 2
      },
      "genres" : [ ],
      "href" : "https://api.spotify.com/v1/artists/4F1s5BbFqHzz8OUb7lxvUM",
      "id" : "4F1s5BbFqHzz8OUb7lxvUM",
      "images" : [ ],
      "name" : "De Koven",
      "popularity" : 0,
      "type" : "artist",
      "uri" : "spotify:artist:4F1s5BbFqHzz8OUb7lxvUM"
    }, {
      "external_urls" : {
        "spotify" : "https://open.spotify.com/artist/2JfFscHXhAcWyvLUJhbgWG"
      },
      "followers" : {
        "href" : null,
        "total" : 0
      },
      "genres" : [ ],
      "href" : "https://api.spotify.com/v1/artists/2JfFscHXhAcWyvLUJhbgWG",
      "id" : "2JfFscHXhAcWyvLUJhbgWG",
      "images" : [ ],
      "name" : "Joseph Koven",
      "popularity" : 0,
      "type" : "artist",
      "uri" : "spotify:artist:2JfFscHXhAcWyvLUJhbgWG"
    } ],
    "limit" : 20,
    "next" : "https://api.spotify.com/v1/search?query=KOVEN&type=artist&market=US&offset=20&limit=20",
    "offset" : 0,
    "previous" : null,
    "total" : 24
  }
}