{
  "artists" : {
    "href" : "https://api.spotify.com/v1/search?query=MAJESTIC&type=artist&market=US&offset=0&limit=20",
    "items" : [ {
      "external_urls" : {
        "spotify" : "https://open.spotify.com/artist/6QMABvTzixnxzsLYyhqRxI"
      },
      "followers" : {
        "href" : null,
        "total" : 40742
      },
      "genres" : [ "house", "pop dance", "uk dance" ],
      "href" : "https://api.spotify.com/v1/artists/6QMABvTzixnxzsLYyhqRxI",
      "id" : "6QMABvTzixnxzsLYyhqRxI",
      "images" : [ {
        "height" : 640,
        "url" : "https://i.scdn.co/image/ab6761610000e5eb836556acb908b5dd89d6fe94",
        "width" : 640
      }, {
        "height" : 320,
        "url" : "https://i.scdn.co/image/ab67616100005174836556acb908b5dd89d6fe94",
        "width" : 320
      }, {
        "height" : 160,
        "url" : "https://i.scdn.co/image/ab6761610000f178836556acb908b5dd89d6fe94",
        "width" : 160
      } ],
      "name" : "Majestic",
      "popularity" : 70,
      "type" : "artist",
      "uri" : "spotify:artist:6QMABvTzixnxzsLYyhqRxI"
    }, {
      "external_urls" : {
        "spotify" : "https://open.spotify.com/artist/0sQArsC8yyQYhH6mk7Myt0"
      },
      "followers" : {
        "href" : null,
        "total" : 57
      },
      "genres" : [ "background music" ],
      "href" : "https://api.spotify.com/v1/artists/0sQArsC8yyQYhH6mk7Myt0",
      "id" : "0sQArsC8yyQYhH6mk7Myt0",
      "images" : [ {
        "height" : 640,
        "url" : "https://i.scdn.co/image/ab67616d0000b2730540af20fcce74295e4f4da7",
        "width" : 640
      }, {
        "height" : 300,
        "url" : "https://i.scdn.co/image/ab67616d00001e020540af20fcce74295e4f4da7",
        "width" : 300
      }, {
        "height" : 64,
        "url" : "https://i.scdn.co/image/ab67616d000048510540af20fcce74295e4f4da7",
        "width" : 64
      } ],
      "name" : "Majestic Sleep",
      "popularity" : 50,
      "type" : "artist",
      "uri" : "spotify:artist:0sQArsC8yyQYhH6mk7Myt0"
    }, {
      "external_urls" : {
        "spotify" : "https://open.spotify.com/artist/52lkxAYfC9ypaPJ2EB22ki"
      },
      "followers" : {
        "href" : null,
        "total" : 20005
      },
      "genres" : [ "christian power metal", "melodic metal", "swedish power metal", "symphonic power metal" ],
      "href" : "https://api.spotify.com/v1/artists/52lkxAYfC9ypaPJ2EB22ki",
      "id" : "52lkxAYfC9ypaPJ2EB22ki",
      "images" : [ {
        "height" : 640,
        "url" : "https://i.scdn.co/image/ab6761610000e5eb55c7e175d903c38ffe02de29",
        "width" : 640
      }, {
        "height" : 320,
        "url" : "https://i.scdn.co/image/ab6761610000517455c7e175d903c38ffe02de29",
        "width" : 320
      }, {
        "height" : 160,
        "url" : "https://i.scdn.co/image/ab6761610000f17855c7e175d903c38ffe02de29",
        "width" : 160
      } ],
      "name" : "Majestica",
      "popularity" : 43,
      "type" : "artist",
      "uri" : "spotify:artist:52lkxAYfC9ypaPJ2EB22ki"
    }, {
      "external_urls" : {
        "spotify" : "https://open.spotify.com/artist/2uiyPaAikxjcsewt2HGFgI"
      },
      "followers" : {
        "href" : null,
        "total" : 9083
      },
      "genres" : [ "reggae rock", "west coast reggae" ],
      "href" : "https://api.spotify.com/v1/artists/2uiyPaAikxjcsewt2HGFgI",
      "id" : "2uiyPaAikxjcsewt2HGFgI",
      "images" : [ {
        "height" : 640,
        "url" : "https://i.scdn.co/image/ab6761610000e5eb2884b9afebd289953aeb82d9",
        "width" : 640
      }, {
        "height" : 320,
        "url" : "https://i.scdn.co/image/ab676161000051742884b9afebd289953aeb82d9",
        "width" : 320
      }, {
        "height" : 160,
        "url" : "https://i.scdn.co/image/ab6761610000f1782884b9afebd289953aeb82d9",
        "width" : 160
      } ],
      "name" : "Soul Majestic",
      "popularity" : 32,
      "type" : "artist",
      "uri" : "spotify:artist:2uiyPaAikxjcsewt2HGFgI"
    }, {
      "external_urls" : {
        "spotify" : "https://open.spotify.com/artist/0os1CtuC6SXzNZ1pLQD2eS"
      },
      "followers" : {
        "href" : null,
        "total" : 786
      },
      "genres" : [ ],
      "href" : "https://api.spotify.com/v1/artists/0os1CtuC6SXzNZ1pLQD2eS",
      "id" : "0os1CtuC6SXzNZ1pLQD2eS",
      "images" : [ {
        "height" : 640,
        "url" : "https://i.scdn.co/image/ab6761610000e5eb9eaf522303bffb720a301f7c",
        "width" : 640
      }, {
        "height" : 320,
        "url" : "https://i.scdn.co/image/ab676161000051749eaf522303bffb720a301f7c",
        "width" : 320
      }, {
        "height" : 160,
        "url" : "https://i.scdn.co/image/ab6761610000f1789eaf522303bffb720a301f7c",
        "width" : 160
      } ],
      "name" : "Majestic Drama",
      "popularity" : 32,
      "type" : "artist",
      "uri" : "spotify:artist:0os1CtuC6SXzNZ1pLQD2eS"
    }, {
      "external_urls" : {
        "spotify" : "https://open.spotify.com/artist/2GPN3vkF0xYWYhR3ZqJVPU"
      },
      "followers" : {
        "href" : null,
        "total" : 274
      },
      "genres" : [ ],
      "href" : "https://api.spotify.com/v1/artists/2GPN3vkF0xYWYhR3ZqJVPU",
      "id" : "2GPN3vkF0xYWYhR3ZqJVPU",
      "images" : [ {
        "height" : 640,
        "url" : "https://i.scdn.co/image/ab6761610000e5eb0b2fe72086f1753a0ed78e0a",
        "width" : 640
      }, {
        "height" : 320,
        "url" : "https://i.scdn.co/image/ab676161000051740b2fe72086f1753a0ed78e0a",
        "width" : 320
      }, {
        "height" : 160,
        "url" : "https://i.scdn.co/image/ab6761610000f1780b2fe72086f1753a0ed78e0a",
        "width" : 160
      } ],
      "name" : "Majestic J",
      "popularity" : 36,
      "type" : "artist",
      "uri" : "spotify:artist:2GPN3vkF0xYWYhR3ZqJVPU"
    }, {
      "external_urls" : {
        "spotify" : "https://open.spotify.com/artist/4TawsE40Mpv3OXyoW5ZmsP"
      },
      "followers" : {
        "href" : null,
        "total" : 2171
      },
      "genres" : [ "liquid funk" ],
      "href" : "https://api.spotify.com/v1/artists/4TawsE40Mpv3OXyoW5ZmsP",
      "id" : "4TawsE40Mpv3OXyoW5ZmsP",
      "images" : [ {
        "height" : 640,
        "url" : "https://i.scdn.co/image/ab67616d0000b27338e15ab9d462b0069c2cc0ca",
        "width" : 640
      }, {
        "height" : 300,
        "url" : "https://i.scdn.co/image/ab67616d00001e0238e15ab9d462b0069c2cc0ca",
        "width" : 300
      }, {
        "height" : 64,
        "url" : "https://i.scdn.co/image/ab67616d0000485138e15ab9d462b0069c2cc0ca",
        "width" : 64
      } ],
      "name" : "Majestics",
      "popularity" : 28,
      "type" : "artist",
      "uri" : "spotify:artist:4TawsE40Mpv3OXyoW5ZmsP"
    }, {
      "external_urls" : {
        "spotify" : "https://open.spotify.com/artist/2h3mklfcnHcxcdw88nJvut"
      },
      "followers" : {
        "href" : null,
        "total" : 36
      },
      "genres" : [ ],
      "href" : "https://api.spotify.com/v1/artists/2h3mklfcnHcxcdw88nJvut",
      "id" : "2h3mklfcnHcxcdw88nJvut",
      "images" : [ {
        "height" : 640,
        "url" : "https://i.scdn.co/image/ab6761610000e5eb8e28dd4bd7b6995ee1fc6518",
        "width" : 640
      }, {
        "height" : 320,
        "url" : "https://i.scdn.co/image/ab676161000051748e28dd4bd7b6995ee1fc6518",
        "width" : 320
      }, {
        "height" : 160,
        "url" : "https://i.scdn.co/image/ab6761610000f1788e28dd4bd7b6995ee1fc6518",
        "width" : 160
      } ],
      "name" : "Ill Majestic",
      "popularity" : 29,
      "type" : "artist",
      "uri" : "spotify:artist:2h3mklfcnHcxcdw88nJvut"
    }, {
      "external_urls" : {
        "spotify" : "https://open.spotify.com/artist/0yOw8r5Hd8SyHeZL2eFkxF"
      },
      "followers" : {
        "href" : null,
        "total" : 904
      },
      "genres" : [ ],
      "href" : "https://api.spotify.com/v1/artists/0yOw8r5Hd8SyHeZL2eFkxF",
      "id" : "0yOw8r5Hd8SyHeZL2eFkxF",
      "images" : [ {
        "height" : 640,
        "url" : "https://i.scdn.co/image/ab6761610000e5eb95ecc42e9a7eefab7a8d9b37",
        "width" : 640
      }, {
        "height" : 320,
        "url" : "https://i.scdn.co/image/ab6761610000517495ecc42e9a7eefab7a8d9b37",
        "width" : 320
      }, {
        "height" : 160,
        "url" : "https://i.scdn.co/image/ab6761610000f17895ecc42e9a7eefab7a8d9b37",
        "width" : 160
      } ],
      "name" : "Majestica",
      "popularity" : 20,
      "type" : "artist",
      "uri" : "spotify:artist:0yOw8r5Hd8SyHeZL2eFkxF"
    }, {
      "external_urls" : {
        "spotify" : "https://open.spotify.com/artist/6xcHhiQ2BgIKNtKFpCB8t7"
      },
      "followers" : {
        "href" : null,
        "total" : 45
      },
      "genres" : [ ],
      "href" : "https://api.spotify.com/v1/artists/6xcHhiQ2BgIKNtKFpCB8t7",
      "id" : "6xcHhiQ2BgIKNtKFpCB8t7",
      "images" : [ {
        "height" : 640,
        "url" : "https://i.scdn.co/image/ab6761610000e5eb31b6b671185b280bda81f0c6",
        "width" : 640
      }, {
        "height" : 320,
        "url" : "https://i.scdn.co/image/ab6761610000517431b6b671185b280bda81f0c6",
        "width" : 320
      }, {
        "height" : 160,
        "url" : "https://i.scdn.co/image/ab6761610000f17831b6b671185b280bda81f0c6",
        "width" : 160
      } ],
      "name" : "Majestic El Capitán",
      "popularity" : 20,
      "type" : "artist",
      "uri" : "spotify:artist:6xcHhiQ2BgIKNtKFpCB8t7"
    }, {
      "external_urls" : {
        "spotify" : "https://open.spotify.com/artist/0RZfw1ZeGZtv6XVk46okGk"
      },
      "followers" : {
        "href" : null,
        "total" : 13
      },
      "genres" : [ ],
      "href" : "https://api.spotify.com/v1/artists/0RZfw1ZeGZtv6XVk46okGk",
      "id" : "0RZfw1ZeGZtv6XVk46okGk",
      "images" : [ {
        "height" : 640,
        "url" : "https://i.scdn.co/image/ab67616d0000b273cbc9c0689eedf4fcc586bc44",
        "width" : 640
      }, {
        "height" : 300,
        "url" : "https://i.scdn.co/image/ab67616d00001e02cbc9c0689eedf4fcc586bc44",
        "width" : 300
      }, {
        "height" : 64,
        "url" : "https://i.scdn.co/image/ab67616d00004851cbc9c0689eedf4fcc586bc44",
        "width" : 64
      } ],
      "name" : "Majestic Waters",
      "popularity" : 22,
      "type" : "artist",
      "uri" : "spotify:artist:0RZfw1ZeGZtv6XVk46okGk"
    }, {
      "external_urls" : {
        "spotify" : "https://open.spotify.com/artist/0AnROjg7JRdsC3zjT5QoRb"
      },
      "followers" : {
        "href" : null,
        "total" : 6
      },
      "genres" : [ ],
      "href" : "https://api.spotify.com/v1/artists/0AnROjg7JRdsC3zjT5QoRb",
      "id" : "0AnROjg7JRdsC3zjT5QoRb",
      "images" : [ {
        "height" : 640,
        "url" : "https://i.scdn.co/image/ab67616d0000b273b51ec5e8a508dc5cd2a6a65e",
        "width" : 640
      }, {
        "height" : 300,
        "url" : "https://i.scdn.co/image/ab67616d00001e02b51ec5e8a508dc5cd2a6a65e",
        "width" : 300
      }, {
        "height" : 64,
        "url" : "https://i.scdn.co/image/ab67616d00004851b51ec5e8a508dc5cd2a6a65e",
        "width" : 64
      } ],
      "name" : "Majestic Ocean",
      "popularity" : 13,
      "type" : "artist",
      "uri" : "spotify:artist:0AnROjg7JRdsC3zjT5QoRb"
    }, {
      "external_urls" : {
        "spotify" : "https://open.spotify.com/artist/3Mqf1Klfn1CCpnzaLhCjWr"
      },
      "followers" : {
        "href" : null,
        "total" : 845
      },
      "genres" : [ "psychedelic soul", "traditional soul" ],
      "href" : "https://api.spotify.com/v1/artists/3Mqf1Klfn1CCpnzaLhCjWr",
      "id" : "3Mqf1Klfn1CCpnzaLhCjWr",
      "images" : [ ],
      "name" : "Majestic Arrows",
      "popularity" : 15,
      "type" : "artist",
      "uri" : "spotify:artist:3Mqf1Klfn1CCpnzaLhCjWr"
    }, {
      "external_urls" : {
        "spotify" : "https://open.spotify.com/artist/2yUxBy1YXOfS46litfRCw9"
      },
      "followers" : {
        "href" : null,
        "total" : 14
      },
      "genres" : [ ],
      "href" : "https://api.spotify.com/v1/artists/2yUxBy1YXOfS46litfRCw9",
      "id" : "2yUxBy1YXOfS46litfRCw9",
      "images" : [ ],
      "name" : "Majestic Healing Nature Club",
      "popularity" : 10,
      "type" : "artist",
      "uri" : "spotify:artist:2yUxBy1YXOfS46litfRCw9"
    }, {
      "external_urls" : {
        "spotify" : "https://open.spotify.com/artist/55qCaWg39Jgc09BYKVSpbt"
      },
      "followers" : {
        "href" : null,
        "total" : 24
      },
      "genres" : [ ],
      "href" : "https://api.spotify.com/v1/artists/55qCaWg39Jgc09BYKVSpbt",
      "id" : "55qCaWg39Jgc09BYKVSpbt",
      "images" : [ {
        "height" : 640,
        "url" : "https://i.scdn.co/image/ab67616d0000b27317be3a1d5c6c8b1796a45443",
        "width" : 640
      }, {
        "height" : 300,
        "url" : "https://i.scdn.co/image/ab67616d00001e0217be3a1d5c6c8b1796a45443",
        "width" : 300
      }, {
        "height" : 64,
        "url" : "https://i.scdn.co/image/ab67616d0000485117be3a1d5c6c8b1796a45443",
        "width" : 64
      } ],
      "name" : "Majestic",
      "popularity" : 18,
      "type" : "artist",
      "uri" : "spotify:artist:55qCaWg39Jgc09BYKVSpbt"
    }, {
      "external_urls" : {
        "spotify" : "https://open.spotify.com/artist/2p84u2uN8FuNO3XZOEXQWw"
      },
      "followers" : {
        "href" : null,
        "total" : 123
      },
      "genres" : [ ],
      "href" : "https://api.spotify.com/v1/artists/2p84u2uN8FuNO3XZOEXQWw",
      "id" : "2p84u2uN8FuNO3XZOEXQWw",
      "images" : [ {
        "height" : 640,
        "url" : "https://i.scdn.co/image/ab6761610000e5eb654a72da9a765e22129e6cc0",
        "width" : 640
      }, {
        "height" : 320,
        "url" : "https://i.scdn.co/image/ab67616100005174654a72da9a765e22129e6cc0",
        "width" : 320
      }, {
        "height" : 160,
        "url" : "https://i.scdn.co/image/ab6761610000f178654a72da9a765e22129e6cc0",
        "width" : 160
      } ],
      "name" : "Majestic Soundz",
      "popularity" : 11,
      "type" : "artist",
      "uri" : "spotify:artist:2p84u2uN8FuNO3XZOEXQWw"
    }, {
      "external_urls" : {
        "spotify" : "https://open.spotify.com/artist/3NeWCsx8v3r1Cpq2857gjP"
      },
      "followers" : {
        "href" : null,
        "total" : 2
      },
      "genres" : [ ],
      "href" : "https://api.spotify.com/v1/artists/3NeWCsx8v3r1Cpq2857gjP",
      "id" : "3NeWCsx8v3r1Cpq2857gjP",
      "images" : [ {
        "height" : 640,
        "url" : "https://i.scdn.co/image/ab67616d0000b273e39bbee5712f6b4fff42a319",
        "width" : 640
      }, {
        "height" : 300,
        "url" : "https://i.scdn.co/image/ab67616d00001e02e39bbee5712f6b4fff42a319",
        "width" : 300
      }, {
        "height" : 64,
        "url" : "https://i.scdn.co/image/ab67616d00004851e39bbee5712f6b4fff42a319",
        "width" : 64
      } ],
      "name" : "The Majestic String Orchestra",
      "popularity" : 31,
      "type" : "artist",
      "uri" : "spotify:artist:3NeWCsx8v3r1Cpq2857gjP"
    }, {
      "external_urls" : {
        "spotify" : "https://open.spotify.com/artist/6OxuNPuM08kBVHW7IFE5oF"
      },
      "followers" : {
        "href" : null,
        "total" : 0
      },
      "genres" : [ ],
      "href" : "https://api.spotify.com/v1/artists/6OxuNPuM08kBVHW7IFE5oF",
      "id" : "6OxuNPuM08kBVHW7IFE5oF",
      "images" : [ {
        "height" : 640,
        "url" : "https://i.scdn.co/image/ab67616d0000b2730cad1de23654c5badb65ee26",
        "width" : 640
      }, {
        "height" : 300,
        "url" : "https://i.scdn.co/image/ab67616d00001e020cad1de23654c5badb65ee26",
        "width" : 300
      }, {
        "height" : 64,
        "url" : "https://i.scdn.co/image/ab67616d000048510cad1de23654c5badb65ee26",
        "width" : 64
      } ],
      "name" : "Majestic Oreva",
      "popularity" : 24,
      "type" : "artist",
      "uri" : "spotify:artist:6OxuNPuM08kBVHW7IFE5oF"
    }, {
      "external_urls" : {
        "spotify" : "https://open.spotify.com/artist/1XCXcNl2XOJTb40SJwDmpB"
      },
      "followers" : {
        "href" : null,
        "total" : 43
      },
      "genres" : [ ],
      "href" : "https://api.spotify.com/v1/artists/1XCXcNl2XOJTb40SJwDmpB",
      "id" : "1XCXcNl2XOJTb40SJwDmpB",
      "images" : [ {
        "height" : 640,
        "url" : "https://i.scdn.co/image/ab67616d0000b2738613aba772eae999e601558e",
        "width" : 640
      }, {
        "height" : 300,
        "url" : "https://i.scdn.co/image/ab67616d00001e028613aba772eae999e601558e",
        "width" : 300
      }, {
        "height" : 64,
        "url" : "https://i.scdn.co/image/ab67616d000048518613aba772eae999e601558e",
        "width" : 64
      } ],
      "name" : "Majestic Jay",
      "popularity" : 7,
      "type" : "artist",
      "uri" : "spotify:artist:1XCXcNl2XOJTb40SJwDmpB"
    }, {
      "external_urls" : {
        "spotify" : "https://open.spotify.com/artist/5pfrwvctp6ywcc9a0C1cwH"
      },
      "followers" : {
        "href" : null,
        "total" : 12364
      },
      "genres" : [ ],
      "href" : "https://api.spotify.com/v1/artists/5pfrwvctp6ywcc9a0C1cwH",
      "id" : "5pfrwvctp6ywcc9a0C1cwH",
      "images" : [ {
        "height" : 640,
        "url" : "https://i.scdn.co/image/ab6761610000e5eb64ab1d49461239045da1a3be",
        "width" : 640
      }, {
        "height" : 320,
        "url" : "https://i.scdn.co/image/ab6761610000517464ab1d49461239045da1a3be",
        "width" : 320
      }, {
        "height" : 160,
        "url" : "https://i.scdn.co/image/ab6761610000f17864ab1d49461239045da1a3be",
        "width" : 160
      } ],
      "name" : "majestic",
      "popularity" : 6,
      "type" : "artist",
      "uri" : "spotify:artist:5pfrwvctp6ywcc9a0C1cwH"
    } ],
    "limit" : 20,
    "next" : "https://api.spotify.com/v1/search?query=MAJESTIC&type=artist&market=US&offset=20&limit=20",
    "offset" : 0,
    "previous" : null,
    "total" : 459
  }
}