{
  "artists" : {
    "href" : "https://api.spotify.com/v1/search?query=MC+DINO&type=artist&market=US&offset=0&limit=20",
    "items" : [ {
      "external_urls" : {
        "spotify" : "https://open.spotify.com/artist/5cassUpi5dZlg484ebcjmJ"
      },
      "followers" : {
        "href" : null,
        "total" : 0
      },
      "genres" : [ ],
      "href" : "https://api.spotify.com/v1/artists/5cassUpi5dZlg484ebcjmJ",
      "id" : "5cassUpi5dZlg484ebcjmJ",
      "images" : [ {
        "height" : 640,
        "url" : "https://i.scdn.co/image/ab67616d0000b27353394c03202ea3f091b42cab",
        "width" : 640
      }, {
        "height" : 300,
        "url" : "https://i.scdn.co/image/ab67616d00001e0253394c03202ea3f091b42cab",
        "width" : 300
      }, {
        "height" : 64,
        "url" : "https://i.scdn.co/image/ab67616d0000485153394c03202ea3f091b42cab",
        "width" : 64
      } ],
      "name" : "Mc DinoRexx",
      "popularity" : 18,
      "type" : "artist",
      "uri" : "spotify:artist:5cassUpi5dZlg484ebcjmJ"
    }, {
      "external_urls" : {
        "spotify" : "https://open.spotify.com/artist/3ahbiYXqT117xzig3dsRKU"
      },
      "followers" : {
        "href" : null,
        "total" : 3246
      },
      "genres" : [ ],
      "href" : "https://api.spotify.com/v1/artists/3ahbiYXqT117xzig3dsRKU",
      "id" : "3ahbiYXqT117xzig3dsRKU",
      "images" : [ {
        "height" : 640,
        "url" : "https://i.scdn.co/image/ab6761610000e5eba5b2c3d8bf7bd47abc5fc6b4",
        "width" : 640
      }, {
        "height" : 320,
        "url" : "https://i.scdn.co/image/ab67616100005174a5b2c3d8bf7bd47abc5fc6b4",
        "width" : 320
      }, {
        "height" : 160,
        "url" : "https://i.scdn.co/image/ab6761610000f178a5b2c3d8bf7bd47abc5fc6b4",
        "width" : 160
      } ],
      "name" : "MC Dino",
      "popularity" : 16,
      "type" : "artist",
      "uri" : "spotify:artist:3ahbiYXqT117xzig3dsRKU"
    }, {
      "external_urls" : {
        "spotify" : "https://open.spotify.com/artist/5EsZJhjbBaclVS91CTZ10c"
      },
      "followers" : {
        "href" : null,
        "total" : 14759
      },
      "genres" : [ ],
      "href" : "https://api.spotify.com/v1/artists/5EsZJhjbBaclVS91CTZ10c",
      "id" : "5EsZJhjbBaclVS91CTZ10c",
      "images" : [ {
        "height" : 640,
        "url" : "https://i.scdn.co/image/ab67616d0000b273d6eeca7bfce67b2b188805d9",
        "width" : 640
      }, {
        "height" : 300,
        "url" : "https://i.scdn.co/image/ab67616d00001e02d6eeca7bfce67b2b188805d9",
        "width" : 300
      }, {
        "height" : 64,
        "url" : "https://i.scdn.co/image/ab67616d00004851d6eeca7bfce67b2b188805d9",
        "width" : 64
      } ],
      "name" : "Dino MC47",
      "popularity" : 27,
      "type" : "artist",
      "uri" : "spotify:artist:5EsZJhjbBaclVS91CTZ10c"
    }, {
      "external_urls" : {
        "spotify" : "https://open.spotify.com/artist/5hPdACTROoi69yZpLpSVbs"
      },
      "followers" : {
        "href" : null,
        "total" : 0
      },
      "genres" : [ ],
      "href" : "https://api.spotify.com/v1/artists/5hPdACTROoi69yZpLpSVbs",
      "id" : "5hPdACTROoi69yZpLpSVbs",
      "images" : [ {
        "height" : 640,
        "url" : "https://i.scdn.co/image/ab67616d0000b2739556e03131c6770acb65db3b",
        "width" : 640
      }, {
        "height" : 300,
        "url" : "https://i.scdn.co/image/ab67616d00001e029556e03131c6770acb65db3b",
        "width" : 300
      }, {
        "height" : 64,
        "url" : "https://i.scdn.co/image/ab67616d000048519556e03131c6770acb65db3b",
        "width" : 64
      } ],
      "name" : "MC Dino",
      "popularity" : 1,
      "type" : "artist",
      "uri" : "spotify:artist:5hPdACTROoi69yZpLpSVbs"
    }, {
      "external_urls" : {
        "spotify" : "https://open.spotify.com/artist/15vjqlLOR4KzWhtg8jjsA4"
      },
      "followers" : {
        "href" : null,
        "total" : 0
      },
      "genres" : [ ],
      "href" : "https://api.spotify.com/v1/artists/15vjqlLOR4KzWhtg8jjsA4",
      "id" : "15vjqlLOR4KzWhtg8jjsA4",
      "images" : [ ],
      "name" : "Mc Dino",
      "popularity" : 12,
      "type" : "artist",
      "uri" : "spotify:artist:15vjqlLOR4KzWhtg8jjsA4"
    }, {
      "external_urls" : {
        "spotify" : "https://open.spotify.com/artist/1IQlVGc3ytHpR8OqXPEeIO"
      },
      "followers" : {
        "href" : null,
        "total" : 2
      },
      "genres" : [ ],
      "href" : "https://api.spotify.com/v1/artists/1IQlVGc3ytHpR8OqXPEeIO",
      "id" : "1IQlVGc3ytHpR8OqXPEeIO",
      "images" : [ {
        "height" : 640,
        "url" : "https://i.scdn.co/image/ab67616d0000b273dc4eb9be9e2c7d1fe8c5cf73",
        "width" : 640
      }, {
        "height" : 300,
        "url" : "https://i.scdn.co/image/ab67616d00001e02dc4eb9be9e2c7d1fe8c5cf73",
        "width" : 300
      }, {
        "height" : 64,
        "url" : "https://i.scdn.co/image/ab67616d00004851dc4eb9be9e2c7d1fe8c5cf73",
        "width" : 64
      } ],
      "name" : "Mc Dinobra",
      "popularity" : 0,
      "type" : "artist",
      "uri" : "spotify:artist:1IQlVGc3ytHpR8OqXPEeIO"
    }, {
      "external_urls" : {
        "spotify" : "https://open.spotify.com/artist/3UsKLIHYmC27hCpHPsHEYn"
      },
      "followers" : {
        "href" : null,
        "total" : 0
      },
      "genres" : [ ],
      "href" : "https://api.spotify.com/v1/artists/3UsKLIHYmC27hCpHPsHEYn",
      "id" : "3UsKLIHYmC27hCpHPsHEYn",
      "images" : [ ],
      "name" : "MC Dino",
      "popularity" : 0,
      "type" : "artist",
      "uri" : "spotify:artist:3UsKLIHYmC27hCpHPsHEYn"
    }, {
      "external_urls" : {
        "spotify" : "https://open.spotify.com/artist/3cxGsRqdhauD3a0OuNRkZi"
      },
      "followers" : {
        "href" : null,
        "total" : 4
      },
      "genres" : [ ],
      "href" : "https://api.spotify.com/v1/artists/3cxGsRqdhauD3a0OuNRkZi",
      "id" : "3cxGsRqdhauD3a0OuNRkZi",
      "images" : [ {
        "height" : 640,
        "url" : "https://i.scdn.co/image/ab67616d0000b2735b7066fd2f5cd97e1f84c09f",
        "width" : 640
      }, {
        "height" : 300,
        "url" : "https://i.scdn.co/image/ab67616d00001e025b7066fd2f5cd97e1f84c09f",
        "width" : 300
      }, {
        "height" : 64,
        "url" : "https://i.scdn.co/image/ab67616d000048515b7066fd2f5cd97e1f84c09f",
        "width" : 64
      } ],
      "name" : "DINO MC",
      "popularity" : 0,
      "type" : "artist",
      "uri" : "spotify:artist:3cxGsRqdhauD3a0OuNRkZi"
    }, {
      "external_urls" : {
        "spotify" : "https://open.spotify.com/artist/2ZrE8b8SvN7oFfF2VtxA1I"
      },
      "followers" : {
        "href" : null,
        "total" : 141
      },
      "genres" : [ ],
      "href" : "https://api.spotify.com/v1/artists/2ZrE8b8SvN7oFfF2VtxA1I",
      "id" : "2ZrE8b8SvN7oFfF2VtxA1I",
      "images" : [ {
        "height" : 640,
        "url" : "https://i.scdn.co/image/ab6761610000e5eb1c12e5fe56f69a60c9c21196",
        "width" : 640
      }, {
        "height" : 320,
        "url" : "https://i.scdn.co/image/ab676161000051741c12e5fe56f69a60c9c21196",
        "width" : 320
      }, {
        "height" : 160,
        "url" : "https://i.scdn.co/image/ab6761610000f1781c12e5fe56f69a60c9c21196",
        "width" : 160
      } ],
      "name" : "MC Dino 42",
      "popularity" : 2,
      "type" : "artist",
      "uri" : "spotify:artist:2ZrE8b8SvN7oFfF2VtxA1I"
    }, {
      "external_urls" : {
        "spotify" : "https://open.spotify.com/artist/2selUpAXuuBi6vRrG61I7w"
      },
      "followers" : {
        "href" : null,
        "total" : 6
      },
      "genres" : [ ],
      "href" : "https://api.spotify.com/v1/artists/2selUpAXuuBi6vRrG61I7w",
      "id" : "2selUpAXuuBi6vRrG61I7w",
      "images" : [ {
        "height" : 640,
        "url" : "https://i.scdn.co/image/ab67616d0000b2733beb0081848fb9173d7cb361",
        "width" : 640
      }, {
        "height" : 300,
        "url" : "https://i.scdn.co/image/ab67616d00001e023beb0081848fb9173d7cb361",
        "width" : 300
      }, {
        "height" : 64,
        "url" : "https://i.scdn.co/image/ab67616d000048513beb0081848fb9173d7cb361",
        "width" : 64
      } ],
      "name" : "Mc Dinossauro",
      "popularity" : 0,
      "type" : "artist",
      "uri" : "spotify:artist:2selUpAXuuBi6vRrG61I7w"
    }, {
      "external_urls" : {
        "spotify" : "https://open.spotify.com/artist/0yPOvQFFLwUomAj30q05Tx"
      },
      "followers" : {
        "href" : null,
        "total" : 5
      },
      "genres" : [ ],
      "href" : "https://api.spotify.com/v1/artists/0yPOvQFFLwUomAj30q05Tx",
      "id" : "0yPOvQFFLwUomAj30q05Tx",
      "images" : [ ],
      "name" : "MC Dino SP",
      "popularity" : 0,
      "type" : "artist",
      "uri" : "spotify:artist:0yPOvQFFLwUomAj30q05Tx"
    }, {
      "external_urls" : {
        "spotify" : "https://open.spotify.com/artist/2PnBW7GDs6ko2LjGVymPBX"
      },
      "followers" : {
        "href" : null,
        "total" : 0
      },
      "genres" : [ ],
      "href" : "https://api.spotify.com/v1/artists/2PnBW7GDs6ko2LjGVymPBX",
      "id" : "2PnBW7GDs6ko2LjGVymPBX",
      "images" : [ {
        "height" : 640,
        "url" : "https://i.scdn.co/image/ab67616d0000b2733782e4c778f62f7e3dd584b7",
        "width" : 640
      }, {
        "height" : 300,
        "url" : "https://i.scdn.co/image/ab67616d00001e023782e4c778f62f7e3dd584b7",
        "width" : 300
      }, {
        "height" : 64,
        "url" : "https://i.scdn.co/image/ab67616d000048513782e4c778f62f7e3dd584b7",
        "width" : 64
      } ],
      "name" : "MC Dino",
      "popularity" : 0,
      "type" : "artist",
      "uri" : "spotify:artist:2PnBW7GDs6ko2LjGVymPBX"
    }, {
      "external_urls" : {
        "spotify" : "https://open.spotify.com/artist/2WI0ymwfwWRlQB32AvC1Z6"
      },
      "followers" : {
        "href" : null,
        "total" : 0
      },
      "genres" : [ ],
      "href" : "https://api.spotify.com/v1/artists/2WI0ymwfwWRlQB32AvC1Z6",
      "id" : "2WI0ymwfwWRlQB32AvC1Z6",
      "images" : [ ],
      "name" : "MC Dino",
      "popularity" : 0,
      "type" : "artist",
      "uri" : "spotify:artist:2WI0ymwfwWRlQB32AvC1Z6"
    }, {
      "external_urls" : {
        "spotify" : "https://open.spotify.com/artist/0fkxIBZIV40cUIibLwxwrV"
      },
      "followers" : {
        "href" : null,
        "total" : 0
      },
      "genres" : [ ],
      "href" : "https://api.spotify.com/v1/artists/0fkxIBZIV40cUIibLwxwrV",
      "id" : "0fkxIBZIV40cUIibLwxwrV",
      "images" : [ ],
      "name" : "MC Dino",
      "popularity" : 0,
      "type" : "artist",
      "uri" : "spotify:artist:0fkxIBZIV40cUIibLwxwrV"
    }, {
      "external_urls" : {
        "spotify" : "https://open.spotify.com/artist/2buqVykd4pbXammrcfv9cI"
      },
      "followers" : {
        "href" : null,
        "total" : 0
      },
      "genres" : [ ],
      "href" : "https://api.spotify.com/v1/artists/2buqVykd4pbXammrcfv9cI",
      "id" : "2buqVykd4pbXammrcfv9cI",
      "images" : [ ],
      "name" : "Dinow Mc",
      "popularity" : 5,
      "type" : "artist",
      "uri" : "spotify:artist:2buqVykd4pbXammrcfv9cI"
    }, {
      "external_urls" : {
        "spotify" : "https://open.spotify.com/artist/7HpdSPRpfCH8tarqzi19z5"
      },
      "followers" : {
        "href" : null,
        "total" : 0
      },
      "genres" : [ ],
      "href" : "https://api.spotify.com/v1/artists/7HpdSPRpfCH8tarqzi19z5",
      "id" : "7HpdSPRpfCH8tarqzi19z5",
      "images" : [ ],
      "name" : "Dino McGreen",
      "popularity" : 0,
      "type" : "artist",
      "uri" : "spotify:artist:7HpdSPRpfCH8tarqzi19z5"
    }, {
      "external_urls" : {
        "spotify" : "https://open.spotify.com/artist/603CYBQoGkZCgrS90lJ16K"
      },
      "followers" : {
        "href" : null,
        "total" : 1
      },
      "genres" : [ ],
      "href" : "https://api.spotify.com/v1/artists/603CYBQoGkZCgrS90lJ16K",
      "id" : "603CYBQoGkZCgrS90lJ16K",
      "images" : [ ],
      "name" : "MC Dino",
      "popularity" : 0,
      "type" : "artist",
      "uri" : "spotify:artist:603CYBQoGkZCgrS90lJ16K"
    }, {
      "external_urls" : {
        "spotify" : "https://open.spotify.com/artist/1YKob5n9W3LjRUwQ8G72B2"
      },
      "followers" : {
        "href" : null,
        "total" : 12
      },
      "genres" : [ ],
      "href" : "https://api.spotify.com/v1/artists/1YKob5n9W3LjRUwQ8G72B2",
      "id" : "1YKob5n9W3LjRUwQ8G72B2",
      "images" : [ {
        "height" : 640,
        "url" : "https://i.scdn.co/image/ab6761610000e5eb66f294ae7f7ac96ba6f88b99",
        "width" : 640
      }, {
        "height" : 320,
        "url" : "https://i.scdn.co/image/ab6761610000517466f294ae7f7ac96ba6f88b99",
        "width" : 320
      }, {
        "height" : 160,
        "url" : "https://i.scdn.co/image/ab6761610000f17866f294ae7f7ac96ba6f88b99",
        "width" : 160
      } ],
      "name" : "Dinox MC",
      "popularity" : 1,
      "type" : "artist",
      "uri" : "spotify:artist:1YKob5n9W3LjRUwQ8G72B2"
    }, {
      "external_urls" : {
        "spotify" : "https://open.spotify.com/artist/1hzRyF4zzUK4i1LAToRptq"
      },
      "followers" : {
        "href" : null,
        "total" : 13
      },
      "genres" : [ ],
      "href" : "https://api.spotify.com/v1/artists/1hzRyF4zzUK4i1LAToRptq",
      "id" : "1hzRyF4zzUK4i1LAToRptq",
      "images" : [ {
        "height" : 640,
        "url" : "https://i.scdn.co/image/ab67616d0000b273e541bc40903b7b19cf3a8063",
        "width" : 640
      }, {
        "height" : 300,
        "url" : "https://i.scdn.co/image/ab67616d00001e02e541bc40903b7b19cf3a8063",
        "width" : 300
      }, {
        "height" : 64,
        "url" : "https://i.scdn.co/image/ab67616d00004851e541bc40903b7b19cf3a8063",
        "width" : 64
      } ],
      "name" : "Dino MC",
      "popularity" : 1,
      "type" : "artist",
      "uri" : "spotify:artist:1hzRyF4zzUK4i1LAToRptq"
    }, {
      "external_urls" : {
        "spotify" : "https://open.spotify.com/artist/6sKYFJkv5T87S4ndIRHcx5"
      },
      "followers" : {
        "href" : null,
        "total" : 11
      },
      "genres" : [ ],
      "href" : "https://api.spotify.com/v1/artists/6sKYFJkv5T87S4ndIRHcx5",
      "id" : "6sKYFJkv5T87S4ndIRHcx5",
      "images" : [ {
        "height" : 640,
        "url" : "https://i.scdn.co/image/ab67616d0000b2731fe187552fb36dcf929504d2",
        "width" : 640
      }, {
        "height" : 300,
        "url" : "https://i.scdn.co/image/ab67616d00001e021fe187552fb36dcf929504d2",
        "width" : 300
      }, {
        "height" : 64,
        "url" : "https://i.scdn.co/image/ab67616d000048511fe187552fb36dcf929504d2",
        "width" : 64
      } ],
      "name" : "Dino McGartland",
      "popularity" : 1,
      "type" : "artist",
      "uri" : "spotify:artist:6sKYFJkv5T87S4ndIRHcx5"
    } ],
    "limit" : 20,
    "next" : "https://api.spotify.com/v1/search?query=MC+DINO&type=artist&market=US&offset=20&limit=20",
    "offset" : 0,
    "previous" : null,
    "total" : 27
  }
}