{
  "artists" : {
    "href" : "https://api.spotify.com/v1/search?query=ROB+GEE&type=artist&market=US&offset=0&limit=20",
    "items" : [ {
      "external_urls" : {
        "spotify" : "https://open.spotify.com/artist/2oVeL8JE4QCJP2RwfHBH9U"
      },
      "followers" : {
        "href" : null,
        "total" : 27
      },
      "genres" : [ ],
      "href" : "https://api.spotify.com/v1/artists/2oVeL8JE4QCJP2RwfHBH9U",
      "id" : "2oVeL8JE4QCJP2RwfHBH9U",
      "images" : [ ],
      "name" : "Rob Geezy",
      "popularity" : 36,
      "type" : "artist",
      "uri" : "spotify:artist:2oVeL8JE4QCJP2RwfHBH9U"
    }, {
      "external_urls" : {
        "spotify" : "https://open.spotify.com/artist/64b1FzJV5njaX6Jcrg5ZEm"
      },
      "followers" : {
        "href" : null,
        "total" : 6453
      },
      "genres" : [ "gabba", "happy hardcore", "hardcore techno" ],
      "href" : "https://api.spotify.com/v1/artists/64b1FzJV5njaX6Jcrg5ZEm",
      "id" : "64b1FzJV5njaX6Jcrg5ZEm",
      "images" : [ {
        "height" : 640,
        "url" : "https://i.scdn.co/image/ab6761610000e5ebc1ecdde6b70c2bd30b71178d",
        "width" : 640
      }, {
        "height" : 320,
        "url" : "https://i.scdn.co/image/ab67616100005174c1ecdde6b70c2bd30b71178d",
        "width" : 320
      }, {
        "height" : 160,
        "url" : "https://i.scdn.co/image/ab6761610000f178c1ecdde6b70c2bd30b71178d",
        "width" : 160
      } ],
      "name" : "Rob Gee",
      "popularity" : 37,
      "type" : "artist",
      "uri" : "spotify:artist:64b1FzJV5njaX6Jcrg5ZEm"
    }, {
      "external_urls" : {
        "spotify" : "https://open.spotify.com/artist/1THnhnfJlsX80HPEQAKiCw"
      },
      "followers" : {
        "href" : null,
        "total" : 53
      },
      "genres" : [ ],
      "href" : "https://api.spotify.com/v1/artists/1THnhnfJlsX80HPEQAKiCw",
      "id" : "1THnhnfJlsX80HPEQAKiCw",
      "images" : [ {
        "height" : 640,
        "url" : "https://i.scdn.co/image/ab6761610000e5eb6f1b4c4dab412052b4fa0250",
        "width" : 640
      }, {
        "height" : 320,
        "url" : "https://i.scdn.co/image/ab676161000051746f1b4c4dab412052b4fa0250",
        "width" : 320
      }, {
        "height" : 160,
        "url" : "https://i.scdn.co/image/ab6761610000f1786f1b4c4dab412052b4fa0250",
        "width" : 160
      } ],
      "name" : "Rob Geer",
      "popularity" : 1,
      "type" : "artist",
      "uri" : "spotify:artist:1THnhnfJlsX80HPEQAKiCw"
    }, {
      "external_urls" : {
        "spotify" : "https://open.spotify.com/artist/2B8P5nFsOEkEkkdauNDmBP"
      },
      "followers" : {
        "href" : null,
        "total" : 0
      },
      "genres" : [ ],
      "href" : "https://api.spotify.com/v1/artists/2B8P5nFsOEkEkkdauNDmBP",
      "id" : "2B8P5nFsOEkEkkdauNDmBP",
      "images" : [ ],
      "name" : "Rob Gee",
      "popularity" : 0,
      "type" : "artist",
      "uri" : "spotify:artist:2B8P5nFsOEkEkkdauNDmBP"
    }, {
      "external_urls" : {
        "spotify" : "https://open.spotify.com/artist/2zsV3SX9ABKx1q14z3baP5"
      },
      "followers" : {
        "href" : null,
        "total" : 23
      },
      "genres" : [ ],
      "href" : "https://api.spotify.com/v1/artists/2zsV3SX9ABKx1q14z3baP5",
      "id" : "2zsV3SX9ABKx1q14z3baP5",
      "images" : [ {
        "height" : 640,
        "url" : "https://i.scdn.co/image/ab6761610000e5eb6e1b57f466287ec017517258",
        "width" : 640
      }, {
        "height" : 320,
        "url" : "https://i.scdn.co/image/ab676161000051746e1b57f466287ec017517258",
        "width" : 320
      }, {
        "height" : 160,
        "url" : "https://i.scdn.co/image/ab6761610000f1786e1b57f466287ec017517258",
        "width" : 160
      } ],
      "name" : "Rob Geez",
      "popularity" : 0,
      "type" : "artist",
      "uri" : "spotify:artist:2zsV3SX9ABKx1q14z3baP5"
    }, {
      "external_urls" : {
        "spotify" : "https://open.spotify.com/artist/0yjUNeGDQXF89xEBUupGFC"
      },
      "followers" : {
        "href" : null,
        "total" : 2
      },
      "genres" : [ ],
      "href" : "https://api.spotify.com/v1/artists/0yjUNeGDQXF89xEBUupGFC",
      "id" : "0yjUNeGDQXF89xEBUupGFC",
      "images" : [ {
        "height" : 640,
        "url" : "https://i.scdn.co/image/ab67616d0000b273b80b4256158bc4aa8d7fb331",
        "width" : 640
      }, {
        "height" : 300,
        "url" : "https://i.scdn.co/image/ab67616d00001e02b80b4256158bc4aa8d7fb331",
        "width" : 300
      }, {
        "height" : 64,
        "url" : "https://i.scdn.co/image/ab67616d00004851b80b4256158bc4aa8d7fb331",
        "width" : 64
      } ],
      "name" : "Rob Geezy",
      "popularity" : 0,
      "type" : "artist",
      "uri" : "spotify:artist:0yjUNeGDQXF89xEBUupGFC"
    }, {
      "external_urls" : {
        "spotify" : "https://open.spotify.com/artist/03aywlZwbFSzfojpD6rZ1x"
      },
      "followers" : {
        "href" : null,
        "total" : 39
      },
      "genres" : [ ],
      "href" : "https://api.spotify.com/v1/artists/03aywlZwbFSzfojpD6rZ1x",
      "id" : "03aywlZwbFSzfojpD6rZ1x",
      "images" : [ {
        "height" : 640,
        "url" : "https://i.scdn.co/image/ab67616d0000b2739019e009aa1419cb2e2d1f97",
        "width" : 640
      }, {
        "height" : 300,
        "url" : "https://i.scdn.co/image/ab67616d00001e029019e009aa1419cb2e2d1f97",
        "width" : 300
      }, {
        "height" : 64,
        "url" : "https://i.scdn.co/image/ab67616d000048519019e009aa1419cb2e2d1f97",
        "width" : 64
      } ],
      "name" : "Rob Geezy",
      "popularity" : 0,
      "type" : "artist",
      "uri" : "spotify:artist:03aywlZwbFSzfojpD6rZ1x"
    }, {
      "external_urls" : {
        "spotify" : "https://open.spotify.com/artist/7eLdWroMn8IvSkOdEIaazG"
      },
      "followers" : {
        "href" : null,
        "total" : 0
      },
      "genres" : [ ],
      "href" : "https://api.spotify.com/v1/artists/7eLdWroMn8IvSkOdEIaazG",
      "id" : "7eLdWroMn8IvSkOdEIaazG",
      "images" : [ ],
      "name" : "Rob Geez",
      "popularity" : 0,
      "type" : "artist",
      "uri" : "spotify:artist:7eLdWroMn8IvSkOdEIaazG"
    }, {
      "external_urls" : {
        "spotify" : "https://open.spotify.com/artist/6DGpMfvfJgXjdt231We7At"
      },
      "followers" : {
        "href" : null,
        "total" : 11
      },
      "genres" : [ ],
      "href" : "https://api.spotify.com/v1/artists/6DGpMfvfJgXjdt231We7At",
      "id" : "6DGpMfvfJgXjdt231We7At",
      "images" : [ ],
      "name" : "Chill Rob Gee",
      "popularity" : 0,
      "type" : "artist",
      "uri" : "spotify:artist:6DGpMfvfJgXjdt231We7At"
    }, {
      "external_urls" : {
        "spotify" : "https://open.spotify.com/artist/0FQvVkMDSdKau5nQTGsVK6"
      },
      "followers" : {
        "href" : null,
        "total" : 0
      },
      "genres" : [ ],
      "href" : "https://api.spotify.com/v1/artists/0FQvVkMDSdKau5nQTGsVK6",
      "id" : "0FQvVkMDSdKau5nQTGsVK6",
      "images" : [ ],
      "name" : "Rob Geezy",
      "popularity" : 0,
      "type" : "artist",
      "uri" : "spotify:artist:0FQvVkMDSdKau5nQTGsVK6"
    }, {
      "external_urls" : {
        "spotify" : "https://open.spotify.com/artist/5zVBpEEr6hRsM3OzZB3sro"
      },
      "followers" : {
        "href" : null,
        "total" : 0
      },
      "genres" : [ ],
      "href" : "https://api.spotify.com/v1/artists/5zVBpEEr6hRsM3OzZB3sro",
      "id" : "5zVBpEEr6hRsM3OzZB3sro",
      "images" : [ {
        "height" : 640,
        "url" : "https://i.scdn.co/image/ab67616d0000b2736c21902d3ccd6a4364774508",
        "width" : 640
      }, {
        "height" : 300,
        "url" : "https://i.scdn.co/image/ab67616d00001e026c21902d3ccd6a4364774508",
        "width" : 300
      }, {
        "height" : 64,
        "url" : "https://i.scdn.co/image/ab67616d000048516c21902d3ccd6a4364774508",
        "width" : 64
      } ],
      "name" : "Rob Geez",
      "popularity" : 0,
      "type" : "artist",
      "uri" : "spotify:artist:5zVBpEEr6hRsM3OzZB3sro"
    }, {
      "external_urls" : {
        "spotify" : "https://open.spotify.com/artist/6nxancm8XGJGYSj0M5EK2F"
      },
      "followers" : {
        "href" : null,
        "total" : 1
      },
      "genres" : [ ],
      "href" : "https://api.spotify.com/v1/artists/6nxancm8XGJGYSj0M5EK2F",
      "id" : "6nxancm8XGJGYSj0M5EK2F",
      "images" : [ ],
      "name" : "Rob Gee",
      "popularity" : 0,
      "type" : "artist",
      "uri" : "spotify:artist:6nxancm8XGJGYSj0M5EK2F"
    }, {
      "external_urls" : {
        "spotify" : "https://open.spotify.com/artist/0vi5e278qjV3wRCNyazRjE"
      },
      "followers" : {
        "href" : null,
        "total" : 1
      },
      "genres" : [ ],
      "href" : "https://api.spotify.com/v1/artists/0vi5e278qjV3wRCNyazRjE",
      "id" : "0vi5e278qjV3wRCNyazRjE",
      "images" : [ {
        "height" : 640,
        "url" : "https://i.scdn.co/image/ab67616d0000b2730c08e0363fd06dd54ae6ccb3",
        "width" : 640
      }, {
        "height" : 300,
        "url" : "https://i.scdn.co/image/ab67616d00001e020c08e0363fd06dd54ae6ccb3",
        "width" : 300
      }, {
        "height" : 64,
        "url" : "https://i.scdn.co/image/ab67616d000048510c08e0363fd06dd54ae6ccb3",
        "width" : 64
      } ],
      "name" : "Geeky Robb",
      "popularity" : 0,
      "type" : "artist",
      "uri" : "spotify:artist:0vi5e278qjV3wRCNyazRjE"
    }, {
      "external_urls" : {
        "spotify" : "https://open.spotify.com/artist/4zRqgp4lS5m6IdsE4yMFEx"
      },
      "followers" : {
        "href" : null,
        "total" : 184
      },
      "genres" : [ ],
      "href" : "https://api.spotify.com/v1/artists/4zRqgp4lS5m6IdsE4yMFEx",
      "id" : "4zRqgp4lS5m6IdsE4yMFEx",
      "images" : [ {
        "height" : 640,
        "url" : "https://i.scdn.co/image/ab6761610000e5eb926345ce2de94b066057792b",
        "width" : 640
      }, {
        "height" : 320,
        "url" : "https://i.scdn.co/image/ab67616100005174926345ce2de94b066057792b",
        "width" : 320
      }, {
        "height" : 160,
        "url" : "https://i.scdn.co/image/ab6761610000f178926345ce2de94b066057792b",
        "width" : 160
      } ],
      "name" : "Robert Gee",
      "popularity" : 1,
      "type" : "artist",
      "uri" : "spotify:artist:4zRqgp4lS5m6IdsE4yMFEx"
    }, {
      "external_urls" : {
        "spotify" : "https://open.spotify.com/artist/2Hw0gZopvAnrjVpCFTQKq1"
      },
      "followers" : {
        "href" : null,
        "total" : 0
      },
      "genres" : [ ],
      "href" : "https://api.spotify.com/v1/artists/2Hw0gZopvAnrjVpCFTQKq1",
      "id" : "2Hw0gZopvAnrjVpCFTQKq1",
      "images" : [ {
        "height" : 640,
        "url" : "https://i.scdn.co/image/ab67616d0000b27337d224629fe7adac77226fa7",
        "width" : 640
      }, {
        "height" : 300,
        "url" : "https://i.scdn.co/image/ab67616d00001e0237d224629fe7adac77226fa7",
        "width" : 300
      }, {
        "height" : 64,
        "url" : "https://i.scdn.co/image/ab67616d0000485137d224629fe7adac77226fa7",
        "width" : 64
      } ],
      "name" : "Geet Roberts",
      "popularity" : 0,
      "type" : "artist",
      "uri" : "spotify:artist:2Hw0gZopvAnrjVpCFTQKq1"
    }, {
      "external_urls" : {
        "spotify" : "https://open.spotify.com/artist/03iAh0AUbUBOSWwc7Anr5Q"
      },
      "followers" : {
        "href" : null,
        "total" : 0
      },
      "genres" : [ ],
      "href" : "https://api.spotify.com/v1/artists/03iAh0AUbUBOSWwc7Anr5Q",
      "id" : "03iAh0AUbUBOSWwc7Anr5Q",
      "images" : [ ],
      "name" : "Robb-Gee",
      "popularity" : 0,
      "type" : "artist",
      "uri" : "spotify:artist:03iAh0AUbUBOSWwc7Anr5Q"
    }, {
      "external_urls" : {
        "spotify" : "https://open.spotify.com/artist/3MvkswYvkHK4GJ1Jy9DZh2"
      },
      "followers" : {
        "href" : null,
        "total" : 7
      },
      "genres" : [ ],
      "href" : "https://api.spotify.com/v1/artists/3MvkswYvkHK4GJ1Jy9DZh2",
      "id" : "3MvkswYvkHK4GJ1Jy9DZh2",
      "images" : [ {
        "height" : 640,
        "url" : "https://i.scdn.co/image/ab67616d0000b2738fb3bca86aff44305e681c38",
        "width" : 640
      }, {
        "height" : 300,
        "url" : "https://i.scdn.co/image/ab67616d00001e028fb3bca86aff44305e681c38",
        "width" : 300
      }, {
        "height" : 64,
        "url" : "https://i.scdn.co/image/ab67616d000048518fb3bca86aff44305e681c38",
        "width" : 64
      } ],
      "name" : "Roby Gee",
      "popularity" : 0,
      "type" : "artist",
      "uri" : "spotify:artist:3MvkswYvkHK4GJ1Jy9DZh2"
    }, {
      "external_urls" : {
        "spotify" : "https://open.spotify.com/artist/53EqP6mcU2HFXws9bNqRbA"
      },
      "followers" : {
        "href" : null,
        "total" : 1
      },
      "genres" : [ ],
      "href" : "https://api.spotify.com/v1/artists/53EqP6mcU2HFXws9bNqRbA",
      "id" : "53EqP6mcU2HFXws9bNqRbA",
      "images" : [ ],
      "name" : "Robert Pernell Gee",
      "popularity" : 0,
      "type" : "artist",
      "uri" : "spotify:artist:53EqP6mcU2HFXws9bNqRbA"
    }, {
      "external_urls" : {
        "spotify" : "https://open.spotify.com/artist/6b6VxZvmUTIGlsGPyFjKDJ"
      },
      "followers" : {
        "href" : null,
        "total" : 0
      },
      "genres" : [ ],
      "href" : "https://api.spotify.com/v1/artists/6b6VxZvmUTIGlsGPyFjKDJ",
      "id" : "6b6VxZvmUTIGlsGPyFjKDJ",
      "images" : [ ],
      "name" : "Robin van Geerke",
      "popularity" : 0,
      "type" : "artist",
      "uri" : "spotify:artist:6b6VxZvmUTIGlsGPyFjKDJ"
    }, {
      "external_urls" : {
        "spotify" : "https://open.spotify.com/artist/6JngvFO56fEJdxedIVLIy6"
      },
      "followers" : {
        "href" : null,
        "total" : 0
      },
      "genres" : [ ],
      "href" : "https://api.spotify.com/v1/artists/6JngvFO56fEJdxedIVLIy6",
      "id" : "6JngvFO56fEJdxedIVLIy6",
      "images" : [ ],
      "name" : "DreMoney & Rob Geezy",
      "popularity" : 0,
      "type" : "artist",
      "uri" : "spotify:artist:6JngvFO56fEJdxedIVLIy6"
    } ],
    "limit" : 20,
    "next" : "https://api.spotify.com/v1/search?query=ROB+GEE&type=artist&market=US&offset=20&limit=20",
    "offset" : 0,
    "previous" : null,
    "total" : 29
  }
}