{
  "artists" : {
    "href" : "https://api.spotify.com/v1/search?query=+Carino&type=artist&market=US&offset=0&limit=20",
    "items" : [ {
      "external_urls" : {
        "spotify" : "https://open.spotify.com/artist/7fWD0BSDlixbj6YNQyHTLh"
      },
      "followers" : {
        "href" : null,
        "total" : 59072
      },
      "genres" : [ "rap espanol" ],
      "href" : "https://api.spotify.com/v1/artists/7fWD0BSDlixbj6YNQyHTLh",
      "id" : "7fWD0BSDlixbj6YNQyHTLh",
      "images" : [ {
        "height" : 640,
        "url" : "https://i.scdn.co/image/ab6761610000e5eb960d73b012fa87d6f32e1b1d",
        "width" : 640
      }, {
        "height" : 320,
        "url" : "https://i.scdn.co/image/ab67616100005174960d73b012fa87d6f32e1b1d",
        "width" : 320
      }, {
        "height" : 160,
        "url" : "https://i.scdn.co/image/ab6761610000f178960d73b012fa87d6f32e1b1d",
        "width" : 160
      } ],
      "name" : "Cariño",
      "popularity" : 52,
      "type" : "artist",
      "uri" : "spotify:artist:7fWD0BSDlixbj6YNQyHTLh"
    }, {
      "external_urls" : {
        "spotify" : "https://open.spotify.com/artist/5jKMtP2gKKHtXgei2xInr3"
      },
      "followers" : {
        "href" : null,
        "total" : 4697
      },
      "genres" : [ ],
      "href" : "https://api.spotify.com/v1/artists/5jKMtP2gKKHtXgei2xInr3",
      "id" : "5jKMtP2gKKHtXgei2xInr3",
      "images" : [ {
        "height" : 640,
        "url" : "https://i.scdn.co/image/ab67616d0000b273452c812887e8871c75ff56e1",
        "width" : 640
      }, {
        "height" : 300,
        "url" : "https://i.scdn.co/image/ab67616d00001e02452c812887e8871c75ff56e1",
        "width" : 300
      }, {
        "height" : 64,
        "url" : "https://i.scdn.co/image/ab67616d00004851452c812887e8871c75ff56e1",
        "width" : 64
      } ],
      "name" : "Miguel Angel Y Su Grupo Carino",
      "popularity" : 35,
      "type" : "artist",
      "uri" : "spotify:artist:5jKMtP2gKKHtXgei2xInr3"
    }, {
      "external_urls" : {
        "spotify" : "https://open.spotify.com/artist/2CrAEv3TK2u5WK0ELEiz6r"
      },
      "followers" : {
        "href" : null,
        "total" : 340
      },
      "genres" : [ ],
      "href" : "https://api.spotify.com/v1/artists/2CrAEv3TK2u5WK0ELEiz6r",
      "id" : "2CrAEv3TK2u5WK0ELEiz6r",
      "images" : [ {
        "height" : 640,
        "url" : "https://i.scdn.co/image/ab67616d0000b2733d280a41dc490eb2744d794a",
        "width" : 640
      }, {
        "height" : 300,
        "url" : "https://i.scdn.co/image/ab67616d00001e023d280a41dc490eb2744d794a",
        "width" : 300
      }, {
        "height" : 64,
        "url" : "https://i.scdn.co/image/ab67616d000048513d280a41dc490eb2744d794a",
        "width" : 64
      } ],
      "name" : "Carino de Javier Lui",
      "popularity" : 11,
      "type" : "artist",
      "uri" : "spotify:artist:2CrAEv3TK2u5WK0ELEiz6r"
    }, {
      "external_urls" : {
        "spotify" : "https://open.spotify.com/artist/3bU9dXiTsi8mQCVbVJpWmx"
      },
      "followers" : {
        "href" : null,
        "total" : 15070
      },
      "genres" : [ "gruperas inmortales" ],
      "href" : "https://api.spotify.com/v1/artists/3bU9dXiTsi8mQCVbVJpWmx",
      "id" : "3bU9dXiTsi8mQCVbVJpWmx",
      "images" : [ {
        "height" : 640,
        "url" : "https://i.scdn.co/image/ab67616d0000b273de12de128429c58c5fee2d7d",
        "width" : 640
      }, {
        "height" : 300,
        "url" : "https://i.scdn.co/image/ab67616d00001e02de12de128429c58c5fee2d7d",
        "width" : 300
      }, {
        "height" : 64,
        "url" : "https://i.scdn.co/image/ab67616d00004851de12de128429c58c5fee2d7d",
        "width" : 64
      } ],
      "name" : "Grupo Cariño",
      "popularity" : 31,
      "type" : "artist",
      "uri" : "spotify:artist:3bU9dXiTsi8mQCVbVJpWmx"
    }, {
      "external_urls" : {
        "spotify" : "https://open.spotify.com/artist/3yHW0uBNkYEjaCEqVidLsH"
      },
      "followers" : {
        "href" : null,
        "total" : 13
      },
      "genres" : [ ],
      "href" : "https://api.spotify.com/v1/artists/3yHW0uBNkYEjaCEqVidLsH",
      "id" : "3yHW0uBNkYEjaCEqVidLsH",
      "images" : [ ],
      "name" : "Carino",
      "popularity" : 8,
      "type" : "artist",
      "uri" : "spotify:artist:3yHW0uBNkYEjaCEqVidLsH"
    }, {
      "external_urls" : {
        "spotify" : "https://open.spotify.com/artist/2qaoxURqbEeuwAvGRIfS40"
      },
      "followers" : {
        "href" : null,
        "total" : 3141
      },
      "genres" : [ ],
      "href" : "https://api.spotify.com/v1/artists/2qaoxURqbEeuwAvGRIfS40",
      "id" : "2qaoxURqbEeuwAvGRIfS40",
      "images" : [ {
        "height" : 640,
        "url" : "https://i.scdn.co/image/ab67616d0000b27337fc5abaccbaab8ad698884e",
        "width" : 640
      }, {
        "height" : 300,
        "url" : "https://i.scdn.co/image/ab67616d00001e0237fc5abaccbaab8ad698884e",
        "width" : 300
      }, {
        "height" : 64,
        "url" : "https://i.scdn.co/image/ab67616d0000485137fc5abaccbaab8ad698884e",
        "width" : 64
      } ],
      "name" : "Grupo cariño de Javier Lui",
      "popularity" : 32,
      "type" : "artist",
      "uri" : "spotify:artist:2qaoxURqbEeuwAvGRIfS40"
    }, {
      "external_urls" : {
        "spotify" : "https://open.spotify.com/artist/5r3RmHZHtOGzonkZFSYSZ6"
      },
      "followers" : {
        "href" : null,
        "total" : 14528
      },
      "genres" : [ "bachata dominicana" ],
      "href" : "https://api.spotify.com/v1/artists/5r3RmHZHtOGzonkZFSYSZ6",
      "id" : "5r3RmHZHtOGzonkZFSYSZ6",
      "images" : [ {
        "height" : 640,
        "url" : "https://i.scdn.co/image/ab67616d0000b273b6dc41991164a98b6546ec5a",
        "width" : 640
      }, {
        "height" : 300,
        "url" : "https://i.scdn.co/image/ab67616d00001e02b6dc41991164a98b6546ec5a",
        "width" : 300
      }, {
        "height" : 64,
        "url" : "https://i.scdn.co/image/ab67616d00004851b6dc41991164a98b6546ec5a",
        "width" : 64
      } ],
      "name" : "Robin Cariño",
      "popularity" : 32,
      "type" : "artist",
      "uri" : "spotify:artist:5r3RmHZHtOGzonkZFSYSZ6"
    }, {
      "external_urls" : {
        "spotify" : "https://open.spotify.com/artist/3Eok8DFZQ0c8MsCoRzrwmG"
      },
      "followers" : {
        "href" : null,
        "total" : 3275
      },
      "genres" : [ ],
      "href" : "https://api.spotify.com/v1/artists/3Eok8DFZQ0c8MsCoRzrwmG",
      "id" : "3Eok8DFZQ0c8MsCoRzrwmG",
      "images" : [ {
        "height" : 640,
        "url" : "https://i.scdn.co/image/ab67616d0000b273f202485292708f0abff6d960",
        "width" : 640
      }, {
        "height" : 300,
        "url" : "https://i.scdn.co/image/ab67616d00001e02f202485292708f0abff6d960",
        "width" : 300
      }, {
        "height" : 64,
        "url" : "https://i.scdn.co/image/ab67616d00004851f202485292708f0abff6d960",
        "width" : 64
      } ],
      "name" : "Grupo Miramar De Enrique Cariño",
      "popularity" : 31,
      "type" : "artist",
      "uri" : "spotify:artist:3Eok8DFZQ0c8MsCoRzrwmG"
    }, {
      "external_urls" : {
        "spotify" : "https://open.spotify.com/artist/3BBhJ4tssZm6vSQQ5xPDC1"
      },
      "followers" : {
        "href" : null,
        "total" : 278651
      },
      "genres" : [ "chilean rock", "cumbia chilena", "latin rock" ],
      "href" : "https://api.spotify.com/v1/artists/3BBhJ4tssZm6vSQQ5xPDC1",
      "id" : "3BBhJ4tssZm6vSQQ5xPDC1",
      "images" : [ {
        "height" : 640,
        "url" : "https://i.scdn.co/image/ab6761610000e5eb315f4c419fcda6a351e5ec3c",
        "width" : 640
      }, {
        "height" : 320,
        "url" : "https://i.scdn.co/image/ab67616100005174315f4c419fcda6a351e5ec3c",
        "width" : 320
      }, {
        "height" : 160,
        "url" : "https://i.scdn.co/image/ab6761610000f178315f4c419fcda6a351e5ec3c",
        "width" : 160
      } ],
      "name" : "Villa Cariño",
      "popularity" : 57,
      "type" : "artist",
      "uri" : "spotify:artist:3BBhJ4tssZm6vSQQ5xPDC1"
    }, {
      "external_urls" : {
        "spotify" : "https://open.spotify.com/artist/6wRhvAUh6C5QUoK59hc9A1"
      },
      "followers" : {
        "href" : null,
        "total" : 12506
      },
      "genres" : [ "mexican indie", "nu-cumbia" ],
      "href" : "https://api.spotify.com/v1/artists/6wRhvAUh6C5QUoK59hc9A1",
      "id" : "6wRhvAUh6C5QUoK59hc9A1",
      "images" : [ {
        "height" : 640,
        "url" : "https://i.scdn.co/image/ab6761610000e5eb12ee5b4ae05b4ad54e99187e",
        "width" : 640
      }, {
        "height" : 320,
        "url" : "https://i.scdn.co/image/ab6761610000517412ee5b4ae05b4ad54e99187e",
        "width" : 320
      }, {
        "height" : 160,
        "url" : "https://i.scdn.co/image/ab6761610000f17812ee5b4ae05b4ad54e99187e",
        "width" : 160
      } ],
      "name" : "Agrupación Cariño",
      "popularity" : 39,
      "type" : "artist",
      "uri" : "spotify:artist:6wRhvAUh6C5QUoK59hc9A1"
    }, {
      "external_urls" : {
        "spotify" : "https://open.spotify.com/artist/7HJlSr3geNOq2r5BSoYYIg"
      },
      "followers" : {
        "href" : null,
        "total" : 143
      },
      "genres" : [ ],
      "href" : "https://api.spotify.com/v1/artists/7HJlSr3geNOq2r5BSoYYIg",
      "id" : "7HJlSr3geNOq2r5BSoYYIg",
      "images" : [ {
        "height" : 640,
        "url" : "https://i.scdn.co/image/ab67616d0000b273c386dc62652f1fe5b88820be",
        "width" : 640
      }, {
        "height" : 300,
        "url" : "https://i.scdn.co/image/ab67616d00001e02c386dc62652f1fe5b88820be",
        "width" : 300
      }, {
        "height" : 64,
        "url" : "https://i.scdn.co/image/ab67616d00004851c386dc62652f1fe5b88820be",
        "width" : 64
      } ],
      "name" : "Grupo Cariño De Tomás Cruz",
      "popularity" : 21,
      "type" : "artist",
      "uri" : "spotify:artist:7HJlSr3geNOq2r5BSoYYIg"
    }, {
      "external_urls" : {
        "spotify" : "https://open.spotify.com/artist/7gi8zaM0oXJNd4LiWFrJoe"
      },
      "followers" : {
        "href" : null,
        "total" : 147
      },
      "genres" : [ ],
      "href" : "https://api.spotify.com/v1/artists/7gi8zaM0oXJNd4LiWFrJoe",
      "id" : "7gi8zaM0oXJNd4LiWFrJoe",
      "images" : [ {
        "height" : 640,
        "url" : "https://i.scdn.co/image/ab6761610000e5ebbfb85705b1673f915352430d",
        "width" : 640
      }, {
        "height" : 320,
        "url" : "https://i.scdn.co/image/ab67616100005174bfb85705b1673f915352430d",
        "width" : 320
      }, {
        "height" : 160,
        "url" : "https://i.scdn.co/image/ab6761610000f178bfb85705b1673f915352430d",
        "width" : 160
      } ],
      "name" : "Antonello Carino",
      "popularity" : 27,
      "type" : "artist",
      "uri" : "spotify:artist:7gi8zaM0oXJNd4LiWFrJoe"
    }, {
      "external_urls" : {
        "spotify" : "https://open.spotify.com/artist/0DZpMT7NzKkrCPjYBtT3K0"
      },
      "followers" : {
        "href" : null,
        "total" : 963
      },
      "genres" : [ "sega", "sega mauricien" ],
      "href" : "https://api.spotify.com/v1/artists/0DZpMT7NzKkrCPjYBtT3K0",
      "id" : "0DZpMT7NzKkrCPjYBtT3K0",
      "images" : [ {
        "height" : 640,
        "url" : "https://i.scdn.co/image/ab67616d0000b273e7aa139ba4e93ce3a16d615b",
        "width" : 640
      }, {
        "height" : 300,
        "url" : "https://i.scdn.co/image/ab67616d00001e02e7aa139ba4e93ce3a16d615b",
        "width" : 300
      }, {
        "height" : 64,
        "url" : "https://i.scdn.co/image/ab67616d00004851e7aa139ba4e93ce3a16d615b",
        "width" : 64
      } ],
      "name" : "Cariño",
      "popularity" : 21,
      "type" : "artist",
      "uri" : "spotify:artist:0DZpMT7NzKkrCPjYBtT3K0"
    }, {
      "external_urls" : {
        "spotify" : "https://open.spotify.com/artist/0fZ9lIhalnmukWifENcpL2"
      },
      "followers" : {
        "href" : null,
        "total" : 664
      },
      "genres" : [ "swedish synth" ],
      "href" : "https://api.spotify.com/v1/artists/0fZ9lIhalnmukWifENcpL2",
      "id" : "0fZ9lIhalnmukWifENcpL2",
      "images" : [ {
        "height" : 640,
        "url" : "https://i.scdn.co/image/ab6761610000e5eb669185c856de02a831ea5e9e",
        "width" : 640
      }, {
        "height" : 320,
        "url" : "https://i.scdn.co/image/ab67616100005174669185c856de02a831ea5e9e",
        "width" : 320
      }, {
        "height" : 160,
        "url" : "https://i.scdn.co/image/ab6761610000f178669185c856de02a831ea5e9e",
        "width" : 160
      } ],
      "name" : "Carino Cat",
      "popularity" : 9,
      "type" : "artist",
      "uri" : "spotify:artist:0fZ9lIhalnmukWifENcpL2"
    }, {
      "external_urls" : {
        "spotify" : "https://open.spotify.com/artist/62ODV8O0ywndqDrokUvmQ2"
      },
      "followers" : {
        "href" : null,
        "total" : 281
      },
      "genres" : [ ],
      "href" : "https://api.spotify.com/v1/artists/62ODV8O0ywndqDrokUvmQ2",
      "id" : "62ODV8O0ywndqDrokUvmQ2",
      "images" : [ {
        "height" : 640,
        "url" : "https://i.scdn.co/image/ab67616d0000b27303323204a5a5d70b28832038",
        "width" : 640
      }, {
        "height" : 300,
        "url" : "https://i.scdn.co/image/ab67616d00001e0203323204a5a5d70b28832038",
        "width" : 300
      }, {
        "height" : 64,
        "url" : "https://i.scdn.co/image/ab67616d0000485103323204a5a5d70b28832038",
        "width" : 64
      } ],
      "name" : "Los Cariñosos",
      "popularity" : 16,
      "type" : "artist",
      "uri" : "spotify:artist:62ODV8O0ywndqDrokUvmQ2"
    }, {
      "external_urls" : {
        "spotify" : "https://open.spotify.com/artist/0adzL6HFnUsRBXkpdchlqQ"
      },
      "followers" : {
        "href" : null,
        "total" : 31
      },
      "genres" : [ ],
      "href" : "https://api.spotify.com/v1/artists/0adzL6HFnUsRBXkpdchlqQ",
      "id" : "0adzL6HFnUsRBXkpdchlqQ",
      "images" : [ {
        "height" : 640,
        "url" : "https://i.scdn.co/image/ab6761610000e5eb1256d2bac31527769af2cd5e",
        "width" : 640
      }, {
        "height" : 320,
        "url" : "https://i.scdn.co/image/ab676161000051741256d2bac31527769af2cd5e",
        "width" : 320
      }, {
        "height" : 160,
        "url" : "https://i.scdn.co/image/ab6761610000f1781256d2bac31527769af2cd5e",
        "width" : 160
      } ],
      "name" : "Marimba Orquesta Cariñosa De Mi Tierra",
      "popularity" : 7,
      "type" : "artist",
      "uri" : "spotify:artist:0adzL6HFnUsRBXkpdchlqQ"
    }, {
      "external_urls" : {
        "spotify" : "https://open.spotify.com/artist/1mmDK4m3tvhEHQqKXszYJ8"
      },
      "followers" : {
        "href" : null,
        "total" : 59
      },
      "genres" : [ ],
      "href" : "https://api.spotify.com/v1/artists/1mmDK4m3tvhEHQqKXszYJ8",
      "id" : "1mmDK4m3tvhEHQqKXszYJ8",
      "images" : [ {
        "height" : 640,
        "url" : "https://i.scdn.co/image/ab67616d0000b2737b79133eea0dd65be57c3d99",
        "width" : 640
      }, {
        "height" : 300,
        "url" : "https://i.scdn.co/image/ab67616d00001e027b79133eea0dd65be57c3d99",
        "width" : 300
      }, {
        "height" : 64,
        "url" : "https://i.scdn.co/image/ab67616d000048517b79133eea0dd65be57c3d99",
        "width" : 64
      } ],
      "name" : "Carino Alessandro",
      "popularity" : 20,
      "type" : "artist",
      "uri" : "spotify:artist:1mmDK4m3tvhEHQqKXszYJ8"
    }, {
      "external_urls" : {
        "spotify" : "https://open.spotify.com/artist/4f6aOdTksk21ADL1m61EcV"
      },
      "followers" : {
        "href" : null,
        "total" : 0
      },
      "genres" : [ ],
      "href" : "https://api.spotify.com/v1/artists/4f6aOdTksk21ADL1m61EcV",
      "id" : "4f6aOdTksk21ADL1m61EcV",
      "images" : [ ],
      "name" : "Cariño",
      "popularity" : 0,
      "type" : "artist",
      "uri" : "spotify:artist:4f6aOdTksk21ADL1m61EcV"
    }, {
      "external_urls" : {
        "spotify" : "https://open.spotify.com/artist/0SfosRdVsW3a1BWbN5wE7f"
      },
      "followers" : {
        "href" : null,
        "total" : 2
      },
      "genres" : [ ],
      "href" : "https://api.spotify.com/v1/artists/0SfosRdVsW3a1BWbN5wE7f",
      "id" : "0SfosRdVsW3a1BWbN5wE7f",
      "images" : [ {
        "height" : 640,
        "url" : "https://i.scdn.co/image/ab67616d0000b273147c84186eb1104b836093ea",
        "width" : 640
      }, {
        "height" : 300,
        "url" : "https://i.scdn.co/image/ab67616d00001e02147c84186eb1104b836093ea",
        "width" : 300
      }, {
        "height" : 64,
        "url" : "https://i.scdn.co/image/ab67616d00004851147c84186eb1104b836093ea",
        "width" : 64
      } ],
      "name" : "Cariñosos Musical",
      "popularity" : 11,
      "type" : "artist",
      "uri" : "spotify:artist:0SfosRdVsW3a1BWbN5wE7f"
    }, {
      "external_urls" : {
        "spotify" : "https://open.spotify.com/artist/6moAERlBqZR1lPxhpz5gf3"
      },
      "followers" : {
        "href" : null,
        "total" : 1
      },
      "genres" : [ ],
      "href" : "https://api.spotify.com/v1/artists/6moAERlBqZR1lPxhpz5gf3",
      "id" : "6moAERlBqZR1lPxhpz5gf3",
      "images" : [ ],
      "name" : "Cariñoso",
      "popularity" : 0,
      "type" : "artist",
      "uri" : "spotify:artist:6moAERlBqZR1lPxhpz5gf3"
    } ],
    "limit" : 20,
    "next" : "https://api.spotify.com/v1/search?query=+Carino&type=artist&market=US&offset=20&limit=20",
    "offset" : 0,
    "previous" : null,
    "total" : 123
  }
}