{
  "artists" : {
    "href" : "https://api.spotify.com/v1/search?query=+Griselda&type=artist&market=US&offset=0&limit=20",
    "items" : [ {
      "external_urls" : {
        "spotify" : "https://open.spotify.com/artist/0wXQORjv4ChlykdyzWUJ4X"
      },
      "followers" : {
        "href" : null,
        "total" : 102062
      },
      "genres" : [ "boom bap", "buffalo hip hop", "upstate ny rap" ],
      "href" : "https://api.spotify.com/v1/artists/0wXQORjv4ChlykdyzWUJ4X",
      "id" : "0wXQORjv4ChlykdyzWUJ4X",
      "images" : [ {
        "height" : 640,
        "url" : "https://i.scdn.co/image/ab6761610000e5eb9a31d3c3f5d6803d276acf7b",
        "width" : 640
      }, {
        "height" : 320,
        "url" : "https://i.scdn.co/image/ab676161000051749a31d3c3f5d6803d276acf7b",
        "width" : 320
      }, {
        "height" : 160,
        "url" : "https://i.scdn.co/image/ab6761610000f1789a31d3c3f5d6803d276acf7b",
        "width" : 160
      } ],
      "name" : "Griselda",
      "popularity" : 49,
      "type" : "artist",
      "uri" : "spotify:artist:0wXQORjv4ChlykdyzWUJ4X"
    }, {
      "external_urls" : {
        "spotify" : "https://open.spotify.com/artist/4tZTFHOJGvoHFfe1zGKVSn"
      },
      "followers" : {
        "href" : null,
        "total" : 80
      },
      "genres" : [ ],
      "href" : "https://api.spotify.com/v1/artists/4tZTFHOJGvoHFfe1zGKVSn",
      "id" : "4tZTFHOJGvoHFfe1zGKVSn",
      "images" : [ ],
      "name" : "Griselda",
      "popularity" : 25,
      "type" : "artist",
      "uri" : "spotify:artist:4tZTFHOJGvoHFfe1zGKVSn"
    }, {
      "external_urls" : {
        "spotify" : "https://open.spotify.com/artist/1RLj6CBRtN6cqAdNMmTk0b"
      },
      "followers" : {
        "href" : null,
        "total" : 5
      },
      "genres" : [ ],
      "href" : "https://api.spotify.com/v1/artists/1RLj6CBRtN6cqAdNMmTk0b",
      "id" : "1RLj6CBRtN6cqAdNMmTk0b",
      "images" : [ ],
      "name" : "Griselda García",
      "popularity" : 14,
      "type" : "artist",
      "uri" : "spotify:artist:1RLj6CBRtN6cqAdNMmTk0b"
    }, {
      "external_urls" : {
        "spotify" : "https://open.spotify.com/artist/4mNtMUSESmvZBzJJlaQHC1"
      },
      "followers" : {
        "href" : null,
        "total" : 1019
      },
      "genres" : [ "balfolk" ],
      "href" : "https://api.spotify.com/v1/artists/4mNtMUSESmvZBzJJlaQHC1",
      "id" : "4mNtMUSESmvZBzJJlaQHC1",
      "images" : [ {
        "height" : 640,
        "url" : "https://i.scdn.co/image/ab6761610000e5eb95d7b6551d8f84d7deaa9a15",
        "width" : 640
      }, {
        "height" : 320,
        "url" : "https://i.scdn.co/image/ab6761610000517495d7b6551d8f84d7deaa9a15",
        "width" : 320
      }, {
        "height" : 160,
        "url" : "https://i.scdn.co/image/ab6761610000f17895d7b6551d8f84d7deaa9a15",
        "width" : 160
      } ],
      "name" : "Hot Griselda",
      "popularity" : 18,
      "type" : "artist",
      "uri" : "spotify:artist:4mNtMUSESmvZBzJJlaQHC1"
    }, {
      "external_urls" : {
        "spotify" : "https://open.spotify.com/artist/4x8C8KuFsIRjGluQFZ6ZZa"
      },
      "followers" : {
        "href" : null,
        "total" : 290
      },
      "genres" : [ "nyckelharpa" ],
      "href" : "https://api.spotify.com/v1/artists/4x8C8KuFsIRjGluQFZ6ZZa",
      "id" : "4x8C8KuFsIRjGluQFZ6ZZa",
      "images" : [ {
        "height" : 640,
        "url" : "https://i.scdn.co/image/ab67616d0000b273467cba286c10edea082ca2fc",
        "width" : 640
      }, {
        "height" : 300,
        "url" : "https://i.scdn.co/image/ab67616d00001e02467cba286c10edea082ca2fc",
        "width" : 300
      }, {
        "height" : 64,
        "url" : "https://i.scdn.co/image/ab67616d00004851467cba286c10edea082ca2fc",
        "width" : 64
      } ],
      "name" : "Griselda Sanderson",
      "popularity" : 12,
      "type" : "artist",
      "uri" : "spotify:artist:4x8C8KuFsIRjGluQFZ6ZZa"
    }, {
      "external_urls" : {
        "spotify" : "https://open.spotify.com/artist/58WlwWoYfWwoBVbErNIJeP"
      },
      "followers" : {
        "href" : null,
        "total" : 237
      },
      "genres" : [ ],
      "href" : "https://api.spotify.com/v1/artists/58WlwWoYfWwoBVbErNIJeP",
      "id" : "58WlwWoYfWwoBVbErNIJeP",
      "images" : [ {
        "height" : 640,
        "url" : "https://i.scdn.co/image/ab67616d0000b273a860be35f5725cefe83d7a4d",
        "width" : 640
      }, {
        "height" : 300,
        "url" : "https://i.scdn.co/image/ab67616d00001e02a860be35f5725cefe83d7a4d",
        "width" : 300
      }, {
        "height" : 64,
        "url" : "https://i.scdn.co/image/ab67616d00004851a860be35f5725cefe83d7a4d",
        "width" : 64
      } ],
      "name" : "MARTA GRISELDA",
      "popularity" : 11,
      "type" : "artist",
      "uri" : "spotify:artist:58WlwWoYfWwoBVbErNIJeP"
    }, {
      "external_urls" : {
        "spotify" : "https://open.spotify.com/artist/5jPdMwke8r02a78HSjNt4Y"
      },
      "followers" : {
        "href" : null,
        "total" : 0
      },
      "genres" : [ ],
      "href" : "https://api.spotify.com/v1/artists/5jPdMwke8r02a78HSjNt4Y",
      "id" : "5jPdMwke8r02a78HSjNt4Y",
      "images" : [ {
        "height" : 640,
        "url" : "https://i.scdn.co/image/ab67616d0000b273ba9f14374e9bf3ff84fda99e",
        "width" : 640
      }, {
        "height" : 300,
        "url" : "https://i.scdn.co/image/ab67616d00001e02ba9f14374e9bf3ff84fda99e",
        "width" : 300
      }, {
        "height" : 64,
        "url" : "https://i.scdn.co/image/ab67616d00004851ba9f14374e9bf3ff84fda99e",
        "width" : 64
      } ],
      "name" : "Griselda Sherlaw-Johnson",
      "popularity" : 7,
      "type" : "artist",
      "uri" : "spotify:artist:5jPdMwke8r02a78HSjNt4Y"
    }, {
      "external_urls" : {
        "spotify" : "https://open.spotify.com/artist/3wUIe3Aivp3Livjjibwqv8"
      },
      "followers" : {
        "href" : null,
        "total" : 66
      },
      "genres" : [ ],
      "href" : "https://api.spotify.com/v1/artists/3wUIe3Aivp3Livjjibwqv8",
      "id" : "3wUIe3Aivp3Livjjibwqv8",
      "images" : [ {
        "height" : 640,
        "url" : "https://i.scdn.co/image/ab67616d0000b273418fad247e4569ac2e994689",
        "width" : 640
      }, {
        "height" : 300,
        "url" : "https://i.scdn.co/image/ab67616d00001e02418fad247e4569ac2e994689",
        "width" : 300
      }, {
        "height" : 64,
        "url" : "https://i.scdn.co/image/ab67616d00004851418fad247e4569ac2e994689",
        "width" : 64
      } ],
      "name" : "Griselda Soriano",
      "popularity" : 4,
      "type" : "artist",
      "uri" : "spotify:artist:3wUIe3Aivp3Livjjibwqv8"
    }, {
      "external_urls" : {
        "spotify" : "https://open.spotify.com/artist/2VZ0iuxIMhxQslZPAW3BPN"
      },
      "followers" : {
        "href" : null,
        "total" : 2
      },
      "genres" : [ ],
      "href" : "https://api.spotify.com/v1/artists/2VZ0iuxIMhxQslZPAW3BPN",
      "id" : "2VZ0iuxIMhxQslZPAW3BPN",
      "images" : [ {
        "height" : 640,
        "url" : "https://i.scdn.co/image/ab67616d0000b273863c7a139b1d9bc8d856b9f8",
        "width" : 640
      }, {
        "height" : 300,
        "url" : "https://i.scdn.co/image/ab67616d00001e02863c7a139b1d9bc8d856b9f8",
        "width" : 300
      }, {
        "height" : 64,
        "url" : "https://i.scdn.co/image/ab67616d00004851863c7a139b1d9bc8d856b9f8",
        "width" : 64
      } ],
      "name" : "Griselda Tan",
      "popularity" : 3,
      "type" : "artist",
      "uri" : "spotify:artist:2VZ0iuxIMhxQslZPAW3BPN"
    }, {
      "external_urls" : {
        "spotify" : "https://open.spotify.com/artist/00lNYRzmJCZGYpzuIMvWvr"
      },
      "followers" : {
        "href" : null,
        "total" : 2
      },
      "genres" : [ ],
      "href" : "https://api.spotify.com/v1/artists/00lNYRzmJCZGYpzuIMvWvr",
      "id" : "00lNYRzmJCZGYpzuIMvWvr",
      "images" : [ {
        "height" : 640,
        "url" : "https://i.scdn.co/image/ab67616d0000b273588e1232da34ac76e5c3dd29",
        "width" : 640
      }, {
        "height" : 300,
        "url" : "https://i.scdn.co/image/ab67616d00001e02588e1232da34ac76e5c3dd29",
        "width" : 300
      }, {
        "height" : 64,
        "url" : "https://i.scdn.co/image/ab67616d00004851588e1232da34ac76e5c3dd29",
        "width" : 64
      } ],
      "name" : "Griselda",
      "popularity" : 0,
      "type" : "artist",
      "uri" : "spotify:artist:00lNYRzmJCZGYpzuIMvWvr"
    }, {
      "external_urls" : {
        "spotify" : "https://open.spotify.com/artist/5PX4ftIwm2wWz5VwMRB7qd"
      },
      "followers" : {
        "href" : null,
        "total" : 24
      },
      "genres" : [ ],
      "href" : "https://api.spotify.com/v1/artists/5PX4ftIwm2wWz5VwMRB7qd",
      "id" : "5PX4ftIwm2wWz5VwMRB7qd",
      "images" : [ {
        "height" : 640,
        "url" : "https://i.scdn.co/image/ab67616d0000b2733e150e4de18f14d78e864bb4",
        "width" : 640
      }, {
        "height" : 300,
        "url" : "https://i.scdn.co/image/ab67616d00001e023e150e4de18f14d78e864bb4",
        "width" : 300
      }, {
        "height" : 64,
        "url" : "https://i.scdn.co/image/ab67616d000048513e150e4de18f14d78e864bb4",
        "width" : 64
      } ],
      "name" : "Griselda Bee",
      "popularity" : 0,
      "type" : "artist",
      "uri" : "spotify:artist:5PX4ftIwm2wWz5VwMRB7qd"
    }, {
      "external_urls" : {
        "spotify" : "https://open.spotify.com/artist/369sGUXYIsyu1FD9MmKzUt"
      },
      "followers" : {
        "href" : null,
        "total" : 2
      },
      "genres" : [ ],
      "href" : "https://api.spotify.com/v1/artists/369sGUXYIsyu1FD9MmKzUt",
      "id" : "369sGUXYIsyu1FD9MmKzUt",
      "images" : [ ],
      "name" : "Griselda",
      "popularity" : 0,
      "type" : "artist",
      "uri" : "spotify:artist:369sGUXYIsyu1FD9MmKzUt"
    }, {
      "external_urls" : {
        "spotify" : "https://open.spotify.com/artist/5Sz4SVmfjGhMJgjqDxPtAo"
      },
      "followers" : {
        "href" : null,
        "total" : 235
      },
      "genres" : [ ],
      "href" : "https://api.spotify.com/v1/artists/5Sz4SVmfjGhMJgjqDxPtAo",
      "id" : "5Sz4SVmfjGhMJgjqDxPtAo",
      "images" : [ {
        "height" : 640,
        "url" : "https://i.scdn.co/image/ab67616d0000b2736e47186bf2c10a8294606b66",
        "width" : 640
      }, {
        "height" : 300,
        "url" : "https://i.scdn.co/image/ab67616d00001e026e47186bf2c10a8294606b66",
        "width" : 300
      }, {
        "height" : 64,
        "url" : "https://i.scdn.co/image/ab67616d000048516e47186bf2c10a8294606b66",
        "width" : 64
      } ],
      "name" : "Griselda B",
      "popularity" : 0,
      "type" : "artist",
      "uri" : "spotify:artist:5Sz4SVmfjGhMJgjqDxPtAo"
    }, {
      "external_urls" : {
        "spotify" : "https://open.spotify.com/artist/5Ds9IJzF1nnPQWoD9ENDMr"
      },
      "followers" : {
        "href" : null,
        "total" : 3
      },
      "genres" : [ ],
      "href" : "https://api.spotify.com/v1/artists/5Ds9IJzF1nnPQWoD9ENDMr",
      "id" : "5Ds9IJzF1nnPQWoD9ENDMr",
      "images" : [ {
        "height" : 640,
        "url" : "https://i.scdn.co/image/ab6761610000e5ebe8658362c38d93e1fa2383b4",
        "width" : 640
      }, {
        "height" : 320,
        "url" : "https://i.scdn.co/image/ab67616100005174e8658362c38d93e1fa2383b4",
        "width" : 320
      }, {
        "height" : 160,
        "url" : "https://i.scdn.co/image/ab6761610000f178e8658362c38d93e1fa2383b4",
        "width" : 160
      } ],
      "name" : "Griselda",
      "popularity" : 0,
      "type" : "artist",
      "uri" : "spotify:artist:5Ds9IJzF1nnPQWoD9ENDMr"
    }, {
      "external_urls" : {
        "spotify" : "https://open.spotify.com/artist/4MQNHBf7OOfZ1ZcAYNai87"
      },
      "followers" : {
        "href" : null,
        "total" : 44
      },
      "genres" : [ ],
      "href" : "https://api.spotify.com/v1/artists/4MQNHBf7OOfZ1ZcAYNai87",
      "id" : "4MQNHBf7OOfZ1ZcAYNai87",
      "images" : [ {
        "height" : 640,
        "url" : "https://i.scdn.co/image/ab67616d0000b273c5b502375affd98ade09b346",
        "width" : 640
      }, {
        "height" : 300,
        "url" : "https://i.scdn.co/image/ab67616d00001e02c5b502375affd98ade09b346",
        "width" : 300
      }, {
        "height" : 64,
        "url" : "https://i.scdn.co/image/ab67616d00004851c5b502375affd98ade09b346",
        "width" : 64
      } ],
      "name" : "Griselda",
      "popularity" : 0,
      "type" : "artist",
      "uri" : "spotify:artist:4MQNHBf7OOfZ1ZcAYNai87"
    }, {
      "external_urls" : {
        "spotify" : "https://open.spotify.com/artist/5pvN5jAD6Llt3IVKn9fMdk"
      },
      "followers" : {
        "href" : null,
        "total" : 0
      },
      "genres" : [ ],
      "href" : "https://api.spotify.com/v1/artists/5pvN5jAD6Llt3IVKn9fMdk",
      "id" : "5pvN5jAD6Llt3IVKn9fMdk",
      "images" : [ ],
      "name" : "GRISELDA RODRIGUEZ",
      "popularity" : 1,
      "type" : "artist",
      "uri" : "spotify:artist:5pvN5jAD6Llt3IVKn9fMdk"
    }, {
      "external_urls" : {
        "spotify" : "https://open.spotify.com/artist/24SnVYYjwsCTpWzTQVs0IB"
      },
      "followers" : {
        "href" : null,
        "total" : 5
      },
      "genres" : [ ],
      "href" : "https://api.spotify.com/v1/artists/24SnVYYjwsCTpWzTQVs0IB",
      "id" : "24SnVYYjwsCTpWzTQVs0IB",
      "images" : [ {
        "height" : 640,
        "url" : "https://i.scdn.co/image/ab67616d0000b273894c0cf73d695c10a215a59b",
        "width" : 640
      }, {
        "height" : 300,
        "url" : "https://i.scdn.co/image/ab67616d00001e02894c0cf73d695c10a215a59b",
        "width" : 300
      }, {
        "height" : 64,
        "url" : "https://i.scdn.co/image/ab67616d00004851894c0cf73d695c10a215a59b",
        "width" : 64
      } ],
      "name" : "Griselda",
      "popularity" : 0,
      "type" : "artist",
      "uri" : "spotify:artist:24SnVYYjwsCTpWzTQVs0IB"
    }, {
      "external_urls" : {
        "spotify" : "https://open.spotify.com/artist/0FlQTMCiZXdBxvBErDaT1A"
      },
      "followers" : {
        "href" : null,
        "total" : 62
      },
      "genres" : [ ],
      "href" : "https://api.spotify.com/v1/artists/0FlQTMCiZXdBxvBErDaT1A",
      "id" : "0FlQTMCiZXdBxvBErDaT1A",
      "images" : [ {
        "height" : 640,
        "url" : "https://i.scdn.co/image/ab67616d0000b2738919b0eec447ad33265b2206",
        "width" : 640
      }, {
        "height" : 300,
        "url" : "https://i.scdn.co/image/ab67616d00001e028919b0eec447ad33265b2206",
        "width" : 300
      }, {
        "height" : 64,
        "url" : "https://i.scdn.co/image/ab67616d000048518919b0eec447ad33265b2206",
        "width" : 64
      } ],
      "name" : "Griselda Pepa",
      "popularity" : 1,
      "type" : "artist",
      "uri" : "spotify:artist:0FlQTMCiZXdBxvBErDaT1A"
    }, {
      "external_urls" : {
        "spotify" : "https://open.spotify.com/artist/5DdiZjwZgCtPYn14YJR9r1"
      },
      "followers" : {
        "href" : null,
        "total" : 0
      },
      "genres" : [ ],
      "href" : "https://api.spotify.com/v1/artists/5DdiZjwZgCtPYn14YJR9r1",
      "id" : "5DdiZjwZgCtPYn14YJR9r1",
      "images" : [ ],
      "name" : "Madam Griselda",
      "popularity" : 0,
      "type" : "artist",
      "uri" : "spotify:artist:5DdiZjwZgCtPYn14YJR9r1"
    }, {
      "external_urls" : {
        "spotify" : "https://open.spotify.com/artist/4oSMDIRPEHgj0A6LKncxRf"
      },
      "followers" : {
        "href" : null,
        "total" : 0
      },
      "genres" : [ ],
      "href" : "https://api.spotify.com/v1/artists/4oSMDIRPEHgj0A6LKncxRf",
      "id" : "4oSMDIRPEHgj0A6LKncxRf",
      "images" : [ ],
      "name" : "Griselda Castillo",
      "popularity" : 0,
      "type" : "artist",
      "uri" : "spotify:artist:4oSMDIRPEHgj0A6LKncxRf"
    } ],
    "limit" : 20,
    "next" : "https://api.spotify.com/v1/search?query=+Griselda&type=artist&market=US&offset=20&limit=20",
    "offset" : 0,
    "previous" : null,
    "total" : 78
  }
}