{
  "artists" : {
    "href" : "https://api.spotify.com/v1/search?query=+Karol+G&type=artist&market=US&offset=0&limit=20",
    "items" : [ {
      "external_urls" : {
        "spotify" : "https://open.spotify.com/artist/790FomKkXshlbRYZFtlgla"
      },
      "followers" : {
        "href" : null,
        "total" : 23033840
      },
      "genres" : [ "latin", "reggaeton", "reggaeton colombiano", "trap latino" ],
      "href" : "https://api.spotify.com/v1/artists/790FomKkXshlbRYZFtlgla",
      "id" : "790FomKkXshlbRYZFtlgla",
      "images" : [ {
        "height" : 640,
        "url" : "https://i.scdn.co/image/ab6761610000e5eb5f2a184720aa12c1f0aef516",
        "width" : 640
      }, {
        "height" : 320,
        "url" : "https://i.scdn.co/image/ab676161000051745f2a184720aa12c1f0aef516",
        "width" : 320
      }, {
        "height" : 160,
        "url" : "https://i.scdn.co/image/ab6761610000f1785f2a184720aa12c1f0aef516",
        "width" : 160
      } ],
      "name" : "KAROL G",
      "popularity" : 91,
      "type" : "artist",
      "uri" : "spotify:artist:790FomKkXshlbRYZFtlgla"
    }, {
      "external_urls" : {
        "spotify" : "https://open.spotify.com/artist/0RS1SlFyzjiVv2d0XDMCfC"
      },
      "followers" : {
        "href" : null,
        "total" : 147
      },
      "genres" : [ ],
      "href" : "https://api.spotify.com/v1/artists/0RS1SlFyzjiVv2d0XDMCfC",
      "id" : "0RS1SlFyzjiVv2d0XDMCfC",
      "images" : [ {
        "height" : 640,
        "url" : "https://i.scdn.co/image/ab6761610000e5eba48a05c8dc981cc0f47dd865",
        "width" : 640
      }, {
        "height" : 320,
        "url" : "https://i.scdn.co/image/ab67616100005174a48a05c8dc981cc0f47dd865",
        "width" : 320
      }, {
        "height" : 160,
        "url" : "https://i.scdn.co/image/ab6761610000f178a48a05c8dc981cc0f47dd865",
        "width" : 160
      } ],
      "name" : "Karol German",
      "popularity" : 8,
      "type" : "artist",
      "uri" : "spotify:artist:0RS1SlFyzjiVv2d0XDMCfC"
    }, {
      "external_urls" : {
        "spotify" : "https://open.spotify.com/artist/2IzPL6vcLBXyYQo4aNaa0r"
      },
      "followers" : {
        "href" : null,
        "total" : 3263
      },
      "genres" : [ "cumbia sonidera" ],
      "href" : "https://api.spotify.com/v1/artists/2IzPL6vcLBXyYQo4aNaa0r",
      "id" : "2IzPL6vcLBXyYQo4aNaa0r",
      "images" : [ {
        "height" : 640,
        "url" : "https://i.scdn.co/image/ab67616d0000b2734f57dc637cbd237b466a3b10",
        "width" : 640
      }, {
        "height" : 300,
        "url" : "https://i.scdn.co/image/ab67616d00001e024f57dc637cbd237b466a3b10",
        "width" : 300
      }, {
        "height" : 64,
        "url" : "https://i.scdn.co/image/ab67616d000048514f57dc637cbd237b466a3b10",
        "width" : 64
      } ],
      "name" : "Karol y Su Amor Gitano",
      "popularity" : 20,
      "type" : "artist",
      "uri" : "spotify:artist:2IzPL6vcLBXyYQo4aNaa0r"
    }, {
      "external_urls" : {
        "spotify" : "https://open.spotify.com/artist/7n6WC9mxE21L07NFRvUPqq"
      },
      "followers" : {
        "href" : null,
        "total" : 497
      },
      "genres" : [ ],
      "href" : "https://api.spotify.com/v1/artists/7n6WC9mxE21L07NFRvUPqq",
      "id" : "7n6WC9mxE21L07NFRvUPqq",
      "images" : [ {
        "height" : 640,
        "url" : "https://i.scdn.co/image/ab6761610000e5ebaa8096746c783bc88ba0ab3a",
        "width" : 640
      }, {
        "height" : 320,
        "url" : "https://i.scdn.co/image/ab67616100005174aa8096746c783bc88ba0ab3a",
        "width" : 320
      }, {
        "height" : 160,
        "url" : "https://i.scdn.co/image/ab6761610000f178aa8096746c783bc88ba0ab3a",
        "width" : 160
      } ],
      "name" : "Karol Gueds",
      "popularity" : 20,
      "type" : "artist",
      "uri" : "spotify:artist:7n6WC9mxE21L07NFRvUPqq"
    }, {
      "external_urls" : {
        "spotify" : "https://open.spotify.com/artist/6IR6VTwDZdbfEJS9vTh6B2"
      },
      "followers" : {
        "href" : null,
        "total" : 3073
      },
      "genres" : [ "macedonian folk", "macedonian pop" ],
      "href" : "https://api.spotify.com/v1/artists/6IR6VTwDZdbfEJS9vTh6B2",
      "id" : "6IR6VTwDZdbfEJS9vTh6B2",
      "images" : [ {
        "height" : 640,
        "url" : "https://i.scdn.co/image/ab6761610000e5eb5cc613f9097345540f4040d4",
        "width" : 640
      }, {
        "height" : 320,
        "url" : "https://i.scdn.co/image/ab676161000051745cc613f9097345540f4040d4",
        "width" : 320
      }, {
        "height" : 160,
        "url" : "https://i.scdn.co/image/ab6761610000f1785cc613f9097345540f4040d4",
        "width" : 160
      } ],
      "name" : "Karolina Gočeva",
      "popularity" : 23,
      "type" : "artist",
      "uri" : "spotify:artist:6IR6VTwDZdbfEJS9vTh6B2"
    }, {
      "external_urls" : {
        "spotify" : "https://open.spotify.com/artist/1vmeXBnuUWwOGF2jm6Fwb8"
      },
      "followers" : {
        "href" : null,
        "total" : 135
      },
      "genres" : [ ],
      "href" : "https://api.spotify.com/v1/artists/1vmeXBnuUWwOGF2jm6Fwb8",
      "id" : "1vmeXBnuUWwOGF2jm6Fwb8",
      "images" : [ {
        "height" : 640,
        "url" : "https://i.scdn.co/image/ab67616d0000b273a3703d779384a3880f7bc4e3",
        "width" : 640
      }, {
        "height" : 300,
        "url" : "https://i.scdn.co/image/ab67616d00001e02a3703d779384a3880f7bc4e3",
        "width" : 300
      }, {
        "height" : 64,
        "url" : "https://i.scdn.co/image/ab67616d00004851a3703d779384a3880f7bc4e3",
        "width" : 64
      } ],
      "name" : "Karol Green",
      "popularity" : 2,
      "type" : "artist",
      "uri" : "spotify:artist:1vmeXBnuUWwOGF2jm6Fwb8"
    }, {
      "external_urls" : {
        "spotify" : "https://open.spotify.com/artist/0Pz79wagKnssEZImEgGGFv"
      },
      "followers" : {
        "href" : null,
        "total" : 1016
      },
      "genres" : [ "post-romantic era" ],
      "href" : "https://api.spotify.com/v1/artists/0Pz79wagKnssEZImEgGGFv",
      "id" : "0Pz79wagKnssEZImEgGGFv",
      "images" : [ {
        "height" : 1000,
        "url" : "https://i.scdn.co/image/49f15a5ca3942acdfa0a9a0cae899143ca9c7627",
        "width" : 1000
      }, {
        "height" : 640,
        "url" : "https://i.scdn.co/image/b65cfc2769b1547f13ecb9148780a836085b3f18",
        "width" : 640
      }, {
        "height" : 200,
        "url" : "https://i.scdn.co/image/c83760ac071dbc83a2fbc49f1a1611342efb284b",
        "width" : 200
      }, {
        "height" : 64,
        "url" : "https://i.scdn.co/image/7c0dca885d6ff041a11187c8fe4d7acd8b303b72",
        "width" : 64
      } ],
      "name" : "Karl Goldmark",
      "popularity" : 15,
      "type" : "artist",
      "uri" : "spotify:artist:0Pz79wagKnssEZImEgGGFv"
    }, {
      "external_urls" : {
        "spotify" : "https://open.spotify.com/artist/38iufaTedcto8OVrmcYDar"
      },
      "followers" : {
        "href" : null,
        "total" : 85
      },
      "genres" : [ ],
      "href" : "https://api.spotify.com/v1/artists/38iufaTedcto8OVrmcYDar",
      "id" : "38iufaTedcto8OVrmcYDar",
      "images" : [ {
        "height" : 640,
        "url" : "https://i.scdn.co/image/ab67616d0000b273d0aa88a70e785f90a4418074",
        "width" : 640
      }, {
        "height" : 300,
        "url" : "https://i.scdn.co/image/ab67616d00001e02d0aa88a70e785f90a4418074",
        "width" : 300
      }, {
        "height" : 64,
        "url" : "https://i.scdn.co/image/ab67616d00004851d0aa88a70e785f90a4418074",
        "width" : 64
      } ],
      "name" : "Karol Golebiowski",
      "popularity" : 14,
      "type" : "artist",
      "uri" : "spotify:artist:38iufaTedcto8OVrmcYDar"
    }, {
      "external_urls" : {
        "spotify" : "https://open.spotify.com/artist/7bNhbc3tyfY01sJH3h0iIt"
      },
      "followers" : {
        "href" : null,
        "total" : 4
      },
      "genres" : [ ],
      "href" : "https://api.spotify.com/v1/artists/7bNhbc3tyfY01sJH3h0iIt",
      "id" : "7bNhbc3tyfY01sJH3h0iIt",
      "images" : [ ],
      "name" : "Karolina Gutowska",
      "popularity" : 20,
      "type" : "artist",
      "uri" : "spotify:artist:7bNhbc3tyfY01sJH3h0iIt"
    }, {
      "external_urls" : {
        "spotify" : "https://open.spotify.com/artist/4asJQrazucWu3Zy5R7B164"
      },
      "followers" : {
        "href" : null,
        "total" : 3657
      },
      "genres" : [ ],
      "href" : "https://api.spotify.com/v1/artists/4asJQrazucWu3Zy5R7B164",
      "id" : "4asJQrazucWu3Zy5R7B164",
      "images" : [ {
        "height" : 640,
        "url" : "https://i.scdn.co/image/ab67616d0000b273583ac088baeee949bd85f9da",
        "width" : 640
      }, {
        "height" : 300,
        "url" : "https://i.scdn.co/image/ab67616d00001e02583ac088baeee949bd85f9da",
        "width" : 300
      }, {
        "height" : 64,
        "url" : "https://i.scdn.co/image/ab67616d00004851583ac088baeee949bd85f9da",
        "width" : 64
      } ],
      "name" : "Karol G",
      "popularity" : 1,
      "type" : "artist",
      "uri" : "spotify:artist:4asJQrazucWu3Zy5R7B164"
    }, {
      "external_urls" : {
        "spotify" : "https://open.spotify.com/artist/0hq4Xq4nSUMiWyfVqHModg"
      },
      "followers" : {
        "href" : null,
        "total" : 35
      },
      "genres" : [ ],
      "href" : "https://api.spotify.com/v1/artists/0hq4Xq4nSUMiWyfVqHModg",
      "id" : "0hq4Xq4nSUMiWyfVqHModg",
      "images" : [ {
        "height" : 640,
        "url" : "https://i.scdn.co/image/ab67616d0000b273ecc9307bdbc8f556dbff0c63",
        "width" : 640
      }, {
        "height" : 300,
        "url" : "https://i.scdn.co/image/ab67616d00001e02ecc9307bdbc8f556dbff0c63",
        "width" : 300
      }, {
        "height" : 64,
        "url" : "https://i.scdn.co/image/ab67616d00004851ecc9307bdbc8f556dbff0c63",
        "width" : 64
      } ],
      "name" : "Karol Gołębiowski",
      "popularity" : 1,
      "type" : "artist",
      "uri" : "spotify:artist:0hq4Xq4nSUMiWyfVqHModg"
    }, {
      "external_urls" : {
        "spotify" : "https://open.spotify.com/artist/22EekfMrB0YqLBCKgYw0hp"
      },
      "followers" : {
        "href" : null,
        "total" : 6
      },
      "genres" : [ ],
      "href" : "https://api.spotify.com/v1/artists/22EekfMrB0YqLBCKgYw0hp",
      "id" : "22EekfMrB0YqLBCKgYw0hp",
      "images" : [ {
        "height" : 640,
        "url" : "https://i.scdn.co/image/ab67616d0000b27393827b660c5b73f3a072df2c",
        "width" : 640
      }, {
        "height" : 300,
        "url" : "https://i.scdn.co/image/ab67616d00001e0293827b660c5b73f3a072df2c",
        "width" : 300
      }, {
        "height" : 64,
        "url" : "https://i.scdn.co/image/ab67616d0000485193827b660c5b73f3a072df2c",
        "width" : 64
      } ],
      "name" : "Karol Gut",
      "popularity" : 0,
      "type" : "artist",
      "uri" : "spotify:artist:22EekfMrB0YqLBCKgYw0hp"
    }, {
      "external_urls" : {
        "spotify" : "https://open.spotify.com/artist/3aQnFLIaor8Xz3x3qhxoJQ"
      },
      "followers" : {
        "href" : null,
        "total" : 73
      },
      "genres" : [ ],
      "href" : "https://api.spotify.com/v1/artists/3aQnFLIaor8Xz3x3qhxoJQ",
      "id" : "3aQnFLIaor8Xz3x3qhxoJQ",
      "images" : [ {
        "height" : 640,
        "url" : "https://i.scdn.co/image/ab67616d0000b273fc3045f7f88332e7e8e33b62",
        "width" : 640
      }, {
        "height" : 300,
        "url" : "https://i.scdn.co/image/ab67616d00001e02fc3045f7f88332e7e8e33b62",
        "width" : 300
      }, {
        "height" : 64,
        "url" : "https://i.scdn.co/image/ab67616d00004851fc3045f7f88332e7e8e33b62",
        "width" : 64
      } ],
      "name" : "Karol Gzz",
      "popularity" : 0,
      "type" : "artist",
      "uri" : "spotify:artist:3aQnFLIaor8Xz3x3qhxoJQ"
    }, {
      "external_urls" : {
        "spotify" : "https://open.spotify.com/artist/65NWRtqKpJIoDxVMqqfW66"
      },
      "followers" : {
        "href" : null,
        "total" : 2
      },
      "genres" : [ ],
      "href" : "https://api.spotify.com/v1/artists/65NWRtqKpJIoDxVMqqfW66",
      "id" : "65NWRtqKpJIoDxVMqqfW66",
      "images" : [ ],
      "name" : "Karoline Gomes",
      "popularity" : 0,
      "type" : "artist",
      "uri" : "spotify:artist:65NWRtqKpJIoDxVMqqfW66"
    }, {
      "external_urls" : {
        "spotify" : "https://open.spotify.com/artist/3Kn6lkFVqzcWe9RCQtQEzY"
      },
      "followers" : {
        "href" : null,
        "total" : 102
      },
      "genres" : [ ],
      "href" : "https://api.spotify.com/v1/artists/3Kn6lkFVqzcWe9RCQtQEzY",
      "id" : "3Kn6lkFVqzcWe9RCQtQEzY",
      "images" : [ {
        "height" : 640,
        "url" : "https://i.scdn.co/image/ab67616d0000b2738e78b9747fd0a261e0f7052f",
        "width" : 640
      }, {
        "height" : 300,
        "url" : "https://i.scdn.co/image/ab67616d00001e028e78b9747fd0a261e0f7052f",
        "width" : 300
      }, {
        "height" : 64,
        "url" : "https://i.scdn.co/image/ab67616d000048518e78b9747fd0a261e0f7052f",
        "width" : 64
      } ],
      "name" : "Karol González",
      "popularity" : 0,
      "type" : "artist",
      "uri" : "spotify:artist:3Kn6lkFVqzcWe9RCQtQEzY"
    }, {
      "external_urls" : {
        "spotify" : "https://open.spotify.com/artist/3rKjwNQFk9vlKfGVzbILHi"
      },
      "followers" : {
        "href" : null,
        "total" : 6
      },
      "genres" : [ ],
      "href" : "https://api.spotify.com/v1/artists/3rKjwNQFk9vlKfGVzbILHi",
      "id" : "3rKjwNQFk9vlKfGVzbILHi",
      "images" : [ ],
      "name" : "Karol González",
      "popularity" : 0,
      "type" : "artist",
      "uri" : "spotify:artist:3rKjwNQFk9vlKfGVzbILHi"
    }, {
      "external_urls" : {
        "spotify" : "https://open.spotify.com/artist/4xLyTKj70oNK5Kn2Ib1aFW"
      },
      "followers" : {
        "href" : null,
        "total" : 51
      },
      "genres" : [ ],
      "href" : "https://api.spotify.com/v1/artists/4xLyTKj70oNK5Kn2Ib1aFW",
      "id" : "4xLyTKj70oNK5Kn2Ib1aFW",
      "images" : [ {
        "height" : 640,
        "url" : "https://i.scdn.co/image/ab6761610000e5ebf2ff5c9c8b7b73646db8fcdf",
        "width" : 640
      }, {
        "height" : 320,
        "url" : "https://i.scdn.co/image/ab67616100005174f2ff5c9c8b7b73646db8fcdf",
        "width" : 320
      }, {
        "height" : 160,
        "url" : "https://i.scdn.co/image/ab6761610000f178f2ff5c9c8b7b73646db8fcdf",
        "width" : 160
      } ],
      "name" : "Karol Gwozdz",
      "popularity" : 0,
      "type" : "artist",
      "uri" : "spotify:artist:4xLyTKj70oNK5Kn2Ib1aFW"
    }, {
      "external_urls" : {
        "spotify" : "https://open.spotify.com/artist/0X5HaCDQladxrXXVLXu6eV"
      },
      "followers" : {
        "href" : null,
        "total" : 3
      },
      "genres" : [ ],
      "href" : "https://api.spotify.com/v1/artists/0X5HaCDQladxrXXVLXu6eV",
      "id" : "0X5HaCDQladxrXXVLXu6eV",
      "images" : [ ],
      "name" : "Giuliene Karoline",
      "popularity" : 0,
      "type" : "artist",
      "uri" : "spotify:artist:0X5HaCDQladxrXXVLXu6eV"
    }, {
      "external_urls" : {
        "spotify" : "https://open.spotify.com/artist/76maITKMprkoWQrJIpkifK"
      },
      "followers" : {
        "href" : null,
        "total" : 18
      },
      "genres" : [ ],
      "href" : "https://api.spotify.com/v1/artists/76maITKMprkoWQrJIpkifK",
      "id" : "76maITKMprkoWQrJIpkifK",
      "images" : [ {
        "height" : 640,
        "url" : "https://i.scdn.co/image/ab67616d0000b273699fd6049febda9e979db5e5",
        "width" : 640
      }, {
        "height" : 300,
        "url" : "https://i.scdn.co/image/ab67616d00001e02699fd6049febda9e979db5e5",
        "width" : 300
      }, {
        "height" : 64,
        "url" : "https://i.scdn.co/image/ab67616d00004851699fd6049febda9e979db5e5",
        "width" : 64
      } ],
      "name" : "Joachim i Karol Grzechca",
      "popularity" : 0,
      "type" : "artist",
      "uri" : "spotify:artist:76maITKMprkoWQrJIpkifK"
    }, {
      "external_urls" : {
        "spotify" : "https://open.spotify.com/artist/4i5IHoz9FTYc1K54yHHkE2"
      },
      "followers" : {
        "href" : null,
        "total" : 1
      },
      "genres" : [ ],
      "href" : "https://api.spotify.com/v1/artists/4i5IHoz9FTYc1K54yHHkE2",
      "id" : "4i5IHoz9FTYc1K54yHHkE2",
      "images" : [ ],
      "name" : "Gilles Karoly",
      "popularity" : 0,
      "type" : "artist",
      "uri" : "spotify:artist:4i5IHoz9FTYc1K54yHHkE2"
    } ],
    "limit" : 20,
    "next" : "https://api.spotify.com/v1/search?query=+Karol+G&type=artist&market=US&offset=20&limit=20",
    "offset" : 0,
    "previous" : null,
    "total" : 99
  }
}