{
  "artists" : {
    "href" : "https://api.spotify.com/v1/search?query=+Luttrell&type=artist&market=US&offset=0&limit=20",
    "items" : [ {
      "external_urls" : {
        "spotify" : "https://open.spotify.com/artist/4EOyJnoiiOJ4vuNhSBArB2"
      },
      "followers" : {
        "href" : null,
        "total" : 54446
      },
      "genres" : [ "progressive house" ],
      "href" : "https://api.spotify.com/v1/artists/4EOyJnoiiOJ4vuNhSBArB2",
      "id" : "4EOyJnoiiOJ4vuNhSBArB2",
      "images" : [ {
        "height" : 640,
        "url" : "https://i.scdn.co/image/ab6761610000e5ebaad9c25bebefc875e8711e80",
        "width" : 640
      }, {
        "height" : 320,
        "url" : "https://i.scdn.co/image/ab67616100005174aad9c25bebefc875e8711e80",
        "width" : 320
      }, {
        "height" : 160,
        "url" : "https://i.scdn.co/image/ab6761610000f178aad9c25bebefc875e8711e80",
        "width" : 160
      } ],
      "name" : "Luttrell",
      "popularity" : 49,
      "type" : "artist",
      "uri" : "spotify:artist:4EOyJnoiiOJ4vuNhSBArB2"
    }, {
      "external_urls" : {
        "spotify" : "https://open.spotify.com/artist/1HRq8YjrdR6yJfQu5DEGjD"
      },
      "followers" : {
        "href" : null,
        "total" : 361
      },
      "genres" : [ ],
      "href" : "https://api.spotify.com/v1/artists/1HRq8YjrdR6yJfQu5DEGjD",
      "id" : "1HRq8YjrdR6yJfQu5DEGjD",
      "images" : [ ],
      "name" : "Erica Luttrell",
      "popularity" : 43,
      "type" : "artist",
      "uri" : "spotify:artist:1HRq8YjrdR6yJfQu5DEGjD"
    }, {
      "external_urls" : {
        "spotify" : "https://open.spotify.com/artist/2rrxW6KQQQlZw353hlzMir"
      },
      "followers" : {
        "href" : null,
        "total" : 1158
      },
      "genres" : [ ],
      "href" : "https://api.spotify.com/v1/artists/2rrxW6KQQQlZw353hlzMir",
      "id" : "2rrxW6KQQQlZw353hlzMir",
      "images" : [ {
        "height" : 640,
        "url" : "https://i.scdn.co/image/ab67616d0000b2734c3ef86567329d17077376d0",
        "width" : 640
      }, {
        "height" : 300,
        "url" : "https://i.scdn.co/image/ab67616d00001e024c3ef86567329d17077376d0",
        "width" : 300
      }, {
        "height" : 64,
        "url" : "https://i.scdn.co/image/ab67616d000048514c3ef86567329d17077376d0",
        "width" : 64
      } ],
      "name" : "Jacob Luttrell",
      "popularity" : 28,
      "type" : "artist",
      "uri" : "spotify:artist:2rrxW6KQQQlZw353hlzMir"
    }, {
      "external_urls" : {
        "spotify" : "https://open.spotify.com/artist/5eXJw7fE6oHLyatW46n7Cf"
      },
      "followers" : {
        "href" : null,
        "total" : 107
      },
      "genres" : [ ],
      "href" : "https://api.spotify.com/v1/artists/5eXJw7fE6oHLyatW46n7Cf",
      "id" : "5eXJw7fE6oHLyatW46n7Cf",
      "images" : [ {
        "height" : 640,
        "url" : "https://i.scdn.co/image/ab6761610000e5eb0ad6459364db453dbdfbb412",
        "width" : 640
      }, {
        "height" : 320,
        "url" : "https://i.scdn.co/image/ab676161000051740ad6459364db453dbdfbb412",
        "width" : 320
      }, {
        "height" : 160,
        "url" : "https://i.scdn.co/image/ab6761610000f1780ad6459364db453dbdfbb412",
        "width" : 160
      } ],
      "name" : "Jake Luttrell",
      "popularity" : 13,
      "type" : "artist",
      "uri" : "spotify:artist:5eXJw7fE6oHLyatW46n7Cf"
    }, {
      "external_urls" : {
        "spotify" : "https://open.spotify.com/artist/1hDUhPfaQAgUx5IrNSxmnz"
      },
      "followers" : {
        "href" : null,
        "total" : 168
      },
      "genres" : [ ],
      "href" : "https://api.spotify.com/v1/artists/1hDUhPfaQAgUx5IrNSxmnz",
      "id" : "1hDUhPfaQAgUx5IrNSxmnz",
      "images" : [ {
        "height" : 640,
        "url" : "https://i.scdn.co/image/ab6761610000e5eb6b6042204d62949f6d03eeb8",
        "width" : 640
      }, {
        "height" : 320,
        "url" : "https://i.scdn.co/image/ab676161000051746b6042204d62949f6d03eeb8",
        "width" : 320
      }, {
        "height" : 160,
        "url" : "https://i.scdn.co/image/ab6761610000f1786b6042204d62949f6d03eeb8",
        "width" : 160
      } ],
      "name" : "Derek Luttrell",
      "popularity" : 12,
      "type" : "artist",
      "uri" : "spotify:artist:1hDUhPfaQAgUx5IrNSxmnz"
    }, {
      "external_urls" : {
        "spotify" : "https://open.spotify.com/artist/6rZH2Np3NiK3flvVXNdqdO"
      },
      "followers" : {
        "href" : null,
        "total" : 109
      },
      "genres" : [ ],
      "href" : "https://api.spotify.com/v1/artists/6rZH2Np3NiK3flvVXNdqdO",
      "id" : "6rZH2Np3NiK3flvVXNdqdO",
      "images" : [ {
        "height" : 640,
        "url" : "https://i.scdn.co/image/ab67616d0000b273cb54979d7f7bd48ccc072daf",
        "width" : 640
      }, {
        "height" : 300,
        "url" : "https://i.scdn.co/image/ab67616d00001e02cb54979d7f7bd48ccc072daf",
        "width" : 300
      }, {
        "height" : 64,
        "url" : "https://i.scdn.co/image/ab67616d00004851cb54979d7f7bd48ccc072daf",
        "width" : 64
      } ],
      "name" : "John Luttrell",
      "popularity" : 3,
      "type" : "artist",
      "uri" : "spotify:artist:6rZH2Np3NiK3flvVXNdqdO"
    }, {
      "external_urls" : {
        "spotify" : "https://open.spotify.com/artist/7BvhJs8vhpw4mlG5ZqnnjF"
      },
      "followers" : {
        "href" : null,
        "total" : 1
      },
      "genres" : [ ],
      "href" : "https://api.spotify.com/v1/artists/7BvhJs8vhpw4mlG5ZqnnjF",
      "id" : "7BvhJs8vhpw4mlG5ZqnnjF",
      "images" : [ {
        "height" : 640,
        "url" : "https://i.scdn.co/image/ab6761610000e5ebb533a7dfb064bed53ff4ad63",
        "width" : 640
      }, {
        "height" : 320,
        "url" : "https://i.scdn.co/image/ab67616100005174b533a7dfb064bed53ff4ad63",
        "width" : 320
      }, {
        "height" : 160,
        "url" : "https://i.scdn.co/image/ab6761610000f178b533a7dfb064bed53ff4ad63",
        "width" : 160
      } ],
      "name" : "Zach Luttrell",
      "popularity" : 3,
      "type" : "artist",
      "uri" : "spotify:artist:7BvhJs8vhpw4mlG5ZqnnjF"
    }, {
      "external_urls" : {
        "spotify" : "https://open.spotify.com/artist/2LVaePlxQxFaPZ5ZSZGNbv"
      },
      "followers" : {
        "href" : null,
        "total" : 0
      },
      "genres" : [ ],
      "href" : "https://api.spotify.com/v1/artists/2LVaePlxQxFaPZ5ZSZGNbv",
      "id" : "2LVaePlxQxFaPZ5ZSZGNbv",
      "images" : [ ],
      "name" : "Jacob Luttrell",
      "popularity" : 0,
      "type" : "artist",
      "uri" : "spotify:artist:2LVaePlxQxFaPZ5ZSZGNbv"
    }, {
      "external_urls" : {
        "spotify" : "https://open.spotify.com/artist/03pYlyBbfCVNcMESscjGcq"
      },
      "followers" : {
        "href" : null,
        "total" : 0
      },
      "genres" : [ ],
      "href" : "https://api.spotify.com/v1/artists/03pYlyBbfCVNcMESscjGcq",
      "id" : "03pYlyBbfCVNcMESscjGcq",
      "images" : [ ],
      "name" : "Austin Luttrell",
      "popularity" : 0,
      "type" : "artist",
      "uri" : "spotify:artist:03pYlyBbfCVNcMESscjGcq"
    }, {
      "external_urls" : {
        "spotify" : "https://open.spotify.com/artist/5q42wIygwroPRaB2rMGrIK"
      },
      "followers" : {
        "href" : null,
        "total" : 192
      },
      "genres" : [ ],
      "href" : "https://api.spotify.com/v1/artists/5q42wIygwroPRaB2rMGrIK",
      "id" : "5q42wIygwroPRaB2rMGrIK",
      "images" : [ {
        "height" : 640,
        "url" : "https://i.scdn.co/image/ab67616d0000b273aa356525709327919ef331c5",
        "width" : 640
      }, {
        "height" : 300,
        "url" : "https://i.scdn.co/image/ab67616d00001e02aa356525709327919ef331c5",
        "width" : 300
      }, {
        "height" : 64,
        "url" : "https://i.scdn.co/image/ab67616d00004851aa356525709327919ef331c5",
        "width" : 64
      } ],
      "name" : "Heather Luttrell",
      "popularity" : 1,
      "type" : "artist",
      "uri" : "spotify:artist:5q42wIygwroPRaB2rMGrIK"
    }, {
      "external_urls" : {
        "spotify" : "https://open.spotify.com/artist/6EPnuiLmLNK4w5qEVMaMsn"
      },
      "followers" : {
        "href" : null,
        "total" : 2
      },
      "genres" : [ ],
      "href" : "https://api.spotify.com/v1/artists/6EPnuiLmLNK4w5qEVMaMsn",
      "id" : "6EPnuiLmLNK4w5qEVMaMsn",
      "images" : [ {
        "height" : 640,
        "url" : "https://i.scdn.co/image/ab67616d0000b273d441b95828a6cbf9abe54cec",
        "width" : 640
      }, {
        "height" : 300,
        "url" : "https://i.scdn.co/image/ab67616d00001e02d441b95828a6cbf9abe54cec",
        "width" : 300
      }, {
        "height" : 64,
        "url" : "https://i.scdn.co/image/ab67616d00004851d441b95828a6cbf9abe54cec",
        "width" : 64
      } ],
      "name" : "Brandon Luttrell",
      "popularity" : 0,
      "type" : "artist",
      "uri" : "spotify:artist:6EPnuiLmLNK4w5qEVMaMsn"
    }, {
      "external_urls" : {
        "spotify" : "https://open.spotify.com/artist/525lAPBWFGpBeU29sWpDsB"
      },
      "followers" : {
        "href" : null,
        "total" : 16
      },
      "genres" : [ ],
      "href" : "https://api.spotify.com/v1/artists/525lAPBWFGpBeU29sWpDsB",
      "id" : "525lAPBWFGpBeU29sWpDsB",
      "images" : [ {
        "height" : 640,
        "url" : "https://i.scdn.co/image/ab67616d0000b27360aa1aa83464feb551ad4415",
        "width" : 640
      }, {
        "height" : 300,
        "url" : "https://i.scdn.co/image/ab67616d00001e0260aa1aa83464feb551ad4415",
        "width" : 300
      }, {
        "height" : 64,
        "url" : "https://i.scdn.co/image/ab67616d0000485160aa1aa83464feb551ad4415",
        "width" : 64
      } ],
      "name" : "Patrick Luttrell",
      "popularity" : 0,
      "type" : "artist",
      "uri" : "spotify:artist:525lAPBWFGpBeU29sWpDsB"
    }, {
      "external_urls" : {
        "spotify" : "https://open.spotify.com/artist/53GNg9fp6TWc6pXiERFvHA"
      },
      "followers" : {
        "href" : null,
        "total" : 3
      },
      "genres" : [ ],
      "href" : "https://api.spotify.com/v1/artists/53GNg9fp6TWc6pXiERFvHA",
      "id" : "53GNg9fp6TWc6pXiERFvHA",
      "images" : [ {
        "height" : 640,
        "url" : "https://i.scdn.co/image/ab67616d0000b273aeef636d8fd864f23d4b4a85",
        "width" : 640
      }, {
        "height" : 300,
        "url" : "https://i.scdn.co/image/ab67616d00001e02aeef636d8fd864f23d4b4a85",
        "width" : 300
      }, {
        "height" : 64,
        "url" : "https://i.scdn.co/image/ab67616d00004851aeef636d8fd864f23d4b4a85",
        "width" : 64
      } ],
      "name" : "Kyle Luttrell",
      "popularity" : 0,
      "type" : "artist",
      "uri" : "spotify:artist:53GNg9fp6TWc6pXiERFvHA"
    }, {
      "external_urls" : {
        "spotify" : "https://open.spotify.com/artist/5IBxOFGaZWB3VO64Mnw6a7"
      },
      "followers" : {
        "href" : null,
        "total" : 0
      },
      "genres" : [ ],
      "href" : "https://api.spotify.com/v1/artists/5IBxOFGaZWB3VO64Mnw6a7",
      "id" : "5IBxOFGaZWB3VO64Mnw6a7",
      "images" : [ ],
      "name" : "John Luttrell",
      "popularity" : 0,
      "type" : "artist",
      "uri" : "spotify:artist:5IBxOFGaZWB3VO64Mnw6a7"
    }, {
      "external_urls" : {
        "spotify" : "https://open.spotify.com/artist/6Dfybqwx0tdF3E0Tob6zVX"
      },
      "followers" : {
        "href" : null,
        "total" : 2
      },
      "genres" : [ ],
      "href" : "https://api.spotify.com/v1/artists/6Dfybqwx0tdF3E0Tob6zVX",
      "id" : "6Dfybqwx0tdF3E0Tob6zVX",
      "images" : [ {
        "height" : 640,
        "url" : "https://i.scdn.co/image/ab67616d0000b2733e8033225aa65afebaa5bd7f",
        "width" : 640
      }, {
        "height" : 300,
        "url" : "https://i.scdn.co/image/ab67616d00001e023e8033225aa65afebaa5bd7f",
        "width" : 300
      }, {
        "height" : 64,
        "url" : "https://i.scdn.co/image/ab67616d000048513e8033225aa65afebaa5bd7f",
        "width" : 64
      } ],
      "name" : "Brandon Luttrell",
      "popularity" : 0,
      "type" : "artist",
      "uri" : "spotify:artist:6Dfybqwx0tdF3E0Tob6zVX"
    }, {
      "external_urls" : {
        "spotify" : "https://open.spotify.com/artist/1CM9r7L3FIbzPvKZRov2IR"
      },
      "followers" : {
        "href" : null,
        "total" : 32
      },
      "genres" : [ ],
      "href" : "https://api.spotify.com/v1/artists/1CM9r7L3FIbzPvKZRov2IR",
      "id" : "1CM9r7L3FIbzPvKZRov2IR",
      "images" : [ {
        "height" : 640,
        "url" : "https://i.scdn.co/image/ab67616d0000b2736591dc2cfa6fa4660df796a2",
        "width" : 640
      }, {
        "height" : 300,
        "url" : "https://i.scdn.co/image/ab67616d00001e026591dc2cfa6fa4660df796a2",
        "width" : 300
      }, {
        "height" : 64,
        "url" : "https://i.scdn.co/image/ab67616d000048516591dc2cfa6fa4660df796a2",
        "width" : 64
      } ],
      "name" : "Jimmy Luttrell",
      "popularity" : 0,
      "type" : "artist",
      "uri" : "spotify:artist:1CM9r7L3FIbzPvKZRov2IR"
    }, {
      "external_urls" : {
        "spotify" : "https://open.spotify.com/artist/0q2PBRdUbO5XuH3nCR50uX"
      },
      "followers" : {
        "href" : null,
        "total" : 0
      },
      "genres" : [ ],
      "href" : "https://api.spotify.com/v1/artists/0q2PBRdUbO5XuH3nCR50uX",
      "id" : "0q2PBRdUbO5XuH3nCR50uX",
      "images" : [ {
        "height" : 640,
        "url" : "https://i.scdn.co/image/ab67616d0000b273af21c2ffee04fa4a84716e15",
        "width" : 640
      }, {
        "height" : 300,
        "url" : "https://i.scdn.co/image/ab67616d00001e02af21c2ffee04fa4a84716e15",
        "width" : 300
      }, {
        "height" : 64,
        "url" : "https://i.scdn.co/image/ab67616d00004851af21c2ffee04fa4a84716e15",
        "width" : 64
      } ],
      "name" : "Donna Luttrell",
      "popularity" : 0,
      "type" : "artist",
      "uri" : "spotify:artist:0q2PBRdUbO5XuH3nCR50uX"
    }, {
      "external_urls" : {
        "spotify" : "https://open.spotify.com/artist/4TdFNDa7GdCbV0iWzUw8WQ"
      },
      "followers" : {
        "href" : null,
        "total" : 27
      },
      "genres" : [ ],
      "href" : "https://api.spotify.com/v1/artists/4TdFNDa7GdCbV0iWzUw8WQ",
      "id" : "4TdFNDa7GdCbV0iWzUw8WQ",
      "images" : [ {
        "height" : 640,
        "url" : "https://i.scdn.co/image/ab6761610000e5eb3b78b39ee3f7ef2960cb1e2e",
        "width" : 640
      }, {
        "height" : 320,
        "url" : "https://i.scdn.co/image/ab676161000051743b78b39ee3f7ef2960cb1e2e",
        "width" : 320
      }, {
        "height" : 160,
        "url" : "https://i.scdn.co/image/ab6761610000f1783b78b39ee3f7ef2960cb1e2e",
        "width" : 160
      } ],
      "name" : "Kiefer Luttrell",
      "popularity" : 0,
      "type" : "artist",
      "uri" : "spotify:artist:4TdFNDa7GdCbV0iWzUw8WQ"
    }, {
      "external_urls" : {
        "spotify" : "https://open.spotify.com/artist/2I6r0fgKTKwPQAcr5BgVW8"
      },
      "followers" : {
        "href" : null,
        "total" : 0
      },
      "genres" : [ ],
      "href" : "https://api.spotify.com/v1/artists/2I6r0fgKTKwPQAcr5BgVW8",
      "id" : "2I6r0fgKTKwPQAcr5BgVW8",
      "images" : [ {
        "height" : 640,
        "url" : "https://i.scdn.co/image/ab67616d0000b2736ee7ef26917efff1588ce347",
        "width" : 640
      }, {
        "height" : 300,
        "url" : "https://i.scdn.co/image/ab67616d00001e026ee7ef26917efff1588ce347",
        "width" : 300
      }, {
        "height" : 64,
        "url" : "https://i.scdn.co/image/ab67616d000048516ee7ef26917efff1588ce347",
        "width" : 64
      } ],
      "name" : "Sherry Luttrell",
      "popularity" : 0,
      "type" : "artist",
      "uri" : "spotify:artist:2I6r0fgKTKwPQAcr5BgVW8"
    }, {
      "external_urls" : {
        "spotify" : "https://open.spotify.com/artist/7MC0LbneHKPJQyXw8Rsp7N"
      },
      "followers" : {
        "href" : null,
        "total" : 11
      },
      "genres" : [ ],
      "href" : "https://api.spotify.com/v1/artists/7MC0LbneHKPJQyXw8Rsp7N",
      "id" : "7MC0LbneHKPJQyXw8Rsp7N",
      "images" : [ {
        "height" : 640,
        "url" : "https://i.scdn.co/image/ab67616d0000b273b9b8b6be8a60f9071f6389a5",
        "width" : 640
      }, {
        "height" : 300,
        "url" : "https://i.scdn.co/image/ab67616d00001e02b9b8b6be8a60f9071f6389a5",
        "width" : 300
      }, {
        "height" : 64,
        "url" : "https://i.scdn.co/image/ab67616d00004851b9b8b6be8a60f9071f6389a5",
        "width" : 64
      } ],
      "name" : "Emmitt Luttrell",
      "popularity" : 0,
      "type" : "artist",
      "uri" : "spotify:artist:7MC0LbneHKPJQyXw8Rsp7N"
    } ],
    "limit" : 20,
    "next" : "https://api.spotify.com/v1/search?query=+Luttrell&type=artist&market=US&offset=20&limit=20",
    "offset" : 0,
    "previous" : null,
    "total" : 50
  }
}