{
  "artists" : {
    "href" : "https://api.spotify.com/v1/search?query=+Satori&type=artist&market=US&offset=0&limit=20",
    "items" : [ {
      "external_urls" : {
        "spotify" : "https://open.spotify.com/artist/5nri3hyKmKBGAfvjBi0mK0"
      },
      "followers" : {
        "href" : null,
        "total" : 71910
      },
      "genres" : [ "ethnotronica", "organic electronic", "organic house" ],
      "href" : "https://api.spotify.com/v1/artists/5nri3hyKmKBGAfvjBi0mK0",
      "id" : "5nri3hyKmKBGAfvjBi0mK0",
      "images" : [ {
        "height" : 640,
        "url" : "https://i.scdn.co/image/ab6761610000e5ebedd1e20af2c4f85a310e8836",
        "width" : 640
      }, {
        "height" : 320,
        "url" : "https://i.scdn.co/image/ab67616100005174edd1e20af2c4f85a310e8836",
        "width" : 320
      }, {
        "height" : 160,
        "url" : "https://i.scdn.co/image/ab6761610000f178edd1e20af2c4f85a310e8836",
        "width" : 160
      } ],
      "name" : "Satori",
      "popularity" : 50,
      "type" : "artist",
      "uri" : "spotify:artist:5nri3hyKmKBGAfvjBi0mK0"
    }, {
      "external_urls" : {
        "spotify" : "https://open.spotify.com/artist/3gK713oCPxcYsIsfAXSpl5"
      },
      "followers" : {
        "href" : null,
        "total" : 20127
      },
      "genres" : [ "asmr" ],
      "href" : "https://api.spotify.com/v1/artists/3gK713oCPxcYsIsfAXSpl5",
      "id" : "3gK713oCPxcYsIsfAXSpl5",
      "images" : [ {
        "height" : 640,
        "url" : "https://i.scdn.co/image/ab67616d0000b273396742d7bea22d1a600c4275",
        "width" : 640
      }, {
        "height" : 300,
        "url" : "https://i.scdn.co/image/ab67616d00001e02396742d7bea22d1a600c4275",
        "width" : 300
      }, {
        "height" : 64,
        "url" : "https://i.scdn.co/image/ab67616d00004851396742d7bea22d1a600c4275",
        "width" : 64
      } ],
      "name" : "Karuna Satori ASMR",
      "popularity" : 43,
      "type" : "artist",
      "uri" : "spotify:artist:3gK713oCPxcYsIsfAXSpl5"
    }, {
      "external_urls" : {
        "spotify" : "https://open.spotify.com/artist/54dz2oZHyoh9ZmfldoKogN"
      },
      "followers" : {
        "href" : null,
        "total" : 3181
      },
      "genres" : [ "singing bowl", "tone" ],
      "href" : "https://api.spotify.com/v1/artists/54dz2oZHyoh9ZmfldoKogN",
      "id" : "54dz2oZHyoh9ZmfldoKogN",
      "images" : [ {
        "height" : 640,
        "url" : "https://i.scdn.co/image/ab67616d0000b273645b0576be6dea2bdaedfa69",
        "width" : 640
      }, {
        "height" : 300,
        "url" : "https://i.scdn.co/image/ab67616d00001e02645b0576be6dea2bdaedfa69",
        "width" : 300
      }, {
        "height" : 64,
        "url" : "https://i.scdn.co/image/ab67616d00004851645b0576be6dea2bdaedfa69",
        "width" : 64
      } ],
      "name" : "Satorio",
      "popularity" : 39,
      "type" : "artist",
      "uri" : "spotify:artist:54dz2oZHyoh9ZmfldoKogN"
    }, {
      "external_urls" : {
        "spotify" : "https://open.spotify.com/artist/56NAIvhi94OHg8mOF8X1y0"
      },
      "followers" : {
        "href" : null,
        "total" : 275
      },
      "genres" : [ ],
      "href" : "https://api.spotify.com/v1/artists/56NAIvhi94OHg8mOF8X1y0",
      "id" : "56NAIvhi94OHg8mOF8X1y0",
      "images" : [ {
        "height" : 640,
        "url" : "https://i.scdn.co/image/ab6761610000e5eb90d2f11d15ac406018c92b0d",
        "width" : 640
      }, {
        "height" : 320,
        "url" : "https://i.scdn.co/image/ab6761610000517490d2f11d15ac406018c92b0d",
        "width" : 320
      }, {
        "height" : 160,
        "url" : "https://i.scdn.co/image/ab6761610000f17890d2f11d15ac406018c92b0d",
        "width" : 160
      } ],
      "name" : "Satori",
      "popularity" : 35,
      "type" : "artist",
      "uri" : "spotify:artist:56NAIvhi94OHg8mOF8X1y0"
    }, {
      "external_urls" : {
        "spotify" : "https://open.spotify.com/artist/5BdFJZoB3rMgQ1FOKNsCtp"
      },
      "followers" : {
        "href" : null,
        "total" : 423
      },
      "genres" : [ ],
      "href" : "https://api.spotify.com/v1/artists/5BdFJZoB3rMgQ1FOKNsCtp",
      "id" : "5BdFJZoB3rMgQ1FOKNsCtp",
      "images" : [ {
        "height" : 640,
        "url" : "https://i.scdn.co/image/ab67616d0000b27361ad0c2335cf5ef6efae72e3",
        "width" : 640
      }, {
        "height" : 300,
        "url" : "https://i.scdn.co/image/ab67616d00001e0261ad0c2335cf5ef6efae72e3",
        "width" : 300
      }, {
        "height" : 64,
        "url" : "https://i.scdn.co/image/ab67616d0000485161ad0c2335cf5ef6efae72e3",
        "width" : 64
      } ],
      "name" : "Satori Sounds",
      "popularity" : 18,
      "type" : "artist",
      "uri" : "spotify:artist:5BdFJZoB3rMgQ1FOKNsCtp"
    }, {
      "external_urls" : {
        "spotify" : "https://open.spotify.com/artist/2ZjnagjJqLjZQKPS9sQkTU"
      },
      "followers" : {
        "href" : null,
        "total" : 16
      },
      "genres" : [ ],
      "href" : "https://api.spotify.com/v1/artists/2ZjnagjJqLjZQKPS9sQkTU",
      "id" : "2ZjnagjJqLjZQKPS9sQkTU",
      "images" : [ {
        "height" : 640,
        "url" : "https://i.scdn.co/image/ab67616d0000b27300bb505d99b5d768a90be2fe",
        "width" : 640
      }, {
        "height" : 300,
        "url" : "https://i.scdn.co/image/ab67616d00001e0200bb505d99b5d768a90be2fe",
        "width" : 300
      }, {
        "height" : 64,
        "url" : "https://i.scdn.co/image/ab67616d0000485100bb505d99b5d768a90be2fe",
        "width" : 64
      } ],
      "name" : "Satori Scott",
      "popularity" : 18,
      "type" : "artist",
      "uri" : "spotify:artist:2ZjnagjJqLjZQKPS9sQkTU"
    }, {
      "external_urls" : {
        "spotify" : "https://open.spotify.com/artist/0TfShYbxL73wcYNef1F5KT"
      },
      "followers" : {
        "href" : null,
        "total" : 74
      },
      "genres" : [ "milwaukee hip hop" ],
      "href" : "https://api.spotify.com/v1/artists/0TfShYbxL73wcYNef1F5KT",
      "id" : "0TfShYbxL73wcYNef1F5KT",
      "images" : [ {
        "height" : 640,
        "url" : "https://i.scdn.co/image/ab6761610000e5eb50213777fa4c0f4c965c25a3",
        "width" : 640
      }, {
        "height" : 320,
        "url" : "https://i.scdn.co/image/ab6761610000517450213777fa4c0f4c965c25a3",
        "width" : 320
      }, {
        "height" : 160,
        "url" : "https://i.scdn.co/image/ab6761610000f17850213777fa4c0f4c965c25a3",
        "width" : 160
      } ],
      "name" : "Satori IV",
      "popularity" : 19,
      "type" : "artist",
      "uri" : "spotify:artist:0TfShYbxL73wcYNef1F5KT"
    }, {
      "external_urls" : {
        "spotify" : "https://open.spotify.com/artist/1UcnqGnaYndy5Iyaq2oHS5"
      },
      "followers" : {
        "href" : null,
        "total" : 1251
      },
      "genres" : [ "meditation", "tone" ],
      "href" : "https://api.spotify.com/v1/artists/1UcnqGnaYndy5Iyaq2oHS5",
      "id" : "1UcnqGnaYndy5Iyaq2oHS5",
      "images" : [ {
        "height" : 640,
        "url" : "https://i.scdn.co/image/ab6761610000e5eb74e11e9ea02aa2fe6bc9b0e5",
        "width" : 640
      }, {
        "height" : 320,
        "url" : "https://i.scdn.co/image/ab6761610000517474e11e9ea02aa2fe6bc9b0e5",
        "width" : 320
      }, {
        "height" : 160,
        "url" : "https://i.scdn.co/image/ab6761610000f17874e11e9ea02aa2fe6bc9b0e5",
        "width" : 160
      } ],
      "name" : "Anjey Satori",
      "popularity" : 20,
      "type" : "artist",
      "uri" : "spotify:artist:1UcnqGnaYndy5Iyaq2oHS5"
    }, {
      "external_urls" : {
        "spotify" : "https://open.spotify.com/artist/65qmTQLpaw8CY5rCdlzEu2"
      },
      "followers" : {
        "href" : null,
        "total" : 11
      },
      "genres" : [ ],
      "href" : "https://api.spotify.com/v1/artists/65qmTQLpaw8CY5rCdlzEu2",
      "id" : "65qmTQLpaw8CY5rCdlzEu2",
      "images" : [ {
        "height" : 640,
        "url" : "https://i.scdn.co/image/ab6761610000e5eb1fbf0ed58622ef110f92e967",
        "width" : 640
      }, {
        "height" : 320,
        "url" : "https://i.scdn.co/image/ab676161000051741fbf0ed58622ef110f92e967",
        "width" : 320
      }, {
        "height" : 160,
        "url" : "https://i.scdn.co/image/ab6761610000f1781fbf0ed58622ef110f92e967",
        "width" : 160
      } ],
      "name" : "Mia Satori",
      "popularity" : 14,
      "type" : "artist",
      "uri" : "spotify:artist:65qmTQLpaw8CY5rCdlzEu2"
    }, {
      "external_urls" : {
        "spotify" : "https://open.spotify.com/artist/0b7jYzG8vrZn6GyE56ObZ7"
      },
      "followers" : {
        "href" : null,
        "total" : 2192
      },
      "genres" : [ ],
      "href" : "https://api.spotify.com/v1/artists/0b7jYzG8vrZn6GyE56ObZ7",
      "id" : "0b7jYzG8vrZn6GyE56ObZ7",
      "images" : [ {
        "height" : 640,
        "url" : "https://i.scdn.co/image/ab67616d0000b2736bcb9ad72c0ffa10bb474b75",
        "width" : 640
      }, {
        "height" : 300,
        "url" : "https://i.scdn.co/image/ab67616d00001e026bcb9ad72c0ffa10bb474b75",
        "width" : 300
      }, {
        "height" : 64,
        "url" : "https://i.scdn.co/image/ab67616d000048516bcb9ad72c0ffa10bb474b75",
        "width" : 64
      } ],
      "name" : "Satori",
      "popularity" : 21,
      "type" : "artist",
      "uri" : "spotify:artist:0b7jYzG8vrZn6GyE56ObZ7"
    }, {
      "external_urls" : {
        "spotify" : "https://open.spotify.com/artist/4uzYiHQET5VgrrvDJOokJN"
      },
      "followers" : {
        "href" : null,
        "total" : 243
      },
      "genres" : [ "meditation" ],
      "href" : "https://api.spotify.com/v1/artists/4uzYiHQET5VgrrvDJOokJN",
      "id" : "4uzYiHQET5VgrrvDJOokJN",
      "images" : [ {
        "height" : 640,
        "url" : "https://i.scdn.co/image/ab67616d0000b273f60cdc026b23976eb561f089",
        "width" : 640
      }, {
        "height" : 300,
        "url" : "https://i.scdn.co/image/ab67616d00001e02f60cdc026b23976eb561f089",
        "width" : 300
      }, {
        "height" : 64,
        "url" : "https://i.scdn.co/image/ab67616d00004851f60cdc026b23976eb561f089",
        "width" : 64
      } ],
      "name" : "Satori Meditation",
      "popularity" : 20,
      "type" : "artist",
      "uri" : "spotify:artist:4uzYiHQET5VgrrvDJOokJN"
    }, {
      "external_urls" : {
        "spotify" : "https://open.spotify.com/artist/5D5u8vwUM2SkvQXZ8iqMhF"
      },
      "followers" : {
        "href" : null,
        "total" : 2
      },
      "genres" : [ ],
      "href" : "https://api.spotify.com/v1/artists/5D5u8vwUM2SkvQXZ8iqMhF",
      "id" : "5D5u8vwUM2SkvQXZ8iqMhF",
      "images" : [ ],
      "name" : "Satori My G",
      "popularity" : 6,
      "type" : "artist",
      "uri" : "spotify:artist:5D5u8vwUM2SkvQXZ8iqMhF"
    }, {
      "external_urls" : {
        "spotify" : "https://open.spotify.com/artist/1BNL0sFrJ18o1shIFMvbNx"
      },
      "followers" : {
        "href" : null,
        "total" : 307
      },
      "genres" : [ ],
      "href" : "https://api.spotify.com/v1/artists/1BNL0sFrJ18o1shIFMvbNx",
      "id" : "1BNL0sFrJ18o1shIFMvbNx",
      "images" : [ {
        "height" : 640,
        "url" : "https://i.scdn.co/image/ab67616d0000b2731fbc4054e909dcd8ecab55bf",
        "width" : 640
      }, {
        "height" : 300,
        "url" : "https://i.scdn.co/image/ab67616d00001e021fbc4054e909dcd8ecab55bf",
        "width" : 300
      }, {
        "height" : 64,
        "url" : "https://i.scdn.co/image/ab67616d000048511fbc4054e909dcd8ecab55bf",
        "width" : 64
      } ],
      "name" : "Satorisonida",
      "popularity" : 10,
      "type" : "artist",
      "uri" : "spotify:artist:1BNL0sFrJ18o1shIFMvbNx"
    }, {
      "external_urls" : {
        "spotify" : "https://open.spotify.com/artist/3NWsGVeKvnDhsP6KfHgC2x"
      },
      "followers" : {
        "href" : null,
        "total" : 16817
      },
      "genres" : [ ],
      "href" : "https://api.spotify.com/v1/artists/3NWsGVeKvnDhsP6KfHgC2x",
      "id" : "3NWsGVeKvnDhsP6KfHgC2x",
      "images" : [ {
        "height" : 640,
        "url" : "https://i.scdn.co/image/ab6761610000e5eb08b149bc02142a6886077144",
        "width" : 640
      }, {
        "height" : 320,
        "url" : "https://i.scdn.co/image/ab6761610000517408b149bc02142a6886077144",
        "width" : 320
      }, {
        "height" : 160,
        "url" : "https://i.scdn.co/image/ab6761610000f17808b149bc02142a6886077144",
        "width" : 160
      } ],
      "name" : "Satori",
      "popularity" : 30,
      "type" : "artist",
      "uri" : "spotify:artist:3NWsGVeKvnDhsP6KfHgC2x"
    }, {
      "external_urls" : {
        "spotify" : "https://open.spotify.com/artist/6wf55RQ8QUEzAA2SeXDWSh"
      },
      "followers" : {
        "href" : null,
        "total" : 64
      },
      "genres" : [ ],
      "href" : "https://api.spotify.com/v1/artists/6wf55RQ8QUEzAA2SeXDWSh",
      "id" : "6wf55RQ8QUEzAA2SeXDWSh",
      "images" : [ {
        "height" : 640,
        "url" : "https://i.scdn.co/image/ab6761610000e5eb5051d0b57dc100b66ebb27a7",
        "width" : 640
      }, {
        "height" : 320,
        "url" : "https://i.scdn.co/image/ab676161000051745051d0b57dc100b66ebb27a7",
        "width" : 320
      }, {
        "height" : 160,
        "url" : "https://i.scdn.co/image/ab6761610000f1785051d0b57dc100b66ebb27a7",
        "width" : 160
      } ],
      "name" : "Satori Ki",
      "popularity" : 3,
      "type" : "artist",
      "uri" : "spotify:artist:6wf55RQ8QUEzAA2SeXDWSh"
    }, {
      "external_urls" : {
        "spotify" : "https://open.spotify.com/artist/4O1N61jMbp5PeDq1VDVCub"
      },
      "followers" : {
        "href" : null,
        "total" : 335
      },
      "genres" : [ "gundam" ],
      "href" : "https://api.spotify.com/v1/artists/4O1N61jMbp5PeDq1VDVCub",
      "id" : "4O1N61jMbp5PeDq1VDVCub",
      "images" : [ {
        "height" : 640,
        "url" : "https://i.scdn.co/image/ab67616d0000b273da28b605f1eb744844250a4c",
        "width" : 640
      }, {
        "height" : 300,
        "url" : "https://i.scdn.co/image/ab67616d00001e02da28b605f1eb744844250a4c",
        "width" : 300
      }, {
        "height" : 64,
        "url" : "https://i.scdn.co/image/ab67616d00004851da28b605f1eb744844250a4c",
        "width" : 64
      } ],
      "name" : "根岸さとり",
      "popularity" : 21,
      "type" : "artist",
      "uri" : "spotify:artist:4O1N61jMbp5PeDq1VDVCub"
    }, {
      "external_urls" : {
        "spotify" : "https://open.spotify.com/artist/60zMi275oRFeLidPX3Ysty"
      },
      "followers" : {
        "href" : null,
        "total" : 23
      },
      "genres" : [ ],
      "href" : "https://api.spotify.com/v1/artists/60zMi275oRFeLidPX3Ysty",
      "id" : "60zMi275oRFeLidPX3Ysty",
      "images" : [ {
        "height" : 640,
        "url" : "https://i.scdn.co/image/ab67616d0000b2731f1a70af323fe4860c60b2cb",
        "width" : 640
      }, {
        "height" : 300,
        "url" : "https://i.scdn.co/image/ab67616d00001e021f1a70af323fe4860c60b2cb",
        "width" : 300
      }, {
        "height" : 64,
        "url" : "https://i.scdn.co/image/ab67616d000048511f1a70af323fe4860c60b2cb",
        "width" : 64
      } ],
      "name" : "Satori",
      "popularity" : 3,
      "type" : "artist",
      "uri" : "spotify:artist:60zMi275oRFeLidPX3Ysty"
    }, {
      "external_urls" : {
        "spotify" : "https://open.spotify.com/artist/4kFF2QuT0MMBNIbz0P2HFT"
      },
      "followers" : {
        "href" : null,
        "total" : 11
      },
      "genres" : [ ],
      "href" : "https://api.spotify.com/v1/artists/4kFF2QuT0MMBNIbz0P2HFT",
      "id" : "4kFF2QuT0MMBNIbz0P2HFT",
      "images" : [ {
        "height" : 640,
        "url" : "https://i.scdn.co/image/b5fd05c5e4cbcb65ffe50a3de6baa1fa0f01f966",
        "width" : 640
      }, {
        "height" : 300,
        "url" : "https://i.scdn.co/image/981848cb1a3279d214415a86a75d69aa57cf7966",
        "width" : 300
      }, {
        "height" : 64,
        "url" : "https://i.scdn.co/image/1d0dede9acc168e7aeee9adedee228c55a4ea418",
        "width" : 64
      } ],
      "name" : "Satori",
      "popularity" : 9,
      "type" : "artist",
      "uri" : "spotify:artist:4kFF2QuT0MMBNIbz0P2HFT"
    }, {
      "external_urls" : {
        "spotify" : "https://open.spotify.com/artist/5hB24cHFkVvNfqgZW2S1sy"
      },
      "followers" : {
        "href" : null,
        "total" : 211
      },
      "genres" : [ ],
      "href" : "https://api.spotify.com/v1/artists/5hB24cHFkVvNfqgZW2S1sy",
      "id" : "5hB24cHFkVvNfqgZW2S1sy",
      "images" : [ {
        "height" : 640,
        "url" : "https://i.scdn.co/image/ab67616d0000b273dc02e9ca1d4d0782de1e763d",
        "width" : 640
      }, {
        "height" : 300,
        "url" : "https://i.scdn.co/image/ab67616d00001e02dc02e9ca1d4d0782de1e763d",
        "width" : 300
      }, {
        "height" : 64,
        "url" : "https://i.scdn.co/image/ab67616d00004851dc02e9ca1d4d0782de1e763d",
        "width" : 64
      } ],
      "name" : "Satoriton",
      "popularity" : 9,
      "type" : "artist",
      "uri" : "spotify:artist:5hB24cHFkVvNfqgZW2S1sy"
    }, {
      "external_urls" : {
        "spotify" : "https://open.spotify.com/artist/69TvomWwz10JbTlCMbKdlv"
      },
      "followers" : {
        "href" : null,
        "total" : 23
      },
      "genres" : [ "goa psytrance" ],
      "href" : "https://api.spotify.com/v1/artists/69TvomWwz10JbTlCMbKdlv",
      "id" : "69TvomWwz10JbTlCMbKdlv",
      "images" : [ {
        "height" : 640,
        "url" : "https://i.scdn.co/image/ab6761610000e5ebdf73b5e1237154b23c705929",
        "width" : 640
      }, {
        "height" : 320,
        "url" : "https://i.scdn.co/image/ab67616100005174df73b5e1237154b23c705929",
        "width" : 320
      }, {
        "height" : 160,
        "url" : "https://i.scdn.co/image/ab6761610000f178df73b5e1237154b23c705929",
        "width" : 160
      } ],
      "name" : "Satori Panic",
      "popularity" : 3,
      "type" : "artist",
      "uri" : "spotify:artist:69TvomWwz10JbTlCMbKdlv"
    } ],
    "limit" : 20,
    "next" : "https://api.spotify.com/v1/search?query=+Satori&type=artist&market=US&offset=20&limit=20",
    "offset" : 0,
    "previous" : null,
    "total" : 200
  }
}