{
  "artists" : {
    "href" : "https://api.spotify.com/v1/search?query=+SLANDER&type=artist&market=US&offset=0&limit=20",
    "items" : [ {
      "external_urls" : {
        "spotify" : "https://open.spotify.com/artist/20DZAfCuP1TKZl5KcY7z3Q"
      },
      "followers" : {
        "href" : null,
        "total" : 346113
      },
      "genres" : [ "dubstep", "edm", "pop dance" ],
      "href" : "https://api.spotify.com/v1/artists/20DZAfCuP1TKZl5KcY7z3Q",
      "id" : "20DZAfCuP1TKZl5KcY7z3Q",
      "images" : [ {
        "height" : 640,
        "url" : "https://i.scdn.co/image/ab6761610000e5eb8ea9bed64e98b8ad91b1f98d",
        "width" : 640
      }, {
        "height" : 320,
        "url" : "https://i.scdn.co/image/ab676161000051748ea9bed64e98b8ad91b1f98d",
        "width" : 320
      }, {
        "height" : 160,
        "url" : "https://i.scdn.co/image/ab6761610000f1788ea9bed64e98b8ad91b1f98d",
        "width" : 160
      } ],
      "name" : "SLANDER",
      "popularity" : 73,
      "type" : "artist",
      "uri" : "spotify:artist:20DZAfCuP1TKZl5KcY7z3Q"
    }, {
      "external_urls" : {
        "spotify" : "https://open.spotify.com/artist/4tqPViuNXvAAIvbJHhuPbs"
      },
      "followers" : {
        "href" : null,
        "total" : 287
      },
      "genres" : [ ],
      "href" : "https://api.spotify.com/v1/artists/4tqPViuNXvAAIvbJHhuPbs",
      "id" : "4tqPViuNXvAAIvbJHhuPbs",
      "images" : [ {
        "height" : 640,
        "url" : "https://i.scdn.co/image/ab67616d0000b27320ac6f0c8092f3d92e16769e",
        "width" : 640
      }, {
        "height" : 300,
        "url" : "https://i.scdn.co/image/ab67616d00001e0220ac6f0c8092f3d92e16769e",
        "width" : 300
      }, {
        "height" : 64,
        "url" : "https://i.scdn.co/image/ab67616d0000485120ac6f0c8092f3d92e16769e",
        "width" : 64
      } ],
      "name" : "Slander",
      "popularity" : 3,
      "type" : "artist",
      "uri" : "spotify:artist:4tqPViuNXvAAIvbJHhuPbs"
    }, {
      "external_urls" : {
        "spotify" : "https://open.spotify.com/artist/0ACKY4A0ndg3IWm8H9bjy6"
      },
      "followers" : {
        "href" : null,
        "total" : 7
      },
      "genres" : [ ],
      "href" : "https://api.spotify.com/v1/artists/0ACKY4A0ndg3IWm8H9bjy6",
      "id" : "0ACKY4A0ndg3IWm8H9bjy6",
      "images" : [ {
        "height" : 640,
        "url" : "https://i.scdn.co/image/ab6761610000e5eb84e39a591fb50142c26fd612",
        "width" : 640
      }, {
        "height" : 320,
        "url" : "https://i.scdn.co/image/ab6761610000517484e39a591fb50142c26fd612",
        "width" : 320
      }, {
        "height" : 160,
        "url" : "https://i.scdn.co/image/ab6761610000f17884e39a591fb50142c26fd612",
        "width" : 160
      } ],
      "name" : "Qaptain Slander",
      "popularity" : 8,
      "type" : "artist",
      "uri" : "spotify:artist:0ACKY4A0ndg3IWm8H9bjy6"
    }, {
      "external_urls" : {
        "spotify" : "https://open.spotify.com/artist/22J4UEx37dPKwU9M1cvSdp"
      },
      "followers" : {
        "href" : null,
        "total" : 4175
      },
      "genres" : [ "italian hardcore" ],
      "href" : "https://api.spotify.com/v1/artists/22J4UEx37dPKwU9M1cvSdp",
      "id" : "22J4UEx37dPKwU9M1cvSdp",
      "images" : [ {
        "height" : 640,
        "url" : "https://i.scdn.co/image/ab67616d0000b273aa10543c30d09a1c9719454f",
        "width" : 640
      }, {
        "height" : 300,
        "url" : "https://i.scdn.co/image/ab67616d00001e02aa10543c30d09a1c9719454f",
        "width" : 300
      }, {
        "height" : 64,
        "url" : "https://i.scdn.co/image/ab67616d00004851aa10543c30d09a1c9719454f",
        "width" : 64
      } ],
      "name" : "Slander",
      "popularity" : 14,
      "type" : "artist",
      "uri" : "spotify:artist:22J4UEx37dPKwU9M1cvSdp"
    }, {
      "external_urls" : {
        "spotify" : "https://open.spotify.com/artist/3BOnNiyjzfsyhUzzidL0Ls"
      },
      "followers" : {
        "href" : null,
        "total" : 0
      },
      "genres" : [ ],
      "href" : "https://api.spotify.com/v1/artists/3BOnNiyjzfsyhUzzidL0Ls",
      "id" : "3BOnNiyjzfsyhUzzidL0Ls",
      "images" : [ {
        "height" : 640,
        "url" : "https://i.scdn.co/image/ab67616d0000b273d8a89dd5f7f16d1a49d114b4",
        "width" : 640
      }, {
        "height" : 300,
        "url" : "https://i.scdn.co/image/ab67616d00001e02d8a89dd5f7f16d1a49d114b4",
        "width" : 300
      }, {
        "height" : 64,
        "url" : "https://i.scdn.co/image/ab67616d00004851d8a89dd5f7f16d1a49d114b4",
        "width" : 64
      } ],
      "name" : "slandert",
      "popularity" : 0,
      "type" : "artist",
      "uri" : "spotify:artist:3BOnNiyjzfsyhUzzidL0Ls"
    }, {
      "external_urls" : {
        "spotify" : "https://open.spotify.com/artist/1ll9IXDmyGGZdTY74bz5Hj"
      },
      "followers" : {
        "href" : null,
        "total" : 32
      },
      "genres" : [ ],
      "href" : "https://api.spotify.com/v1/artists/1ll9IXDmyGGZdTY74bz5Hj",
      "id" : "1ll9IXDmyGGZdTY74bz5Hj",
      "images" : [ {
        "height" : 640,
        "url" : "https://i.scdn.co/image/ab67616d0000b27356f428aa9cb90793fcf9cb99",
        "width" : 640
      }, {
        "height" : 300,
        "url" : "https://i.scdn.co/image/ab67616d00001e0256f428aa9cb90793fcf9cb99",
        "width" : 300
      }, {
        "height" : 64,
        "url" : "https://i.scdn.co/image/ab67616d0000485156f428aa9cb90793fcf9cb99",
        "width" : 64
      } ],
      "name" : "Slander",
      "popularity" : 0,
      "type" : "artist",
      "uri" : "spotify:artist:1ll9IXDmyGGZdTY74bz5Hj"
    }, {
      "external_urls" : {
        "spotify" : "https://open.spotify.com/artist/0SlLxaGNkemOR1PMyUjVGi"
      },
      "followers" : {
        "href" : null,
        "total" : 373
      },
      "genres" : [ ],
      "href" : "https://api.spotify.com/v1/artists/0SlLxaGNkemOR1PMyUjVGi",
      "id" : "0SlLxaGNkemOR1PMyUjVGi",
      "images" : [ {
        "height" : 640,
        "url" : "https://i.scdn.co/image/ab67616d0000b27351cf7661f1fda053d1c9a9a6",
        "width" : 640
      }, {
        "height" : 300,
        "url" : "https://i.scdn.co/image/ab67616d00001e0251cf7661f1fda053d1c9a9a6",
        "width" : 300
      }, {
        "height" : 64,
        "url" : "https://i.scdn.co/image/ab67616d0000485151cf7661f1fda053d1c9a9a6",
        "width" : 64
      } ],
      "name" : "The Slanderin",
      "popularity" : 2,
      "type" : "artist",
      "uri" : "spotify:artist:0SlLxaGNkemOR1PMyUjVGi"
    }, {
      "external_urls" : {
        "spotify" : "https://open.spotify.com/artist/34DtdOFZkRjNU2SWZBjKct"
      },
      "followers" : {
        "href" : null,
        "total" : 58
      },
      "genres" : [ ],
      "href" : "https://api.spotify.com/v1/artists/34DtdOFZkRjNU2SWZBjKct",
      "id" : "34DtdOFZkRjNU2SWZBjKct",
      "images" : [ {
        "height" : 640,
        "url" : "https://i.scdn.co/image/ab67616d0000b2732fc1672e082ec535ae646b74",
        "width" : 640
      }, {
        "height" : 300,
        "url" : "https://i.scdn.co/image/ab67616d00001e022fc1672e082ec535ae646b74",
        "width" : 300
      }, {
        "height" : 64,
        "url" : "https://i.scdn.co/image/ab67616d000048512fc1672e082ec535ae646b74",
        "width" : 64
      } ],
      "name" : "Slander Tongue",
      "popularity" : 0,
      "type" : "artist",
      "uri" : "spotify:artist:34DtdOFZkRjNU2SWZBjKct"
    }, {
      "external_urls" : {
        "spotify" : "https://open.spotify.com/artist/4kKz6stVtzTzOcwKXXSG7Z"
      },
      "followers" : {
        "href" : null,
        "total" : 13
      },
      "genres" : [ ],
      "href" : "https://api.spotify.com/v1/artists/4kKz6stVtzTzOcwKXXSG7Z",
      "id" : "4kKz6stVtzTzOcwKXXSG7Z",
      "images" : [ {
        "height" : 640,
        "url" : "https://i.scdn.co/image/ab67616d0000b27360cce17e79df646680bfb88d",
        "width" : 640
      }, {
        "height" : 300,
        "url" : "https://i.scdn.co/image/ab67616d00001e0260cce17e79df646680bfb88d",
        "width" : 300
      }, {
        "height" : 64,
        "url" : "https://i.scdn.co/image/ab67616d0000485160cce17e79df646680bfb88d",
        "width" : 64
      } ],
      "name" : "Slander",
      "popularity" : 0,
      "type" : "artist",
      "uri" : "spotify:artist:4kKz6stVtzTzOcwKXXSG7Z"
    }, {
      "external_urls" : {
        "spotify" : "https://open.spotify.com/artist/2nL63HZMVGqrKgwTqJDC4b"
      },
      "followers" : {
        "href" : null,
        "total" : 62
      },
      "genres" : [ ],
      "href" : "https://api.spotify.com/v1/artists/2nL63HZMVGqrKgwTqJDC4b",
      "id" : "2nL63HZMVGqrKgwTqJDC4b",
      "images" : [ {
        "height" : 640,
        "url" : "https://i.scdn.co/image/ab6761610000e5eb2da8ad5ad0c5c744ad555663",
        "width" : 640
      }, {
        "height" : 320,
        "url" : "https://i.scdn.co/image/ab676161000051742da8ad5ad0c5c744ad555663",
        "width" : 320
      }, {
        "height" : 160,
        "url" : "https://i.scdn.co/image/ab6761610000f1782da8ad5ad0c5c744ad555663",
        "width" : 160
      } ],
      "name" : "Slanderus",
      "popularity" : 0,
      "type" : "artist",
      "uri" : "spotify:artist:2nL63HZMVGqrKgwTqJDC4b"
    }, {
      "external_urls" : {
        "spotify" : "https://open.spotify.com/artist/6ZS3DVnTkOBOApOOr4rel9"
      },
      "followers" : {
        "href" : null,
        "total" : 18
      },
      "genres" : [ ],
      "href" : "https://api.spotify.com/v1/artists/6ZS3DVnTkOBOApOOr4rel9",
      "id" : "6ZS3DVnTkOBOApOOr4rel9",
      "images" : [ {
        "height" : 640,
        "url" : "https://i.scdn.co/image/ab6761610000e5ebd9a419726681cfdf42100a81",
        "width" : 640
      }, {
        "height" : 320,
        "url" : "https://i.scdn.co/image/ab67616100005174d9a419726681cfdf42100a81",
        "width" : 320
      }, {
        "height" : 160,
        "url" : "https://i.scdn.co/image/ab6761610000f178d9a419726681cfdf42100a81",
        "width" : 160
      } ],
      "name" : "Slanderous Mambo",
      "popularity" : 0,
      "type" : "artist",
      "uri" : "spotify:artist:6ZS3DVnTkOBOApOOr4rel9"
    }, {
      "external_urls" : {
        "spotify" : "https://open.spotify.com/artist/28UPhnNiGnbUOXjKcNTtRo"
      },
      "followers" : {
        "href" : null,
        "total" : 0
      },
      "genres" : [ ],
      "href" : "https://api.spotify.com/v1/artists/28UPhnNiGnbUOXjKcNTtRo",
      "id" : "28UPhnNiGnbUOXjKcNTtRo",
      "images" : [ ],
      "name" : "SlanderMc",
      "popularity" : 0,
      "type" : "artist",
      "uri" : "spotify:artist:28UPhnNiGnbUOXjKcNTtRo"
    }, {
      "external_urls" : {
        "spotify" : "https://open.spotify.com/artist/3JnpePoXOw1CjsVTjHIHfi"
      },
      "followers" : {
        "href" : null,
        "total" : 1
      },
      "genres" : [ ],
      "href" : "https://api.spotify.com/v1/artists/3JnpePoXOw1CjsVTjHIHfi",
      "id" : "3JnpePoXOw1CjsVTjHIHfi",
      "images" : [ {
        "height" : 640,
        "url" : "https://i.scdn.co/image/ab67616d0000b273283e506013d35299d3370a32",
        "width" : 640
      }, {
        "height" : 300,
        "url" : "https://i.scdn.co/image/ab67616d00001e02283e506013d35299d3370a32",
        "width" : 300
      }, {
        "height" : 64,
        "url" : "https://i.scdn.co/image/ab67616d00004851283e506013d35299d3370a32",
        "width" : 64
      } ],
      "name" : "Muse of Slander",
      "popularity" : 0,
      "type" : "artist",
      "uri" : "spotify:artist:3JnpePoXOw1CjsVTjHIHfi"
    }, {
      "external_urls" : {
        "spotify" : "https://open.spotify.com/artist/42OSxeSmPLpACOLqCKio7L"
      },
      "followers" : {
        "href" : null,
        "total" : 0
      },
      "genres" : [ ],
      "href" : "https://api.spotify.com/v1/artists/42OSxeSmPLpACOLqCKio7L",
      "id" : "42OSxeSmPLpACOLqCKio7L",
      "images" : [ ],
      "name" : "Frankie Slander",
      "popularity" : 0,
      "type" : "artist",
      "uri" : "spotify:artist:42OSxeSmPLpACOLqCKio7L"
    }, {
      "external_urls" : {
        "spotify" : "https://open.spotify.com/artist/04DUyNOz1sl1jEEbUTXObS"
      },
      "followers" : {
        "href" : null,
        "total" : 83
      },
      "genres" : [ ],
      "href" : "https://api.spotify.com/v1/artists/04DUyNOz1sl1jEEbUTXObS",
      "id" : "04DUyNOz1sl1jEEbUTXObS",
      "images" : [ {
        "height" : 640,
        "url" : "https://i.scdn.co/image/ab6761610000e5eb3df5912611999e3713a58842",
        "width" : 640
      }, {
        "height" : 320,
        "url" : "https://i.scdn.co/image/ab676161000051743df5912611999e3713a58842",
        "width" : 320
      }, {
        "height" : 160,
        "url" : "https://i.scdn.co/image/ab6761610000f1783df5912611999e3713a58842",
        "width" : 160
      } ],
      "name" : "The Midnight Slander",
      "popularity" : 0,
      "type" : "artist",
      "uri" : "spotify:artist:04DUyNOz1sl1jEEbUTXObS"
    }, {
      "external_urls" : {
        "spotify" : "https://open.spotify.com/artist/0iQHJyO1b9exNSnpPDoxu4"
      },
      "followers" : {
        "href" : null,
        "total" : 0
      },
      "genres" : [ ],
      "href" : "https://api.spotify.com/v1/artists/0iQHJyO1b9exNSnpPDoxu4",
      "id" : "0iQHJyO1b9exNSnpPDoxu4",
      "images" : [ ],
      "name" : "Frankie Slander",
      "popularity" : 0,
      "type" : "artist",
      "uri" : "spotify:artist:0iQHJyO1b9exNSnpPDoxu4"
    }, {
      "external_urls" : {
        "spotify" : "https://open.spotify.com/artist/7AYJnUooy5URnOwOMcD3aQ"
      },
      "followers" : {
        "href" : null,
        "total" : 2119
      },
      "genres" : [ "australian underground hip hop" ],
      "href" : "https://api.spotify.com/v1/artists/7AYJnUooy5URnOwOMcD3aQ",
      "id" : "7AYJnUooy5URnOwOMcD3aQ",
      "images" : [ ],
      "name" : "Tavern Slander",
      "popularity" : 13,
      "type" : "artist",
      "uri" : "spotify:artist:7AYJnUooy5URnOwOMcD3aQ"
    }, {
      "external_urls" : {
        "spotify" : "https://open.spotify.com/artist/0kKee9azbGSGG82vUARO1O"
      },
      "followers" : {
        "href" : null,
        "total" : 0
      },
      "genres" : [ ],
      "href" : "https://api.spotify.com/v1/artists/0kKee9azbGSGG82vUARO1O",
      "id" : "0kKee9azbGSGG82vUARO1O",
      "images" : [ {
        "height" : 640,
        "url" : "https://i.scdn.co/image/ab67616d0000b2733a40270e184839155e4fa8d6",
        "width" : 640
      }, {
        "height" : 300,
        "url" : "https://i.scdn.co/image/ab67616d00001e023a40270e184839155e4fa8d6",
        "width" : 300
      }, {
        "height" : 64,
        "url" : "https://i.scdn.co/image/ab67616d000048513a40270e184839155e4fa8d6",
        "width" : 64
      } ],
      "name" : "Slander Passion",
      "popularity" : 0,
      "type" : "artist",
      "uri" : "spotify:artist:0kKee9azbGSGG82vUARO1O"
    }, {
      "external_urls" : {
        "spotify" : "https://open.spotify.com/artist/2hKVkFFYDgatUZfXK6CwGe"
      },
      "followers" : {
        "href" : null,
        "total" : 46
      },
      "genres" : [ ],
      "href" : "https://api.spotify.com/v1/artists/2hKVkFFYDgatUZfXK6CwGe",
      "id" : "2hKVkFFYDgatUZfXK6CwGe",
      "images" : [ {
        "height" : 640,
        "url" : "https://i.scdn.co/image/ab6761610000e5ebb1094c9e24289d42b88f3af5",
        "width" : 640
      }, {
        "height" : 320,
        "url" : "https://i.scdn.co/image/ab67616100005174b1094c9e24289d42b88f3af5",
        "width" : 320
      }, {
        "height" : 160,
        "url" : "https://i.scdn.co/image/ab6761610000f178b1094c9e24289d42b88f3af5",
        "width" : 160
      } ],
      "name" : "Phil Slander",
      "popularity" : 0,
      "type" : "artist",
      "uri" : "spotify:artist:2hKVkFFYDgatUZfXK6CwGe"
    }, {
      "external_urls" : {
        "spotify" : "https://open.spotify.com/artist/0DECX85Mdgy65mPJ4fOVDU"
      },
      "followers" : {
        "href" : null,
        "total" : 1
      },
      "genres" : [ ],
      "href" : "https://api.spotify.com/v1/artists/0DECX85Mdgy65mPJ4fOVDU",
      "id" : "0DECX85Mdgy65mPJ4fOVDU",
      "images" : [ {
        "height" : 640,
        "url" : "https://i.scdn.co/image/ab67616d0000b2734fed41c0122480e8ccc22953",
        "width" : 640
      }, {
        "height" : 300,
        "url" : "https://i.scdn.co/image/ab67616d00001e024fed41c0122480e8ccc22953",
        "width" : 300
      }, {
        "height" : 64,
        "url" : "https://i.scdn.co/image/ab67616d000048514fed41c0122480e8ccc22953",
        "width" : 64
      } ],
      "name" : "Gene Slanders",
      "popularity" : 0,
      "type" : "artist",
      "uri" : "spotify:artist:0DECX85Mdgy65mPJ4fOVDU"
    } ],
    "limit" : 20,
    "next" : "https://api.spotify.com/v1/search?query=+SLANDER&type=artist&market=US&offset=20&limit=20",
    "offset" : 0,
    "previous" : null,
    "total" : 43
  }
}