{
  "artists" : {
    "href" : "https://api.spotify.com/v1/search?query=+Yola&type=artist&market=US&offset=0&limit=20",
    "items" : [ {
      "external_urls" : {
        "spotify" : "https://open.spotify.com/artist/2gqMBdyddvN82dzZt4ZF14"
      },
      "followers" : {
        "href" : null,
        "total" : 108010
      },
      "genres" : [ "black americana", "folk", "new americana", "uk americana" ],
      "href" : "https://api.spotify.com/v1/artists/2gqMBdyddvN82dzZt4ZF14",
      "id" : "2gqMBdyddvN82dzZt4ZF14",
      "images" : [ {
        "height" : 640,
        "url" : "https://i.scdn.co/image/ab6761610000e5ebcd998f4b3606147682781c67",
        "width" : 640
      }, {
        "height" : 320,
        "url" : "https://i.scdn.co/image/ab67616100005174cd998f4b3606147682781c67",
        "width" : 320
      }, {
        "height" : 160,
        "url" : "https://i.scdn.co/image/ab6761610000f178cd998f4b3606147682781c67",
        "width" : 160
      } ],
      "name" : "Yola",
      "popularity" : 58,
      "type" : "artist",
      "uri" : "spotify:artist:2gqMBdyddvN82dzZt4ZF14"
    }, {
      "external_urls" : {
        "spotify" : "https://open.spotify.com/artist/47opbYEKDjXnRk9uLscp11"
      },
      "followers" : {
        "href" : null,
        "total" : 557377
      },
      "genres" : [ "gospel", "gospel r&b" ],
      "href" : "https://api.spotify.com/v1/artists/47opbYEKDjXnRk9uLscp11",
      "id" : "47opbYEKDjXnRk9uLscp11",
      "images" : [ {
        "height" : 1235,
        "url" : "https://i.scdn.co/image/135b0569f138defcf034d88942380b066be5dd12",
        "width" : 1000
      }, {
        "height" : 790,
        "url" : "https://i.scdn.co/image/79914bdaf5a83f1576ea5c9104c078ea5cc47192",
        "width" : 640
      }, {
        "height" : 247,
        "url" : "https://i.scdn.co/image/44f5cb1f4a8736a36f1061655fd61314c81544ce",
        "width" : 200
      }, {
        "height" : 79,
        "url" : "https://i.scdn.co/image/b0b54f35ac5320d1cafdf9c5e3f31734feef46d8",
        "width" : 64
      } ],
      "name" : "Yolanda Adams",
      "popularity" : 53,
      "type" : "artist",
      "uri" : "spotify:artist:47opbYEKDjXnRk9uLscp11"
    }, {
      "external_urls" : {
        "spotify" : "https://open.spotify.com/artist/4KkHjCe8ouh8C2P9LPoD4F"
      },
      "followers" : {
        "href" : null,
        "total" : 38565
      },
      "genres" : [ "australian dance", "australian house", "bass house" ],
      "href" : "https://api.spotify.com/v1/artists/4KkHjCe8ouh8C2P9LPoD4F",
      "id" : "4KkHjCe8ouh8C2P9LPoD4F",
      "images" : [ {
        "height" : 640,
        "url" : "https://i.scdn.co/image/ab6761610000e5ebb5e11c917bd598941f221577",
        "width" : 640
      }, {
        "height" : 320,
        "url" : "https://i.scdn.co/image/ab67616100005174b5e11c917bd598941f221577",
        "width" : 320
      }, {
        "height" : 160,
        "url" : "https://i.scdn.co/image/ab6761610000f178b5e11c917bd598941f221577",
        "width" : 160
      } ],
      "name" : "Yolanda Be Cool",
      "popularity" : 56,
      "type" : "artist",
      "uri" : "spotify:artist:4KkHjCe8ouh8C2P9LPoD4F"
    }, {
      "external_urls" : {
        "spotify" : "https://open.spotify.com/artist/0QdXxfTxlrbEQSY6FaxqaC"
      },
      "followers" : {
        "href" : null,
        "total" : 156930
      },
      "genres" : [ "ranchera" ],
      "href" : "https://api.spotify.com/v1/artists/0QdXxfTxlrbEQSY6FaxqaC",
      "id" : "0QdXxfTxlrbEQSY6FaxqaC",
      "images" : [ {
        "height" : 640,
        "url" : "https://i.scdn.co/image/ab67616d0000b273e4bae940cd07e2297bbbcc23",
        "width" : 640
      }, {
        "height" : 300,
        "url" : "https://i.scdn.co/image/ab67616d00001e02e4bae940cd07e2297bbbcc23",
        "width" : 300
      }, {
        "height" : 64,
        "url" : "https://i.scdn.co/image/ab67616d00004851e4bae940cd07e2297bbbcc23",
        "width" : 64
      } ],
      "name" : "Yolanda Del Rio",
      "popularity" : 49,
      "type" : "artist",
      "uri" : "spotify:artist:0QdXxfTxlrbEQSY6FaxqaC"
    }, {
      "external_urls" : {
        "spotify" : "https://open.spotify.com/artist/6dw27BemLdsVQZ2cCFy2y8"
      },
      "followers" : {
        "href" : null,
        "total" : 8365
      },
      "genres" : [ "banda" ],
      "href" : "https://api.spotify.com/v1/artists/6dw27BemLdsVQZ2cCFy2y8",
      "id" : "6dw27BemLdsVQZ2cCFy2y8",
      "images" : [ {
        "height" : 640,
        "url" : "https://i.scdn.co/image/ab67616d0000b2739113cb687d55894494c772a3",
        "width" : 640
      }, {
        "height" : 300,
        "url" : "https://i.scdn.co/image/ab67616d00001e029113cb687d55894494c772a3",
        "width" : 300
      }, {
        "height" : 64,
        "url" : "https://i.scdn.co/image/ab67616d000048519113cb687d55894494c772a3",
        "width" : 64
      } ],
      "name" : "Yolanda Pérez",
      "popularity" : 38,
      "type" : "artist",
      "uri" : "spotify:artist:6dw27BemLdsVQZ2cCFy2y8"
    }, {
      "external_urls" : {
        "spotify" : "https://open.spotify.com/artist/3pnHEUKevBqj5yqYBIvVs6"
      },
      "followers" : {
        "href" : null,
        "total" : 8851
      },
      "genres" : [ "philly drill", "philly rap" ],
      "href" : "https://api.spotify.com/v1/artists/3pnHEUKevBqj5yqYBIvVs6",
      "id" : "3pnHEUKevBqj5yqYBIvVs6",
      "images" : [ {
        "height" : 640,
        "url" : "https://i.scdn.co/image/ab6761610000e5ebd7fb3be28830f113f282fcae",
        "width" : 640
      }, {
        "height" : 320,
        "url" : "https://i.scdn.co/image/ab67616100005174d7fb3be28830f113f282fcae",
        "width" : 320
      }, {
        "height" : 160,
        "url" : "https://i.scdn.co/image/ab6761610000f178d7fb3be28830f113f282fcae",
        "width" : 160
      } ],
      "name" : "Yak Yola",
      "popularity" : 41,
      "type" : "artist",
      "uri" : "spotify:artist:3pnHEUKevBqj5yqYBIvVs6"
    }, {
      "external_urls" : {
        "spotify" : "https://open.spotify.com/artist/2C7CFg9ICmbrmuJBkkkBmZ"
      },
      "followers" : {
        "href" : null,
        "total" : 36745
      },
      "genres" : [ "puerto rican pop" ],
      "href" : "https://api.spotify.com/v1/artists/2C7CFg9ICmbrmuJBkkkBmZ",
      "id" : "2C7CFg9ICmbrmuJBkkkBmZ",
      "images" : [ {
        "height" : 640,
        "url" : "https://i.scdn.co/image/ab6761610000e5eb9831bcbc930cb639ddb069df",
        "width" : 640
      }, {
        "height" : 320,
        "url" : "https://i.scdn.co/image/ab676161000051749831bcbc930cb639ddb069df",
        "width" : 320
      }, {
        "height" : 160,
        "url" : "https://i.scdn.co/image/ab6761610000f1789831bcbc930cb639ddb069df",
        "width" : 160
      } ],
      "name" : "Yolandita Monge",
      "popularity" : 35,
      "type" : "artist",
      "uri" : "spotify:artist:2C7CFg9ICmbrmuJBkkkBmZ"
    }, {
      "external_urls" : {
        "spotify" : "https://open.spotify.com/artist/7gvpJzKMMMQsdLqWF4SKs7"
      },
      "followers" : {
        "href" : null,
        "total" : 957
      },
      "genres" : [ ],
      "href" : "https://api.spotify.com/v1/artists/7gvpJzKMMMQsdLqWF4SKs7",
      "id" : "7gvpJzKMMMQsdLqWF4SKs7",
      "images" : [ {
        "height" : 640,
        "url" : "https://i.scdn.co/image/ab6761610000e5ebd3a4d62e97285dadcb0ecfe2",
        "width" : 640
      }, {
        "height" : 320,
        "url" : "https://i.scdn.co/image/ab67616100005174d3a4d62e97285dadcb0ecfe2",
        "width" : 320
      }, {
        "height" : 160,
        "url" : "https://i.scdn.co/image/ab6761610000f178d3a4d62e97285dadcb0ecfe2",
        "width" : 160
      } ],
      "name" : "Yola Recoba",
      "popularity" : 47,
      "type" : "artist",
      "uri" : "spotify:artist:7gvpJzKMMMQsdLqWF4SKs7"
    }, {
      "external_urls" : {
        "spotify" : "https://open.spotify.com/artist/2uzxtSTeyBhBH3AHttOrFc"
      },
      "followers" : {
        "href" : null,
        "total" : 1
      },
      "genres" : [ ],
      "href" : "https://api.spotify.com/v1/artists/2uzxtSTeyBhBH3AHttOrFc",
      "id" : "2uzxtSTeyBhBH3AHttOrFc",
      "images" : [ {
        "height" : 640,
        "url" : "https://i.scdn.co/image/ab67616d0000b273086371a46532b0a9c2041c9b",
        "width" : 640
      }, {
        "height" : 300,
        "url" : "https://i.scdn.co/image/ab67616d00001e02086371a46532b0a9c2041c9b",
        "width" : 300
      }, {
        "height" : 64,
        "url" : "https://i.scdn.co/image/ab67616d00004851086371a46532b0a9c2041c9b",
        "width" : 64
      } ],
      "name" : "Yolanda Berger",
      "popularity" : 21,
      "type" : "artist",
      "uri" : "spotify:artist:2uzxtSTeyBhBH3AHttOrFc"
    }, {
      "external_urls" : {
        "spotify" : "https://open.spotify.com/artist/7K9m2L3yA4NAlecdvbAE9d"
      },
      "followers" : {
        "href" : null,
        "total" : 2097
      },
      "genres" : [ "atl hip hop" ],
      "href" : "https://api.spotify.com/v1/artists/7K9m2L3yA4NAlecdvbAE9d",
      "id" : "7K9m2L3yA4NAlecdvbAE9d",
      "images" : [ {
        "height" : 640,
        "url" : "https://i.scdn.co/image/ab67616d0000b273fa7833825411597b3266010c",
        "width" : 640
      }, {
        "height" : 300,
        "url" : "https://i.scdn.co/image/ab67616d00001e02fa7833825411597b3266010c",
        "width" : 300
      }, {
        "height" : 64,
        "url" : "https://i.scdn.co/image/ab67616d00004851fa7833825411597b3266010c",
        "width" : 64
      } ],
      "name" : "DG Yola",
      "popularity" : 29,
      "type" : "artist",
      "uri" : "spotify:artist:7K9m2L3yA4NAlecdvbAE9d"
    }, {
      "external_urls" : {
        "spotify" : "https://open.spotify.com/artist/6cDaoaokVtlxKqG1Gi7lYz"
      },
      "followers" : {
        "href" : null,
        "total" : 937
      },
      "genres" : [ "classical harp", "harp" ],
      "href" : "https://api.spotify.com/v1/artists/6cDaoaokVtlxKqG1Gi7lYz",
      "id" : "6cDaoaokVtlxKqG1Gi7lYz",
      "images" : [ {
        "height" : 640,
        "url" : "https://i.scdn.co/image/ab6761610000e5eb7fb1e4050ba25db4dfb68d59",
        "width" : 640
      }, {
        "height" : 320,
        "url" : "https://i.scdn.co/image/ab676161000051747fb1e4050ba25db4dfb68d59",
        "width" : 320
      }, {
        "height" : 160,
        "url" : "https://i.scdn.co/image/ab6761610000f1787fb1e4050ba25db4dfb68d59",
        "width" : 160
      } ],
      "name" : "Yolanda Kondonassis",
      "popularity" : 22,
      "type" : "artist",
      "uri" : "spotify:artist:6cDaoaokVtlxKqG1Gi7lYz"
    }, {
      "external_urls" : {
        "spotify" : "https://open.spotify.com/artist/2LC1OAYPFynortbLVutvdp"
      },
      "followers" : {
        "href" : null,
        "total" : 6129
      },
      "genres" : [ "musica para ninos" ],
      "href" : "https://api.spotify.com/v1/artists/2LC1OAYPFynortbLVutvdp",
      "id" : "2LC1OAYPFynortbLVutvdp",
      "images" : [ {
        "height" : 640,
        "url" : "https://i.scdn.co/image/ab67616d0000b273f905f3fc40ee515ccfe8d8a3",
        "width" : 640
      }, {
        "height" : 300,
        "url" : "https://i.scdn.co/image/ab67616d00001e02f905f3fc40ee515ccfe8d8a3",
        "width" : 300
      }, {
        "height" : 64,
        "url" : "https://i.scdn.co/image/ab67616d00004851f905f3fc40ee515ccfe8d8a3",
        "width" : 64
      } ],
      "name" : "Yola Polastri",
      "popularity" : 32,
      "type" : "artist",
      "uri" : "spotify:artist:2LC1OAYPFynortbLVutvdp"
    }, {
      "external_urls" : {
        "spotify" : "https://open.spotify.com/artist/630xaQAhB8CejPGdKPQnNp"
      },
      "followers" : {
        "href" : null,
        "total" : 340
      },
      "genres" : [ ],
      "href" : "https://api.spotify.com/v1/artists/630xaQAhB8CejPGdKPQnNp",
      "id" : "630xaQAhB8CejPGdKPQnNp",
      "images" : [ {
        "height" : 640,
        "url" : "https://i.scdn.co/image/ab67616d0000b27368789bb471cbdbf142acb67e",
        "width" : 640
      }, {
        "height" : 300,
        "url" : "https://i.scdn.co/image/ab67616d00001e0268789bb471cbdbf142acb67e",
        "width" : 300
      }, {
        "height" : 64,
        "url" : "https://i.scdn.co/image/ab67616d0000485168789bb471cbdbf142acb67e",
        "width" : 64
      } ],
      "name" : "D.G. Yola",
      "popularity" : 24,
      "type" : "artist",
      "uri" : "spotify:artist:630xaQAhB8CejPGdKPQnNp"
    }, {
      "external_urls" : {
        "spotify" : "https://open.spotify.com/artist/3un0tU29JAVSMXZDCNXAoW"
      },
      "followers" : {
        "href" : null,
        "total" : 181
      },
      "genres" : [ ],
      "href" : "https://api.spotify.com/v1/artists/3un0tU29JAVSMXZDCNXAoW",
      "id" : "3un0tU29JAVSMXZDCNXAoW",
      "images" : [ {
        "height" : 640,
        "url" : "https://i.scdn.co/image/ab67616d0000b273415c39054771ab79fc921155",
        "width" : 640
      }, {
        "height" : 300,
        "url" : "https://i.scdn.co/image/ab67616d00001e02415c39054771ab79fc921155",
        "width" : 300
      }, {
        "height" : 64,
        "url" : "https://i.scdn.co/image/ab67616d00004851415c39054771ab79fc921155",
        "width" : 64
      } ],
      "name" : "Yolanda Lopez",
      "popularity" : 18,
      "type" : "artist",
      "uri" : "spotify:artist:3un0tU29JAVSMXZDCNXAoW"
    }, {
      "external_urls" : {
        "spotify" : "https://open.spotify.com/artist/4WyKPazxbqOYXaNhpZKkX1"
      },
      "followers" : {
        "href" : null,
        "total" : 6136
      },
      "genres" : [ ],
      "href" : "https://api.spotify.com/v1/artists/4WyKPazxbqOYXaNhpZKkX1",
      "id" : "4WyKPazxbqOYXaNhpZKkX1",
      "images" : [ {
        "height" : 640,
        "url" : "https://i.scdn.co/image/ab67616d0000b273a342c16eb5000d7b2fd4c24d",
        "width" : 640
      }, {
        "height" : 300,
        "url" : "https://i.scdn.co/image/ab67616d00001e02a342c16eb5000d7b2fd4c24d",
        "width" : 300
      }, {
        "height" : 64,
        "url" : "https://i.scdn.co/image/ab67616d00004851a342c16eb5000d7b2fd4c24d",
        "width" : 64
      } ],
      "name" : "A1 Yolaman",
      "popularity" : 27,
      "type" : "artist",
      "uri" : "spotify:artist:4WyKPazxbqOYXaNhpZKkX1"
    }, {
      "external_urls" : {
        "spotify" : "https://open.spotify.com/artist/2wFLPxEnexiTiMdw2SrBF3"
      },
      "followers" : {
        "href" : null,
        "total" : 2
      },
      "genres" : [ ],
      "href" : "https://api.spotify.com/v1/artists/2wFLPxEnexiTiMdw2SrBF3",
      "id" : "2wFLPxEnexiTiMdw2SrBF3",
      "images" : [ ],
      "name" : "Yolanda Smilez",
      "popularity" : 15,
      "type" : "artist",
      "uri" : "spotify:artist:2wFLPxEnexiTiMdw2SrBF3"
    }, {
      "external_urls" : {
        "spotify" : "https://open.spotify.com/artist/06Q2ILOz7IadxwTslpA6KE"
      },
      "followers" : {
        "href" : null,
        "total" : 199
      },
      "genres" : [ ],
      "href" : "https://api.spotify.com/v1/artists/06Q2ILOz7IadxwTslpA6KE",
      "id" : "06Q2ILOz7IadxwTslpA6KE",
      "images" : [ {
        "height" : 640,
        "url" : "https://i.scdn.co/image/ab67616d0000b273f695b2f31903e8808415342d",
        "width" : 640
      }, {
        "height" : 300,
        "url" : "https://i.scdn.co/image/ab67616d00001e02f695b2f31903e8808415342d",
        "width" : 300
      }, {
        "height" : 64,
        "url" : "https://i.scdn.co/image/ab67616d00004851f695b2f31903e8808415342d",
        "width" : 64
      } ],
      "name" : "Yolanda \"Yoli\" Deberry",
      "popularity" : 14,
      "type" : "artist",
      "uri" : "spotify:artist:06Q2ILOz7IadxwTslpA6KE"
    }, {
      "external_urls" : {
        "spotify" : "https://open.spotify.com/artist/3RAcfMK8AOdXDGe5IM4CV8"
      },
      "followers" : {
        "href" : null,
        "total" : 24
      },
      "genres" : [ ],
      "href" : "https://api.spotify.com/v1/artists/3RAcfMK8AOdXDGe5IM4CV8",
      "id" : "3RAcfMK8AOdXDGe5IM4CV8",
      "images" : [ {
        "height" : 640,
        "url" : "https://i.scdn.co/image/ab67616d0000b2734a9786c485a9f1628e5e7cc2",
        "width" : 640
      }, {
        "height" : 300,
        "url" : "https://i.scdn.co/image/ab67616d00001e024a9786c485a9f1628e5e7cc2",
        "width" : 300
      }, {
        "height" : 64,
        "url" : "https://i.scdn.co/image/ab67616d000048514a9786c485a9f1628e5e7cc2",
        "width" : 64
      } ],
      "name" : "Yolanda Streep",
      "popularity" : 23,
      "type" : "artist",
      "uri" : "spotify:artist:3RAcfMK8AOdXDGe5IM4CV8"
    }, {
      "external_urls" : {
        "spotify" : "https://open.spotify.com/artist/4VGGxAkrs07Y4vyCdiaxq0"
      },
      "followers" : {
        "href" : null,
        "total" : 3445
      },
      "genres" : [ "jazz saxophone" ],
      "href" : "https://api.spotify.com/v1/artists/4VGGxAkrs07Y4vyCdiaxq0",
      "id" : "4VGGxAkrs07Y4vyCdiaxq0",
      "images" : [ {
        "height" : 640,
        "url" : "https://i.scdn.co/image/ab6761610000e5eb8c431dfc55b77b3c32056bdb",
        "width" : 640
      }, {
        "height" : 320,
        "url" : "https://i.scdn.co/image/ab676161000051748c431dfc55b77b3c32056bdb",
        "width" : 320
      }, {
        "height" : 160,
        "url" : "https://i.scdn.co/image/ab6761610000f1788c431dfc55b77b3c32056bdb",
        "width" : 160
      } ],
      "name" : "YolanDa Brown",
      "popularity" : 24,
      "type" : "artist",
      "uri" : "spotify:artist:4VGGxAkrs07Y4vyCdiaxq0"
    }, {
      "external_urls" : {
        "spotify" : "https://open.spotify.com/artist/2lXUVHEPWMqeYtKXhb1tm9"
      },
      "followers" : {
        "href" : null,
        "total" : 33534
      },
      "genres" : [ "kizomba", "musica angolana", "semba" ],
      "href" : "https://api.spotify.com/v1/artists/2lXUVHEPWMqeYtKXhb1tm9",
      "id" : "2lXUVHEPWMqeYtKXhb1tm9",
      "images" : [ {
        "height" : 640,
        "url" : "https://i.scdn.co/image/ab6761610000e5ebe85f4b156767d58888daa110",
        "width" : 640
      }, {
        "height" : 320,
        "url" : "https://i.scdn.co/image/ab67616100005174e85f4b156767d58888daa110",
        "width" : 320
      }, {
        "height" : 160,
        "url" : "https://i.scdn.co/image/ab6761610000f178e85f4b156767d58888daa110",
        "width" : 160
      } ],
      "name" : "Yola Semedo",
      "popularity" : 32,
      "type" : "artist",
      "uri" : "spotify:artist:2lXUVHEPWMqeYtKXhb1tm9"
    } ],
    "limit" : 20,
    "next" : "https://api.spotify.com/v1/search?query=+Yola&type=artist&market=US&offset=20&limit=20",
    "offset" : 0,
    "previous" : null,
    "total" : 1041
  }
}