{
  "artists" : {
    "href" : "https://api.spotify.com/v1/search?query=ATB&type=artist&market=US&offset=0&limit=20",
    "items" : [ {
      "external_urls" : {
        "spotify" : "https://open.spotify.com/artist/7jZM5w05mGhw6wTB1okhD9"
      },
      "followers" : {
        "href" : null,
        "total" : 328476
      },
      "genres" : [ "german dance", "german techno", "german trance", "trance" ],
      "href" : "https://api.spotify.com/v1/artists/7jZM5w05mGhw6wTB1okhD9",
      "id" : "7jZM5w05mGhw6wTB1okhD9",
      "images" : [ {
        "height" : 640,
        "url" : "https://i.scdn.co/image/ab6761610000e5eb15138758778e007bd8fac97c",
        "width" : 640
      }, {
        "height" : 320,
        "url" : "https://i.scdn.co/image/ab6761610000517415138758778e007bd8fac97c",
        "width" : 320
      }, {
        "height" : 160,
        "url" : "https://i.scdn.co/image/ab6761610000f17815138758778e007bd8fac97c",
        "width" : 160
      } ],
      "name" : "ATB",
      "popularity" : 71,
      "type" : "artist",
      "uri" : "spotify:artist:7jZM5w05mGhw6wTB1okhD9"
    }, {
      "external_urls" : {
        "spotify" : "https://open.spotify.com/artist/5mgqYTU6dhKlEdi7DOy4uU"
      },
      "followers" : {
        "href" : null,
        "total" : 271151
      },
      "genres" : [ "latin", "latin hip hop", "perreo", "reggaeton", "reggaeton flow", "trap latino" ],
      "href" : "https://api.spotify.com/v1/artists/5mgqYTU6dhKlEdi7DOy4uU",
      "id" : "5mgqYTU6dhKlEdi7DOy4uU",
      "images" : [ {
        "height" : 640,
        "url" : "https://i.scdn.co/image/ab6761610000e5eba504b22dcb060d9ddf9e9944",
        "width" : 640
      }, {
        "height" : 320,
        "url" : "https://i.scdn.co/image/ab67616100005174a504b22dcb060d9ddf9e9944",
        "width" : 320
      }, {
        "height" : 160,
        "url" : "https://i.scdn.co/image/ab6761610000f178a504b22dcb060d9ddf9e9944",
        "width" : 160
      } ],
      "name" : "Alberto Stylee",
      "popularity" : 62,
      "type" : "artist",
      "uri" : "spotify:artist:5mgqYTU6dhKlEdi7DOy4uU"
    }, {
      "external_urls" : {
        "spotify" : "https://open.spotify.com/artist/6Z71RNzGDUpO3Q3Isk7evD"
      },
      "followers" : {
        "href" : null,
        "total" : 772
      },
      "genres" : [ ],
      "href" : "https://api.spotify.com/v1/artists/6Z71RNzGDUpO3Q3Isk7evD",
      "id" : "6Z71RNzGDUpO3Q3Isk7evD",
      "images" : [ {
        "height" : 640,
        "url" : "https://i.scdn.co/image/ab67616d0000b2736c7877c077f5365a125ee5e3",
        "width" : 640
      }, {
        "height" : 300,
        "url" : "https://i.scdn.co/image/ab67616d00001e026c7877c077f5365a125ee5e3",
        "width" : 300
      }, {
        "height" : 64,
        "url" : "https://i.scdn.co/image/ab67616d000048516c7877c077f5365a125ee5e3",
        "width" : 64
      } ],
      "name" : "Fardin Khal՝atbari",
      "popularity" : 21,
      "type" : "artist",
      "uri" : "spotify:artist:6Z71RNzGDUpO3Q3Isk7evD"
    }, {
      "external_urls" : {
        "spotify" : "https://open.spotify.com/artist/44ALbI7qeujfi1BCXhMvfT"
      },
      "followers" : {
        "href" : null,
        "total" : 14
      },
      "genres" : [ ],
      "href" : "https://api.spotify.com/v1/artists/44ALbI7qeujfi1BCXhMvfT",
      "id" : "44ALbI7qeujfi1BCXhMvfT",
      "images" : [ {
        "height" : 640,
        "url" : "https://i.scdn.co/image/ab6761610000e5eb6b9db6112b5ed5b360f33552",
        "width" : 640
      }, {
        "height" : 320,
        "url" : "https://i.scdn.co/image/ab676161000051746b9db6112b5ed5b360f33552",
        "width" : 320
      }, {
        "height" : 160,
        "url" : "https://i.scdn.co/image/ab6761610000f1786b9db6112b5ed5b360f33552",
        "width" : 160
      } ],
      "name" : "ATB Izaiah",
      "popularity" : 0,
      "type" : "artist",
      "uri" : "spotify:artist:44ALbI7qeujfi1BCXhMvfT"
    }, {
      "external_urls" : {
        "spotify" : "https://open.spotify.com/artist/74RET4rCZPTGzhsLjD0i3g"
      },
      "followers" : {
        "href" : null,
        "total" : 57531
      },
      "genres" : [ "dubstep", "electronic trap" ],
      "href" : "https://api.spotify.com/v1/artists/74RET4rCZPTGzhsLjD0i3g",
      "id" : "74RET4rCZPTGzhsLjD0i3g",
      "images" : [ {
        "height" : 640,
        "url" : "https://i.scdn.co/image/ab6761610000e5eb6c79c9bcb0e73ad137560a6c",
        "width" : 640
      }, {
        "height" : 320,
        "url" : "https://i.scdn.co/image/ab676161000051746c79c9bcb0e73ad137560a6c",
        "width" : 320
      }, {
        "height" : 160,
        "url" : "https://i.scdn.co/image/ab6761610000f1786c79c9bcb0e73ad137560a6c",
        "width" : 160
      } ],
      "name" : "ATLiens",
      "popularity" : 49,
      "type" : "artist",
      "uri" : "spotify:artist:74RET4rCZPTGzhsLjD0i3g"
    }, {
      "external_urls" : {
        "spotify" : "https://open.spotify.com/artist/3h2WFTJjnIUWNhsEB2KcTW"
      },
      "followers" : {
        "href" : null,
        "total" : 4
      },
      "genres" : [ ],
      "href" : "https://api.spotify.com/v1/artists/3h2WFTJjnIUWNhsEB2KcTW",
      "id" : "3h2WFTJjnIUWNhsEB2KcTW",
      "images" : [ {
        "height" : 640,
        "url" : "https://i.scdn.co/image/ab67616d0000b27359366ed0832e7c415e52b788",
        "width" : 640
      }, {
        "height" : 300,
        "url" : "https://i.scdn.co/image/ab67616d00001e0259366ed0832e7c415e52b788",
        "width" : 300
      }, {
        "height" : 64,
        "url" : "https://i.scdn.co/image/ab67616d0000485159366ed0832e7c415e52b788",
        "width" : 64
      } ],
      "name" : "Shrine to ATB",
      "popularity" : 8,
      "type" : "artist",
      "uri" : "spotify:artist:3h2WFTJjnIUWNhsEB2KcTW"
    }, {
      "external_urls" : {
        "spotify" : "https://open.spotify.com/artist/4W9Jc6FQA75LDWDL11eiIe"
      },
      "followers" : {
        "href" : null,
        "total" : 18
      },
      "genres" : [ ],
      "href" : "https://api.spotify.com/v1/artists/4W9Jc6FQA75LDWDL11eiIe",
      "id" : "4W9Jc6FQA75LDWDL11eiIe",
      "images" : [ ],
      "name" : "ATB",
      "popularity" : 9,
      "type" : "artist",
      "uri" : "spotify:artist:4W9Jc6FQA75LDWDL11eiIe"
    }, {
      "external_urls" : {
        "spotify" : "https://open.spotify.com/artist/2ZRrPOjBIWoKK5rHedLijj"
      },
      "followers" : {
        "href" : null,
        "total" : 1532872
      },
      "genres" : [ "classic bollywood", "desi pop", "filmi", "modern bollywood" ],
      "href" : "https://api.spotify.com/v1/artists/2ZRrPOjBIWoKK5rHedLijj",
      "id" : "2ZRrPOjBIWoKK5rHedLijj",
      "images" : [ {
        "height" : 640,
        "url" : "https://i.scdn.co/image/ab67616d0000b273d736fc28a7debb454b0ae3fd",
        "width" : 640
      }, {
        "height" : 300,
        "url" : "https://i.scdn.co/image/ab67616d00001e02d736fc28a7debb454b0ae3fd",
        "width" : 300
      }, {
        "height" : 64,
        "url" : "https://i.scdn.co/image/ab67616d00004851d736fc28a7debb454b0ae3fd",
        "width" : 64
      } ],
      "name" : "Abhijeet",
      "popularity" : 66,
      "type" : "artist",
      "uri" : "spotify:artist:2ZRrPOjBIWoKK5rHedLijj"
    }, {
      "external_urls" : {
        "spotify" : "https://open.spotify.com/artist/5uhUYWSz1nychB2vQk1mTj"
      },
      "followers" : {
        "href" : null,
        "total" : 2
      },
      "genres" : [ ],
      "href" : "https://api.spotify.com/v1/artists/5uhUYWSz1nychB2vQk1mTj",
      "id" : "5uhUYWSz1nychB2vQk1mTj",
      "images" : [ {
        "height" : 640,
        "url" : "https://i.scdn.co/image/ab67616d0000b273a87a7be41eb6c49e07bb159e",
        "width" : 640
      }, {
        "height" : 300,
        "url" : "https://i.scdn.co/image/ab67616d00001e02a87a7be41eb6c49e07bb159e",
        "width" : 300
      }, {
        "height" : 64,
        "url" : "https://i.scdn.co/image/ab67616d00004851a87a7be41eb6c49e07bb159e",
        "width" : 64
      } ],
      "name" : "ATB",
      "popularity" : 0,
      "type" : "artist",
      "uri" : "spotify:artist:5uhUYWSz1nychB2vQk1mTj"
    }, {
      "external_urls" : {
        "spotify" : "https://open.spotify.com/artist/756SpSMGgGeQGai4a4lXVV"
      },
      "followers" : {
        "href" : null,
        "total" : 35
      },
      "genres" : [ ],
      "href" : "https://api.spotify.com/v1/artists/756SpSMGgGeQGai4a4lXVV",
      "id" : "756SpSMGgGeQGai4a4lXVV",
      "images" : [ {
        "height" : 640,
        "url" : "https://i.scdn.co/image/ab67616d0000b27303a56a6575d5823d4cfd5219",
        "width" : 640
      }, {
        "height" : 300,
        "url" : "https://i.scdn.co/image/ab67616d00001e0203a56a6575d5823d4cfd5219",
        "width" : 300
      }, {
        "height" : 64,
        "url" : "https://i.scdn.co/image/ab67616d0000485103a56a6575d5823d4cfd5219",
        "width" : 64
      } ],
      "name" : "ATBOs",
      "popularity" : 11,
      "type" : "artist",
      "uri" : "spotify:artist:756SpSMGgGeQGai4a4lXVV"
    }, {
      "external_urls" : {
        "spotify" : "https://open.spotify.com/artist/1vUi2O1VBd4pylp0x05wNr"
      },
      "followers" : {
        "href" : null,
        "total" : 11
      },
      "genres" : [ ],
      "href" : "https://api.spotify.com/v1/artists/1vUi2O1VBd4pylp0x05wNr",
      "id" : "1vUi2O1VBd4pylp0x05wNr",
      "images" : [ ],
      "name" : "ATB",
      "popularity" : 0,
      "type" : "artist",
      "uri" : "spotify:artist:1vUi2O1VBd4pylp0x05wNr"
    }, {
      "external_urls" : {
        "spotify" : "https://open.spotify.com/artist/2cjMFHfm5Eh06ytr9RrjwY"
      },
      "followers" : {
        "href" : null,
        "total" : 222
      },
      "genres" : [ ],
      "href" : "https://api.spotify.com/v1/artists/2cjMFHfm5Eh06ytr9RrjwY",
      "id" : "2cjMFHfm5Eh06ytr9RrjwY",
      "images" : [ {
        "height" : 640,
        "url" : "https://i.scdn.co/image/ab67616d0000b27327b3462c0120afe3fe7448dc",
        "width" : 640
      }, {
        "height" : 300,
        "url" : "https://i.scdn.co/image/ab67616d00001e0227b3462c0120afe3fe7448dc",
        "width" : 300
      }, {
        "height" : 64,
        "url" : "https://i.scdn.co/image/ab67616d0000485127b3462c0120afe3fe7448dc",
        "width" : 64
      } ],
      "name" : "Atb",
      "popularity" : 19,
      "type" : "artist",
      "uri" : "spotify:artist:2cjMFHfm5Eh06ytr9RrjwY"
    }, {
      "external_urls" : {
        "spotify" : "https://open.spotify.com/artist/4YJoZ4lV00KK9L9rMz6Pt2"
      },
      "followers" : {
        "href" : null,
        "total" : 0
      },
      "genres" : [ ],
      "href" : "https://api.spotify.com/v1/artists/4YJoZ4lV00KK9L9rMz6Pt2",
      "id" : "4YJoZ4lV00KK9L9rMz6Pt2",
      "images" : [ {
        "height" : 640,
        "url" : "https://i.scdn.co/image/ab67616d0000b2734ad0f0b745f6fa211e0cb891",
        "width" : 640
      }, {
        "height" : 300,
        "url" : "https://i.scdn.co/image/ab67616d00001e024ad0f0b745f6fa211e0cb891",
        "width" : 300
      }, {
        "height" : 64,
        "url" : "https://i.scdn.co/image/ab67616d000048514ad0f0b745f6fa211e0cb891",
        "width" : 64
      } ],
      "name" : "ATB",
      "popularity" : 0,
      "type" : "artist",
      "uri" : "spotify:artist:4YJoZ4lV00KK9L9rMz6Pt2"
    }, {
      "external_urls" : {
        "spotify" : "https://open.spotify.com/artist/3oIZA1Rc4dYKvWXSvKrAAL"
      },
      "followers" : {
        "href" : null,
        "total" : 1
      },
      "genres" : [ ],
      "href" : "https://api.spotify.com/v1/artists/3oIZA1Rc4dYKvWXSvKrAAL",
      "id" : "3oIZA1Rc4dYKvWXSvKrAAL",
      "images" : [ {
        "height" : 640,
        "url" : "https://i.scdn.co/image/ab6761610000e5eb0d9bd57c766cd78ecd99dadd",
        "width" : 640
      }, {
        "height" : 320,
        "url" : "https://i.scdn.co/image/ab676161000051740d9bd57c766cd78ecd99dadd",
        "width" : 320
      }, {
        "height" : 160,
        "url" : "https://i.scdn.co/image/ab6761610000f1780d9bd57c766cd78ecd99dadd",
        "width" : 160
      } ],
      "name" : "ATB Kuzi",
      "popularity" : 2,
      "type" : "artist",
      "uri" : "spotify:artist:3oIZA1Rc4dYKvWXSvKrAAL"
    }, {
      "external_urls" : {
        "spotify" : "https://open.spotify.com/artist/6dG1QpiKLwRVwzADXV0LIs"
      },
      "followers" : {
        "href" : null,
        "total" : 146
      },
      "genres" : [ ],
      "href" : "https://api.spotify.com/v1/artists/6dG1QpiKLwRVwzADXV0LIs",
      "id" : "6dG1QpiKLwRVwzADXV0LIs",
      "images" : [ {
        "height" : 640,
        "url" : "https://i.scdn.co/image/ab6761610000e5eb1431c2ba11a8fcca68e5815d",
        "width" : 640
      }, {
        "height" : 320,
        "url" : "https://i.scdn.co/image/ab676161000051741431c2ba11a8fcca68e5815d",
        "width" : 320
      }, {
        "height" : 160,
        "url" : "https://i.scdn.co/image/ab6761610000f1781431c2ba11a8fcca68e5815d",
        "width" : 160
      } ],
      "name" : "ATB",
      "popularity" : 0,
      "type" : "artist",
      "uri" : "spotify:artist:6dG1QpiKLwRVwzADXV0LIs"
    }, {
      "external_urls" : {
        "spotify" : "https://open.spotify.com/artist/01wau5CL3Z1vfJJWkzBkqg"
      },
      "followers" : {
        "href" : null,
        "total" : 361387
      },
      "genres" : [ "48g", "j-idol", "j-pop", "j-pop girl group" ],
      "href" : "https://api.spotify.com/v1/artists/01wau5CL3Z1vfJJWkzBkqg",
      "id" : "01wau5CL3Z1vfJJWkzBkqg",
      "images" : [ {
        "height" : 640,
        "url" : "https://i.scdn.co/image/ab6761610000e5eb7b220443e6cc8072de841bc8",
        "width" : 640
      }, {
        "height" : 320,
        "url" : "https://i.scdn.co/image/ab676161000051747b220443e6cc8072de841bc8",
        "width" : 320
      }, {
        "height" : 160,
        "url" : "https://i.scdn.co/image/ab6761610000f1787b220443e6cc8072de841bc8",
        "width" : 160
      } ],
      "name" : "AKB48",
      "popularity" : 58,
      "type" : "artist",
      "uri" : "spotify:artist:01wau5CL3Z1vfJJWkzBkqg"
    }, {
      "external_urls" : {
        "spotify" : "https://open.spotify.com/artist/1GFucWv3cyeMo4ZC56dzA3"
      },
      "followers" : {
        "href" : null,
        "total" : 133
      },
      "genres" : [ ],
      "href" : "https://api.spotify.com/v1/artists/1GFucWv3cyeMo4ZC56dzA3",
      "id" : "1GFucWv3cyeMo4ZC56dzA3",
      "images" : [ {
        "height" : 640,
        "url" : "https://i.scdn.co/image/ab67616d0000b273f88ffe57c63b016ebdb961fc",
        "width" : 640
      }, {
        "height" : 300,
        "url" : "https://i.scdn.co/image/ab67616d00001e02f88ffe57c63b016ebdb961fc",
        "width" : 300
      }, {
        "height" : 64,
        "url" : "https://i.scdn.co/image/ab67616d00004851f88ffe57c63b016ebdb961fc",
        "width" : 64
      } ],
      "name" : "ATB feat. York",
      "popularity" : 9,
      "type" : "artist",
      "uri" : "spotify:artist:1GFucWv3cyeMo4ZC56dzA3"
    }, {
      "external_urls" : {
        "spotify" : "https://open.spotify.com/artist/7bW1zSLHxDEd6Y9cyEGLXI"
      },
      "followers" : {
        "href" : null,
        "total" : 13
      },
      "genres" : [ ],
      "href" : "https://api.spotify.com/v1/artists/7bW1zSLHxDEd6Y9cyEGLXI",
      "id" : "7bW1zSLHxDEd6Y9cyEGLXI",
      "images" : [ ],
      "name" : "ATB",
      "popularity" : 0,
      "type" : "artist",
      "uri" : "spotify:artist:7bW1zSLHxDEd6Y9cyEGLXI"
    }, {
      "external_urls" : {
        "spotify" : "https://open.spotify.com/artist/42qkGNCBf12hvjXc65g24A"
      },
      "followers" : {
        "href" : null,
        "total" : 2
      },
      "genres" : [ ],
      "href" : "https://api.spotify.com/v1/artists/42qkGNCBf12hvjXc65g24A",
      "id" : "42qkGNCBf12hvjXc65g24A",
      "images" : [ ],
      "name" : "Atbrehant",
      "popularity" : 0,
      "type" : "artist",
      "uri" : "spotify:artist:42qkGNCBf12hvjXc65g24A"
    }, {
      "external_urls" : {
        "spotify" : "https://open.spotify.com/artist/37Lnc9Kstj54teLqL9G8dS"
      },
      "followers" : {
        "href" : null,
        "total" : 0
      },
      "genres" : [ ],
      "href" : "https://api.spotify.com/v1/artists/37Lnc9Kstj54teLqL9G8dS",
      "id" : "37Lnc9Kstj54teLqL9G8dS",
      "images" : [ {
        "height" : 640,
        "url" : "https://i.scdn.co/image/ab67616d0000b273974197ba992c4a9b644f9ae8",
        "width" : 640
      }, {
        "height" : 300,
        "url" : "https://i.scdn.co/image/ab67616d00001e02974197ba992c4a9b644f9ae8",
        "width" : 300
      }, {
        "height" : 64,
        "url" : "https://i.scdn.co/image/ab67616d00004851974197ba992c4a9b644f9ae8",
        "width" : 64
      } ],
      "name" : "ATB",
      "popularity" : 0,
      "type" : "artist",
      "uri" : "spotify:artist:37Lnc9Kstj54teLqL9G8dS"
    } ],
    "limit" : 20,
    "next" : "https://api.spotify.com/v1/search?query=ATB&type=artist&market=US&offset=20&limit=20",
    "offset" : 0,
    "previous" : null,
    "total" : 189
  }
}