{
  "artists" : {
    "href" : "https://api.spotify.com/v1/search?query=BIJOU&type=artist&market=US&offset=0&limit=20",
    "items" : [ {
      "external_urls" : {
        "spotify" : "https://open.spotify.com/artist/3abRKajGbb3kLMy9AWzfMA"
      },
      "followers" : {
        "href" : null,
        "total" : 32357
      },
      "genres" : [ "bass house", "edm", "electro house" ],
      "href" : "https://api.spotify.com/v1/artists/3abRKajGbb3kLMy9AWzfMA",
      "id" : "3abRKajGbb3kLMy9AWzfMA",
      "images" : [ {
        "height" : 640,
        "url" : "https://i.scdn.co/image/ab6761610000e5eb9c1d7bf888302111b8900f37",
        "width" : 640
      }, {
        "height" : 320,
        "url" : "https://i.scdn.co/image/ab676161000051749c1d7bf888302111b8900f37",
        "width" : 320
      }, {
        "height" : 160,
        "url" : "https://i.scdn.co/image/ab6761610000f1789c1d7bf888302111b8900f37",
        "width" : 160
      } ],
      "name" : "BIJOU",
      "popularity" : 53,
      "type" : "artist",
      "uri" : "spotify:artist:3abRKajGbb3kLMy9AWzfMA"
    }, {
      "external_urls" : {
        "spotify" : "https://open.spotify.com/artist/569eb22oPAh6r0CaVsuGto"
      },
      "followers" : {
        "href" : null,
        "total" : 1339
      },
      "genres" : [ ],
      "href" : "https://api.spotify.com/v1/artists/569eb22oPAh6r0CaVsuGto",
      "id" : "569eb22oPAh6r0CaVsuGto",
      "images" : [ {
        "height" : 640,
        "url" : "https://i.scdn.co/image/ab67616d0000b273bdd75881d7c7b07812041fce",
        "width" : 640
      }, {
        "height" : 300,
        "url" : "https://i.scdn.co/image/ab67616d00001e02bdd75881d7c7b07812041fce",
        "width" : 300
      }, {
        "height" : 64,
        "url" : "https://i.scdn.co/image/ab67616d00004851bdd75881d7c7b07812041fce",
        "width" : 64
      } ],
      "name" : "Bijou",
      "popularity" : 28,
      "type" : "artist",
      "uri" : "spotify:artist:569eb22oPAh6r0CaVsuGto"
    }, {
      "external_urls" : {
        "spotify" : "https://open.spotify.com/artist/0qtNwBJtbhGwS2OEyMEHiz"
      },
      "followers" : {
        "href" : null,
        "total" : 12
      },
      "genres" : [ ],
      "href" : "https://api.spotify.com/v1/artists/0qtNwBJtbhGwS2OEyMEHiz",
      "id" : "0qtNwBJtbhGwS2OEyMEHiz",
      "images" : [ {
        "height" : 640,
        "url" : "https://i.scdn.co/image/ab67616d0000b273ab9d01a68922bf2aff1c6f8e",
        "width" : 640
      }, {
        "height" : 300,
        "url" : "https://i.scdn.co/image/ab67616d00001e02ab9d01a68922bf2aff1c6f8e",
        "width" : 300
      }, {
        "height" : 64,
        "url" : "https://i.scdn.co/image/ab67616d00004851ab9d01a68922bf2aff1c6f8e",
        "width" : 64
      } ],
      "name" : "BIJOU",
      "popularity" : 15,
      "type" : "artist",
      "uri" : "spotify:artist:0qtNwBJtbhGwS2OEyMEHiz"
    }, {
      "external_urls" : {
        "spotify" : "https://open.spotify.com/artist/3UAijGs9SE1Da98rc7IcwV"
      },
      "followers" : {
        "href" : null,
        "total" : 58
      },
      "genres" : [ ],
      "href" : "https://api.spotify.com/v1/artists/3UAijGs9SE1Da98rc7IcwV",
      "id" : "3UAijGs9SE1Da98rc7IcwV",
      "images" : [ {
        "height" : 640,
        "url" : "https://i.scdn.co/image/ab6761610000e5eb69f3d6a257e2b778230b07d4",
        "width" : 640
      }, {
        "height" : 320,
        "url" : "https://i.scdn.co/image/ab6761610000517469f3d6a257e2b778230b07d4",
        "width" : 320
      }, {
        "height" : 160,
        "url" : "https://i.scdn.co/image/ab6761610000f17869f3d6a257e2b778230b07d4",
        "width" : 160
      } ],
      "name" : "Bijou Violet",
      "popularity" : 23,
      "type" : "artist",
      "uri" : "spotify:artist:3UAijGs9SE1Da98rc7IcwV"
    }, {
      "external_urls" : {
        "spotify" : "https://open.spotify.com/artist/0LtRX6icCh3zERmFvuLrh8"
      },
      "followers" : {
        "href" : null,
        "total" : 0
      },
      "genres" : [ ],
      "href" : "https://api.spotify.com/v1/artists/0LtRX6icCh3zERmFvuLrh8",
      "id" : "0LtRX6icCh3zERmFvuLrh8",
      "images" : [ ],
      "name" : "BIJOU",
      "popularity" : 1,
      "type" : "artist",
      "uri" : "spotify:artist:0LtRX6icCh3zERmFvuLrh8"
    }, {
      "external_urls" : {
        "spotify" : "https://open.spotify.com/artist/5vBNEWWUCnxDXj6UAhkIHe"
      },
      "followers" : {
        "href" : null,
        "total" : 249
      },
      "genres" : [ ],
      "href" : "https://api.spotify.com/v1/artists/5vBNEWWUCnxDXj6UAhkIHe",
      "id" : "5vBNEWWUCnxDXj6UAhkIHe",
      "images" : [ {
        "height" : 640,
        "url" : "https://i.scdn.co/image/ab6761610000e5ebac9dec63ea2c4cec9e1663c3",
        "width" : 640
      }, {
        "height" : 320,
        "url" : "https://i.scdn.co/image/ab67616100005174ac9dec63ea2c4cec9e1663c3",
        "width" : 320
      }, {
        "height" : 160,
        "url" : "https://i.scdn.co/image/ab6761610000f178ac9dec63ea2c4cec9e1663c3",
        "width" : 160
      } ],
      "name" : "Bijou Dream",
      "popularity" : 24,
      "type" : "artist",
      "uri" : "spotify:artist:5vBNEWWUCnxDXj6UAhkIHe"
    }, {
      "external_urls" : {
        "spotify" : "https://open.spotify.com/artist/26dpXNQaUiknQXGV3zQqzQ"
      },
      "followers" : {
        "href" : null,
        "total" : 1355
      },
      "genres" : [ ],
      "href" : "https://api.spotify.com/v1/artists/26dpXNQaUiknQXGV3zQqzQ",
      "id" : "26dpXNQaUiknQXGV3zQqzQ",
      "images" : [ {
        "height" : 640,
        "url" : "https://i.scdn.co/image/ab6761610000e5eb5ae16a74343b647ca62d700d",
        "width" : 640
      }, {
        "height" : 320,
        "url" : "https://i.scdn.co/image/ab676161000051745ae16a74343b647ca62d700d",
        "width" : 320
      }, {
        "height" : 160,
        "url" : "https://i.scdn.co/image/ab6761610000f1785ae16a74343b647ca62d700d",
        "width" : 160
      } ],
      "name" : "Qadir Bijoux",
      "popularity" : 30,
      "type" : "artist",
      "uri" : "spotify:artist:26dpXNQaUiknQXGV3zQqzQ"
    }, {
      "external_urls" : {
        "spotify" : "https://open.spotify.com/artist/7fuakMeDgzbXE3dLgQXyrM"
      },
      "followers" : {
        "href" : null,
        "total" : 4
      },
      "genres" : [ ],
      "href" : "https://api.spotify.com/v1/artists/7fuakMeDgzbXE3dLgQXyrM",
      "id" : "7fuakMeDgzbXE3dLgQXyrM",
      "images" : [ ],
      "name" : "Bijou.",
      "popularity" : 20,
      "type" : "artist",
      "uri" : "spotify:artist:7fuakMeDgzbXE3dLgQXyrM"
    }, {
      "external_urls" : {
        "spotify" : "https://open.spotify.com/artist/2eUkUEn576sGwwZB8DvoI2"
      },
      "followers" : {
        "href" : null,
        "total" : 2668
      },
      "genres" : [ "bboy" ],
      "href" : "https://api.spotify.com/v1/artists/2eUkUEn576sGwwZB8DvoI2",
      "id" : "2eUkUEn576sGwwZB8DvoI2",
      "images" : [ {
        "height" : 640,
        "url" : "https://i.scdn.co/image/ab6761610000e5ebcc8526b74564fe3551efea4a",
        "width" : 640
      }, {
        "height" : 320,
        "url" : "https://i.scdn.co/image/ab67616100005174cc8526b74564fe3551efea4a",
        "width" : 320
      }, {
        "height" : 160,
        "url" : "https://i.scdn.co/image/ab6761610000f178cc8526b74564fe3551efea4a",
        "width" : 160
      } ],
      "name" : "Funky Bijou",
      "popularity" : 31,
      "type" : "artist",
      "uri" : "spotify:artist:2eUkUEn576sGwwZB8DvoI2"
    }, {
      "external_urls" : {
        "spotify" : "https://open.spotify.com/artist/30msSIU3VQ77ER0lJBVF5q"
      },
      "followers" : {
        "href" : null,
        "total" : 268
      },
      "genres" : [ ],
      "href" : "https://api.spotify.com/v1/artists/30msSIU3VQ77ER0lJBVF5q",
      "id" : "30msSIU3VQ77ER0lJBVF5q",
      "images" : [ {
        "height" : 640,
        "url" : "https://i.scdn.co/image/ab6761610000e5eb1c085dc0a3e062f278fedbfa",
        "width" : 640
      }, {
        "height" : 320,
        "url" : "https://i.scdn.co/image/ab676161000051741c085dc0a3e062f278fedbfa",
        "width" : 320
      }, {
        "height" : 160,
        "url" : "https://i.scdn.co/image/ab6761610000f1781c085dc0a3e062f278fedbfa",
        "width" : 160
      } ],
      "name" : "Bijou.",
      "popularity" : 16,
      "type" : "artist",
      "uri" : "spotify:artist:30msSIU3VQ77ER0lJBVF5q"
    }, {
      "external_urls" : {
        "spotify" : "https://open.spotify.com/artist/2fCU1pj4B7o1Z3Ld95IY1v"
      },
      "followers" : {
        "href" : null,
        "total" : 1871
      },
      "genres" : [ ],
      "href" : "https://api.spotify.com/v1/artists/2fCU1pj4B7o1Z3Ld95IY1v",
      "id" : "2fCU1pj4B7o1Z3Ld95IY1v",
      "images" : [ {
        "height" : 640,
        "url" : "https://i.scdn.co/image/ab6761610000e5eb79fec67f81a592638762264e",
        "width" : 640
      }, {
        "height" : 320,
        "url" : "https://i.scdn.co/image/ab6761610000517479fec67f81a592638762264e",
        "width" : 320
      }, {
        "height" : 160,
        "url" : "https://i.scdn.co/image/ab6761610000f17879fec67f81a592638762264e",
        "width" : 160
      } ],
      "name" : "BijouXO",
      "popularity" : 9,
      "type" : "artist",
      "uri" : "spotify:artist:2fCU1pj4B7o1Z3Ld95IY1v"
    }, {
      "external_urls" : {
        "spotify" : "https://open.spotify.com/artist/5fn72ffuw9h9hH3kxkdmwi"
      },
      "followers" : {
        "href" : null,
        "total" : 347
      },
      "genres" : [ ],
      "href" : "https://api.spotify.com/v1/artists/5fn72ffuw9h9hH3kxkdmwi",
      "id" : "5fn72ffuw9h9hH3kxkdmwi",
      "images" : [ {
        "height" : 640,
        "url" : "https://i.scdn.co/image/ab6761610000e5ebdb4ebf3b983a27980c6a3512",
        "width" : 640
      }, {
        "height" : 320,
        "url" : "https://i.scdn.co/image/ab67616100005174db4ebf3b983a27980c6a3512",
        "width" : 320
      }, {
        "height" : 160,
        "url" : "https://i.scdn.co/image/ab6761610000f178db4ebf3b983a27980c6a3512",
        "width" : 160
      } ],
      "name" : "Bijoux",
      "popularity" : 10,
      "type" : "artist",
      "uri" : "spotify:artist:5fn72ffuw9h9hH3kxkdmwi"
    }, {
      "external_urls" : {
        "spotify" : "https://open.spotify.com/artist/6NOJrxMH41F7SGIllmMPPh"
      },
      "followers" : {
        "href" : null,
        "total" : 7754
      },
      "genres" : [ "slovak punk", "slovak rock" ],
      "href" : "https://api.spotify.com/v1/artists/6NOJrxMH41F7SGIllmMPPh",
      "id" : "6NOJrxMH41F7SGIllmMPPh",
      "images" : [ {
        "height" : 640,
        "url" : "https://i.scdn.co/image/ab67616d0000b27335798bf8aa0f22ac441da31a",
        "width" : 640
      }, {
        "height" : 300,
        "url" : "https://i.scdn.co/image/ab67616d00001e0235798bf8aa0f22ac441da31a",
        "width" : 300
      }, {
        "height" : 64,
        "url" : "https://i.scdn.co/image/ab67616d0000485135798bf8aa0f22ac441da31a",
        "width" : 64
      } ],
      "name" : "Bijouterrier",
      "popularity" : 36,
      "type" : "artist",
      "uri" : "spotify:artist:6NOJrxMH41F7SGIllmMPPh"
    }, {
      "external_urls" : {
        "spotify" : "https://open.spotify.com/artist/5OykVhXm5X4y3ns6OHbrsn"
      },
      "followers" : {
        "href" : null,
        "total" : 93
      },
      "genres" : [ ],
      "href" : "https://api.spotify.com/v1/artists/5OykVhXm5X4y3ns6OHbrsn",
      "id" : "5OykVhXm5X4y3ns6OHbrsn",
      "images" : [ {
        "height" : 640,
        "url" : "https://i.scdn.co/image/ab67616d0000b27383b17bfeeaaad285c03f1713",
        "width" : 640
      }, {
        "height" : 300,
        "url" : "https://i.scdn.co/image/ab67616d00001e0283b17bfeeaaad285c03f1713",
        "width" : 300
      }, {
        "height" : 64,
        "url" : "https://i.scdn.co/image/ab67616d0000485183b17bfeeaaad285c03f1713",
        "width" : 64
      } ],
      "name" : "Bijou Créole",
      "popularity" : 3,
      "type" : "artist",
      "uri" : "spotify:artist:5OykVhXm5X4y3ns6OHbrsn"
    }, {
      "external_urls" : {
        "spotify" : "https://open.spotify.com/artist/5xB33sAhMPTNMAEhhFwNZ7"
      },
      "followers" : {
        "href" : null,
        "total" : 1236
      },
      "genres" : [ ],
      "href" : "https://api.spotify.com/v1/artists/5xB33sAhMPTNMAEhhFwNZ7",
      "id" : "5xB33sAhMPTNMAEhhFwNZ7",
      "images" : [ {
        "height" : 640,
        "url" : "https://i.scdn.co/image/ab6761610000e5ebe0dc2a68cda200d918c3545d",
        "width" : 640
      }, {
        "height" : 320,
        "url" : "https://i.scdn.co/image/ab67616100005174e0dc2a68cda200d918c3545d",
        "width" : 320
      }, {
        "height" : 160,
        "url" : "https://i.scdn.co/image/ab6761610000f178e0dc2a68cda200d918c3545d",
        "width" : 160
      } ],
      "name" : "Zir Bijou",
      "popularity" : 16,
      "type" : "artist",
      "uri" : "spotify:artist:5xB33sAhMPTNMAEhhFwNZ7"
    }, {
      "external_urls" : {
        "spotify" : "https://open.spotify.com/artist/1KB1R1J7ImHnfBJXzqoXRP"
      },
      "followers" : {
        "href" : null,
        "total" : 174
      },
      "genres" : [ ],
      "href" : "https://api.spotify.com/v1/artists/1KB1R1J7ImHnfBJXzqoXRP",
      "id" : "1KB1R1J7ImHnfBJXzqoXRP",
      "images" : [ {
        "height" : 640,
        "url" : "https://i.scdn.co/image/ab67616d0000b27311a4f000f2a08353c4979d97",
        "width" : 640
      }, {
        "height" : 300,
        "url" : "https://i.scdn.co/image/ab67616d00001e0211a4f000f2a08353c4979d97",
        "width" : 300
      }, {
        "height" : 64,
        "url" : "https://i.scdn.co/image/ab67616d0000485111a4f000f2a08353c4979d97",
        "width" : 64
      } ],
      "name" : "Bijou Phillips",
      "popularity" : 3,
      "type" : "artist",
      "uri" : "spotify:artist:1KB1R1J7ImHnfBJXzqoXRP"
    }, {
      "external_urls" : {
        "spotify" : "https://open.spotify.com/artist/53O5F8dshr3cHzxQUIcuQH"
      },
      "followers" : {
        "href" : null,
        "total" : 490
      },
      "genres" : [ "cajun" ],
      "href" : "https://api.spotify.com/v1/artists/53O5F8dshr3cHzxQUIcuQH",
      "id" : "53O5F8dshr3cHzxQUIcuQH",
      "images" : [ {
        "height" : 640,
        "url" : "https://i.scdn.co/image/ab67616d0000b273852d5f799491d27ccaa17c17",
        "width" : 640
      }, {
        "height" : 300,
        "url" : "https://i.scdn.co/image/ab67616d00001e02852d5f799491d27ccaa17c17",
        "width" : 300
      }, {
        "height" : 64,
        "url" : "https://i.scdn.co/image/ab67616d00004851852d5f799491d27ccaa17c17",
        "width" : 64
      } ],
      "name" : "Cedric Watson & Bijou Creole",
      "popularity" : 5,
      "type" : "artist",
      "uri" : "spotify:artist:53O5F8dshr3cHzxQUIcuQH"
    }, {
      "external_urls" : {
        "spotify" : "https://open.spotify.com/artist/6ElUFeQarxjzCg3IIytXVG"
      },
      "followers" : {
        "href" : null,
        "total" : 1
      },
      "genres" : [ ],
      "href" : "https://api.spotify.com/v1/artists/6ElUFeQarxjzCg3IIytXVG",
      "id" : "6ElUFeQarxjzCg3IIytXVG",
      "images" : [ ],
      "name" : "Bijoubaby",
      "popularity" : 2,
      "type" : "artist",
      "uri" : "spotify:artist:6ElUFeQarxjzCg3IIytXVG"
    }, {
      "external_urls" : {
        "spotify" : "https://open.spotify.com/artist/1HxNSu7j7Dso8eKYn0zd4j"
      },
      "followers" : {
        "href" : null,
        "total" : 6
      },
      "genres" : [ ],
      "href" : "https://api.spotify.com/v1/artists/1HxNSu7j7Dso8eKYn0zd4j",
      "id" : "1HxNSu7j7Dso8eKYn0zd4j",
      "images" : [ ],
      "name" : "Garrisson Bijou",
      "popularity" : 18,
      "type" : "artist",
      "uri" : "spotify:artist:1HxNSu7j7Dso8eKYn0zd4j"
    }, {
      "external_urls" : {
        "spotify" : "https://open.spotify.com/artist/0Q5z0A79gwGfdSjwMjJyp7"
      },
      "followers" : {
        "href" : null,
        "total" : 99
      },
      "genres" : [ ],
      "href" : "https://api.spotify.com/v1/artists/0Q5z0A79gwGfdSjwMjJyp7",
      "id" : "0Q5z0A79gwGfdSjwMjJyp7",
      "images" : [ {
        "height" : 640,
        "url" : "https://i.scdn.co/image/ab6761610000e5eb64dff3a393002b3a602b57d0",
        "width" : 640
      }, {
        "height" : 320,
        "url" : "https://i.scdn.co/image/ab6761610000517464dff3a393002b3a602b57d0",
        "width" : 320
      }, {
        "height" : 160,
        "url" : "https://i.scdn.co/image/ab6761610000f17864dff3a393002b3a602b57d0",
        "width" : 160
      } ],
      "name" : "Bijou Holiday",
      "popularity" : 1,
      "type" : "artist",
      "uri" : "spotify:artist:0Q5z0A79gwGfdSjwMjJyp7"
    } ],
    "limit" : 20,
    "next" : "https://api.spotify.com/v1/search?query=BIJOU&type=artist&market=US&offset=20&limit=20",
    "offset" : 0,
    "previous" : null,
    "total" : 119
  }
}