{
  "artists" : {
    "href" : "https://api.spotify.com/v1/search?query=CRAZE&type=artist&market=US&offset=0&limit=20",
    "items" : [ {
      "external_urls" : {
        "spotify" : "https://open.spotify.com/artist/1CxiYuhxzUwYDPQSZw076D"
      },
      "followers" : {
        "href" : null,
        "total" : 3958
      },
      "genres" : [ ],
      "href" : "https://api.spotify.com/v1/artists/1CxiYuhxzUwYDPQSZw076D",
      "id" : "1CxiYuhxzUwYDPQSZw076D",
      "images" : [ {
        "height" : 640,
        "url" : "https://i.scdn.co/image/ab6761610000e5eb73f729dab2cb923ef05b7e8b",
        "width" : 640
      }, {
        "height" : 320,
        "url" : "https://i.scdn.co/image/ab6761610000517473f729dab2cb923ef05b7e8b",
        "width" : 320
      }, {
        "height" : 160,
        "url" : "https://i.scdn.co/image/ab6761610000f17873f729dab2cb923ef05b7e8b",
        "width" : 160
      } ],
      "name" : "Craze",
      "popularity" : 22,
      "type" : "artist",
      "uri" : "spotify:artist:1CxiYuhxzUwYDPQSZw076D"
    }, {
      "external_urls" : {
        "spotify" : "https://open.spotify.com/artist/6Ps821UxggBCxmLqa7UAHZ"
      },
      "followers" : {
        "href" : null,
        "total" : 7474
      },
      "genres" : [ "asian american hip hop" ],
      "href" : "https://api.spotify.com/v1/artists/6Ps821UxggBCxmLqa7UAHZ",
      "id" : "6Ps821UxggBCxmLqa7UAHZ",
      "images" : [ {
        "height" : 640,
        "url" : "https://i.scdn.co/image/ab6761610000e5eb1aaa3f855e16b5e42a9c95c6",
        "width" : 640
      }, {
        "height" : 320,
        "url" : "https://i.scdn.co/image/ab676161000051741aaa3f855e16b5e42a9c95c6",
        "width" : 320
      }, {
        "height" : 160,
        "url" : "https://i.scdn.co/image/ab6761610000f1781aaa3f855e16b5e42a9c95c6",
        "width" : 160
      } ],
      "name" : "Lil Crazed",
      "popularity" : 24,
      "type" : "artist",
      "uri" : "spotify:artist:6Ps821UxggBCxmLqa7UAHZ"
    }, {
      "external_urls" : {
        "spotify" : "https://open.spotify.com/artist/3FIWpCrD5obRCAbKavP1Eb"
      },
      "followers" : {
        "href" : null,
        "total" : 74
      },
      "genres" : [ ],
      "href" : "https://api.spotify.com/v1/artists/3FIWpCrD5obRCAbKavP1Eb",
      "id" : "3FIWpCrD5obRCAbKavP1Eb",
      "images" : [ {
        "height" : 640,
        "url" : "https://i.scdn.co/image/ab6761610000e5eb5b71d7b7935fe606165267c1",
        "width" : 640
      }, {
        "height" : 320,
        "url" : "https://i.scdn.co/image/ab676161000051745b71d7b7935fe606165267c1",
        "width" : 320
      }, {
        "height" : 160,
        "url" : "https://i.scdn.co/image/ab6761610000f1785b71d7b7935fe606165267c1",
        "width" : 160
      } ],
      "name" : "CRAZE",
      "popularity" : 6,
      "type" : "artist",
      "uri" : "spotify:artist:3FIWpCrD5obRCAbKavP1Eb"
    }, {
      "external_urls" : {
        "spotify" : "https://open.spotify.com/artist/4c45YgKcI1d2eKCViXvhun"
      },
      "followers" : {
        "href" : null,
        "total" : 294
      },
      "genres" : [ ],
      "href" : "https://api.spotify.com/v1/artists/4c45YgKcI1d2eKCViXvhun",
      "id" : "4c45YgKcI1d2eKCViXvhun",
      "images" : [ {
        "height" : 640,
        "url" : "https://i.scdn.co/image/ab67616d0000b273a4cf28911f82a398e4f216d8",
        "width" : 640
      }, {
        "height" : 300,
        "url" : "https://i.scdn.co/image/ab67616d00001e02a4cf28911f82a398e4f216d8",
        "width" : 300
      }, {
        "height" : 64,
        "url" : "https://i.scdn.co/image/ab67616d00004851a4cf28911f82a398e4f216d8",
        "width" : 64
      } ],
      "name" : "Crazee Noize",
      "popularity" : 17,
      "type" : "artist",
      "uri" : "spotify:artist:4c45YgKcI1d2eKCViXvhun"
    }, {
      "external_urls" : {
        "spotify" : "https://open.spotify.com/artist/6XkvdLYwlPQRPIaxqPYdFr"
      },
      "followers" : {
        "href" : null,
        "total" : 1526
      },
      "genres" : [ ],
      "href" : "https://api.spotify.com/v1/artists/6XkvdLYwlPQRPIaxqPYdFr",
      "id" : "6XkvdLYwlPQRPIaxqPYdFr",
      "images" : [ {
        "height" : 640,
        "url" : "https://i.scdn.co/image/ab67616d0000b27387328bc004419c439aaf9e7e",
        "width" : 640
      }, {
        "height" : 300,
        "url" : "https://i.scdn.co/image/ab67616d00001e0287328bc004419c439aaf9e7e",
        "width" : 300
      }, {
        "height" : 64,
        "url" : "https://i.scdn.co/image/ab67616d0000485187328bc004419c439aaf9e7e",
        "width" : 64
      } ],
      "name" : "Mo2crazee",
      "popularity" : 36,
      "type" : "artist",
      "uri" : "spotify:artist:6XkvdLYwlPQRPIaxqPYdFr"
    }, {
      "external_urls" : {
        "spotify" : "https://open.spotify.com/artist/3dh0iaTEVGVzXIk16QSesp"
      },
      "followers" : {
        "href" : null,
        "total" : 207
      },
      "genres" : [ ],
      "href" : "https://api.spotify.com/v1/artists/3dh0iaTEVGVzXIk16QSesp",
      "id" : "3dh0iaTEVGVzXIk16QSesp",
      "images" : [ {
        "height" : 640,
        "url" : "https://i.scdn.co/image/ab67616d0000b2731295f4aebeceeeeb683ca922",
        "width" : 640
      }, {
        "height" : 300,
        "url" : "https://i.scdn.co/image/ab67616d00001e021295f4aebeceeeeb683ca922",
        "width" : 300
      }, {
        "height" : 64,
        "url" : "https://i.scdn.co/image/ab67616d000048511295f4aebeceeeeb683ca922",
        "width" : 64
      } ],
      "name" : "Craze",
      "popularity" : 5,
      "type" : "artist",
      "uri" : "spotify:artist:3dh0iaTEVGVzXIk16QSesp"
    }, {
      "external_urls" : {
        "spotify" : "https://open.spotify.com/artist/6yj0m6L3ZalYdYYsnmcrCM"
      },
      "followers" : {
        "href" : null,
        "total" : 2866
      },
      "genres" : [ ],
      "href" : "https://api.spotify.com/v1/artists/6yj0m6L3ZalYdYYsnmcrCM",
      "id" : "6yj0m6L3ZalYdYYsnmcrCM",
      "images" : [ {
        "height" : 640,
        "url" : "https://i.scdn.co/image/ab6761610000e5eb8ad064068c53d54597be2207",
        "width" : 640
      }, {
        "height" : 320,
        "url" : "https://i.scdn.co/image/ab676161000051748ad064068c53d54597be2207",
        "width" : 320
      }, {
        "height" : 160,
        "url" : "https://i.scdn.co/image/ab6761610000f1788ad064068c53d54597be2207",
        "width" : 160
      } ],
      "name" : "Shadez of Crazee",
      "popularity" : 23,
      "type" : "artist",
      "uri" : "spotify:artist:6yj0m6L3ZalYdYYsnmcrCM"
    }, {
      "external_urls" : {
        "spotify" : "https://open.spotify.com/artist/1UYWm2ncIFCBHAf8dZPum5"
      },
      "followers" : {
        "href" : null,
        "total" : 57
      },
      "genres" : [ ],
      "href" : "https://api.spotify.com/v1/artists/1UYWm2ncIFCBHAf8dZPum5",
      "id" : "1UYWm2ncIFCBHAf8dZPum5",
      "images" : [ {
        "height" : 640,
        "url" : "https://i.scdn.co/image/ab6761610000e5eb9e99c822a9f6b075bf075d13",
        "width" : 640
      }, {
        "height" : 320,
        "url" : "https://i.scdn.co/image/ab676161000051749e99c822a9f6b075bf075d13",
        "width" : 320
      }, {
        "height" : 160,
        "url" : "https://i.scdn.co/image/ab6761610000f1789e99c822a9f6b075bf075d13",
        "width" : 160
      } ],
      "name" : "Craze Da Vicious",
      "popularity" : 4,
      "type" : "artist",
      "uri" : "spotify:artist:1UYWm2ncIFCBHAf8dZPum5"
    }, {
      "external_urls" : {
        "spotify" : "https://open.spotify.com/artist/3XpUo1ZjYesaEbx7tndLN3"
      },
      "followers" : {
        "href" : null,
        "total" : 25
      },
      "genres" : [ ],
      "href" : "https://api.spotify.com/v1/artists/3XpUo1ZjYesaEbx7tndLN3",
      "id" : "3XpUo1ZjYesaEbx7tndLN3",
      "images" : [ {
        "height" : 640,
        "url" : "https://i.scdn.co/image/ab6761610000e5ebf188a263b7ae3b7100eb6420",
        "width" : 640
      }, {
        "height" : 320,
        "url" : "https://i.scdn.co/image/ab67616100005174f188a263b7ae3b7100eb6420",
        "width" : 320
      }, {
        "height" : 160,
        "url" : "https://i.scdn.co/image/ab6761610000f178f188a263b7ae3b7100eb6420",
        "width" : 160
      } ],
      "name" : "S Craze",
      "popularity" : 15,
      "type" : "artist",
      "uri" : "spotify:artist:3XpUo1ZjYesaEbx7tndLN3"
    }, {
      "external_urls" : {
        "spotify" : "https://open.spotify.com/artist/1A5VF3Fwxim6I0RSzgGu4Q"
      },
      "followers" : {
        "href" : null,
        "total" : 3
      },
      "genres" : [ ],
      "href" : "https://api.spotify.com/v1/artists/1A5VF3Fwxim6I0RSzgGu4Q",
      "id" : "1A5VF3Fwxim6I0RSzgGu4Q",
      "images" : [ ],
      "name" : "Craze & Hoax",
      "popularity" : 7,
      "type" : "artist",
      "uri" : "spotify:artist:1A5VF3Fwxim6I0RSzgGu4Q"
    }, {
      "external_urls" : {
        "spotify" : "https://open.spotify.com/artist/71JO25Kf9qwYMoHihZ6kzL"
      },
      "followers" : {
        "href" : null,
        "total" : 5396
      },
      "genres" : [ "moombahton", "turntablism" ],
      "href" : "https://api.spotify.com/v1/artists/71JO25Kf9qwYMoHihZ6kzL",
      "id" : "71JO25Kf9qwYMoHihZ6kzL",
      "images" : [ {
        "height" : 640,
        "url" : "https://i.scdn.co/image/ab67616d0000b2732141fbe3f520de62f5538f0c",
        "width" : 640
      }, {
        "height" : 300,
        "url" : "https://i.scdn.co/image/ab67616d00001e022141fbe3f520de62f5538f0c",
        "width" : 300
      }, {
        "height" : 64,
        "url" : "https://i.scdn.co/image/ab67616d000048512141fbe3f520de62f5538f0c",
        "width" : 64
      } ],
      "name" : "DJ Craze",
      "popularity" : 19,
      "type" : "artist",
      "uri" : "spotify:artist:71JO25Kf9qwYMoHihZ6kzL"
    }, {
      "external_urls" : {
        "spotify" : "https://open.spotify.com/artist/79dWG61giNYMv7yyYJsZDl"
      },
      "followers" : {
        "href" : null,
        "total" : 1364
      },
      "genres" : [ ],
      "href" : "https://api.spotify.com/v1/artists/79dWG61giNYMv7yyYJsZDl",
      "id" : "79dWG61giNYMv7yyYJsZDl",
      "images" : [ {
        "height" : 640,
        "url" : "https://i.scdn.co/image/ab6761610000e5ebcf4cf7155996fe4e3aa22069",
        "width" : 640
      }, {
        "height" : 320,
        "url" : "https://i.scdn.co/image/ab67616100005174cf4cf7155996fe4e3aa22069",
        "width" : 320
      }, {
        "height" : 160,
        "url" : "https://i.scdn.co/image/ab6761610000f178cf4cf7155996fe4e3aa22069",
        "width" : 160
      } ],
      "name" : "Cody CraZee",
      "popularity" : 15,
      "type" : "artist",
      "uri" : "spotify:artist:79dWG61giNYMv7yyYJsZDl"
    }, {
      "external_urls" : {
        "spotify" : "https://open.spotify.com/artist/0oYalshzW7OiptewSQdQza"
      },
      "followers" : {
        "href" : null,
        "total" : 190
      },
      "genres" : [ ],
      "href" : "https://api.spotify.com/v1/artists/0oYalshzW7OiptewSQdQza",
      "id" : "0oYalshzW7OiptewSQdQza",
      "images" : [ {
        "height" : 640,
        "url" : "https://i.scdn.co/image/ab6761610000e5ebf22fd38311ee651228f0231e",
        "width" : 640
      }, {
        "height" : 320,
        "url" : "https://i.scdn.co/image/ab67616100005174f22fd38311ee651228f0231e",
        "width" : 320
      }, {
        "height" : 160,
        "url" : "https://i.scdn.co/image/ab6761610000f178f22fd38311ee651228f0231e",
        "width" : 160
      } ],
      "name" : "D.Craze the Destroyer",
      "popularity" : 13,
      "type" : "artist",
      "uri" : "spotify:artist:0oYalshzW7OiptewSQdQza"
    }, {
      "external_urls" : {
        "spotify" : "https://open.spotify.com/artist/7cwWdI0Xg3rssHAJwBEDnV"
      },
      "followers" : {
        "href" : null,
        "total" : 362
      },
      "genres" : [ ],
      "href" : "https://api.spotify.com/v1/artists/7cwWdI0Xg3rssHAJwBEDnV",
      "id" : "7cwWdI0Xg3rssHAJwBEDnV",
      "images" : [ {
        "height" : 640,
        "url" : "https://i.scdn.co/image/ab6761610000e5eb1651dd6e407197770bf40ef3",
        "width" : 640
      }, {
        "height" : 320,
        "url" : "https://i.scdn.co/image/ab676161000051741651dd6e407197770bf40ef3",
        "width" : 320
      }, {
        "height" : 160,
        "url" : "https://i.scdn.co/image/ab6761610000f1781651dd6e407197770bf40ef3",
        "width" : 160
      } ],
      "name" : "The Craze & Eben Dickson",
      "popularity" : 7,
      "type" : "artist",
      "uri" : "spotify:artist:7cwWdI0Xg3rssHAJwBEDnV"
    }, {
      "external_urls" : {
        "spotify" : "https://open.spotify.com/artist/2lf45VLBUxoX6W9CE718cp"
      },
      "followers" : {
        "href" : null,
        "total" : 77
      },
      "genres" : [ ],
      "href" : "https://api.spotify.com/v1/artists/2lf45VLBUxoX6W9CE718cp",
      "id" : "2lf45VLBUxoX6W9CE718cp",
      "images" : [ {
        "height" : 640,
        "url" : "https://i.scdn.co/image/ab67616d0000b273023cf7af0f2c516b119a9ffc",
        "width" : 640
      }, {
        "height" : 300,
        "url" : "https://i.scdn.co/image/ab67616d00001e02023cf7af0f2c516b119a9ffc",
        "width" : 300
      }, {
        "height" : 64,
        "url" : "https://i.scdn.co/image/ab67616d00004851023cf7af0f2c516b119a9ffc",
        "width" : 64
      } ],
      "name" : "Harry Craze",
      "popularity" : 19,
      "type" : "artist",
      "uri" : "spotify:artist:2lf45VLBUxoX6W9CE718cp"
    }, {
      "external_urls" : {
        "spotify" : "https://open.spotify.com/artist/3gAAcgsEFOyGuJ4C9DwLe6"
      },
      "followers" : {
        "href" : null,
        "total" : 7
      },
      "genres" : [ ],
      "href" : "https://api.spotify.com/v1/artists/3gAAcgsEFOyGuJ4C9DwLe6",
      "id" : "3gAAcgsEFOyGuJ4C9DwLe6",
      "images" : [ {
        "height" : 640,
        "url" : "https://i.scdn.co/image/ab6761610000e5eb7831875f198fdefc5b92cb25",
        "width" : 640
      }, {
        "height" : 320,
        "url" : "https://i.scdn.co/image/ab676161000051747831875f198fdefc5b92cb25",
        "width" : 320
      }, {
        "height" : 160,
        "url" : "https://i.scdn.co/image/ab6761610000f1787831875f198fdefc5b92cb25",
        "width" : 160
      } ],
      "name" : "CRAZE OWE",
      "popularity" : 0,
      "type" : "artist",
      "uri" : "spotify:artist:3gAAcgsEFOyGuJ4C9DwLe6"
    }, {
      "external_urls" : {
        "spotify" : "https://open.spotify.com/artist/3LxDBm80DUSeMVvfN3WJKL"
      },
      "followers" : {
        "href" : null,
        "total" : 92
      },
      "genres" : [ ],
      "href" : "https://api.spotify.com/v1/artists/3LxDBm80DUSeMVvfN3WJKL",
      "id" : "3LxDBm80DUSeMVvfN3WJKL",
      "images" : [ {
        "height" : 640,
        "url" : "https://i.scdn.co/image/ab6761610000e5ebbae4bc35591cd30552ac401c",
        "width" : 640
      }, {
        "height" : 320,
        "url" : "https://i.scdn.co/image/ab67616100005174bae4bc35591cd30552ac401c",
        "width" : 320
      }, {
        "height" : 160,
        "url" : "https://i.scdn.co/image/ab6761610000f178bae4bc35591cd30552ac401c",
        "width" : 160
      } ],
      "name" : "Kid Craze",
      "popularity" : 11,
      "type" : "artist",
      "uri" : "spotify:artist:3LxDBm80DUSeMVvfN3WJKL"
    }, {
      "external_urls" : {
        "spotify" : "https://open.spotify.com/artist/618aRUc5fxUh6YEhCfZxIg"
      },
      "followers" : {
        "href" : null,
        "total" : 25
      },
      "genres" : [ ],
      "href" : "https://api.spotify.com/v1/artists/618aRUc5fxUh6YEhCfZxIg",
      "id" : "618aRUc5fxUh6YEhCfZxIg",
      "images" : [ {
        "height" : 640,
        "url" : "https://i.scdn.co/image/ab67616d0000b27326c1b31cf1a0da581f011445",
        "width" : 640
      }, {
        "height" : 300,
        "url" : "https://i.scdn.co/image/ab67616d00001e0226c1b31cf1a0da581f011445",
        "width" : 300
      }, {
        "height" : 64,
        "url" : "https://i.scdn.co/image/ab67616d0000485126c1b31cf1a0da581f011445",
        "width" : 64
      } ],
      "name" : "The Craze",
      "popularity" : 8,
      "type" : "artist",
      "uri" : "spotify:artist:618aRUc5fxUh6YEhCfZxIg"
    }, {
      "external_urls" : {
        "spotify" : "https://open.spotify.com/artist/25zPLrmGAfvaAAiVVCJlC2"
      },
      "followers" : {
        "href" : null,
        "total" : 0
      },
      "genres" : [ ],
      "href" : "https://api.spotify.com/v1/artists/25zPLrmGAfvaAAiVVCJlC2",
      "id" : "25zPLrmGAfvaAAiVVCJlC2",
      "images" : [ ],
      "name" : "Cody CraZee",
      "popularity" : 2,
      "type" : "artist",
      "uri" : "spotify:artist:25zPLrmGAfvaAAiVVCJlC2"
    }, {
      "external_urls" : {
        "spotify" : "https://open.spotify.com/artist/1cSKNjmeCaqFl4g96G1unH"
      },
      "followers" : {
        "href" : null,
        "total" : 332
      },
      "genres" : [ ],
      "href" : "https://api.spotify.com/v1/artists/1cSKNjmeCaqFl4g96G1unH",
      "id" : "1cSKNjmeCaqFl4g96G1unH",
      "images" : [ {
        "height" : 640,
        "url" : "https://i.scdn.co/image/ab6761610000e5eb2ae51f2e79bab8d040df0c02",
        "width" : 640
      }, {
        "height" : 320,
        "url" : "https://i.scdn.co/image/ab676161000051742ae51f2e79bab8d040df0c02",
        "width" : 320
      }, {
        "height" : 160,
        "url" : "https://i.scdn.co/image/ab6761610000f1782ae51f2e79bab8d040df0c02",
        "width" : 160
      } ],
      "name" : "Craze 24",
      "popularity" : 4,
      "type" : "artist",
      "uri" : "spotify:artist:1cSKNjmeCaqFl4g96G1unH"
    } ],
    "limit" : 20,
    "next" : "https://api.spotify.com/v1/search?query=CRAZE&type=artist&market=US&offset=20&limit=20",
    "offset" : 0,
    "previous" : null,
    "total" : 300
  }
}