{
  "artists" : {
    "href" : "https://api.spotify.com/v1/search?query=DJ+ISAAC&type=artist&market=US&offset=0&limit=20",
    "items" : [ {
      "external_urls" : {
        "spotify" : "https://open.spotify.com/artist/2FmgW6Jee0JQKtb6EnBWCq"
      },
      "followers" : {
        "href" : null,
        "total" : 62683
      },
      "genres" : [ "australian dance", "classic hardstyle", "euphoric hardstyle", "gabba", "happy hardcore", "hardcore techno", "rawstyle" ],
      "href" : "https://api.spotify.com/v1/artists/2FmgW6Jee0JQKtb6EnBWCq",
      "id" : "2FmgW6Jee0JQKtb6EnBWCq",
      "images" : [ {
        "height" : 640,
        "url" : "https://i.scdn.co/image/ab6761610000e5eb3fb5af188b5b046bba020318",
        "width" : 640
      }, {
        "height" : 320,
        "url" : "https://i.scdn.co/image/ab676161000051743fb5af188b5b046bba020318",
        "width" : 320
      }, {
        "height" : 160,
        "url" : "https://i.scdn.co/image/ab6761610000f1783fb5af188b5b046bba020318",
        "width" : 160
      } ],
      "name" : "DJ Isaac",
      "popularity" : 56,
      "type" : "artist",
      "uri" : "spotify:artist:2FmgW6Jee0JQKtb6EnBWCq"
    }, {
      "external_urls" : {
        "spotify" : "https://open.spotify.com/artist/2njfrxiMVqIipTXoN18ckd"
      },
      "followers" : {
        "href" : null,
        "total" : 1
      },
      "genres" : [ ],
      "href" : "https://api.spotify.com/v1/artists/2njfrxiMVqIipTXoN18ckd",
      "id" : "2njfrxiMVqIipTXoN18ckd",
      "images" : [ {
        "height" : 640,
        "url" : "https://i.scdn.co/image/ab67616d0000b2739106acacb76676ada5874f4b",
        "width" : 640
      }, {
        "height" : 300,
        "url" : "https://i.scdn.co/image/ab67616d00001e029106acacb76676ada5874f4b",
        "width" : 300
      }, {
        "height" : 64,
        "url" : "https://i.scdn.co/image/ab67616d000048519106acacb76676ada5874f4b",
        "width" : 64
      } ],
      "name" : "DJ Isaac",
      "popularity" : 10,
      "type" : "artist",
      "uri" : "spotify:artist:2njfrxiMVqIipTXoN18ckd"
    }, {
      "external_urls" : {
        "spotify" : "https://open.spotify.com/artist/1BM67jvDQDZuPAO7v1qNL0"
      },
      "followers" : {
        "href" : null,
        "total" : 1
      },
      "genres" : [ ],
      "href" : "https://api.spotify.com/v1/artists/1BM67jvDQDZuPAO7v1qNL0",
      "id" : "1BM67jvDQDZuPAO7v1qNL0",
      "images" : [ ],
      "name" : "DJ Isaac Vieira",
      "popularity" : 23,
      "type" : "artist",
      "uri" : "spotify:artist:1BM67jvDQDZuPAO7v1qNL0"
    }, {
      "external_urls" : {
        "spotify" : "https://open.spotify.com/artist/1ib1i66SHI3wY3ocKDLCrA"
      },
      "followers" : {
        "href" : null,
        "total" : 11
      },
      "genres" : [ ],
      "href" : "https://api.spotify.com/v1/artists/1ib1i66SHI3wY3ocKDLCrA",
      "id" : "1ib1i66SHI3wY3ocKDLCrA",
      "images" : [ {
        "height" : 640,
        "url" : "https://i.scdn.co/image/ab67616d0000b2733a34cd4576424b97b17d3536",
        "width" : 640
      }, {
        "height" : 300,
        "url" : "https://i.scdn.co/image/ab67616d00001e023a34cd4576424b97b17d3536",
        "width" : 300
      }, {
        "height" : 64,
        "url" : "https://i.scdn.co/image/ab67616d000048513a34cd4576424b97b17d3536",
        "width" : 64
      } ],
      "name" : "DJ Isaac",
      "popularity" : 19,
      "type" : "artist",
      "uri" : "spotify:artist:1ib1i66SHI3wY3ocKDLCrA"
    }, {
      "external_urls" : {
        "spotify" : "https://open.spotify.com/artist/2tgW1Md62AhwLUQos1uZl3"
      },
      "followers" : {
        "href" : null,
        "total" : 2275
      },
      "genres" : [ ],
      "href" : "https://api.spotify.com/v1/artists/2tgW1Md62AhwLUQos1uZl3",
      "id" : "2tgW1Md62AhwLUQos1uZl3",
      "images" : [ {
        "height" : 640,
        "url" : "https://i.scdn.co/image/ab67616d0000b273f780121b0aa8cd1a775ce2e8",
        "width" : 640
      }, {
        "height" : 300,
        "url" : "https://i.scdn.co/image/ab67616d00001e02f780121b0aa8cd1a775ce2e8",
        "width" : 300
      }, {
        "height" : 64,
        "url" : "https://i.scdn.co/image/ab67616d00004851f780121b0aa8cd1a775ce2e8",
        "width" : 64
      } ],
      "name" : "Isaac DJ",
      "popularity" : 0,
      "type" : "artist",
      "uri" : "spotify:artist:2tgW1Md62AhwLUQos1uZl3"
    }, {
      "external_urls" : {
        "spotify" : "https://open.spotify.com/artist/0WxIdJbGgjIlWo1bzOKaav"
      },
      "followers" : {
        "href" : null,
        "total" : 195
      },
      "genres" : [ ],
      "href" : "https://api.spotify.com/v1/artists/0WxIdJbGgjIlWo1bzOKaav",
      "id" : "0WxIdJbGgjIlWo1bzOKaav",
      "images" : [ {
        "height" : 640,
        "url" : "https://i.scdn.co/image/ab6761610000e5eb389e4da5e8f528407963b80c",
        "width" : 640
      }, {
        "height" : 320,
        "url" : "https://i.scdn.co/image/ab67616100005174389e4da5e8f528407963b80c",
        "width" : 320
      }, {
        "height" : 160,
        "url" : "https://i.scdn.co/image/ab6761610000f178389e4da5e8f528407963b80c",
        "width" : 160
      } ],
      "name" : "Dj Isaac 22",
      "popularity" : 15,
      "type" : "artist",
      "uri" : "spotify:artist:0WxIdJbGgjIlWo1bzOKaav"
    }, {
      "external_urls" : {
        "spotify" : "https://open.spotify.com/artist/5jOdADt8XFOtYK26sTGHVB"
      },
      "followers" : {
        "href" : null,
        "total" : 5
      },
      "genres" : [ ],
      "href" : "https://api.spotify.com/v1/artists/5jOdADt8XFOtYK26sTGHVB",
      "id" : "5jOdADt8XFOtYK26sTGHVB",
      "images" : [ {
        "height" : 640,
        "url" : "https://i.scdn.co/image/ab6761610000e5eb36fce290c2408c9f3eaf4f7d",
        "width" : 640
      }, {
        "height" : 320,
        "url" : "https://i.scdn.co/image/ab6761610000517436fce290c2408c9f3eaf4f7d",
        "width" : 320
      }, {
        "height" : 160,
        "url" : "https://i.scdn.co/image/ab6761610000f17836fce290c2408c9f3eaf4f7d",
        "width" : 160
      } ],
      "name" : "DJ Isaac",
      "popularity" : 0,
      "type" : "artist",
      "uri" : "spotify:artist:5jOdADt8XFOtYK26sTGHVB"
    }, {
      "external_urls" : {
        "spotify" : "https://open.spotify.com/artist/6AB3V902kcaAvuZzbdVR4J"
      },
      "followers" : {
        "href" : null,
        "total" : 4
      },
      "genres" : [ ],
      "href" : "https://api.spotify.com/v1/artists/6AB3V902kcaAvuZzbdVR4J",
      "id" : "6AB3V902kcaAvuZzbdVR4J",
      "images" : [ {
        "height" : 640,
        "url" : "https://i.scdn.co/image/ab67616d0000b2738b1a1352552368c401112d23",
        "width" : 640
      }, {
        "height" : 300,
        "url" : "https://i.scdn.co/image/ab67616d00001e028b1a1352552368c401112d23",
        "width" : 300
      }, {
        "height" : 64,
        "url" : "https://i.scdn.co/image/ab67616d000048518b1a1352552368c401112d23",
        "width" : 64
      } ],
      "name" : "DJ Isaac",
      "popularity" : 4,
      "type" : "artist",
      "uri" : "spotify:artist:6AB3V902kcaAvuZzbdVR4J"
    }, {
      "external_urls" : {
        "spotify" : "https://open.spotify.com/artist/0m55amtb9ryNyvduReuuEg"
      },
      "followers" : {
        "href" : null,
        "total" : 238
      },
      "genres" : [ ],
      "href" : "https://api.spotify.com/v1/artists/0m55amtb9ryNyvduReuuEg",
      "id" : "0m55amtb9ryNyvduReuuEg",
      "images" : [ ],
      "name" : "Isaac DJ",
      "popularity" : 3,
      "type" : "artist",
      "uri" : "spotify:artist:0m55amtb9ryNyvduReuuEg"
    }, {
      "external_urls" : {
        "spotify" : "https://open.spotify.com/artist/4X0TcGysBjGMVkrZWAvGKt"
      },
      "followers" : {
        "href" : null,
        "total" : 11
      },
      "genres" : [ ],
      "href" : "https://api.spotify.com/v1/artists/4X0TcGysBjGMVkrZWAvGKt",
      "id" : "4X0TcGysBjGMVkrZWAvGKt",
      "images" : [ ],
      "name" : "DJ Isaac",
      "popularity" : 1,
      "type" : "artist",
      "uri" : "spotify:artist:4X0TcGysBjGMVkrZWAvGKt"
    }, {
      "external_urls" : {
        "spotify" : "https://open.spotify.com/artist/6ZIQwQ7jEnHpxCDPnlXg6U"
      },
      "followers" : {
        "href" : null,
        "total" : 8
      },
      "genres" : [ ],
      "href" : "https://api.spotify.com/v1/artists/6ZIQwQ7jEnHpxCDPnlXg6U",
      "id" : "6ZIQwQ7jEnHpxCDPnlXg6U",
      "images" : [ ],
      "name" : "DJ Isaac",
      "popularity" : 0,
      "type" : "artist",
      "uri" : "spotify:artist:6ZIQwQ7jEnHpxCDPnlXg6U"
    }, {
      "external_urls" : {
        "spotify" : "https://open.spotify.com/artist/3xquIp2txQPC9D4Uw3bakf"
      },
      "followers" : {
        "href" : null,
        "total" : 46
      },
      "genres" : [ ],
      "href" : "https://api.spotify.com/v1/artists/3xquIp2txQPC9D4Uw3bakf",
      "id" : "3xquIp2txQPC9D4Uw3bakf",
      "images" : [ ],
      "name" : "DJ Isaac & The Viper",
      "popularity" : 4,
      "type" : "artist",
      "uri" : "spotify:artist:3xquIp2txQPC9D4Uw3bakf"
    }, {
      "external_urls" : {
        "spotify" : "https://open.spotify.com/artist/0PLq7xy5d23Y8eGolTBrp8"
      },
      "followers" : {
        "href" : null,
        "total" : 1
      },
      "genres" : [ ],
      "href" : "https://api.spotify.com/v1/artists/0PLq7xy5d23Y8eGolTBrp8",
      "id" : "0PLq7xy5d23Y8eGolTBrp8",
      "images" : [ ],
      "name" : "Isaac Guy Djeha",
      "popularity" : 0,
      "type" : "artist",
      "uri" : "spotify:artist:0PLq7xy5d23Y8eGolTBrp8"
    }, {
      "external_urls" : {
        "spotify" : "https://open.spotify.com/artist/7kCYbuosPGptlbU9qZKkTk"
      },
      "followers" : {
        "href" : null,
        "total" : 1
      },
      "genres" : [ ],
      "href" : "https://api.spotify.com/v1/artists/7kCYbuosPGptlbU9qZKkTk",
      "id" : "7kCYbuosPGptlbU9qZKkTk",
      "images" : [ ],
      "name" : "Dj Isaac zamani",
      "popularity" : 0,
      "type" : "artist",
      "uri" : "spotify:artist:7kCYbuosPGptlbU9qZKkTk"
    }, {
      "external_urls" : {
        "spotify" : "https://open.spotify.com/artist/3RsuwOKXCspP6THrPBQJpF"
      },
      "followers" : {
        "href" : null,
        "total" : 1
      },
      "genres" : [ ],
      "href" : "https://api.spotify.com/v1/artists/3RsuwOKXCspP6THrPBQJpF",
      "id" : "3RsuwOKXCspP6THrPBQJpF",
      "images" : [ {
        "height" : 640,
        "url" : "https://i.scdn.co/image/ab6761610000e5ebbdb1a9f568576bfc6d3452ec",
        "width" : 640
      }, {
        "height" : 320,
        "url" : "https://i.scdn.co/image/ab67616100005174bdb1a9f568576bfc6d3452ec",
        "width" : 320
      }, {
        "height" : 160,
        "url" : "https://i.scdn.co/image/ab6761610000f178bdb1a9f568576bfc6d3452ec",
        "width" : 160
      } ],
      "name" : "Dj Isaac HN",
      "popularity" : 0,
      "type" : "artist",
      "uri" : "spotify:artist:3RsuwOKXCspP6THrPBQJpF"
    }, {
      "external_urls" : {
        "spotify" : "https://open.spotify.com/artist/0PfFqcI7pXApHrdmvn5e4X"
      },
      "followers" : {
        "href" : null,
        "total" : 1
      },
      "genres" : [ ],
      "href" : "https://api.spotify.com/v1/artists/0PfFqcI7pXApHrdmvn5e4X",
      "id" : "0PfFqcI7pXApHrdmvn5e4X",
      "images" : [ {
        "height" : 640,
        "url" : "https://i.scdn.co/image/ab67616d0000b27382df14f4b84b2ed437b43870",
        "width" : 640
      }, {
        "height" : 300,
        "url" : "https://i.scdn.co/image/ab67616d00001e0282df14f4b84b2ed437b43870",
        "width" : 300
      }, {
        "height" : 64,
        "url" : "https://i.scdn.co/image/ab67616d0000485182df14f4b84b2ed437b43870",
        "width" : 64
      } ],
      "name" : "DJ Isaac Lee",
      "popularity" : 0,
      "type" : "artist",
      "uri" : "spotify:artist:0PfFqcI7pXApHrdmvn5e4X"
    }, {
      "external_urls" : {
        "spotify" : "https://open.spotify.com/artist/7qnWiQMZCbz5TvalMK43O1"
      },
      "followers" : {
        "href" : null,
        "total" : 1
      },
      "genres" : [ ],
      "href" : "https://api.spotify.com/v1/artists/7qnWiQMZCbz5TvalMK43O1",
      "id" : "7qnWiQMZCbz5TvalMK43O1",
      "images" : [ {
        "height" : 640,
        "url" : "https://i.scdn.co/image/ab67616d0000b2736b56538f0d528e55237ad3ec",
        "width" : 640
      }, {
        "height" : 300,
        "url" : "https://i.scdn.co/image/ab67616d00001e026b56538f0d528e55237ad3ec",
        "width" : 300
      }, {
        "height" : 64,
        "url" : "https://i.scdn.co/image/ab67616d000048516b56538f0d528e55237ad3ec",
        "width" : 64
      } ],
      "name" : "DJ Isaac B",
      "popularity" : 0,
      "type" : "artist",
      "uri" : "spotify:artist:7qnWiQMZCbz5TvalMK43O1"
    }, {
      "external_urls" : {
        "spotify" : "https://open.spotify.com/artist/2SO7e8gBqk6kczRmDCZFr8"
      },
      "followers" : {
        "href" : null,
        "total" : 0
      },
      "genres" : [ ],
      "href" : "https://api.spotify.com/v1/artists/2SO7e8gBqk6kczRmDCZFr8",
      "id" : "2SO7e8gBqk6kczRmDCZFr8",
      "images" : [ {
        "height" : 640,
        "url" : "https://i.scdn.co/image/ab67616d0000b2735ba326bcaa2400dafcc39f77",
        "width" : 640
      }, {
        "height" : 300,
        "url" : "https://i.scdn.co/image/ab67616d00001e025ba326bcaa2400dafcc39f77",
        "width" : 300
      }, {
        "height" : 64,
        "url" : "https://i.scdn.co/image/ab67616d000048515ba326bcaa2400dafcc39f77",
        "width" : 64
      } ],
      "name" : "Dji Manuel Isaac",
      "popularity" : 0,
      "type" : "artist",
      "uri" : "spotify:artist:2SO7e8gBqk6kczRmDCZFr8"
    }, {
      "external_urls" : {
        "spotify" : "https://open.spotify.com/artist/6jZAnGrLYj6ZXRIhW8sS6i"
      },
      "followers" : {
        "href" : null,
        "total" : 0
      },
      "genres" : [ ],
      "href" : "https://api.spotify.com/v1/artists/6jZAnGrLYj6ZXRIhW8sS6i",
      "id" : "6jZAnGrLYj6ZXRIhW8sS6i",
      "images" : [ {
        "height" : 640,
        "url" : "https://i.scdn.co/image/ab67616d0000b2739696df4544e50602368fbbe9",
        "width" : 640
      }, {
        "height" : 300,
        "url" : "https://i.scdn.co/image/ab67616d00001e029696df4544e50602368fbbe9",
        "width" : 300
      }, {
        "height" : 64,
        "url" : "https://i.scdn.co/image/ab67616d000048519696df4544e50602368fbbe9",
        "width" : 64
      } ],
      "name" : "DJM feat. Isaac Roosevelt",
      "popularity" : 0,
      "type" : "artist",
      "uri" : "spotify:artist:6jZAnGrLYj6ZXRIhW8sS6i"
    }, {
      "external_urls" : {
        "spotify" : "https://open.spotify.com/artist/3DzV4yUlPbppOVNKl0fwCz"
      },
      "followers" : {
        "href" : null,
        "total" : 12
      },
      "genres" : [ ],
      "href" : "https://api.spotify.com/v1/artists/3DzV4yUlPbppOVNKl0fwCz",
      "id" : "3DzV4yUlPbppOVNKl0fwCz",
      "images" : [ ],
      "name" : "Gregory Isaacs, DJ MUMS",
      "popularity" : 0,
      "type" : "artist",
      "uri" : "spotify:artist:3DzV4yUlPbppOVNKl0fwCz"
    } ],
    "limit" : 20,
    "next" : "https://api.spotify.com/v1/search?query=DJ+ISAAC&type=artist&market=US&offset=20&limit=20",
    "offset" : 0,
    "previous" : null,
    "total" : 23
  }
}