{
  "artists" : {
    "href" : "https://api.spotify.com/v1/search?query=FRICTION&type=artist&market=US&offset=0&limit=20",
    "items" : [ {
      "external_urls" : {
        "spotify" : "https://open.spotify.com/artist/5xdizdgbQQvGAgAolGhpXr"
      },
      "followers" : {
        "href" : null,
        "total" : 70061
      },
      "genres" : [ "dancefloor dnb", "drum and bass", "uk dnb" ],
      "href" : "https://api.spotify.com/v1/artists/5xdizdgbQQvGAgAolGhpXr",
      "id" : "5xdizdgbQQvGAgAolGhpXr",
      "images" : [ {
        "height" : 640,
        "url" : "https://i.scdn.co/image/ab6761610000e5eb0ce22a6c45944fb89fa470d6",
        "width" : 640
      }, {
        "height" : 320,
        "url" : "https://i.scdn.co/image/ab676161000051740ce22a6c45944fb89fa470d6",
        "width" : 320
      }, {
        "height" : 160,
        "url" : "https://i.scdn.co/image/ab6761610000f1780ce22a6c45944fb89fa470d6",
        "width" : 160
      } ],
      "name" : "Friction",
      "popularity" : 60,
      "type" : "artist",
      "uri" : "spotify:artist:5xdizdgbQQvGAgAolGhpXr"
    }, {
      "external_urls" : {
        "spotify" : "https://open.spotify.com/artist/3f3J2c7e4GKNJuyXP4fSDD"
      },
      "followers" : {
        "href" : null,
        "total" : 10
      },
      "genres" : [ ],
      "href" : "https://api.spotify.com/v1/artists/3f3J2c7e4GKNJuyXP4fSDD",
      "id" : "3f3J2c7e4GKNJuyXP4fSDD",
      "images" : [ ],
      "name" : "FRICTION",
      "popularity" : 0,
      "type" : "artist",
      "uri" : "spotify:artist:3f3J2c7e4GKNJuyXP4fSDD"
    }, {
      "external_urls" : {
        "spotify" : "https://open.spotify.com/artist/6w3KIJjRhRR0yuABLt68Rz"
      },
      "followers" : {
        "href" : null,
        "total" : 36316
      },
      "genres" : [ "epicore", "modern alternative rock" ],
      "href" : "https://api.spotify.com/v1/artists/6w3KIJjRhRR0yuABLt68Rz",
      "id" : "6w3KIJjRhRR0yuABLt68Rz",
      "images" : [ {
        "height" : 640,
        "url" : "https://i.scdn.co/image/ab67616d0000b2739809e88c0cb728ca0a7a111c",
        "width" : 640
      }, {
        "height" : 300,
        "url" : "https://i.scdn.co/image/ab67616d00001e029809e88c0cb728ca0a7a111c",
        "width" : 300
      }, {
        "height" : 64,
        "url" : "https://i.scdn.co/image/ab67616d000048519809e88c0cb728ca0a7a111c",
        "width" : 64
      } ],
      "name" : "Les Friction",
      "popularity" : 45,
      "type" : "artist",
      "uri" : "spotify:artist:6w3KIJjRhRR0yuABLt68Rz"
    }, {
      "external_urls" : {
        "spotify" : "https://open.spotify.com/artist/3J8RR7mf1gzB0BgN8PJrBj"
      },
      "followers" : {
        "href" : null,
        "total" : 40
      },
      "genres" : [ ],
      "href" : "https://api.spotify.com/v1/artists/3J8RR7mf1gzB0BgN8PJrBj",
      "id" : "3J8RR7mf1gzB0BgN8PJrBj",
      "images" : [ {
        "height" : 640,
        "url" : "https://i.scdn.co/image/ab6761610000e5ebfe1937fad4804bc2f09e133d",
        "width" : 640
      }, {
        "height" : 320,
        "url" : "https://i.scdn.co/image/ab67616100005174fe1937fad4804bc2f09e133d",
        "width" : 320
      }, {
        "height" : 160,
        "url" : "https://i.scdn.co/image/ab6761610000f178fe1937fad4804bc2f09e133d",
        "width" : 160
      } ],
      "name" : "Friction",
      "popularity" : 15,
      "type" : "artist",
      "uri" : "spotify:artist:3J8RR7mf1gzB0BgN8PJrBj"
    }, {
      "external_urls" : {
        "spotify" : "https://open.spotify.com/artist/0lRPo492TuOuCGGDWhkwEh"
      },
      "followers" : {
        "href" : null,
        "total" : 18
      },
      "genres" : [ ],
      "href" : "https://api.spotify.com/v1/artists/0lRPo492TuOuCGGDWhkwEh",
      "id" : "0lRPo492TuOuCGGDWhkwEh",
      "images" : [ {
        "height" : 640,
        "url" : "https://i.scdn.co/image/ab67616d0000b2735de3c8ae9c32d326d32e6f7e",
        "width" : 640
      }, {
        "height" : 300,
        "url" : "https://i.scdn.co/image/ab67616d00001e025de3c8ae9c32d326d32e6f7e",
        "width" : 300
      }, {
        "height" : 64,
        "url" : "https://i.scdn.co/image/ab67616d000048515de3c8ae9c32d326d32e6f7e",
        "width" : 64
      } ],
      "name" : "The Grey Friction",
      "popularity" : 15,
      "type" : "artist",
      "uri" : "spotify:artist:0lRPo492TuOuCGGDWhkwEh"
    }, {
      "external_urls" : {
        "spotify" : "https://open.spotify.com/artist/1UlBOvOJ2MrJ6r9iJtMJ3t"
      },
      "followers" : {
        "href" : null,
        "total" : 430
      },
      "genres" : [ ],
      "href" : "https://api.spotify.com/v1/artists/1UlBOvOJ2MrJ6r9iJtMJ3t",
      "id" : "1UlBOvOJ2MrJ6r9iJtMJ3t",
      "images" : [ {
        "height" : 640,
        "url" : "https://i.scdn.co/image/ab6761610000e5eb254c1b4d536cd7beadf59c3c",
        "width" : 640
      }, {
        "height" : 320,
        "url" : "https://i.scdn.co/image/ab67616100005174254c1b4d536cd7beadf59c3c",
        "width" : 320
      }, {
        "height" : 160,
        "url" : "https://i.scdn.co/image/ab6761610000f178254c1b4d536cd7beadf59c3c",
        "width" : 160
      } ],
      "name" : "Friction",
      "popularity" : 9,
      "type" : "artist",
      "uri" : "spotify:artist:1UlBOvOJ2MrJ6r9iJtMJ3t"
    }, {
      "external_urls" : {
        "spotify" : "https://open.spotify.com/artist/2YAZ2WzvP6ejDQo0uXA0Sc"
      },
      "followers" : {
        "href" : null,
        "total" : 1633
      },
      "genres" : [ "j-punk" ],
      "href" : "https://api.spotify.com/v1/artists/2YAZ2WzvP6ejDQo0uXA0Sc",
      "id" : "2YAZ2WzvP6ejDQo0uXA0Sc",
      "images" : [ {
        "height" : 640,
        "url" : "https://i.scdn.co/image/ab67616d0000b273782f2b77f185e2965d38e040",
        "width" : 640
      }, {
        "height" : 300,
        "url" : "https://i.scdn.co/image/ab67616d00001e02782f2b77f185e2965d38e040",
        "width" : 300
      }, {
        "height" : 64,
        "url" : "https://i.scdn.co/image/ab67616d00004851782f2b77f185e2965d38e040",
        "width" : 64
      } ],
      "name" : "Friction",
      "popularity" : 11,
      "type" : "artist",
      "uri" : "spotify:artist:2YAZ2WzvP6ejDQo0uXA0Sc"
    }, {
      "external_urls" : {
        "spotify" : "https://open.spotify.com/artist/4yhN1Wgyp17nTNh0QvyEY4"
      },
      "followers" : {
        "href" : null,
        "total" : 26
      },
      "genres" : [ ],
      "href" : "https://api.spotify.com/v1/artists/4yhN1Wgyp17nTNh0QvyEY4",
      "id" : "4yhN1Wgyp17nTNh0QvyEY4",
      "images" : [ {
        "height" : 640,
        "url" : "https://i.scdn.co/image/ab6761610000e5eb36c1eb101f697a3f1a09f7a1",
        "width" : 640
      }, {
        "height" : 320,
        "url" : "https://i.scdn.co/image/ab6761610000517436c1eb101f697a3f1a09f7a1",
        "width" : 320
      }, {
        "height" : 160,
        "url" : "https://i.scdn.co/image/ab6761610000f17836c1eb101f697a3f1a09f7a1",
        "width" : 160
      } ],
      "name" : "Fat Ass Friction",
      "popularity" : 6,
      "type" : "artist",
      "uri" : "spotify:artist:4yhN1Wgyp17nTNh0QvyEY4"
    }, {
      "external_urls" : {
        "spotify" : "https://open.spotify.com/artist/5Hxhywd7al99XSCbS3kCJt"
      },
      "followers" : {
        "href" : null,
        "total" : 11
      },
      "genres" : [ ],
      "href" : "https://api.spotify.com/v1/artists/5Hxhywd7al99XSCbS3kCJt",
      "id" : "5Hxhywd7al99XSCbS3kCJt",
      "images" : [ {
        "height" : 640,
        "url" : "https://i.scdn.co/image/ab67616d0000b2734569a9ab0ef5c2127b107b24",
        "width" : 640
      }, {
        "height" : 300,
        "url" : "https://i.scdn.co/image/ab67616d00001e024569a9ab0ef5c2127b107b24",
        "width" : 300
      }, {
        "height" : 64,
        "url" : "https://i.scdn.co/image/ab67616d000048514569a9ab0ef5c2127b107b24",
        "width" : 64
      } ],
      "name" : "Friction",
      "popularity" : 3,
      "type" : "artist",
      "uri" : "spotify:artist:5Hxhywd7al99XSCbS3kCJt"
    }, {
      "external_urls" : {
        "spotify" : "https://open.spotify.com/artist/5PeqsleTYJVKvgjXiEnvrz"
      },
      "followers" : {
        "href" : null,
        "total" : 26
      },
      "genres" : [ ],
      "href" : "https://api.spotify.com/v1/artists/5PeqsleTYJVKvgjXiEnvrz",
      "id" : "5PeqsleTYJVKvgjXiEnvrz",
      "images" : [ {
        "height" : 640,
        "url" : "https://i.scdn.co/image/ab67616d0000b2731aebb07ca95cc03ee43152fd",
        "width" : 640
      }, {
        "height" : 300,
        "url" : "https://i.scdn.co/image/ab67616d00001e021aebb07ca95cc03ee43152fd",
        "width" : 300
      }, {
        "height" : 64,
        "url" : "https://i.scdn.co/image/ab67616d000048511aebb07ca95cc03ee43152fd",
        "width" : 64
      } ],
      "name" : "Frank Friction",
      "popularity" : 8,
      "type" : "artist",
      "uri" : "spotify:artist:5PeqsleTYJVKvgjXiEnvrz"
    }, {
      "external_urls" : {
        "spotify" : "https://open.spotify.com/artist/6fpCxp1Z5SbHvB7Mj1YYNV"
      },
      "followers" : {
        "href" : null,
        "total" : 254
      },
      "genres" : [ "neurostep" ],
      "href" : "https://api.spotify.com/v1/artists/6fpCxp1Z5SbHvB7Mj1YYNV",
      "id" : "6fpCxp1Z5SbHvB7Mj1YYNV",
      "images" : [ ],
      "name" : "Friction & Skream feat. Scrufizzer, P Money & Riko Dan",
      "popularity" : 7,
      "type" : "artist",
      "uri" : "spotify:artist:6fpCxp1Z5SbHvB7Mj1YYNV"
    }, {
      "external_urls" : {
        "spotify" : "https://open.spotify.com/artist/1aAF8fyw6A8GLknzvhjA6J"
      },
      "followers" : {
        "href" : null,
        "total" : 247
      },
      "genres" : [ ],
      "href" : "https://api.spotify.com/v1/artists/1aAF8fyw6A8GLknzvhjA6J",
      "id" : "1aAF8fyw6A8GLknzvhjA6J",
      "images" : [ ],
      "name" : "Friction & Spice",
      "popularity" : 7,
      "type" : "artist",
      "uri" : "spotify:artist:1aAF8fyw6A8GLknzvhjA6J"
    }, {
      "external_urls" : {
        "spotify" : "https://open.spotify.com/artist/5Cj4K7AOB7SpVKIKB3CC4f"
      },
      "followers" : {
        "href" : null,
        "total" : 2310
      },
      "genres" : [ "bisrock" ],
      "href" : "https://api.spotify.com/v1/artists/5Cj4K7AOB7SpVKIKB3CC4f",
      "id" : "5Cj4K7AOB7SpVKIKB3CC4f",
      "images" : [ {
        "height" : 640,
        "url" : "https://i.scdn.co/image/ab67616d0000b27338b269aa6f0409fb7390f95a",
        "width" : 640
      }, {
        "height" : 300,
        "url" : "https://i.scdn.co/image/ab67616d00001e0238b269aa6f0409fb7390f95a",
        "width" : 300
      }, {
        "height" : 64,
        "url" : "https://i.scdn.co/image/ab67616d0000485138b269aa6f0409fb7390f95a",
        "width" : 64
      } ],
      "name" : "Smooth Friction",
      "popularity" : 16,
      "type" : "artist",
      "uri" : "spotify:artist:5Cj4K7AOB7SpVKIKB3CC4f"
    }, {
      "external_urls" : {
        "spotify" : "https://open.spotify.com/artist/0I4Gw7bCFpq0zep4M0EIqu"
      },
      "followers" : {
        "href" : null,
        "total" : 27
      },
      "genres" : [ ],
      "href" : "https://api.spotify.com/v1/artists/0I4Gw7bCFpq0zep4M0EIqu",
      "id" : "0I4Gw7bCFpq0zep4M0EIqu",
      "images" : [ {
        "height" : 640,
        "url" : "https://i.scdn.co/image/ab67616d0000b2731644feb34a2b1394725694bd",
        "width" : 640
      }, {
        "height" : 300,
        "url" : "https://i.scdn.co/image/ab67616d00001e021644feb34a2b1394725694bd",
        "width" : 300
      }, {
        "height" : 64,
        "url" : "https://i.scdn.co/image/ab67616d000048511644feb34a2b1394725694bd",
        "width" : 64
      } ],
      "name" : "Friction",
      "popularity" : 24,
      "type" : "artist",
      "uri" : "spotify:artist:0I4Gw7bCFpq0zep4M0EIqu"
    }, {
      "external_urls" : {
        "spotify" : "https://open.spotify.com/artist/7h8EA0SwqvhSdR76emDEGw"
      },
      "followers" : {
        "href" : null,
        "total" : 72
      },
      "genres" : [ ],
      "href" : "https://api.spotify.com/v1/artists/7h8EA0SwqvhSdR76emDEGw",
      "id" : "7h8EA0SwqvhSdR76emDEGw",
      "images" : [ {
        "height" : 640,
        "url" : "https://i.scdn.co/image/ab67616d0000b273e95dc564f76ddaee6397b87d",
        "width" : 640
      }, {
        "height" : 300,
        "url" : "https://i.scdn.co/image/ab67616d00001e02e95dc564f76ddaee6397b87d",
        "width" : 300
      }, {
        "height" : 64,
        "url" : "https://i.scdn.co/image/ab67616d00004851e95dc564f76ddaee6397b87d",
        "width" : 64
      } ],
      "name" : "Friction Farm",
      "popularity" : 1,
      "type" : "artist",
      "uri" : "spotify:artist:7h8EA0SwqvhSdR76emDEGw"
    }, {
      "external_urls" : {
        "spotify" : "https://open.spotify.com/artist/5ogPtqQmsbsDupknCh1QcC"
      },
      "followers" : {
        "href" : null,
        "total" : 15
      },
      "genres" : [ ],
      "href" : "https://api.spotify.com/v1/artists/5ogPtqQmsbsDupknCh1QcC",
      "id" : "5ogPtqQmsbsDupknCh1QcC",
      "images" : [ {
        "height" : 640,
        "url" : "https://i.scdn.co/image/ab67616d0000b27371b893e34d882937ce9a79a0",
        "width" : 640
      }, {
        "height" : 300,
        "url" : "https://i.scdn.co/image/ab67616d00001e0271b893e34d882937ce9a79a0",
        "width" : 300
      }, {
        "height" : 64,
        "url" : "https://i.scdn.co/image/ab67616d0000485171b893e34d882937ce9a79a0",
        "width" : 64
      } ],
      "name" : "Friction",
      "popularity" : 9,
      "type" : "artist",
      "uri" : "spotify:artist:5ogPtqQmsbsDupknCh1QcC"
    }, {
      "external_urls" : {
        "spotify" : "https://open.spotify.com/artist/3UkymKjTPPxQgIxpgsfAx9"
      },
      "followers" : {
        "href" : null,
        "total" : 2
      },
      "genres" : [ ],
      "href" : "https://api.spotify.com/v1/artists/3UkymKjTPPxQgIxpgsfAx9",
      "id" : "3UkymKjTPPxQgIxpgsfAx9",
      "images" : [ {
        "height" : 640,
        "url" : "https://i.scdn.co/image/ab67616d0000b27353e483aa05518bc338de1822",
        "width" : 640
      }, {
        "height" : 300,
        "url" : "https://i.scdn.co/image/ab67616d00001e0253e483aa05518bc338de1822",
        "width" : 300
      }, {
        "height" : 64,
        "url" : "https://i.scdn.co/image/ab67616d0000485153e483aa05518bc338de1822",
        "width" : 64
      } ],
      "name" : "Friction",
      "popularity" : 0,
      "type" : "artist",
      "uri" : "spotify:artist:3UkymKjTPPxQgIxpgsfAx9"
    }, {
      "external_urls" : {
        "spotify" : "https://open.spotify.com/artist/4EfJGbQJtEQAKgvC3zfMZD"
      },
      "followers" : {
        "href" : null,
        "total" : 13
      },
      "genres" : [ ],
      "href" : "https://api.spotify.com/v1/artists/4EfJGbQJtEQAKgvC3zfMZD",
      "id" : "4EfJGbQJtEQAKgvC3zfMZD",
      "images" : [ ],
      "name" : "Friction",
      "popularity" : 4,
      "type" : "artist",
      "uri" : "spotify:artist:4EfJGbQJtEQAKgvC3zfMZD"
    }, {
      "external_urls" : {
        "spotify" : "https://open.spotify.com/artist/1bUYt8Iti5wvxaXoWEyIFK"
      },
      "followers" : {
        "href" : null,
        "total" : 38
      },
      "genres" : [ ],
      "href" : "https://api.spotify.com/v1/artists/1bUYt8Iti5wvxaXoWEyIFK",
      "id" : "1bUYt8Iti5wvxaXoWEyIFK",
      "images" : [ {
        "height" : 640,
        "url" : "https://i.scdn.co/image/ab6761610000e5eba70919ca6d29345b81225d1a",
        "width" : 640
      }, {
        "height" : 320,
        "url" : "https://i.scdn.co/image/ab67616100005174a70919ca6d29345b81225d1a",
        "width" : 320
      }, {
        "height" : 160,
        "url" : "https://i.scdn.co/image/ab6761610000f178a70919ca6d29345b81225d1a",
        "width" : 160
      } ],
      "name" : "Frictionless",
      "popularity" : 2,
      "type" : "artist",
      "uri" : "spotify:artist:1bUYt8Iti5wvxaXoWEyIFK"
    }, {
      "external_urls" : {
        "spotify" : "https://open.spotify.com/artist/2VP4pybVj8BbyJJKEeRN14"
      },
      "followers" : {
        "href" : null,
        "total" : 383
      },
      "genres" : [ ],
      "href" : "https://api.spotify.com/v1/artists/2VP4pybVj8BbyJJKEeRN14",
      "id" : "2VP4pybVj8BbyJJKEeRN14",
      "images" : [ {
        "height" : 640,
        "url" : "https://i.scdn.co/image/ab67616d0000b27356d0212a2bf113b84f200ee4",
        "width" : 640
      }, {
        "height" : 300,
        "url" : "https://i.scdn.co/image/ab67616d00001e0256d0212a2bf113b84f200ee4",
        "width" : 300
      }, {
        "height" : 64,
        "url" : "https://i.scdn.co/image/ab67616d0000485156d0212a2bf113b84f200ee4",
        "width" : 64
      } ],
      "name" : "Frictionless",
      "popularity" : 8,
      "type" : "artist",
      "uri" : "spotify:artist:2VP4pybVj8BbyJJKEeRN14"
    } ],
    "limit" : 20,
    "next" : "https://api.spotify.com/v1/search?query=FRICTION&type=artist&market=US&offset=20&limit=20",
    "offset" : 0,
    "previous" : null,
    "total" : 152
  }
}