{
  "artists" : {
    "href" : "https://api.spotify.com/v1/search?query=HANA&type=artist&market=US&offset=0&limit=20",
    "items" : [ {
      "external_urls" : {
        "spotify" : "https://open.spotify.com/artist/224Zsim3dmWXWYUXFuHv0o"
      },
      "followers" : {
        "href" : null,
        "total" : 100195
      },
      "genres" : [ "dark pop" ],
      "href" : "https://api.spotify.com/v1/artists/224Zsim3dmWXWYUXFuHv0o",
      "id" : "224Zsim3dmWXWYUXFuHv0o",
      "images" : [ {
        "height" : 640,
        "url" : "https://i.scdn.co/image/ab6761610000e5ebc3de1d2bf46cb0ee5146d48e",
        "width" : 640
      }, {
        "height" : 320,
        "url" : "https://i.scdn.co/image/ab67616100005174c3de1d2bf46cb0ee5146d48e",
        "width" : 320
      }, {
        "height" : 160,
        "url" : "https://i.scdn.co/image/ab6761610000f178c3de1d2bf46cb0ee5146d48e",
        "width" : 160
      } ],
      "name" : "HANA",
      "popularity" : 53,
      "type" : "artist",
      "uri" : "spotify:artist:224Zsim3dmWXWYUXFuHv0o"
    }, {
      "external_urls" : {
        "spotify" : "https://open.spotify.com/artist/7kxdoQTibsQW5pOim1p2i3"
      },
      "followers" : {
        "href" : null,
        "total" : 8893
      },
      "genres" : [ "japanese piano", "neo-classical" ],
      "href" : "https://api.spotify.com/v1/artists/7kxdoQTibsQW5pOim1p2i3",
      "id" : "7kxdoQTibsQW5pOim1p2i3",
      "images" : [ {
        "height" : 640,
        "url" : "https://i.scdn.co/image/ab6761610000e5eb9d39407ba688b9b7861a65db",
        "width" : 640
      }, {
        "height" : 320,
        "url" : "https://i.scdn.co/image/ab676161000051749d39407ba688b9b7861a65db",
        "width" : 320
      }, {
        "height" : 160,
        "url" : "https://i.scdn.co/image/ab6761610000f1789d39407ba688b9b7861a65db",
        "width" : 160
      } ],
      "name" : "Daigo Hanada",
      "popularity" : 58,
      "type" : "artist",
      "uri" : "spotify:artist:7kxdoQTibsQW5pOim1p2i3"
    }, {
      "external_urls" : {
        "spotify" : "https://open.spotify.com/artist/3diDUq8QMCCtx8a4Jy42aO"
      },
      "followers" : {
        "href" : null,
        "total" : 25436
      },
      "genres" : [ "bedroom pop", "indie pop" ],
      "href" : "https://api.spotify.com/v1/artists/3diDUq8QMCCtx8a4Jy42aO",
      "id" : "3diDUq8QMCCtx8a4Jy42aO",
      "images" : [ {
        "height" : 640,
        "url" : "https://i.scdn.co/image/ab6761610000e5eb4cf11b145d5f997aa047f315",
        "width" : 640
      }, {
        "height" : 320,
        "url" : "https://i.scdn.co/image/ab676161000051744cf11b145d5f997aa047f315",
        "width" : 320
      }, {
        "height" : 160,
        "url" : "https://i.scdn.co/image/ab6761610000f1784cf11b145d5f997aa047f315",
        "width" : 160
      } ],
      "name" : "Hana Vu",
      "popularity" : 46,
      "type" : "artist",
      "uri" : "spotify:artist:3diDUq8QMCCtx8a4Jy42aO"
    }, {
      "external_urls" : {
        "spotify" : "https://open.spotify.com/artist/5ATHU1bD4LwjXTv4jdxyGh"
      },
      "followers" : {
        "href" : null,
        "total" : 506
      },
      "genres" : [ ],
      "href" : "https://api.spotify.com/v1/artists/5ATHU1bD4LwjXTv4jdxyGh",
      "id" : "5ATHU1bD4LwjXTv4jdxyGh",
      "images" : [ {
        "height" : 640,
        "url" : "https://i.scdn.co/image/ab6761610000e5ebf3ffd6237b43c15b9c23b520",
        "width" : 640
      }, {
        "height" : 320,
        "url" : "https://i.scdn.co/image/ab67616100005174f3ffd6237b43c15b9c23b520",
        "width" : 320
      }, {
        "height" : 160,
        "url" : "https://i.scdn.co/image/ab6761610000f178f3ffd6237b43c15b9c23b520",
        "width" : 160
      } ],
      "name" : "HANA",
      "popularity" : 15,
      "type" : "artist",
      "uri" : "spotify:artist:5ATHU1bD4LwjXTv4jdxyGh"
    }, {
      "external_urls" : {
        "spotify" : "https://open.spotify.com/artist/343YYaA5MSjiZZ5cGyTr4u"
      },
      "followers" : {
        "href" : null,
        "total" : 443801
      },
      "genres" : [ "israeli pop" ],
      "href" : "https://api.spotify.com/v1/artists/343YYaA5MSjiZZ5cGyTr4u",
      "id" : "343YYaA5MSjiZZ5cGyTr4u",
      "images" : [ {
        "height" : 640,
        "url" : "https://i.scdn.co/image/ab6761610000e5eb351cdd7b4d9b8e1571b528ea",
        "width" : 640
      }, {
        "height" : 320,
        "url" : "https://i.scdn.co/image/ab67616100005174351cdd7b4d9b8e1571b528ea",
        "width" : 320
      }, {
        "height" : 160,
        "url" : "https://i.scdn.co/image/ab6761610000f178351cdd7b4d9b8e1571b528ea",
        "width" : 160
      } ],
      "name" : "Hanan Ben Ari",
      "popularity" : 54,
      "type" : "artist",
      "uri" : "spotify:artist:343YYaA5MSjiZZ5cGyTr4u"
    }, {
      "external_urls" : {
        "spotify" : "https://open.spotify.com/artist/3eMchOXfWkF7H7z3z8dGrf"
      },
      "followers" : {
        "href" : null,
        "total" : 55905
      },
      "genres" : [ "cantopop" ],
      "href" : "https://api.spotify.com/v1/artists/3eMchOXfWkF7H7z3z8dGrf",
      "id" : "3eMchOXfWkF7H7z3z8dGrf",
      "images" : [ {
        "height" : 640,
        "url" : "https://i.scdn.co/image/ab6761610000e5eb8ec80a2929519d1c7ebdc416",
        "width" : 640
      }, {
        "height" : 320,
        "url" : "https://i.scdn.co/image/ab676161000051748ec80a2929519d1c7ebdc416",
        "width" : 320
      }, {
        "height" : 160,
        "url" : "https://i.scdn.co/image/ab6761610000f1788ec80a2929519d1c7ebdc416",
        "width" : 160
      } ],
      "name" : "HANA",
      "popularity" : 47,
      "type" : "artist",
      "uri" : "spotify:artist:3eMchOXfWkF7H7z3z8dGrf"
    }, {
      "external_urls" : {
        "spotify" : "https://open.spotify.com/artist/014bW80BPmy5WVcFBoHwNq"
      },
      "followers" : {
        "href" : null,
        "total" : 21525
      },
      "genres" : [ ],
      "href" : "https://api.spotify.com/v1/artists/014bW80BPmy5WVcFBoHwNq",
      "id" : "014bW80BPmy5WVcFBoHwNq",
      "images" : [ {
        "height" : 640,
        "url" : "https://i.scdn.co/image/ab6761610000e5eb2878c31086561d056f5b3065",
        "width" : 640
      }, {
        "height" : 320,
        "url" : "https://i.scdn.co/image/ab676161000051742878c31086561d056f5b3065",
        "width" : 320
      }, {
        "height" : 160,
        "url" : "https://i.scdn.co/image/ab6761610000f1782878c31086561d056f5b3065",
        "width" : 160
      } ],
      "name" : "sajou no hana",
      "popularity" : 47,
      "type" : "artist",
      "uri" : "spotify:artist:014bW80BPmy5WVcFBoHwNq"
    }, {
      "external_urls" : {
        "spotify" : "https://open.spotify.com/artist/0IKGJzbrTOdmjhgsg9qbc2"
      },
      "followers" : {
        "href" : null,
        "total" : 413
      },
      "genres" : [ ],
      "href" : "https://api.spotify.com/v1/artists/0IKGJzbrTOdmjhgsg9qbc2",
      "id" : "0IKGJzbrTOdmjhgsg9qbc2",
      "images" : [ {
        "height" : 640,
        "url" : "https://i.scdn.co/image/ab67616d0000b273ac5e44367f1b722d4bcf000b",
        "width" : 640
      }, {
        "height" : 300,
        "url" : "https://i.scdn.co/image/ab67616d00001e02ac5e44367f1b722d4bcf000b",
        "width" : 300
      }, {
        "height" : 64,
        "url" : "https://i.scdn.co/image/ab67616d00004851ac5e44367f1b722d4bcf000b",
        "width" : 64
      } ],
      "name" : "HANA",
      "popularity" : 22,
      "type" : "artist",
      "uri" : "spotify:artist:0IKGJzbrTOdmjhgsg9qbc2"
    }, {
      "external_urls" : {
        "spotify" : "https://open.spotify.com/artist/056zUKoqXm2fJ9TYuNZ0k3"
      },
      "followers" : {
        "href" : null,
        "total" : 22345
      },
      "genres" : [ "denpa-kei" ],
      "href" : "https://api.spotify.com/v1/artists/056zUKoqXm2fJ9TYuNZ0k3",
      "id" : "056zUKoqXm2fJ9TYuNZ0k3",
      "images" : [ {
        "height" : 640,
        "url" : "https://i.scdn.co/image/ab67616d0000b2737dc535692414fb8c5c13a9c1",
        "width" : 640
      }, {
        "height" : 300,
        "url" : "https://i.scdn.co/image/ab67616d00001e027dc535692414fb8c5c13a9c1",
        "width" : 300
      }, {
        "height" : 64,
        "url" : "https://i.scdn.co/image/ab67616d000048517dc535692414fb8c5c13a9c1",
        "width" : 64
      } ],
      "name" : "Hanae",
      "popularity" : 48,
      "type" : "artist",
      "uri" : "spotify:artist:056zUKoqXm2fJ9TYuNZ0k3"
    }, {
      "external_urls" : {
        "spotify" : "https://open.spotify.com/artist/3xRyvI4HAg7OilXnkiDnQe"
      },
      "followers" : {
        "href" : null,
        "total" : 192
      },
      "genres" : [ "experimental r&b" ],
      "href" : "https://api.spotify.com/v1/artists/3xRyvI4HAg7OilXnkiDnQe",
      "id" : "3xRyvI4HAg7OilXnkiDnQe",
      "images" : [ {
        "height" : 640,
        "url" : "https://i.scdn.co/image/ab6761610000e5eb1939bd9443582e674d72239d",
        "width" : 640
      }, {
        "height" : 320,
        "url" : "https://i.scdn.co/image/ab676161000051741939bd9443582e674d72239d",
        "width" : 320
      }, {
        "height" : 160,
        "url" : "https://i.scdn.co/image/ab6761610000f1781939bd9443582e674d72239d",
        "width" : 160
      } ],
      "name" : "HANAH",
      "popularity" : 4,
      "type" : "artist",
      "uri" : "spotify:artist:3xRyvI4HAg7OilXnkiDnQe"
    }, {
      "external_urls" : {
        "spotify" : "https://open.spotify.com/artist/7euqB7XTrbyVmxAGyzLNbD"
      },
      "followers" : {
        "href" : null,
        "total" : 23
      },
      "genres" : [ ],
      "href" : "https://api.spotify.com/v1/artists/7euqB7XTrbyVmxAGyzLNbD",
      "id" : "7euqB7XTrbyVmxAGyzLNbD",
      "images" : [ {
        "height" : 640,
        "url" : "https://i.scdn.co/image/ab67616d0000b2730ac7ff075ee09bd532081783",
        "width" : 640
      }, {
        "height" : 300,
        "url" : "https://i.scdn.co/image/ab67616d00001e020ac7ff075ee09bd532081783",
        "width" : 300
      }, {
        "height" : 64,
        "url" : "https://i.scdn.co/image/ab67616d000048510ac7ff075ee09bd532081783",
        "width" : 64
      } ],
      "name" : "Hana Daugherty",
      "popularity" : 33,
      "type" : "artist",
      "uri" : "spotify:artist:7euqB7XTrbyVmxAGyzLNbD"
    }, {
      "external_urls" : {
        "spotify" : "https://open.spotify.com/artist/2MCCq2aHPYnr5DHIy9TUD6"
      },
      "followers" : {
        "href" : null,
        "total" : 192
      },
      "genres" : [ ],
      "href" : "https://api.spotify.com/v1/artists/2MCCq2aHPYnr5DHIy9TUD6",
      "id" : "2MCCq2aHPYnr5DHIy9TUD6",
      "images" : [ ],
      "name" : "HANA",
      "popularity" : 16,
      "type" : "artist",
      "uri" : "spotify:artist:2MCCq2aHPYnr5DHIy9TUD6"
    }, {
      "external_urls" : {
        "spotify" : "https://open.spotify.com/artist/2vRSKTF2P233iIMuhkoO2l"
      },
      "followers" : {
        "href" : null,
        "total" : 2085
      },
      "genres" : [ ],
      "href" : "https://api.spotify.com/v1/artists/2vRSKTF2P233iIMuhkoO2l",
      "id" : "2vRSKTF2P233iIMuhkoO2l",
      "images" : [ {
        "height" : 640,
        "url" : "https://i.scdn.co/image/ab6761610000e5eb3dc160a66810db75a498393a",
        "width" : 640
      }, {
        "height" : 320,
        "url" : "https://i.scdn.co/image/ab676161000051743dc160a66810db75a498393a",
        "width" : 320
      }, {
        "height" : 160,
        "url" : "https://i.scdn.co/image/ab6761610000f1783dc160a66810db75a498393a",
        "width" : 160
      } ],
      "name" : "Hanagoori",
      "popularity" : 36,
      "type" : "artist",
      "uri" : "spotify:artist:2vRSKTF2P233iIMuhkoO2l"
    }, {
      "external_urls" : {
        "spotify" : "https://open.spotify.com/artist/4s9Qw2f0XuCnLlVf8D4Plq"
      },
      "followers" : {
        "href" : null,
        "total" : 5389
      },
      "genres" : [ "idol rock" ],
      "href" : "https://api.spotify.com/v1/artists/4s9Qw2f0XuCnLlVf8D4Plq",
      "id" : "4s9Qw2f0XuCnLlVf8D4Plq",
      "images" : [ {
        "height" : 640,
        "url" : "https://i.scdn.co/image/ab67616d0000b273da7dc4eebc63677b64596a65",
        "width" : 640
      }, {
        "height" : 300,
        "url" : "https://i.scdn.co/image/ab67616d00001e02da7dc4eebc63677b64596a65",
        "width" : 300
      }, {
        "height" : 64,
        "url" : "https://i.scdn.co/image/ab67616d00004851da7dc4eebc63677b64596a65",
        "width" : 64
      } ],
      "name" : "HANABIE.",
      "popularity" : 33,
      "type" : "artist",
      "uri" : "spotify:artist:4s9Qw2f0XuCnLlVf8D4Plq"
    }, {
      "external_urls" : {
        "spotify" : "https://open.spotify.com/artist/1ZjnbNm8j6NPmCH1Rdz0nK"
      },
      "followers" : {
        "href" : null,
        "total" : 54
      },
      "genres" : [ ],
      "href" : "https://api.spotify.com/v1/artists/1ZjnbNm8j6NPmCH1Rdz0nK",
      "id" : "1ZjnbNm8j6NPmCH1Rdz0nK",
      "images" : [ {
        "height" : 640,
        "url" : "https://i.scdn.co/image/ab67616d0000b273769bd044244da7a84320a71f",
        "width" : 640
      }, {
        "height" : 300,
        "url" : "https://i.scdn.co/image/ab67616d00001e02769bd044244da7a84320a71f",
        "width" : 300
      }, {
        "height" : 64,
        "url" : "https://i.scdn.co/image/ab67616d00004851769bd044244da7a84320a71f",
        "width" : 64
      } ],
      "name" : "Hana Maldonado",
      "popularity" : 31,
      "type" : "artist",
      "uri" : "spotify:artist:1ZjnbNm8j6NPmCH1Rdz0nK"
    }, {
      "external_urls" : {
        "spotify" : "https://open.spotify.com/artist/44u07DJH5eTBDjhZ7LpMO0"
      },
      "followers" : {
        "href" : null,
        "total" : 47099
      },
      "genres" : [ "anime", "seiyu" ],
      "href" : "https://api.spotify.com/v1/artists/44u07DJH5eTBDjhZ7LpMO0",
      "id" : "44u07DJH5eTBDjhZ7LpMO0",
      "images" : [ {
        "height" : 640,
        "url" : "https://i.scdn.co/image/ab6761610000e5ebac52bff4c5627c55ac2a38c6",
        "width" : 640
      }, {
        "height" : 320,
        "url" : "https://i.scdn.co/image/ab67616100005174ac52bff4c5627c55ac2a38c6",
        "width" : 320
      }, {
        "height" : 160,
        "url" : "https://i.scdn.co/image/ab6761610000f178ac52bff4c5627c55ac2a38c6",
        "width" : 160
      } ],
      "name" : "Kana Hanazawa",
      "popularity" : 45,
      "type" : "artist",
      "uri" : "spotify:artist:44u07DJH5eTBDjhZ7LpMO0"
    }, {
      "external_urls" : {
        "spotify" : "https://open.spotify.com/artist/0beZK5YZDq0J0encF1noGZ"
      },
      "followers" : {
        "href" : null,
        "total" : 6
      },
      "genres" : [ ],
      "href" : "https://api.spotify.com/v1/artists/0beZK5YZDq0J0encF1noGZ",
      "id" : "0beZK5YZDq0J0encF1noGZ",
      "images" : [ {
        "height" : 640,
        "url" : "https://i.scdn.co/image/ab67616d0000b2734da0686fc5837dd7d796a52b",
        "width" : 640
      }, {
        "height" : 300,
        "url" : "https://i.scdn.co/image/ab67616d00001e024da0686fc5837dd7d796a52b",
        "width" : 300
      }, {
        "height" : 64,
        "url" : "https://i.scdn.co/image/ab67616d000048514da0686fc5837dd7d796a52b",
        "width" : 64
      } ],
      "name" : "HANA",
      "popularity" : 0,
      "type" : "artist",
      "uri" : "spotify:artist:0beZK5YZDq0J0encF1noGZ"
    }, {
      "external_urls" : {
        "spotify" : "https://open.spotify.com/artist/15HhIikIlN2rc1JZSBzrhj"
      },
      "followers" : {
        "href" : null,
        "total" : 5639
      },
      "genres" : [ "meditation", "sleep", "tone" ],
      "href" : "https://api.spotify.com/v1/artists/15HhIikIlN2rc1JZSBzrhj",
      "id" : "15HhIikIlN2rc1JZSBzrhj",
      "images" : [ {
        "height" : 640,
        "url" : "https://i.scdn.co/image/ab6761610000e5eb3ed0710080f631e4d9c13d5d",
        "width" : 640
      }, {
        "height" : 320,
        "url" : "https://i.scdn.co/image/ab676161000051743ed0710080f631e4d9c13d5d",
        "width" : 320
      }, {
        "height" : 160,
        "url" : "https://i.scdn.co/image/ab6761610000f1783ed0710080f631e4d9c13d5d",
        "width" : 160
      } ],
      "name" : "Zen Hanami",
      "popularity" : 35,
      "type" : "artist",
      "uri" : "spotify:artist:15HhIikIlN2rc1JZSBzrhj"
    }, {
      "external_urls" : {
        "spotify" : "https://open.spotify.com/artist/3RlWIUFt3v2U3RLQIkhG7E"
      },
      "followers" : {
        "href" : null,
        "total" : 4
      },
      "genres" : [ ],
      "href" : "https://api.spotify.com/v1/artists/3RlWIUFt3v2U3RLQIkhG7E",
      "id" : "3RlWIUFt3v2U3RLQIkhG7E",
      "images" : [ {
        "height" : 640,
        "url" : "https://i.scdn.co/image/ab6761610000e5ebbad687a7d30a209c0e03c0d0",
        "width" : 640
      }, {
        "height" : 320,
        "url" : "https://i.scdn.co/image/ab67616100005174bad687a7d30a209c0e03c0d0",
        "width" : 320
      }, {
        "height" : 160,
        "url" : "https://i.scdn.co/image/ab6761610000f178bad687a7d30a209c0e03c0d0",
        "width" : 160
      } ],
      "name" : "HANA",
      "popularity" : 9,
      "type" : "artist",
      "uri" : "spotify:artist:3RlWIUFt3v2U3RLQIkhG7E"
    }, {
      "external_urls" : {
        "spotify" : "https://open.spotify.com/artist/10BZZcy4jus4jMxUknYq9p"
      },
      "followers" : {
        "href" : null,
        "total" : 11
      },
      "genres" : [ ],
      "href" : "https://api.spotify.com/v1/artists/10BZZcy4jus4jMxUknYq9p",
      "id" : "10BZZcy4jus4jMxUknYq9p",
      "images" : [ {
        "height" : 640,
        "url" : "https://i.scdn.co/image/ab67616d0000b27366ad706325de1c32c4b03187",
        "width" : 640
      }, {
        "height" : 300,
        "url" : "https://i.scdn.co/image/ab67616d00001e0266ad706325de1c32c4b03187",
        "width" : 300
      }, {
        "height" : 64,
        "url" : "https://i.scdn.co/image/ab67616d0000485166ad706325de1c32c4b03187",
        "width" : 64
      } ],
      "name" : "Hana Mullerova",
      "popularity" : 31,
      "type" : "artist",
      "uri" : "spotify:artist:10BZZcy4jus4jMxUknYq9p"
    } ],
    "limit" : 20,
    "next" : "https://api.spotify.com/v1/search?query=HANA&type=artist&market=US&offset=20&limit=20",
    "offset" : 0,
    "previous" : null,
    "total" : 1490
  }
}