{
  "artists" : {
    "href" : "https://api.spotify.com/v1/search?query=KANINE&type=artist&market=US&offset=0&limit=20",
    "items" : [ {
      "external_urls" : {
        "spotify" : "https://open.spotify.com/artist/1KiNUGL3r0GgyLwqYCY1yV"
      },
      "followers" : {
        "href" : null,
        "total" : 42899
      },
      "genres" : [ "bass house", "drum and bass" ],
      "href" : "https://api.spotify.com/v1/artists/1KiNUGL3r0GgyLwqYCY1yV",
      "id" : "1KiNUGL3r0GgyLwqYCY1yV",
      "images" : [ {
        "height" : 640,
        "url" : "https://i.scdn.co/image/ab6761610000e5eb548ac000ef856a87ab1e9e2a",
        "width" : 640
      }, {
        "height" : 320,
        "url" : "https://i.scdn.co/image/ab67616100005174548ac000ef856a87ab1e9e2a",
        "width" : 320
      }, {
        "height" : 160,
        "url" : "https://i.scdn.co/image/ab6761610000f178548ac000ef856a87ab1e9e2a",
        "width" : 160
      } ],
      "name" : "Kanine",
      "popularity" : 61,
      "type" : "artist",
      "uri" : "spotify:artist:1KiNUGL3r0GgyLwqYCY1yV"
    }, {
      "external_urls" : {
        "spotify" : "https://open.spotify.com/artist/68Kpb0rCISYHpYKMiWOQqo"
      },
      "followers" : {
        "href" : null,
        "total" : 66
      },
      "genres" : [ ],
      "href" : "https://api.spotify.com/v1/artists/68Kpb0rCISYHpYKMiWOQqo",
      "id" : "68Kpb0rCISYHpYKMiWOQqo",
      "images" : [ {
        "height" : 640,
        "url" : "https://i.scdn.co/image/ab6761610000e5eb11a871c5f16668a28a053c8a",
        "width" : 640
      }, {
        "height" : 320,
        "url" : "https://i.scdn.co/image/ab6761610000517411a871c5f16668a28a053c8a",
        "width" : 320
      }, {
        "height" : 160,
        "url" : "https://i.scdn.co/image/ab6761610000f17811a871c5f16668a28a053c8a",
        "width" : 160
      } ],
      "name" : "KANINE",
      "popularity" : 0,
      "type" : "artist",
      "uri" : "spotify:artist:68Kpb0rCISYHpYKMiWOQqo"
    }, {
      "external_urls" : {
        "spotify" : "https://open.spotify.com/artist/2F5dSGLblUevSGksD139Re"
      },
      "followers" : {
        "href" : null,
        "total" : 197
      },
      "genres" : [ ],
      "href" : "https://api.spotify.com/v1/artists/2F5dSGLblUevSGksD139Re",
      "id" : "2F5dSGLblUevSGksD139Re",
      "images" : [ {
        "height" : 640,
        "url" : "https://i.scdn.co/image/ab6761610000e5eb28fb5f2cd021e2b174ba6a07",
        "width" : 640
      }, {
        "height" : 320,
        "url" : "https://i.scdn.co/image/ab6761610000517428fb5f2cd021e2b174ba6a07",
        "width" : 320
      }, {
        "height" : 160,
        "url" : "https://i.scdn.co/image/ab6761610000f17828fb5f2cd021e2b174ba6a07",
        "width" : 160
      } ],
      "name" : "Kanine SG",
      "popularity" : 10,
      "type" : "artist",
      "uri" : "spotify:artist:2F5dSGLblUevSGksD139Re"
    }, {
      "external_urls" : {
        "spotify" : "https://open.spotify.com/artist/1Q2iDrjWTLfPi9YABKoJX3"
      },
      "followers" : {
        "href" : null,
        "total" : 7
      },
      "genres" : [ ],
      "href" : "https://api.spotify.com/v1/artists/1Q2iDrjWTLfPi9YABKoJX3",
      "id" : "1Q2iDrjWTLfPi9YABKoJX3",
      "images" : [ {
        "height" : 640,
        "url" : "https://i.scdn.co/image/ab67616d0000b273cb159c2c8b7d48044ca0fc0a",
        "width" : 640
      }, {
        "height" : 300,
        "url" : "https://i.scdn.co/image/ab67616d00001e02cb159c2c8b7d48044ca0fc0a",
        "width" : 300
      }, {
        "height" : 64,
        "url" : "https://i.scdn.co/image/ab67616d00004851cb159c2c8b7d48044ca0fc0a",
        "width" : 64
      } ],
      "name" : "Kanine",
      "popularity" : 9,
      "type" : "artist",
      "uri" : "spotify:artist:1Q2iDrjWTLfPi9YABKoJX3"
    }, {
      "external_urls" : {
        "spotify" : "https://open.spotify.com/artist/6qmogcBJ44mgwIHkSgB4RK"
      },
      "followers" : {
        "href" : null,
        "total" : 18
      },
      "genres" : [ ],
      "href" : "https://api.spotify.com/v1/artists/6qmogcBJ44mgwIHkSgB4RK",
      "id" : "6qmogcBJ44mgwIHkSgB4RK",
      "images" : [ {
        "height" : 640,
        "url" : "https://i.scdn.co/image/ab67616d0000b273d4362c90dd890a545ea1675c",
        "width" : 640
      }, {
        "height" : 300,
        "url" : "https://i.scdn.co/image/ab67616d00001e02d4362c90dd890a545ea1675c",
        "width" : 300
      }, {
        "height" : 64,
        "url" : "https://i.scdn.co/image/ab67616d00004851d4362c90dd890a545ea1675c",
        "width" : 64
      } ],
      "name" : "Kanine",
      "popularity" : 17,
      "type" : "artist",
      "uri" : "spotify:artist:6qmogcBJ44mgwIHkSgB4RK"
    }, {
      "external_urls" : {
        "spotify" : "https://open.spotify.com/artist/78No4MLInooF1TlZN8lgAh"
      },
      "followers" : {
        "href" : null,
        "total" : 0
      },
      "genres" : [ ],
      "href" : "https://api.spotify.com/v1/artists/78No4MLInooF1TlZN8lgAh",
      "id" : "78No4MLInooF1TlZN8lgAh",
      "images" : [ ],
      "name" : "KanineSG",
      "popularity" : 0,
      "type" : "artist",
      "uri" : "spotify:artist:78No4MLInooF1TlZN8lgAh"
    }, {
      "external_urls" : {
        "spotify" : "https://open.spotify.com/artist/4asccFmbfVUGhIoH5gg30f"
      },
      "followers" : {
        "href" : null,
        "total" : 0
      },
      "genres" : [ ],
      "href" : "https://api.spotify.com/v1/artists/4asccFmbfVUGhIoH5gg30f",
      "id" : "4asccFmbfVUGhIoH5gg30f",
      "images" : [ ],
      "name" : "Kanine SG",
      "popularity" : 0,
      "type" : "artist",
      "uri" : "spotify:artist:4asccFmbfVUGhIoH5gg30f"
    }, {
      "external_urls" : {
        "spotify" : "https://open.spotify.com/artist/3fQt8WnL2ACaJzV0Ap3TXs"
      },
      "followers" : {
        "href" : null,
        "total" : 9
      },
      "genres" : [ ],
      "href" : "https://api.spotify.com/v1/artists/3fQt8WnL2ACaJzV0Ap3TXs",
      "id" : "3fQt8WnL2ACaJzV0Ap3TXs",
      "images" : [ {
        "height" : 640,
        "url" : "https://i.scdn.co/image/ab67616d0000b273066867a9af598f42a122c1fd",
        "width" : 640
      }, {
        "height" : 300,
        "url" : "https://i.scdn.co/image/ab67616d00001e02066867a9af598f42a122c1fd",
        "width" : 300
      }, {
        "height" : 64,
        "url" : "https://i.scdn.co/image/ab67616d00004851066867a9af598f42a122c1fd",
        "width" : 64
      } ],
      "name" : "Kanine",
      "popularity" : 0,
      "type" : "artist",
      "uri" : "spotify:artist:3fQt8WnL2ACaJzV0Ap3TXs"
    }, {
      "external_urls" : {
        "spotify" : "https://open.spotify.com/artist/4rP4Bb3gvZdFtUfzx54JGa"
      },
      "followers" : {
        "href" : null,
        "total" : 69
      },
      "genres" : [ ],
      "href" : "https://api.spotify.com/v1/artists/4rP4Bb3gvZdFtUfzx54JGa",
      "id" : "4rP4Bb3gvZdFtUfzx54JGa",
      "images" : [ {
        "height" : 640,
        "url" : "https://i.scdn.co/image/ab6761610000e5eb57cde5b1cb79158a030dbd17",
        "width" : 640
      }, {
        "height" : 320,
        "url" : "https://i.scdn.co/image/ab6761610000517457cde5b1cb79158a030dbd17",
        "width" : 320
      }, {
        "height" : 160,
        "url" : "https://i.scdn.co/image/ab6761610000f17857cde5b1cb79158a030dbd17",
        "width" : 160
      } ],
      "name" : "Kanine the Don",
      "popularity" : 1,
      "type" : "artist",
      "uri" : "spotify:artist:4rP4Bb3gvZdFtUfzx54JGa"
    }, {
      "external_urls" : {
        "spotify" : "https://open.spotify.com/artist/38jqULvOQu2VKxqH7WBtu4"
      },
      "followers" : {
        "href" : null,
        "total" : 1
      },
      "genres" : [ ],
      "href" : "https://api.spotify.com/v1/artists/38jqULvOQu2VKxqH7WBtu4",
      "id" : "38jqULvOQu2VKxqH7WBtu4",
      "images" : [ {
        "height" : 640,
        "url" : "https://i.scdn.co/image/ab67616d0000b2731a5815fa2cae89b46ee1eb93",
        "width" : 640
      }, {
        "height" : 300,
        "url" : "https://i.scdn.co/image/ab67616d00001e021a5815fa2cae89b46ee1eb93",
        "width" : 300
      }, {
        "height" : 64,
        "url" : "https://i.scdn.co/image/ab67616d000048511a5815fa2cae89b46ee1eb93",
        "width" : 64
      } ],
      "name" : "Kanine",
      "popularity" : 0,
      "type" : "artist",
      "uri" : "spotify:artist:38jqULvOQu2VKxqH7WBtu4"
    }, {
      "external_urls" : {
        "spotify" : "https://open.spotify.com/artist/3TgLw8U9VnddLoxvtsk8Rd"
      },
      "followers" : {
        "href" : null,
        "total" : 0
      },
      "genres" : [ ],
      "href" : "https://api.spotify.com/v1/artists/3TgLw8U9VnddLoxvtsk8Rd",
      "id" : "3TgLw8U9VnddLoxvtsk8Rd",
      "images" : [ ],
      "name" : "Kanine SG",
      "popularity" : 0,
      "type" : "artist",
      "uri" : "spotify:artist:3TgLw8U9VnddLoxvtsk8Rd"
    }, {
      "external_urls" : {
        "spotify" : "https://open.spotify.com/artist/5lpmwKUElG2zxqwDZtbJ0J"
      },
      "followers" : {
        "href" : null,
        "total" : 4
      },
      "genres" : [ ],
      "href" : "https://api.spotify.com/v1/artists/5lpmwKUElG2zxqwDZtbJ0J",
      "id" : "5lpmwKUElG2zxqwDZtbJ0J",
      "images" : [ ],
      "name" : "Kanine9",
      "popularity" : 0,
      "type" : "artist",
      "uri" : "spotify:artist:5lpmwKUElG2zxqwDZtbJ0J"
    }, {
      "external_urls" : {
        "spotify" : "https://open.spotify.com/artist/1tEeu2DL5nR6weBtlWAfvz"
      },
      "followers" : {
        "href" : null,
        "total" : 33
      },
      "genres" : [ ],
      "href" : "https://api.spotify.com/v1/artists/1tEeu2DL5nR6weBtlWAfvz",
      "id" : "1tEeu2DL5nR6weBtlWAfvz",
      "images" : [ ],
      "name" : "Kanine",
      "popularity" : 0,
      "type" : "artist",
      "uri" : "spotify:artist:1tEeu2DL5nR6weBtlWAfvz"
    }, {
      "external_urls" : {
        "spotify" : "https://open.spotify.com/artist/2Be8sTNK1lsk3vjx2QO51x"
      },
      "followers" : {
        "href" : null,
        "total" : 8
      },
      "genres" : [ ],
      "href" : "https://api.spotify.com/v1/artists/2Be8sTNK1lsk3vjx2QO51x",
      "id" : "2Be8sTNK1lsk3vjx2QO51x",
      "images" : [ {
        "height" : 640,
        "url" : "https://i.scdn.co/image/ab67616d0000b273e80cc750343b46218432e18b",
        "width" : 640
      }, {
        "height" : 300,
        "url" : "https://i.scdn.co/image/ab67616d00001e02e80cc750343b46218432e18b",
        "width" : 300
      }, {
        "height" : 64,
        "url" : "https://i.scdn.co/image/ab67616d00004851e80cc750343b46218432e18b",
        "width" : 64
      } ],
      "name" : "Kanine",
      "popularity" : 2,
      "type" : "artist",
      "uri" : "spotify:artist:2Be8sTNK1lsk3vjx2QO51x"
    }, {
      "external_urls" : {
        "spotify" : "https://open.spotify.com/artist/0jFeePAI5yUtxVFHNUZKeO"
      },
      "followers" : {
        "href" : null,
        "total" : 25
      },
      "genres" : [ ],
      "href" : "https://api.spotify.com/v1/artists/0jFeePAI5yUtxVFHNUZKeO",
      "id" : "0jFeePAI5yUtxVFHNUZKeO",
      "images" : [ {
        "height" : 640,
        "url" : "https://i.scdn.co/image/ab6761610000e5eb4a73e5b7e94fb00b5f799fa9",
        "width" : 640
      }, {
        "height" : 320,
        "url" : "https://i.scdn.co/image/ab676161000051744a73e5b7e94fb00b5f799fa9",
        "width" : 320
      }, {
        "height" : 160,
        "url" : "https://i.scdn.co/image/ab6761610000f1784a73e5b7e94fb00b5f799fa9",
        "width" : 160
      } ],
      "name" : "Kanine",
      "popularity" : 0,
      "type" : "artist",
      "uri" : "spotify:artist:0jFeePAI5yUtxVFHNUZKeO"
    }, {
      "external_urls" : {
        "spotify" : "https://open.spotify.com/artist/0fvAkR68YAalaoxXsitsTs"
      },
      "followers" : {
        "href" : null,
        "total" : 0
      },
      "genres" : [ ],
      "href" : "https://api.spotify.com/v1/artists/0fvAkR68YAalaoxXsitsTs",
      "id" : "0fvAkR68YAalaoxXsitsTs",
      "images" : [ ],
      "name" : "Kanine",
      "popularity" : 0,
      "type" : "artist",
      "uri" : "spotify:artist:0fvAkR68YAalaoxXsitsTs"
    }, {
      "external_urls" : {
        "spotify" : "https://open.spotify.com/artist/5u6l4YbzCsCEDUWJR1JDCI"
      },
      "followers" : {
        "href" : null,
        "total" : 19
      },
      "genres" : [ ],
      "href" : "https://api.spotify.com/v1/artists/5u6l4YbzCsCEDUWJR1JDCI",
      "id" : "5u6l4YbzCsCEDUWJR1JDCI",
      "images" : [ {
        "height" : 640,
        "url" : "https://i.scdn.co/image/ab6761610000e5eb062915e20b28addccf67b0a1",
        "width" : 640
      }, {
        "height" : 320,
        "url" : "https://i.scdn.co/image/ab67616100005174062915e20b28addccf67b0a1",
        "width" : 320
      }, {
        "height" : 160,
        "url" : "https://i.scdn.co/image/ab6761610000f178062915e20b28addccf67b0a1",
        "width" : 160
      } ],
      "name" : "kanine",
      "popularity" : 0,
      "type" : "artist",
      "uri" : "spotify:artist:5u6l4YbzCsCEDUWJR1JDCI"
    }, {
      "external_urls" : {
        "spotify" : "https://open.spotify.com/artist/1mVBxQb5j7CkrCB0hHFqVF"
      },
      "followers" : {
        "href" : null,
        "total" : 11
      },
      "genres" : [ ],
      "href" : "https://api.spotify.com/v1/artists/1mVBxQb5j7CkrCB0hHFqVF",
      "id" : "1mVBxQb5j7CkrCB0hHFqVF",
      "images" : [ {
        "height" : 640,
        "url" : "https://i.scdn.co/image/ab67616d0000b2739bcd32d4c4182eadac570dc2",
        "width" : 640
      }, {
        "height" : 300,
        "url" : "https://i.scdn.co/image/ab67616d00001e029bcd32d4c4182eadac570dc2",
        "width" : 300
      }, {
        "height" : 64,
        "url" : "https://i.scdn.co/image/ab67616d000048519bcd32d4c4182eadac570dc2",
        "width" : 64
      } ],
      "name" : "Kanine",
      "popularity" : 0,
      "type" : "artist",
      "uri" : "spotify:artist:1mVBxQb5j7CkrCB0hHFqVF"
    }, {
      "external_urls" : {
        "spotify" : "https://open.spotify.com/artist/3CEBEzjyscT4QLOmG0RIN0"
      },
      "followers" : {
        "href" : null,
        "total" : 52
      },
      "genres" : [ ],
      "href" : "https://api.spotify.com/v1/artists/3CEBEzjyscT4QLOmG0RIN0",
      "id" : "3CEBEzjyscT4QLOmG0RIN0",
      "images" : [ {
        "height" : 640,
        "url" : "https://i.scdn.co/image/ab6761610000e5eb60be757aa768c0370698acdf",
        "width" : 640
      }, {
        "height" : 320,
        "url" : "https://i.scdn.co/image/ab6761610000517460be757aa768c0370698acdf",
        "width" : 320
      }, {
        "height" : 160,
        "url" : "https://i.scdn.co/image/ab6761610000f17860be757aa768c0370698acdf",
        "width" : 160
      } ],
      "name" : "Kanine",
      "popularity" : 1,
      "type" : "artist",
      "uri" : "spotify:artist:3CEBEzjyscT4QLOmG0RIN0"
    }, {
      "external_urls" : {
        "spotify" : "https://open.spotify.com/artist/0E1BZM7UmE4J9cCSPP56ek"
      },
      "followers" : {
        "href" : null,
        "total" : 1027
      },
      "genres" : [ "swedish indie folk" ],
      "href" : "https://api.spotify.com/v1/artists/0E1BZM7UmE4J9cCSPP56ek",
      "id" : "0E1BZM7UmE4J9cCSPP56ek",
      "images" : [ {
        "height" : 640,
        "url" : "https://i.scdn.co/image/ab67616d0000b273b86006bb24b2c5c6298fad62",
        "width" : 640
      }, {
        "height" : 300,
        "url" : "https://i.scdn.co/image/ab67616d00001e02b86006bb24b2c5c6298fad62",
        "width" : 300
      }, {
        "height" : 64,
        "url" : "https://i.scdn.co/image/ab67616d00004851b86006bb24b2c5c6298fad62",
        "width" : 64
      } ],
      "name" : "Golden Kanine",
      "popularity" : 5,
      "type" : "artist",
      "uri" : "spotify:artist:0E1BZM7UmE4J9cCSPP56ek"
    } ],
    "limit" : 20,
    "next" : "https://api.spotify.com/v1/search?query=KANINE&type=artist&market=US&offset=20&limit=20",
    "offset" : 0,
    "previous" : null,
    "total" : 35
  }
}