{
  "artists" : {
    "href" : "https://api.spotify.com/v1/search?query=MARLO&type=artist&market=US&offset=0&limit=20",
    "items" : [ {
      "external_urls" : {
        "spotify" : "https://open.spotify.com/artist/7MigDh04CCntQbsBvugEmb"
      },
      "followers" : {
        "href" : null,
        "total" : 67784
      },
      "genres" : [ "nyc rap", "underground hip hop" ],
      "href" : "https://api.spotify.com/v1/artists/7MigDh04CCntQbsBvugEmb",
      "id" : "7MigDh04CCntQbsBvugEmb",
      "images" : [ {
        "height" : 640,
        "url" : "https://i.scdn.co/image/ab6761610000e5eb1fa3d10daf682e96fa8aedca",
        "width" : 640
      }, {
        "height" : 320,
        "url" : "https://i.scdn.co/image/ab676161000051741fa3d10daf682e96fa8aedca",
        "width" : 320
      }, {
        "height" : 160,
        "url" : "https://i.scdn.co/image/ab6761610000f1781fa3d10daf682e96fa8aedca",
        "width" : 160
      } ],
      "name" : "Marlon Craft",
      "popularity" : 57,
      "type" : "artist",
      "uri" : "spotify:artist:7MigDh04CCntQbsBvugEmb"
    }, {
      "external_urls" : {
        "spotify" : "https://open.spotify.com/artist/31n3CN1jSC5ALUJ9dwT8UI"
      },
      "followers" : {
        "href" : null,
        "total" : 49240
      },
      "genres" : [ "contemporary country", "country pop" ],
      "href" : "https://api.spotify.com/v1/artists/31n3CN1jSC5ALUJ9dwT8UI",
      "id" : "31n3CN1jSC5ALUJ9dwT8UI",
      "images" : [ {
        "height" : 640,
        "url" : "https://i.scdn.co/image/ab6761610000e5eb5e7448cc4a32670a86dfba36",
        "width" : 640
      }, {
        "height" : 320,
        "url" : "https://i.scdn.co/image/ab676161000051745e7448cc4a32670a86dfba36",
        "width" : 320
      }, {
        "height" : 160,
        "url" : "https://i.scdn.co/image/ab6761610000f1785e7448cc4a32670a86dfba36",
        "width" : 160
      } ],
      "name" : "Kameron Marlowe",
      "popularity" : 64,
      "type" : "artist",
      "uri" : "spotify:artist:31n3CN1jSC5ALUJ9dwT8UI"
    }, {
      "external_urls" : {
        "spotify" : "https://open.spotify.com/artist/4OoTK6TIVg9xa2IX0SBrLU"
      },
      "followers" : {
        "href" : null,
        "total" : 27
      },
      "genres" : [ ],
      "href" : "https://api.spotify.com/v1/artists/4OoTK6TIVg9xa2IX0SBrLU",
      "id" : "4OoTK6TIVg9xa2IX0SBrLU",
      "images" : [ ],
      "name" : "MARLO",
      "popularity" : 7,
      "type" : "artist",
      "uri" : "spotify:artist:4OoTK6TIVg9xa2IX0SBrLU"
    }, {
      "external_urls" : {
        "spotify" : "https://open.spotify.com/artist/2qFmZcrhfzbppEdD6wibAy"
      },
      "followers" : {
        "href" : null,
        "total" : 26701
      },
      "genres" : [ "atl trap" ],
      "href" : "https://api.spotify.com/v1/artists/2qFmZcrhfzbppEdD6wibAy",
      "id" : "2qFmZcrhfzbppEdD6wibAy",
      "images" : [ {
        "height" : 640,
        "url" : "https://i.scdn.co/image/ab67616d0000b2735032112edb07f2106e8b6862",
        "width" : 640
      }, {
        "height" : 300,
        "url" : "https://i.scdn.co/image/ab67616d00001e025032112edb07f2106e8b6862",
        "width" : 300
      }, {
        "height" : 64,
        "url" : "https://i.scdn.co/image/ab67616d000048515032112edb07f2106e8b6862",
        "width" : 64
      } ],
      "name" : "Marlo",
      "popularity" : 51,
      "type" : "artist",
      "uri" : "spotify:artist:2qFmZcrhfzbppEdD6wibAy"
    }, {
      "external_urls" : {
        "spotify" : "https://open.spotify.com/artist/6R1FwuwLAS6YIOMXohb8AJ"
      },
      "followers" : {
        "href" : null,
        "total" : 0
      },
      "genres" : [ ],
      "href" : "https://api.spotify.com/v1/artists/6R1FwuwLAS6YIOMXohb8AJ",
      "id" : "6R1FwuwLAS6YIOMXohb8AJ",
      "images" : [ ],
      "name" : "MARLO",
      "popularity" : 0,
      "type" : "artist",
      "uri" : "spotify:artist:6R1FwuwLAS6YIOMXohb8AJ"
    }, {
      "external_urls" : {
        "spotify" : "https://open.spotify.com/artist/19Ezl9iEvMupXpC5XMgZBR"
      },
      "followers" : {
        "href" : null,
        "total" : 41
      },
      "genres" : [ ],
      "href" : "https://api.spotify.com/v1/artists/19Ezl9iEvMupXpC5XMgZBR",
      "id" : "19Ezl9iEvMupXpC5XMgZBR",
      "images" : [ {
        "height" : 640,
        "url" : "https://i.scdn.co/image/ab67616d0000b27312167053407e5b07330ec818",
        "width" : 640
      }, {
        "height" : 300,
        "url" : "https://i.scdn.co/image/ab67616d00001e0212167053407e5b07330ec818",
        "width" : 300
      }, {
        "height" : 64,
        "url" : "https://i.scdn.co/image/ab67616d0000485112167053407e5b07330ec818",
        "width" : 64
      } ],
      "name" : "Marlowe Coleman",
      "popularity" : 49,
      "type" : "artist",
      "uri" : "spotify:artist:19Ezl9iEvMupXpC5XMgZBR"
    }, {
      "external_urls" : {
        "spotify" : "https://open.spotify.com/artist/37H3UX4jTV7ZjH5yL6l3Yl"
      },
      "followers" : {
        "href" : null,
        "total" : 84
      },
      "genres" : [ ],
      "href" : "https://api.spotify.com/v1/artists/37H3UX4jTV7ZjH5yL6l3Yl",
      "id" : "37H3UX4jTV7ZjH5yL6l3Yl",
      "images" : [ {
        "height" : 640,
        "url" : "https://i.scdn.co/image/ab6761610000e5eb3ec05463311e7e94b86fcf4d",
        "width" : 640
      }, {
        "height" : 320,
        "url" : "https://i.scdn.co/image/ab676161000051743ec05463311e7e94b86fcf4d",
        "width" : 320
      }, {
        "height" : 160,
        "url" : "https://i.scdn.co/image/ab6761610000f1783ec05463311e7e94b86fcf4d",
        "width" : 160
      } ],
      "name" : "Marlon Guild",
      "popularity" : 50,
      "type" : "artist",
      "uri" : "spotify:artist:37H3UX4jTV7ZjH5yL6l3Yl"
    }, {
      "external_urls" : {
        "spotify" : "https://open.spotify.com/artist/0ZZLr8EH3aNFzYpXtaTIax"
      },
      "followers" : {
        "href" : null,
        "total" : 12018
      },
      "genres" : [ ],
      "href" : "https://api.spotify.com/v1/artists/0ZZLr8EH3aNFzYpXtaTIax",
      "id" : "0ZZLr8EH3aNFzYpXtaTIax",
      "images" : [ {
        "height" : 640,
        "url" : "https://i.scdn.co/image/ab6761610000e5eb244c311ee7163c86b99d3c7b",
        "width" : 640
      }, {
        "height" : 320,
        "url" : "https://i.scdn.co/image/ab67616100005174244c311ee7163c86b99d3c7b",
        "width" : 320
      }, {
        "height" : 160,
        "url" : "https://i.scdn.co/image/ab6761610000f178244c311ee7163c86b99d3c7b",
        "width" : 160
      } ],
      "name" : "Dylan Marlowe",
      "popularity" : 49,
      "type" : "artist",
      "uri" : "spotify:artist:0ZZLr8EH3aNFzYpXtaTIax"
    }, {
      "external_urls" : {
        "spotify" : "https://open.spotify.com/artist/2kd1zg9ZyGG6WjZO2dAsFd"
      },
      "followers" : {
        "href" : null,
        "total" : 88179
      },
      "genres" : [ "australian dance", "edm", "pop dance", "progressive house", "trance", "uplifting trance" ],
      "href" : "https://api.spotify.com/v1/artists/2kd1zg9ZyGG6WjZO2dAsFd",
      "id" : "2kd1zg9ZyGG6WjZO2dAsFd",
      "images" : [ {
        "height" : 640,
        "url" : "https://i.scdn.co/image/ab6761610000e5eb9de5d8e6a1bf5f3f8fd756f8",
        "width" : 640
      }, {
        "height" : 320,
        "url" : "https://i.scdn.co/image/ab676161000051749de5d8e6a1bf5f3f8fd756f8",
        "width" : 320
      }, {
        "height" : 160,
        "url" : "https://i.scdn.co/image/ab6761610000f1789de5d8e6a1bf5f3f8fd756f8",
        "width" : 160
      } ],
      "name" : "MaRLo",
      "popularity" : 54,
      "type" : "artist",
      "uri" : "spotify:artist:2kd1zg9ZyGG6WjZO2dAsFd"
    }, {
      "external_urls" : {
        "spotify" : "https://open.spotify.com/artist/5ENM4Vw9brkpcN51HtC8ga"
      },
      "followers" : {
        "href" : null,
        "total" : 82988
      },
      "genres" : [ "nz folk", "nz pop", "nz singer-songwriter" ],
      "href" : "https://api.spotify.com/v1/artists/5ENM4Vw9brkpcN51HtC8ga",
      "id" : "5ENM4Vw9brkpcN51HtC8ga",
      "images" : [ {
        "height" : 640,
        "url" : "https://i.scdn.co/image/ab6761610000e5ebfdc9c70d47cd304b662a1828",
        "width" : 640
      }, {
        "height" : 320,
        "url" : "https://i.scdn.co/image/ab67616100005174fdc9c70d47cd304b662a1828",
        "width" : 320
      }, {
        "height" : 160,
        "url" : "https://i.scdn.co/image/ab6761610000f178fdc9c70d47cd304b662a1828",
        "width" : 160
      } ],
      "name" : "Marlon Williams",
      "popularity" : 49,
      "type" : "artist",
      "uri" : "spotify:artist:5ENM4Vw9brkpcN51HtC8ga"
    }, {
      "external_urls" : {
        "spotify" : "https://open.spotify.com/artist/6RhsbxbsDk5ypSXFkS41J4"
      },
      "followers" : {
        "href" : null,
        "total" : 19952
      },
      "genres" : [ "experimental hip hop" ],
      "href" : "https://api.spotify.com/v1/artists/6RhsbxbsDk5ypSXFkS41J4",
      "id" : "6RhsbxbsDk5ypSXFkS41J4",
      "images" : [ {
        "height" : 640,
        "url" : "https://i.scdn.co/image/ab6761610000e5eb80b5b91da074c7c42ad2544d",
        "width" : 640
      }, {
        "height" : 320,
        "url" : "https://i.scdn.co/image/ab6761610000517480b5b91da074c7c42ad2544d",
        "width" : 320
      }, {
        "height" : 160,
        "url" : "https://i.scdn.co/image/ab6761610000f17880b5b91da074c7c42ad2544d",
        "width" : 160
      } ],
      "name" : "Marlowe",
      "popularity" : 41,
      "type" : "artist",
      "uri" : "spotify:artist:6RhsbxbsDk5ypSXFkS41J4"
    }, {
      "external_urls" : {
        "spotify" : "https://open.spotify.com/artist/4DeCJnS3fuqohKk4FCVl0y"
      },
      "followers" : {
        "href" : null,
        "total" : 13631
      },
      "genres" : [ "modern reggae", "trinidadian reggae" ],
      "href" : "https://api.spotify.com/v1/artists/4DeCJnS3fuqohKk4FCVl0y",
      "id" : "4DeCJnS3fuqohKk4FCVl0y",
      "images" : [ {
        "height" : 640,
        "url" : "https://i.scdn.co/image/ab67616d0000b27317399642a3ddea6be91f3fc2",
        "width" : 640
      }, {
        "height" : 300,
        "url" : "https://i.scdn.co/image/ab67616d00001e0217399642a3ddea6be91f3fc2",
        "width" : 300
      }, {
        "height" : 64,
        "url" : "https://i.scdn.co/image/ab67616d0000485117399642a3ddea6be91f3fc2",
        "width" : 64
      } ],
      "name" : "Marlon Asher",
      "popularity" : 39,
      "type" : "artist",
      "uri" : "spotify:artist:4DeCJnS3fuqohKk4FCVl0y"
    }, {
      "external_urls" : {
        "spotify" : "https://open.spotify.com/artist/55jryyk7RhvMbrvoF0ndBh"
      },
      "followers" : {
        "href" : null,
        "total" : 1210305
      },
      "genres" : [ "russian hip hop" ],
      "href" : "https://api.spotify.com/v1/artists/55jryyk7RhvMbrvoF0ndBh",
      "id" : "55jryyk7RhvMbrvoF0ndBh",
      "images" : [ {
        "height" : 640,
        "url" : "https://i.scdn.co/image/ab6761610000e5eb505adb111c86ffc9e7890b01",
        "width" : 640
      }, {
        "height" : 320,
        "url" : "https://i.scdn.co/image/ab67616100005174505adb111c86ffc9e7890b01",
        "width" : 320
      }, {
        "height" : 160,
        "url" : "https://i.scdn.co/image/ab6761610000f178505adb111c86ffc9e7890b01",
        "width" : 160
      } ],
      "name" : "SLAVA MARLOW",
      "popularity" : 64,
      "type" : "artist",
      "uri" : "spotify:artist:55jryyk7RhvMbrvoF0ndBh"
    }, {
      "external_urls" : {
        "spotify" : "https://open.spotify.com/artist/05WAUNY976XPxQAmbMUxPZ"
      },
      "followers" : {
        "href" : null,
        "total" : 7
      },
      "genres" : [ ],
      "href" : "https://api.spotify.com/v1/artists/05WAUNY976XPxQAmbMUxPZ",
      "id" : "05WAUNY976XPxQAmbMUxPZ",
      "images" : [ {
        "height" : 640,
        "url" : "https://i.scdn.co/image/ab6761610000e5eb6e3f93099a65d3a73b963f7b",
        "width" : 640
      }, {
        "height" : 320,
        "url" : "https://i.scdn.co/image/ab676161000051746e3f93099a65d3a73b963f7b",
        "width" : 320
      }, {
        "height" : 160,
        "url" : "https://i.scdn.co/image/ab6761610000f1786e3f93099a65d3a73b963f7b",
        "width" : 160
      } ],
      "name" : "Marlon Altirs",
      "popularity" : 31,
      "type" : "artist",
      "uri" : "spotify:artist:05WAUNY976XPxQAmbMUxPZ"
    }, {
      "external_urls" : {
        "spotify" : "https://open.spotify.com/artist/0xpi7Cnrj85a5mifMxgCfS"
      },
      "followers" : {
        "href" : null,
        "total" : 32
      },
      "genres" : [ ],
      "href" : "https://api.spotify.com/v1/artists/0xpi7Cnrj85a5mifMxgCfS",
      "id" : "0xpi7Cnrj85a5mifMxgCfS",
      "images" : [ {
        "height" : 640,
        "url" : "https://i.scdn.co/image/ab67616d0000b273532d2cf9f6a5f30ba1c1db0c",
        "width" : 640
      }, {
        "height" : 300,
        "url" : "https://i.scdn.co/image/ab67616d00001e02532d2cf9f6a5f30ba1c1db0c",
        "width" : 300
      }, {
        "height" : 64,
        "url" : "https://i.scdn.co/image/ab67616d00004851532d2cf9f6a5f30ba1c1db0c",
        "width" : 64
      } ],
      "name" : "Natalee Marlowe",
      "popularity" : 42,
      "type" : "artist",
      "uri" : "spotify:artist:0xpi7Cnrj85a5mifMxgCfS"
    }, {
      "external_urls" : {
        "spotify" : "https://open.spotify.com/artist/1RTZXV2Txeij9hW1C88mfs"
      },
      "followers" : {
        "href" : null,
        "total" : 66218
      },
      "genres" : [ "spanish pop" ],
      "href" : "https://api.spotify.com/v1/artists/1RTZXV2Txeij9hW1C88mfs",
      "id" : "1RTZXV2Txeij9hW1C88mfs",
      "images" : [ {
        "height" : 640,
        "url" : "https://i.scdn.co/image/ab6761610000e5eb5d7c7d8fe8c9aa45b4f0bc0e",
        "width" : 640
      }, {
        "height" : 320,
        "url" : "https://i.scdn.co/image/ab676161000051745d7c7d8fe8c9aa45b4f0bc0e",
        "width" : 320
      }, {
        "height" : 160,
        "url" : "https://i.scdn.co/image/ab6761610000f1785d7c7d8fe8c9aa45b4f0bc0e",
        "width" : 160
      } ],
      "name" : "Marlon",
      "popularity" : 61,
      "type" : "artist",
      "uri" : "spotify:artist:1RTZXV2Txeij9hW1C88mfs"
    }, {
      "external_urls" : {
        "spotify" : "https://open.spotify.com/artist/1A8gNi5j5GODMvgw8h98sk"
      },
      "followers" : {
        "href" : null,
        "total" : 694
      },
      "genres" : [ "neo-classical" ],
      "href" : "https://api.spotify.com/v1/artists/1A8gNi5j5GODMvgw8h98sk",
      "id" : "1A8gNi5j5GODMvgw8h98sk",
      "images" : [ {
        "height" : 640,
        "url" : "https://i.scdn.co/image/ab6761610000e5eb7a96c7dd4d379b77aa8905b9",
        "width" : 640
      }, {
        "height" : 320,
        "url" : "https://i.scdn.co/image/ab676161000051747a96c7dd4d379b77aa8905b9",
        "width" : 320
      }, {
        "height" : 160,
        "url" : "https://i.scdn.co/image/ab6761610000f1787a96c7dd4d379b77aa8905b9",
        "width" : 160
      } ],
      "name" : "Marlowe Carruth",
      "popularity" : 34,
      "type" : "artist",
      "uri" : "spotify:artist:1A8gNi5j5GODMvgw8h98sk"
    }, {
      "external_urls" : {
        "spotify" : "https://open.spotify.com/artist/7ImQWfVhFukuQmo9ok0bS8"
      },
      "followers" : {
        "href" : null,
        "total" : 2865
      },
      "genres" : [ ],
      "href" : "https://api.spotify.com/v1/artists/7ImQWfVhFukuQmo9ok0bS8",
      "id" : "7ImQWfVhFukuQmo9ok0bS8",
      "images" : [ {
        "height" : 640,
        "url" : "https://i.scdn.co/image/ab6761610000e5eb67877a073a18ff75ecde1b73",
        "width" : 640
      }, {
        "height" : 320,
        "url" : "https://i.scdn.co/image/ab6761610000517467877a073a18ff75ecde1b73",
        "width" : 320
      }, {
        "height" : 160,
        "url" : "https://i.scdn.co/image/ab6761610000f17867877a073a18ff75ecde1b73",
        "width" : 160
      } ],
      "name" : "It's Philip Marlon",
      "popularity" : 42,
      "type" : "artist",
      "uri" : "spotify:artist:7ImQWfVhFukuQmo9ok0bS8"
    }, {
      "external_urls" : {
        "spotify" : "https://open.spotify.com/artist/2R1QrQqWuw3IjoP5dXRFjt"
      },
      "followers" : {
        "href" : null,
        "total" : 86303
      },
      "genres" : [ "uk pop" ],
      "href" : "https://api.spotify.com/v1/artists/2R1QrQqWuw3IjoP5dXRFjt",
      "id" : "2R1QrQqWuw3IjoP5dXRFjt",
      "images" : [ {
        "height" : 1000,
        "url" : "https://i.scdn.co/image/da8fb5bb21c1ed683c664b8d3fe02559e354208e",
        "width" : 1000
      }, {
        "height" : 640,
        "url" : "https://i.scdn.co/image/2295508502c58c45a74badd929b0e13b3e7a83b2",
        "width" : 640
      }, {
        "height" : 200,
        "url" : "https://i.scdn.co/image/1145faa81051fb3f55744ba7176a8728c6b8cba1",
        "width" : 200
      }, {
        "height" : 64,
        "url" : "https://i.scdn.co/image/7102661610029af945f57108074dd8214ec87a93",
        "width" : 64
      } ],
      "name" : "Marlon Roudette",
      "popularity" : 54,
      "type" : "artist",
      "uri" : "spotify:artist:2R1QrQqWuw3IjoP5dXRFjt"
    }, {
      "external_urls" : {
        "spotify" : "https://open.spotify.com/artist/0nKZSqsbbdetdjddtg7cfX"
      },
      "followers" : {
        "href" : null,
        "total" : 315
      },
      "genres" : [ ],
      "href" : "https://api.spotify.com/v1/artists/0nKZSqsbbdetdjddtg7cfX",
      "id" : "0nKZSqsbbdetdjddtg7cfX",
      "images" : [ ],
      "name" : "Marlon \"Ganja Farmer\" Asher",
      "popularity" : 25,
      "type" : "artist",
      "uri" : "spotify:artist:0nKZSqsbbdetdjddtg7cfX"
    } ],
    "limit" : 20,
    "next" : "https://api.spotify.com/v1/search?query=MARLO&type=artist&market=US&offset=20&limit=20",
    "offset" : 0,
    "previous" : null,
    "total" : 1966
  }
}