{
  "artists" : {
    "href" : "https://api.spotify.com/v1/search?query=MAT+ZO&type=artist&market=US&offset=0&limit=20",
    "items" : [ {
      "external_urls" : {
        "spotify" : "https://open.spotify.com/artist/2n7USVO8fO8FF8zq4kG2N1"
      },
      "followers" : {
        "href" : null,
        "total" : 130009
      },
      "genres" : [ "edm", "electro house", "pop dance", "progressive house", "progressive trance", "uplifting trance" ],
      "href" : "https://api.spotify.com/v1/artists/2n7USVO8fO8FF8zq4kG2N1",
      "id" : "2n7USVO8fO8FF8zq4kG2N1",
      "images" : [ {
        "height" : 640,
        "url" : "https://i.scdn.co/image/ab6761610000e5eb497ad7315ef81e180fb35d20",
        "width" : 640
      }, {
        "height" : 320,
        "url" : "https://i.scdn.co/image/ab67616100005174497ad7315ef81e180fb35d20",
        "width" : 320
      }, {
        "height" : 160,
        "url" : "https://i.scdn.co/image/ab6761610000f178497ad7315ef81e180fb35d20",
        "width" : 160
      } ],
      "name" : "Mat Zo",
      "popularity" : 53,
      "type" : "artist",
      "uri" : "spotify:artist:2n7USVO8fO8FF8zq4kG2N1"
    }, {
      "external_urls" : {
        "spotify" : "https://open.spotify.com/artist/5jWLYbLIdMQ8mGoGucfL1n"
      },
      "followers" : {
        "href" : null,
        "total" : 25
      },
      "genres" : [ ],
      "href" : "https://api.spotify.com/v1/artists/5jWLYbLIdMQ8mGoGucfL1n",
      "id" : "5jWLYbLIdMQ8mGoGucfL1n",
      "images" : [ ],
      "name" : "Mat Zo",
      "popularity" : 8,
      "type" : "artist",
      "uri" : "spotify:artist:5jWLYbLIdMQ8mGoGucfL1n"
    }, {
      "external_urls" : {
        "spotify" : "https://open.spotify.com/artist/0eN6EY2OfGCMSe0a0OJtwv"
      },
      "followers" : {
        "href" : null,
        "total" : 11
      },
      "genres" : [ ],
      "href" : "https://api.spotify.com/v1/artists/0eN6EY2OfGCMSe0a0OJtwv",
      "id" : "0eN6EY2OfGCMSe0a0OJtwv",
      "images" : [ {
        "height" : 640,
        "url" : "https://i.scdn.co/image/ab6761610000e5eb14125e907d960cc2f2a4e6c2",
        "width" : 640
      }, {
        "height" : 320,
        "url" : "https://i.scdn.co/image/ab6761610000517414125e907d960cc2f2a4e6c2",
        "width" : 320
      }, {
        "height" : 160,
        "url" : "https://i.scdn.co/image/ab6761610000f17814125e907d960cc2f2a4e6c2",
        "width" : 160
      } ],
      "name" : "Zog the Beat Matrix",
      "popularity" : 12,
      "type" : "artist",
      "uri" : "spotify:artist:0eN6EY2OfGCMSe0a0OJtwv"
    }, {
      "external_urls" : {
        "spotify" : "https://open.spotify.com/artist/1XyD50rGRsbGuia6j7xfSB"
      },
      "followers" : {
        "href" : null,
        "total" : 6
      },
      "genres" : [ ],
      "href" : "https://api.spotify.com/v1/artists/1XyD50rGRsbGuia6j7xfSB",
      "id" : "1XyD50rGRsbGuia6j7xfSB",
      "images" : [ ],
      "name" : "Mat Zo",
      "popularity" : 0,
      "type" : "artist",
      "uri" : "spotify:artist:1XyD50rGRsbGuia6j7xfSB"
    }, {
      "external_urls" : {
        "spotify" : "https://open.spotify.com/artist/4ncNs23PnTe27bYiEc6uPp"
      },
      "followers" : {
        "href" : null,
        "total" : 3884
      },
      "genres" : [ "didgeridoo", "new tribe" ],
      "href" : "https://api.spotify.com/v1/artists/4ncNs23PnTe27bYiEc6uPp",
      "id" : "4ncNs23PnTe27bYiEc6uPp",
      "images" : [ {
        "height" : 640,
        "url" : "https://i.scdn.co/image/ab67616d0000b273ac6db42b8e33c366ded3f656",
        "width" : 640
      }, {
        "height" : 300,
        "url" : "https://i.scdn.co/image/ab67616d00001e02ac6db42b8e33c366ded3f656",
        "width" : 300
      }, {
        "height" : 64,
        "url" : "https://i.scdn.co/image/ab67616d00004851ac6db42b8e33c366ded3f656",
        "width" : 64
      } ],
      "name" : "Matsumoto Zoku",
      "popularity" : 20,
      "type" : "artist",
      "uri" : "spotify:artist:4ncNs23PnTe27bYiEc6uPp"
    }, {
      "external_urls" : {
        "spotify" : "https://open.spotify.com/artist/6svjZqxAUnDpZc4QVFK22q"
      },
      "followers" : {
        "href" : null,
        "total" : 224
      },
      "genres" : [ ],
      "href" : "https://api.spotify.com/v1/artists/6svjZqxAUnDpZc4QVFK22q",
      "id" : "6svjZqxAUnDpZc4QVFK22q",
      "images" : [ ],
      "name" : "Arty & Mat Zo",
      "popularity" : 2,
      "type" : "artist",
      "uri" : "spotify:artist:6svjZqxAUnDpZc4QVFK22q"
    }, {
      "external_urls" : {
        "spotify" : "https://open.spotify.com/artist/2etYOAGAHT8ALgQwgxilV7"
      },
      "followers" : {
        "href" : null,
        "total" : 0
      },
      "genres" : [ ],
      "href" : "https://api.spotify.com/v1/artists/2etYOAGAHT8ALgQwgxilV7",
      "id" : "2etYOAGAHT8ALgQwgxilV7",
      "images" : [ ],
      "name" : "Zolile Matikinca (Zoro)",
      "popularity" : 0,
      "type" : "artist",
      "uri" : "spotify:artist:2etYOAGAHT8ALgQwgxilV7"
    }, {
      "external_urls" : {
        "spotify" : "https://open.spotify.com/artist/12osWxdNpl1YD3sk1DM7gj"
      },
      "followers" : {
        "href" : null,
        "total" : 2
      },
      "genres" : [ ],
      "href" : "https://api.spotify.com/v1/artists/12osWxdNpl1YD3sk1DM7gj",
      "id" : "12osWxdNpl1YD3sk1DM7gj",
      "images" : [ {
        "height" : 640,
        "url" : "https://i.scdn.co/image/ab67616d0000b273251ee183b8b55b29eed44cf6",
        "width" : 640
      }, {
        "height" : 300,
        "url" : "https://i.scdn.co/image/ab67616d00001e02251ee183b8b55b29eed44cf6",
        "width" : 300
      }, {
        "height" : 64,
        "url" : "https://i.scdn.co/image/ab67616d00004851251ee183b8b55b29eed44cf6",
        "width" : 64
      } ],
      "name" : "Zongo Mathieu",
      "popularity" : 0,
      "type" : "artist",
      "uri" : "spotify:artist:12osWxdNpl1YD3sk1DM7gj"
    }, {
      "external_urls" : {
        "spotify" : "https://open.spotify.com/artist/5LBjcHht3OSPEeePtQjaSj"
      },
      "followers" : {
        "href" : null,
        "total" : 0
      },
      "genres" : [ ],
      "href" : "https://api.spotify.com/v1/artists/5LBjcHht3OSPEeePtQjaSj",
      "id" : "5LBjcHht3OSPEeePtQjaSj",
      "images" : [ ],
      "name" : "Zoe Matthews",
      "popularity" : 0,
      "type" : "artist",
      "uri" : "spotify:artist:5LBjcHht3OSPEeePtQjaSj"
    }, {
      "external_urls" : {
        "spotify" : "https://open.spotify.com/artist/3i44S4A0ehbhmzJpKeMFQr"
      },
      "followers" : {
        "href" : null,
        "total" : 0
      },
      "genres" : [ ],
      "href" : "https://api.spotify.com/v1/artists/3i44S4A0ehbhmzJpKeMFQr",
      "id" : "3i44S4A0ehbhmzJpKeMFQr",
      "images" : [ ],
      "name" : "Matt Zoffman",
      "popularity" : 0,
      "type" : "artist",
      "uri" : "spotify:artist:3i44S4A0ehbhmzJpKeMFQr"
    }, {
      "external_urls" : {
        "spotify" : "https://open.spotify.com/artist/6gKfSgKH19xNFfjAdjUbfl"
      },
      "followers" : {
        "href" : null,
        "total" : 0
      },
      "genres" : [ ],
      "href" : "https://api.spotify.com/v1/artists/6gKfSgKH19xNFfjAdjUbfl",
      "id" : "6gKfSgKH19xNFfjAdjUbfl",
      "images" : [ ],
      "name" : "Zonora Matador",
      "popularity" : 0,
      "type" : "artist",
      "uri" : "spotify:artist:6gKfSgKH19xNFfjAdjUbfl"
    }, {
      "external_urls" : {
        "spotify" : "https://open.spotify.com/artist/2dTMs8WiLMm5qwl6ywL55o"
      },
      "followers" : {
        "href" : null,
        "total" : 2
      },
      "genres" : [ ],
      "href" : "https://api.spotify.com/v1/artists/2dTMs8WiLMm5qwl6ywL55o",
      "id" : "2dTMs8WiLMm5qwl6ywL55o",
      "images" : [ ],
      "name" : "Zone Matias",
      "popularity" : 0,
      "type" : "artist",
      "uri" : "spotify:artist:2dTMs8WiLMm5qwl6ywL55o"
    }, {
      "external_urls" : {
        "spotify" : "https://open.spotify.com/artist/0ign8qCPzqfrje1FZYRcqs"
      },
      "followers" : {
        "href" : null,
        "total" : 0
      },
      "genres" : [ ],
      "href" : "https://api.spotify.com/v1/artists/0ign8qCPzqfrje1FZYRcqs",
      "id" : "0ign8qCPzqfrje1FZYRcqs",
      "images" : [ {
        "height" : 640,
        "url" : "https://i.scdn.co/image/ab67616d0000b273df9e7362829b07c360b267e3",
        "width" : 640
      }, {
        "height" : 300,
        "url" : "https://i.scdn.co/image/ab67616d00001e02df9e7362829b07c360b267e3",
        "width" : 300
      }, {
        "height" : 64,
        "url" : "https://i.scdn.co/image/ab67616d00004851df9e7362829b07c360b267e3",
        "width" : 64
      } ],
      "name" : "Zora Matthews",
      "popularity" : 0,
      "type" : "artist",
      "uri" : "spotify:artist:0ign8qCPzqfrje1FZYRcqs"
    }, {
      "external_urls" : {
        "spotify" : "https://open.spotify.com/artist/7G0dY09ysnKO5n5p2jJw6P"
      },
      "followers" : {
        "href" : null,
        "total" : 0
      },
      "genres" : [ ],
      "href" : "https://api.spotify.com/v1/artists/7G0dY09ysnKO5n5p2jJw6P",
      "id" : "7G0dY09ysnKO5n5p2jJw6P",
      "images" : [ {
        "height" : 640,
        "url" : "https://i.scdn.co/image/ab67616d0000b2735c78581c231488a63161449f",
        "width" : 640
      }, {
        "height" : 300,
        "url" : "https://i.scdn.co/image/ab67616d00001e025c78581c231488a63161449f",
        "width" : 300
      }, {
        "height" : 64,
        "url" : "https://i.scdn.co/image/ab67616d000048515c78581c231488a63161449f",
        "width" : 64
      } ],
      "name" : "Matthew Zollner",
      "popularity" : 0,
      "type" : "artist",
      "uri" : "spotify:artist:7G0dY09ysnKO5n5p2jJw6P"
    }, {
      "external_urls" : {
        "spotify" : "https://open.spotify.com/artist/1VoLwBkOrNm8OvGHGnYKix"
      },
      "followers" : {
        "href" : null,
        "total" : 0
      },
      "genres" : [ ],
      "href" : "https://api.spotify.com/v1/artists/1VoLwBkOrNm8OvGHGnYKix",
      "id" : "1VoLwBkOrNm8OvGHGnYKix",
      "images" : [ ],
      "name" : "Matt Zoccali",
      "popularity" : 0,
      "type" : "artist",
      "uri" : "spotify:artist:1VoLwBkOrNm8OvGHGnYKix"
    }, {
      "external_urls" : {
        "spotify" : "https://open.spotify.com/artist/1Ws0G7gCbNaSPNbu1ySOQl"
      },
      "followers" : {
        "href" : null,
        "total" : 16
      },
      "genres" : [ ],
      "href" : "https://api.spotify.com/v1/artists/1Ws0G7gCbNaSPNbu1ySOQl",
      "id" : "1Ws0G7gCbNaSPNbu1ySOQl",
      "images" : [ {
        "height" : 640,
        "url" : "https://i.scdn.co/image/ab67616d0000b2733072aed2af34a2e808c732ac",
        "width" : 640
      }, {
        "height" : 300,
        "url" : "https://i.scdn.co/image/ab67616d00001e023072aed2af34a2e808c732ac",
        "width" : 300
      }, {
        "height" : 64,
        "url" : "https://i.scdn.co/image/ab67616d000048513072aed2af34a2e808c732ac",
        "width" : 64
      } ],
      "name" : "Mattia Zoia",
      "popularity" : 0,
      "type" : "artist",
      "uri" : "spotify:artist:1Ws0G7gCbNaSPNbu1ySOQl"
    }, {
      "external_urls" : {
        "spotify" : "https://open.spotify.com/artist/5LDSzQWaxjrpPqNu0C9Amf"
      },
      "followers" : {
        "href" : null,
        "total" : 43
      },
      "genres" : [ ],
      "href" : "https://api.spotify.com/v1/artists/5LDSzQWaxjrpPqNu0C9Amf",
      "id" : "5LDSzQWaxjrpPqNu0C9Amf",
      "images" : [ {
        "height" : 640,
        "url" : "https://i.scdn.co/image/ab6761610000e5eb5a4aae4668347f4d61e92fe4",
        "width" : 640
      }, {
        "height" : 320,
        "url" : "https://i.scdn.co/image/ab676161000051745a4aae4668347f4d61e92fe4",
        "width" : 320
      }, {
        "height" : 160,
        "url" : "https://i.scdn.co/image/ab6761610000f1785a4aae4668347f4d61e92fe4",
        "width" : 160
      } ],
      "name" : "Matt Zolla",
      "popularity" : 0,
      "type" : "artist",
      "uri" : "spotify:artist:5LDSzQWaxjrpPqNu0C9Amf"
    }, {
      "external_urls" : {
        "spotify" : "https://open.spotify.com/artist/7fMeWeYDrcy9oxQYTDvGzv"
      },
      "followers" : {
        "href" : null,
        "total" : 0
      },
      "genres" : [ ],
      "href" : "https://api.spotify.com/v1/artists/7fMeWeYDrcy9oxQYTDvGzv",
      "id" : "7fMeWeYDrcy9oxQYTDvGzv",
      "images" : [ {
        "height" : 640,
        "url" : "https://i.scdn.co/image/ab67616d0000b273f96c6119124c716269dc42e5",
        "width" : 640
      }, {
        "height" : 300,
        "url" : "https://i.scdn.co/image/ab67616d00001e02f96c6119124c716269dc42e5",
        "width" : 300
      }, {
        "height" : 64,
        "url" : "https://i.scdn.co/image/ab67616d00004851f96c6119124c716269dc42e5",
        "width" : 64
      } ],
      "name" : "Zofia Matsuo",
      "popularity" : 0,
      "type" : "artist",
      "uri" : "spotify:artist:7fMeWeYDrcy9oxQYTDvGzv"
    }, {
      "external_urls" : {
        "spotify" : "https://open.spotify.com/artist/3HbXxszogCkHuVb2RLTusO"
      },
      "followers" : {
        "href" : null,
        "total" : 0
      },
      "genres" : [ ],
      "href" : "https://api.spotify.com/v1/artists/3HbXxszogCkHuVb2RLTusO",
      "id" : "3HbXxszogCkHuVb2RLTusO",
      "images" : [ ],
      "name" : "Zone Matias",
      "popularity" : 0,
      "type" : "artist",
      "uri" : "spotify:artist:3HbXxszogCkHuVb2RLTusO"
    }, {
      "external_urls" : {
        "spotify" : "https://open.spotify.com/artist/4ny2HCxpq6gpN2wBQxS9Yv"
      },
      "followers" : {
        "href" : null,
        "total" : 8
      },
      "genres" : [ ],
      "href" : "https://api.spotify.com/v1/artists/4ny2HCxpq6gpN2wBQxS9Yv",
      "id" : "4ny2HCxpq6gpN2wBQxS9Yv",
      "images" : [ {
        "height" : 640,
        "url" : "https://i.scdn.co/image/ab67616d0000b2730643c978a1384cb195bc919a",
        "width" : 640
      }, {
        "height" : 300,
        "url" : "https://i.scdn.co/image/ab67616d00001e020643c978a1384cb195bc919a",
        "width" : 300
      }, {
        "height" : 64,
        "url" : "https://i.scdn.co/image/ab67616d000048510643c978a1384cb195bc919a",
        "width" : 64
      } ],
      "name" : "Zolile Matikinca",
      "popularity" : 0,
      "type" : "artist",
      "uri" : "spotify:artist:4ny2HCxpq6gpN2wBQxS9Yv"
    } ],
    "limit" : 20,
    "next" : "https://api.spotify.com/v1/search?query=MAT+ZO&type=artist&market=US&offset=20&limit=20",
    "offset" : 0,
    "previous" : null,
    "total" : 48
  }
}