{
  "artists" : {
    "href" : "https://api.spotify.com/v1/search?query=REZZ&type=artist&market=US&offset=0&limit=20",
    "items" : [ {
      "external_urls" : {
        "spotify" : "https://open.spotify.com/artist/4aKdmOXdUKX07HVd3sGgzw"
      },
      "followers" : {
        "href" : null,
        "total" : 394321
      },
      "genres" : [ "canadian electronic", "edm", "electra", "electro house" ],
      "href" : "https://api.spotify.com/v1/artists/4aKdmOXdUKX07HVd3sGgzw",
      "id" : "4aKdmOXdUKX07HVd3sGgzw",
      "images" : [ {
        "height" : 640,
        "url" : "https://i.scdn.co/image/ab6761610000e5ebd32795654cee9204e8bdcfde",
        "width" : 640
      }, {
        "height" : 320,
        "url" : "https://i.scdn.co/image/ab67616100005174d32795654cee9204e8bdcfde",
        "width" : 320
      }, {
        "height" : 160,
        "url" : "https://i.scdn.co/image/ab6761610000f178d32795654cee9204e8bdcfde",
        "width" : 160
      } ],
      "name" : "Rezz",
      "popularity" : 67,
      "type" : "artist",
      "uri" : "spotify:artist:4aKdmOXdUKX07HVd3sGgzw"
    }, {
      "external_urls" : {
        "spotify" : "https://open.spotify.com/artist/42vNc7YKaB7aleV5gdBz4l"
      },
      "followers" : {
        "href" : null,
        "total" : 75
      },
      "genres" : [ ],
      "href" : "https://api.spotify.com/v1/artists/42vNc7YKaB7aleV5gdBz4l",
      "id" : "42vNc7YKaB7aleV5gdBz4l",
      "images" : [ {
        "height" : 640,
        "url" : "https://i.scdn.co/image/ab6761610000e5ebe70c211ae86ba27c7e42bb3b",
        "width" : 640
      }, {
        "height" : 320,
        "url" : "https://i.scdn.co/image/ab67616100005174e70c211ae86ba27c7e42bb3b",
        "width" : 320
      }, {
        "height" : 160,
        "url" : "https://i.scdn.co/image/ab6761610000f178e70c211ae86ba27c7e42bb3b",
        "width" : 160
      } ],
      "name" : "RAZZ",
      "popularity" : 31,
      "type" : "artist",
      "uri" : "spotify:artist:42vNc7YKaB7aleV5gdBz4l"
    }, {
      "external_urls" : {
        "spotify" : "https://open.spotify.com/artist/37IAmIFuCYtwhxQRlQisDg"
      },
      "followers" : {
        "href" : null,
        "total" : 8417
      },
      "genres" : [ "outsider house" ],
      "href" : "https://api.spotify.com/v1/artists/37IAmIFuCYtwhxQRlQisDg",
      "id" : "37IAmIFuCYtwhxQRlQisDg",
      "images" : [ {
        "height" : 640,
        "url" : "https://i.scdn.co/image/ab67616d0000b2732144bdc432f4b83f59d45ad9",
        "width" : 640
      }, {
        "height" : 300,
        "url" : "https://i.scdn.co/image/ab67616d00001e022144bdc432f4b83f59d45ad9",
        "width" : 300
      }, {
        "height" : 64,
        "url" : "https://i.scdn.co/image/ab67616d000048512144bdc432f4b83f59d45ad9",
        "width" : 64
      } ],
      "name" : "Rezzett",
      "popularity" : 31,
      "type" : "artist",
      "uri" : "spotify:artist:37IAmIFuCYtwhxQRlQisDg"
    }, {
      "external_urls" : {
        "spotify" : "https://open.spotify.com/artist/14fxWsn0UdNiW2GQIsL1wR"
      },
      "followers" : {
        "href" : null,
        "total" : 15983
      },
      "genres" : [ "pacific islands pop" ],
      "href" : "https://api.spotify.com/v1/artists/14fxWsn0UdNiW2GQIsL1wR",
      "id" : "14fxWsn0UdNiW2GQIsL1wR",
      "images" : [ {
        "height" : 640,
        "url" : "https://i.scdn.co/image/ab67616d0000b27311d604686a41a5c4a70cb42c",
        "width" : 640
      }, {
        "height" : 300,
        "url" : "https://i.scdn.co/image/ab67616d00001e0211d604686a41a5c4a70cb42c",
        "width" : 300
      }, {
        "height" : 64,
        "url" : "https://i.scdn.co/image/ab67616d0000485111d604686a41a5c4a70cb42c",
        "width" : 64
      } ],
      "name" : "Lion Rezz",
      "popularity" : 49,
      "type" : "artist",
      "uri" : "spotify:artist:14fxWsn0UdNiW2GQIsL1wR"
    }, {
      "external_urls" : {
        "spotify" : "https://open.spotify.com/artist/2z47z86TL480vsu6kdcwlS"
      },
      "followers" : {
        "href" : null,
        "total" : 280
      },
      "genres" : [ ],
      "href" : "https://api.spotify.com/v1/artists/2z47z86TL480vsu6kdcwlS",
      "id" : "2z47z86TL480vsu6kdcwlS",
      "images" : [ {
        "height" : 640,
        "url" : "https://i.scdn.co/image/ab6761610000e5eb39d0dfaa810fc9060029e3e2",
        "width" : 640
      }, {
        "height" : 320,
        "url" : "https://i.scdn.co/image/ab6761610000517439d0dfaa810fc9060029e3e2",
        "width" : 320
      }, {
        "height" : 160,
        "url" : "https://i.scdn.co/image/ab6761610000f17839d0dfaa810fc9060029e3e2",
        "width" : 160
      } ],
      "name" : "Rezzy",
      "popularity" : 31,
      "type" : "artist",
      "uri" : "spotify:artist:2z47z86TL480vsu6kdcwlS"
    }, {
      "external_urls" : {
        "spotify" : "https://open.spotify.com/artist/6nuBHeYv1iePWdnkXhLBaH"
      },
      "followers" : {
        "href" : null,
        "total" : 2562
      },
      "genres" : [ ],
      "href" : "https://api.spotify.com/v1/artists/6nuBHeYv1iePWdnkXhLBaH",
      "id" : "6nuBHeYv1iePWdnkXhLBaH",
      "images" : [ {
        "height" : 640,
        "url" : "https://i.scdn.co/image/ab6761610000e5eb25f9f911dd328f241545400f",
        "width" : 640
      }, {
        "height" : 320,
        "url" : "https://i.scdn.co/image/ab6761610000517425f9f911dd328f241545400f",
        "width" : 320
      }, {
        "height" : 160,
        "url" : "https://i.scdn.co/image/ab6761610000f17825f9f911dd328f241545400f",
        "width" : 160
      } ],
      "name" : "Stephen Rezza",
      "popularity" : 33,
      "type" : "artist",
      "uri" : "spotify:artist:6nuBHeYv1iePWdnkXhLBaH"
    }, {
      "external_urls" : {
        "spotify" : "https://open.spotify.com/artist/7ExoPqkVD93z2TVmnj08Kl"
      },
      "followers" : {
        "href" : null,
        "total" : 47
      },
      "genres" : [ ],
      "href" : "https://api.spotify.com/v1/artists/7ExoPqkVD93z2TVmnj08Kl",
      "id" : "7ExoPqkVD93z2TVmnj08Kl",
      "images" : [ {
        "height" : 640,
        "url" : "https://i.scdn.co/image/ab67616d0000b2735b7e3ad99b5b027a3a2f5194",
        "width" : 640
      }, {
        "height" : 300,
        "url" : "https://i.scdn.co/image/ab67616d00001e025b7e3ad99b5b027a3a2f5194",
        "width" : 300
      }, {
        "height" : 64,
        "url" : "https://i.scdn.co/image/ab67616d000048515b7e3ad99b5b027a3a2f5194",
        "width" : 64
      } ],
      "name" : "REZZO",
      "popularity" : 0,
      "type" : "artist",
      "uri" : "spotify:artist:7ExoPqkVD93z2TVmnj08Kl"
    }, {
      "external_urls" : {
        "spotify" : "https://open.spotify.com/artist/19TQi0wFSttok5XBF7kgmw"
      },
      "followers" : {
        "href" : null,
        "total" : 6
      },
      "genres" : [ ],
      "href" : "https://api.spotify.com/v1/artists/19TQi0wFSttok5XBF7kgmw",
      "id" : "19TQi0wFSttok5XBF7kgmw",
      "images" : [ {
        "height" : 640,
        "url" : "https://i.scdn.co/image/ab67616d0000b2735e4781b6463e1efd942d6add",
        "width" : 640
      }, {
        "height" : 300,
        "url" : "https://i.scdn.co/image/ab67616d00001e025e4781b6463e1efd942d6add",
        "width" : 300
      }, {
        "height" : 64,
        "url" : "https://i.scdn.co/image/ab67616d000048515e4781b6463e1efd942d6add",
        "width" : 64
      } ],
      "name" : "Rezzy Dunn",
      "popularity" : 14,
      "type" : "artist",
      "uri" : "spotify:artist:19TQi0wFSttok5XBF7kgmw"
    }, {
      "external_urls" : {
        "spotify" : "https://open.spotify.com/artist/7CMda7TUvsTEqJ5To57GAw"
      },
      "followers" : {
        "href" : null,
        "total" : 21
      },
      "genres" : [ ],
      "href" : "https://api.spotify.com/v1/artists/7CMda7TUvsTEqJ5To57GAw",
      "id" : "7CMda7TUvsTEqJ5To57GAw",
      "images" : [ {
        "height" : 640,
        "url" : "https://i.scdn.co/image/ab6761610000e5eb6c6b4d8aead87ddf67b293d4",
        "width" : 640
      }, {
        "height" : 320,
        "url" : "https://i.scdn.co/image/ab676161000051746c6b4d8aead87ddf67b293d4",
        "width" : 320
      }, {
        "height" : 160,
        "url" : "https://i.scdn.co/image/ab6761610000f1786c6b4d8aead87ddf67b293d4",
        "width" : 160
      } ],
      "name" : "REZZIES",
      "popularity" : 0,
      "type" : "artist",
      "uri" : "spotify:artist:7CMda7TUvsTEqJ5To57GAw"
    }, {
      "external_urls" : {
        "spotify" : "https://open.spotify.com/artist/7LE8nPA9Ldx3L8sl5QJ4N9"
      },
      "followers" : {
        "href" : null,
        "total" : 67
      },
      "genres" : [ ],
      "href" : "https://api.spotify.com/v1/artists/7LE8nPA9Ldx3L8sl5QJ4N9",
      "id" : "7LE8nPA9Ldx3L8sl5QJ4N9",
      "images" : [ {
        "height" : 640,
        "url" : "https://i.scdn.co/image/ab6761610000e5eb94b71fac143fb4cd346d11e5",
        "width" : 640
      }, {
        "height" : 320,
        "url" : "https://i.scdn.co/image/ab6761610000517494b71fac143fb4cd346d11e5",
        "width" : 320
      }, {
        "height" : 160,
        "url" : "https://i.scdn.co/image/ab6761610000f17894b71fac143fb4cd346d11e5",
        "width" : 160
      } ],
      "name" : "Rezzaie",
      "popularity" : 23,
      "type" : "artist",
      "uri" : "spotify:artist:7LE8nPA9Ldx3L8sl5QJ4N9"
    }, {
      "external_urls" : {
        "spotify" : "https://open.spotify.com/artist/4QT3RbllDFQ1EgTINu3b8r"
      },
      "followers" : {
        "href" : null,
        "total" : 320
      },
      "genres" : [ ],
      "href" : "https://api.spotify.com/v1/artists/4QT3RbllDFQ1EgTINu3b8r",
      "id" : "4QT3RbllDFQ1EgTINu3b8r",
      "images" : [ {
        "height" : 640,
        "url" : "https://i.scdn.co/image/ab6761610000e5eb07ccd563acf7a3600e6016bd",
        "width" : 640
      }, {
        "height" : 320,
        "url" : "https://i.scdn.co/image/ab6761610000517407ccd563acf7a3600e6016bd",
        "width" : 320
      }, {
        "height" : 160,
        "url" : "https://i.scdn.co/image/ab6761610000f17807ccd563acf7a3600e6016bd",
        "width" : 160
      } ],
      "name" : "Rezz",
      "popularity" : 7,
      "type" : "artist",
      "uri" : "spotify:artist:4QT3RbllDFQ1EgTINu3b8r"
    }, {
      "external_urls" : {
        "spotify" : "https://open.spotify.com/artist/2kzAncaO8uBUpuxE5ycoc9"
      },
      "followers" : {
        "href" : null,
        "total" : 40
      },
      "genres" : [ ],
      "href" : "https://api.spotify.com/v1/artists/2kzAncaO8uBUpuxE5ycoc9",
      "id" : "2kzAncaO8uBUpuxE5ycoc9",
      "images" : [ {
        "height" : 640,
        "url" : "https://i.scdn.co/image/ab6761610000e5ebbe019caa0635e212af844553",
        "width" : 640
      }, {
        "height" : 320,
        "url" : "https://i.scdn.co/image/ab67616100005174be019caa0635e212af844553",
        "width" : 320
      }, {
        "height" : 160,
        "url" : "https://i.scdn.co/image/ab6761610000f178be019caa0635e212af844553",
        "width" : 160
      } ],
      "name" : "Rezzals",
      "popularity" : 9,
      "type" : "artist",
      "uri" : "spotify:artist:2kzAncaO8uBUpuxE5ycoc9"
    }, {
      "external_urls" : {
        "spotify" : "https://open.spotify.com/artist/15JpDSYLmInmjEAVKWkxVu"
      },
      "followers" : {
        "href" : null,
        "total" : 56
      },
      "genres" : [ ],
      "href" : "https://api.spotify.com/v1/artists/15JpDSYLmInmjEAVKWkxVu",
      "id" : "15JpDSYLmInmjEAVKWkxVu",
      "images" : [ {
        "height" : 640,
        "url" : "https://i.scdn.co/image/ab6761610000e5ebaddd9b818274148b58193ebe",
        "width" : 640
      }, {
        "height" : 320,
        "url" : "https://i.scdn.co/image/ab67616100005174addd9b818274148b58193ebe",
        "width" : 320
      }, {
        "height" : 160,
        "url" : "https://i.scdn.co/image/ab6761610000f178addd9b818274148b58193ebe",
        "width" : 160
      } ],
      "name" : "Rezzo Cuba",
      "popularity" : 7,
      "type" : "artist",
      "uri" : "spotify:artist:15JpDSYLmInmjEAVKWkxVu"
    }, {
      "external_urls" : {
        "spotify" : "https://open.spotify.com/artist/0zWyK6LTp1TqKRFDm6gHm0"
      },
      "followers" : {
        "href" : null,
        "total" : 17
      },
      "genres" : [ ],
      "href" : "https://api.spotify.com/v1/artists/0zWyK6LTp1TqKRFDm6gHm0",
      "id" : "0zWyK6LTp1TqKRFDm6gHm0",
      "images" : [ {
        "height" : 640,
        "url" : "https://i.scdn.co/image/ab6761610000e5eb6958c02440f016ddf5f16da2",
        "width" : 640
      }, {
        "height" : 320,
        "url" : "https://i.scdn.co/image/ab676161000051746958c02440f016ddf5f16da2",
        "width" : 320
      }, {
        "height" : 160,
        "url" : "https://i.scdn.co/image/ab6761610000f1786958c02440f016ddf5f16da2",
        "width" : 160
      } ],
      "name" : "Rezzo2x",
      "popularity" : 4,
      "type" : "artist",
      "uri" : "spotify:artist:0zWyK6LTp1TqKRFDm6gHm0"
    }, {
      "external_urls" : {
        "spotify" : "https://open.spotify.com/artist/7artVSpnDtUuq6C3pSKlY6"
      },
      "followers" : {
        "href" : null,
        "total" : 23
      },
      "genres" : [ ],
      "href" : "https://api.spotify.com/v1/artists/7artVSpnDtUuq6C3pSKlY6",
      "id" : "7artVSpnDtUuq6C3pSKlY6",
      "images" : [ {
        "height" : 640,
        "url" : "https://i.scdn.co/image/ab6761610000e5eb0701c49da8e5fd8ea9e0993c",
        "width" : 640
      }, {
        "height" : 320,
        "url" : "https://i.scdn.co/image/ab676161000051740701c49da8e5fd8ea9e0993c",
        "width" : 320
      }, {
        "height" : 160,
        "url" : "https://i.scdn.co/image/ab6761610000f1780701c49da8e5fd8ea9e0993c",
        "width" : 160
      } ],
      "name" : "Rezzy Bankz",
      "popularity" : 5,
      "type" : "artist",
      "uri" : "spotify:artist:7artVSpnDtUuq6C3pSKlY6"
    }, {
      "external_urls" : {
        "spotify" : "https://open.spotify.com/artist/16A0BdN56Jlq9VfbfkPMJe"
      },
      "followers" : {
        "href" : null,
        "total" : 0
      },
      "genres" : [ ],
      "href" : "https://api.spotify.com/v1/artists/16A0BdN56Jlq9VfbfkPMJe",
      "id" : "16A0BdN56Jlq9VfbfkPMJe",
      "images" : [ ],
      "name" : "415 Rezzo",
      "popularity" : 5,
      "type" : "artist",
      "uri" : "spotify:artist:16A0BdN56Jlq9VfbfkPMJe"
    }, {
      "external_urls" : {
        "spotify" : "https://open.spotify.com/artist/3L78x97EpDkShuOS5WfE1q"
      },
      "followers" : {
        "href" : null,
        "total" : 6
      },
      "genres" : [ ],
      "href" : "https://api.spotify.com/v1/artists/3L78x97EpDkShuOS5WfE1q",
      "id" : "3L78x97EpDkShuOS5WfE1q",
      "images" : [ {
        "height" : 640,
        "url" : "https://i.scdn.co/image/ab67616d0000b2738cd8199448c31078849a0aa9",
        "width" : 640
      }, {
        "height" : 300,
        "url" : "https://i.scdn.co/image/ab67616d00001e028cd8199448c31078849a0aa9",
        "width" : 300
      }, {
        "height" : 64,
        "url" : "https://i.scdn.co/image/ab67616d000048518cd8199448c31078849a0aa9",
        "width" : 64
      } ],
      "name" : "Rezza Dharmawangsa",
      "popularity" : 15,
      "type" : "artist",
      "uri" : "spotify:artist:3L78x97EpDkShuOS5WfE1q"
    }, {
      "external_urls" : {
        "spotify" : "https://open.spotify.com/artist/6PjQPlHoQlkxmgnNIkXu15"
      },
      "followers" : {
        "href" : null,
        "total" : 336
      },
      "genres" : [ ],
      "href" : "https://api.spotify.com/v1/artists/6PjQPlHoQlkxmgnNIkXu15",
      "id" : "6PjQPlHoQlkxmgnNIkXu15",
      "images" : [ {
        "height" : 640,
        "url" : "https://i.scdn.co/image/ab6761610000e5eb37cb900618131d2d165e64cc",
        "width" : 640
      }, {
        "height" : 320,
        "url" : "https://i.scdn.co/image/ab6761610000517437cb900618131d2d165e64cc",
        "width" : 320
      }, {
        "height" : 160,
        "url" : "https://i.scdn.co/image/ab6761610000f17837cb900618131d2d165e64cc",
        "width" : 160
      } ],
      "name" : "OF REZZ",
      "popularity" : 5,
      "type" : "artist",
      "uri" : "spotify:artist:6PjQPlHoQlkxmgnNIkXu15"
    }, {
      "external_urls" : {
        "spotify" : "https://open.spotify.com/artist/3zIMF2j8br8ooC9NaI50HN"
      },
      "followers" : {
        "href" : null,
        "total" : 29
      },
      "genres" : [ ],
      "href" : "https://api.spotify.com/v1/artists/3zIMF2j8br8ooC9NaI50HN",
      "id" : "3zIMF2j8br8ooC9NaI50HN",
      "images" : [ {
        "height" : 640,
        "url" : "https://i.scdn.co/image/ab67616d0000b2738e1d68941f734745fcbcf161",
        "width" : 640
      }, {
        "height" : 300,
        "url" : "https://i.scdn.co/image/ab67616d00001e028e1d68941f734745fcbcf161",
        "width" : 300
      }, {
        "height" : 64,
        "url" : "https://i.scdn.co/image/ab67616d000048518e1d68941f734745fcbcf161",
        "width" : 64
      } ],
      "name" : "Rezz",
      "popularity" : 16,
      "type" : "artist",
      "uri" : "spotify:artist:3zIMF2j8br8ooC9NaI50HN"
    }, {
      "external_urls" : {
        "spotify" : "https://open.spotify.com/artist/3hj51pmu3VeTprIivwtVno"
      },
      "followers" : {
        "href" : null,
        "total" : 16
      },
      "genres" : [ ],
      "href" : "https://api.spotify.com/v1/artists/3hj51pmu3VeTprIivwtVno",
      "id" : "3hj51pmu3VeTprIivwtVno",
      "images" : [ ],
      "name" : "Adrian Rezza",
      "popularity" : 11,
      "type" : "artist",
      "uri" : "spotify:artist:3hj51pmu3VeTprIivwtVno"
    } ],
    "limit" : 20,
    "next" : "https://api.spotify.com/v1/search?query=REZZ&type=artist&market=US&offset=20&limit=20",
    "offset" : 0,
    "previous" : null,
    "total" : 346
  }
}