{
  "artists" : {
    "href" : "https://api.spotify.com/v1/search?query=TSHA&type=artist&market=US&offset=0&limit=20",
    "items" : [ {
      "external_urls" : {
        "spotify" : "https://open.spotify.com/artist/2kLa7JZu4Ijdz1Gle2khZh"
      },
      "followers" : {
        "href" : null,
        "total" : 33525
      },
      "genres" : [ "uk house" ],
      "href" : "https://api.spotify.com/v1/artists/2kLa7JZu4Ijdz1Gle2khZh",
      "id" : "2kLa7JZu4Ijdz1Gle2khZh",
      "images" : [ {
        "height" : 640,
        "url" : "https://i.scdn.co/image/ab6761610000e5eb250f975b18a76a0287f0acba",
        "width" : 640
      }, {
        "height" : 320,
        "url" : "https://i.scdn.co/image/ab67616100005174250f975b18a76a0287f0acba",
        "width" : 320
      }, {
        "height" : 160,
        "url" : "https://i.scdn.co/image/ab6761610000f178250f975b18a76a0287f0acba",
        "width" : 160
      } ],
      "name" : "TSHA",
      "popularity" : 60,
      "type" : "artist",
      "uri" : "spotify:artist:2kLa7JZu4Ijdz1Gle2khZh"
    }, {
      "external_urls" : {
        "spotify" : "https://open.spotify.com/artist/2Mp1YP6GjokS0SgdyffYyD"
      },
      "followers" : {
        "href" : null,
        "total" : 1151
      },
      "genres" : [ "broadway", "show tunes" ],
      "href" : "https://api.spotify.com/v1/artists/2Mp1YP6GjokS0SgdyffYyD",
      "id" : "2Mp1YP6GjokS0SgdyffYyD",
      "images" : [ {
        "height" : 640,
        "url" : "https://i.scdn.co/image/ab6761610000e5eb3cf7da36c0de351a39dea4ba",
        "width" : 640
      }, {
        "height" : 320,
        "url" : "https://i.scdn.co/image/ab676161000051743cf7da36c0de351a39dea4ba",
        "width" : 320
      }, {
        "height" : 160,
        "url" : "https://i.scdn.co/image/ab6761610000f1783cf7da36c0de351a39dea4ba",
        "width" : 160
      } ],
      "name" : "T'Shan Williams",
      "popularity" : 45,
      "type" : "artist",
      "uri" : "spotify:artist:2Mp1YP6GjokS0SgdyffYyD"
    }, {
      "external_urls" : {
        "spotify" : "https://open.spotify.com/artist/7Eg9NJC0jFmuEtqT1N5Bdv"
      },
      "followers" : {
        "href" : null,
        "total" : 11668
      },
      "genres" : [ "african gospel", "afropop", "soukous", "world" ],
      "href" : "https://api.spotify.com/v1/artists/7Eg9NJC0jFmuEtqT1N5Bdv",
      "id" : "7Eg9NJC0jFmuEtqT1N5Bdv",
      "images" : [ {
        "height" : 640,
        "url" : "https://i.scdn.co/image/ab67616d0000b273899e2ee4810b2260877f4ae6",
        "width" : 640
      }, {
        "height" : 300,
        "url" : "https://i.scdn.co/image/ab67616d00001e02899e2ee4810b2260877f4ae6",
        "width" : 300
      }, {
        "height" : 64,
        "url" : "https://i.scdn.co/image/ab67616d00004851899e2ee4810b2260877f4ae6",
        "width" : 64
      } ],
      "name" : "Tshala Muana",
      "popularity" : 32,
      "type" : "artist",
      "uri" : "spotify:artist:7Eg9NJC0jFmuEtqT1N5Bdv"
    }, {
      "external_urls" : {
        "spotify" : "https://open.spotify.com/artist/0GYDNZ9YLaTHAq40gzPiIi"
      },
      "followers" : {
        "href" : null,
        "total" : 796
      },
      "genres" : [ ],
      "href" : "https://api.spotify.com/v1/artists/0GYDNZ9YLaTHAq40gzPiIi",
      "id" : "0GYDNZ9YLaTHAq40gzPiIi",
      "images" : [ {
        "height" : 640,
        "url" : "https://i.scdn.co/image/ab6761610000e5eb7072006d39e6d56b8dc7a9da",
        "width" : 640
      }, {
        "height" : 320,
        "url" : "https://i.scdn.co/image/ab676161000051747072006d39e6d56b8dc7a9da",
        "width" : 320
      }, {
        "height" : 160,
        "url" : "https://i.scdn.co/image/ab6761610000f1787072006d39e6d56b8dc7a9da",
        "width" : 160
      } ],
      "name" : "tshawntrusst",
      "popularity" : 7,
      "type" : "artist",
      "uri" : "spotify:artist:0GYDNZ9YLaTHAq40gzPiIi"
    }, {
      "external_urls" : {
        "spotify" : "https://open.spotify.com/artist/1fREm6PH93BVZFgQkYLSMg"
      },
      "followers" : {
        "href" : null,
        "total" : 1730
      },
      "genres" : [ "deep underground hip hop" ],
      "href" : "https://api.spotify.com/v1/artists/1fREm6PH93BVZFgQkYLSMg",
      "id" : "1fREm6PH93BVZFgQkYLSMg",
      "images" : [ {
        "height" : 640,
        "url" : "https://i.scdn.co/image/ab6761610000e5eb45da34c16d9e3175c0230230",
        "width" : 640
      }, {
        "height" : 320,
        "url" : "https://i.scdn.co/image/ab6761610000517445da34c16d9e3175c0230230",
        "width" : 320
      }, {
        "height" : 160,
        "url" : "https://i.scdn.co/image/ab6761610000f17845da34c16d9e3175c0230230",
        "width" : 160
      } ],
      "name" : "T-Shawn",
      "popularity" : 21,
      "type" : "artist",
      "uri" : "spotify:artist:1fREm6PH93BVZFgQkYLSMg"
    }, {
      "external_urls" : {
        "spotify" : "https://open.spotify.com/artist/0Q3L6mvZA3AHTB3P7FDj4E"
      },
      "followers" : {
        "href" : null,
        "total" : 139
      },
      "genres" : [ ],
      "href" : "https://api.spotify.com/v1/artists/0Q3L6mvZA3AHTB3P7FDj4E",
      "id" : "0Q3L6mvZA3AHTB3P7FDj4E",
      "images" : [ {
        "height" : 640,
        "url" : "https://i.scdn.co/image/ab6761610000e5ebd11a19b2c409d3a8f72b9eea",
        "width" : 640
      }, {
        "height" : 320,
        "url" : "https://i.scdn.co/image/ab67616100005174d11a19b2c409d3a8f72b9eea",
        "width" : 320
      }, {
        "height" : 160,
        "url" : "https://i.scdn.co/image/ab6761610000f178d11a19b2c409d3a8f72b9eea",
        "width" : 160
      } ],
      "name" : "TSham",
      "popularity" : 15,
      "type" : "artist",
      "uri" : "spotify:artist:0Q3L6mvZA3AHTB3P7FDj4E"
    }, {
      "external_urls" : {
        "spotify" : "https://open.spotify.com/artist/3ltDHzVpFlYyBofCp0O75K"
      },
      "followers" : {
        "href" : null,
        "total" : 501
      },
      "genres" : [ ],
      "href" : "https://api.spotify.com/v1/artists/3ltDHzVpFlYyBofCp0O75K",
      "id" : "3ltDHzVpFlYyBofCp0O75K",
      "images" : [ {
        "height" : 640,
        "url" : "https://i.scdn.co/image/ab6761610000e5eb39ec8eb50ae464ceb6831edd",
        "width" : 640
      }, {
        "height" : 320,
        "url" : "https://i.scdn.co/image/ab6761610000517439ec8eb50ae464ceb6831edd",
        "width" : 320
      }, {
        "height" : 160,
        "url" : "https://i.scdn.co/image/ab6761610000f17839ec8eb50ae464ceb6831edd",
        "width" : 160
      } ],
      "name" : "Tshanda",
      "popularity" : 14,
      "type" : "artist",
      "uri" : "spotify:artist:3ltDHzVpFlYyBofCp0O75K"
    }, {
      "external_urls" : {
        "spotify" : "https://open.spotify.com/artist/5WjrNT5ivnPHMPMPowIFFm"
      },
      "followers" : {
        "href" : null,
        "total" : 6
      },
      "genres" : [ ],
      "href" : "https://api.spotify.com/v1/artists/5WjrNT5ivnPHMPMPowIFFm",
      "id" : "5WjrNT5ivnPHMPMPowIFFm",
      "images" : [ ],
      "name" : "Mandla Tshabalala",
      "popularity" : 20,
      "type" : "artist",
      "uri" : "spotify:artist:5WjrNT5ivnPHMPMPowIFFm"
    }, {
      "external_urls" : {
        "spotify" : "https://open.spotify.com/artist/3gS0rQdigX9t4PJu1ay3BY"
      },
      "followers" : {
        "href" : null,
        "total" : 418
      },
      "genres" : [ ],
      "href" : "https://api.spotify.com/v1/artists/3gS0rQdigX9t4PJu1ay3BY",
      "id" : "3gS0rQdigX9t4PJu1ay3BY",
      "images" : [ {
        "height" : 640,
        "url" : "https://i.scdn.co/image/ab6761610000e5eb2f8023e1bbb4b6a3b1d67438",
        "width" : 640
      }, {
        "height" : 320,
        "url" : "https://i.scdn.co/image/ab676161000051742f8023e1bbb4b6a3b1d67438",
        "width" : 320
      }, {
        "height" : 160,
        "url" : "https://i.scdn.co/image/ab6761610000f1782f8023e1bbb4b6a3b1d67438",
        "width" : 160
      } ],
      "name" : "Tshawe Baqwa",
      "popularity" : 30,
      "type" : "artist",
      "uri" : "spotify:artist:3gS0rQdigX9t4PJu1ay3BY"
    }, {
      "external_urls" : {
        "spotify" : "https://open.spotify.com/artist/0HiiHhkYhVFOahHk22TbJC"
      },
      "followers" : {
        "href" : null,
        "total" : 8
      },
      "genres" : [ ],
      "href" : "https://api.spotify.com/v1/artists/0HiiHhkYhVFOahHk22TbJC",
      "id" : "0HiiHhkYhVFOahHk22TbJC",
      "images" : [ {
        "height" : 640,
        "url" : "https://i.scdn.co/image/ab6761610000e5eb6b3a8bbc8f7e6a8c69c912e0",
        "width" : 640
      }, {
        "height" : 320,
        "url" : "https://i.scdn.co/image/ab676161000051746b3a8bbc8f7e6a8c69c912e0",
        "width" : 320
      }, {
        "height" : 160,
        "url" : "https://i.scdn.co/image/ab6761610000f1786b3a8bbc8f7e6a8c69c912e0",
        "width" : 160
      } ],
      "name" : "Tshadz",
      "popularity" : 0,
      "type" : "artist",
      "uri" : "spotify:artist:0HiiHhkYhVFOahHk22TbJC"
    }, {
      "external_urls" : {
        "spotify" : "https://open.spotify.com/artist/3xzhKWKa8UvYUlHFmO4xVd"
      },
      "followers" : {
        "href" : null,
        "total" : 32
      },
      "genres" : [ ],
      "href" : "https://api.spotify.com/v1/artists/3xzhKWKa8UvYUlHFmO4xVd",
      "id" : "3xzhKWKa8UvYUlHFmO4xVd",
      "images" : [ {
        "height" : 640,
        "url" : "https://i.scdn.co/image/ab67616d0000b27331d6fbb012788d6462f7307f",
        "width" : 640
      }, {
        "height" : 300,
        "url" : "https://i.scdn.co/image/ab67616d00001e0231d6fbb012788d6462f7307f",
        "width" : 300
      }, {
        "height" : 64,
        "url" : "https://i.scdn.co/image/ab67616d0000485131d6fbb012788d6462f7307f",
        "width" : 64
      } ],
      "name" : "Tsha",
      "popularity" : 0,
      "type" : "artist",
      "uri" : "spotify:artist:3xzhKWKa8UvYUlHFmO4xVd"
    }, {
      "external_urls" : {
        "spotify" : "https://open.spotify.com/artist/6Ps1V6bci559O8BSqMsMoM"
      },
      "followers" : {
        "href" : null,
        "total" : 0
      },
      "genres" : [ ],
      "href" : "https://api.spotify.com/v1/artists/6Ps1V6bci559O8BSqMsMoM",
      "id" : "6Ps1V6bci559O8BSqMsMoM",
      "images" : [ ],
      "name" : "Tshazfx",
      "popularity" : 0,
      "type" : "artist",
      "uri" : "spotify:artist:6Ps1V6bci559O8BSqMsMoM"
    }, {
      "external_urls" : {
        "spotify" : "https://open.spotify.com/artist/6RjzAVpMTjhejZ6UVld65Q"
      },
      "followers" : {
        "href" : null,
        "total" : 59
      },
      "genres" : [ "spoken word" ],
      "href" : "https://api.spotify.com/v1/artists/6RjzAVpMTjhejZ6UVld65Q",
      "id" : "6RjzAVpMTjhejZ6UVld65Q",
      "images" : [ {
        "height" : 640,
        "url" : "https://i.scdn.co/image/ab67616d0000b273f92130e553431b921303212e",
        "width" : 640
      }, {
        "height" : 300,
        "url" : "https://i.scdn.co/image/ab67616d00001e02f92130e553431b921303212e",
        "width" : 300
      }, {
        "height" : 64,
        "url" : "https://i.scdn.co/image/ab67616d00004851f92130e553431b921303212e",
        "width" : 64
      } ],
      "name" : "Tshaka Campbell",
      "popularity" : 4,
      "type" : "artist",
      "uri" : "spotify:artist:6RjzAVpMTjhejZ6UVld65Q"
    }, {
      "external_urls" : {
        "spotify" : "https://open.spotify.com/artist/2ZaihPUzWISpk8qu7iAUad"
      },
      "followers" : {
        "href" : null,
        "total" : 0
      },
      "genres" : [ ],
      "href" : "https://api.spotify.com/v1/artists/2ZaihPUzWISpk8qu7iAUad",
      "id" : "2ZaihPUzWISpk8qu7iAUad",
      "images" : [ {
        "height" : 640,
        "url" : "https://i.scdn.co/image/ab67616d0000b273112e3298a666f20683748dc9",
        "width" : 640
      }, {
        "height" : 300,
        "url" : "https://i.scdn.co/image/ab67616d00001e02112e3298a666f20683748dc9",
        "width" : 300
      }, {
        "height" : 64,
        "url" : "https://i.scdn.co/image/ab67616d00004851112e3298a666f20683748dc9",
        "width" : 64
      } ],
      "name" : "Tsha",
      "popularity" : 0,
      "type" : "artist",
      "uri" : "spotify:artist:2ZaihPUzWISpk8qu7iAUad"
    }, {
      "external_urls" : {
        "spotify" : "https://open.spotify.com/artist/2ex1TJwDMo3ObNQw6pYsV0"
      },
      "followers" : {
        "href" : null,
        "total" : 0
      },
      "genres" : [ ],
      "href" : "https://api.spotify.com/v1/artists/2ex1TJwDMo3ObNQw6pYsV0",
      "id" : "2ex1TJwDMo3ObNQw6pYsV0",
      "images" : [ {
        "height" : 640,
        "url" : "https://i.scdn.co/image/ab67616d0000b273c09927535edb806a07e94e6f",
        "width" : 640
      }, {
        "height" : 300,
        "url" : "https://i.scdn.co/image/ab67616d00001e02c09927535edb806a07e94e6f",
        "width" : 300
      }, {
        "height" : 64,
        "url" : "https://i.scdn.co/image/ab67616d00004851c09927535edb806a07e94e6f",
        "width" : 64
      } ],
      "name" : "Tshawn",
      "popularity" : 1,
      "type" : "artist",
      "uri" : "spotify:artist:2ex1TJwDMo3ObNQw6pYsV0"
    }, {
      "external_urls" : {
        "spotify" : "https://open.spotify.com/artist/2pkSZNJeKWxVp1S0G7B8OO"
      },
      "followers" : {
        "href" : null,
        "total" : 0
      },
      "genres" : [ ],
      "href" : "https://api.spotify.com/v1/artists/2pkSZNJeKWxVp1S0G7B8OO",
      "id" : "2pkSZNJeKWxVp1S0G7B8OO",
      "images" : [ ],
      "name" : "Tshawdie",
      "popularity" : 0,
      "type" : "artist",
      "uri" : "spotify:artist:2pkSZNJeKWxVp1S0G7B8OO"
    }, {
      "external_urls" : {
        "spotify" : "https://open.spotify.com/artist/1ZsH9KWFEKULJuOTxg0xRz"
      },
      "followers" : {
        "href" : null,
        "total" : 71
      },
      "genres" : [ ],
      "href" : "https://api.spotify.com/v1/artists/1ZsH9KWFEKULJuOTxg0xRz",
      "id" : "1ZsH9KWFEKULJuOTxg0xRz",
      "images" : [ ],
      "name" : "Tshawe",
      "popularity" : 21,
      "type" : "artist",
      "uri" : "spotify:artist:1ZsH9KWFEKULJuOTxg0xRz"
    }, {
      "external_urls" : {
        "spotify" : "https://open.spotify.com/artist/5s48wUuTlX6I4fzVBboFQL"
      },
      "followers" : {
        "href" : null,
        "total" : 0
      },
      "genres" : [ ],
      "href" : "https://api.spotify.com/v1/artists/5s48wUuTlX6I4fzVBboFQL",
      "id" : "5s48wUuTlX6I4fzVBboFQL",
      "images" : [ ],
      "name" : "Tshashanee",
      "popularity" : 0,
      "type" : "artist",
      "uri" : "spotify:artist:5s48wUuTlX6I4fzVBboFQL"
    }, {
      "external_urls" : {
        "spotify" : "https://open.spotify.com/artist/54MlqvdWqmM3y3zYLxyXsH"
      },
      "followers" : {
        "href" : null,
        "total" : 0
      },
      "genres" : [ ],
      "href" : "https://api.spotify.com/v1/artists/54MlqvdWqmM3y3zYLxyXsH",
      "id" : "54MlqvdWqmM3y3zYLxyXsH",
      "images" : [ ],
      "name" : "Tshatha",
      "popularity" : 0,
      "type" : "artist",
      "uri" : "spotify:artist:54MlqvdWqmM3y3zYLxyXsH"
    }, {
      "external_urls" : {
        "spotify" : "https://open.spotify.com/artist/7Gs2gVuOVCQ0lxaCYzaAhv"
      },
      "followers" : {
        "href" : null,
        "total" : 0
      },
      "genres" : [ ],
      "href" : "https://api.spotify.com/v1/artists/7Gs2gVuOVCQ0lxaCYzaAhv",
      "id" : "7Gs2gVuOVCQ0lxaCYzaAhv",
      "images" : [ ],
      "name" : "Tshandala",
      "popularity" : 0,
      "type" : "artist",
      "uri" : "spotify:artist:7Gs2gVuOVCQ0lxaCYzaAhv"
    } ],
    "limit" : 20,
    "next" : "https://api.spotify.com/v1/search?query=TSHA&type=artist&market=US&offset=20&limit=20",
    "offset" : 0,
    "previous" : null,
    "total" : 189
  }
}