{
  "artists" : {
    "href" : "https://api.spotify.com/v1/search?query=WADE&type=artist&market=US&offset=0&limit=20",
    "items" : [ {
      "external_urls" : {
        "spotify" : "https://open.spotify.com/artist/3OftZbLfcqulxWNZMX8zLI"
      },
      "followers" : {
        "href" : null,
        "total" : 132403
      },
      "genres" : [ "outlaw country", "red dirt", "texas country" ],
      "href" : "https://api.spotify.com/v1/artists/3OftZbLfcqulxWNZMX8zLI",
      "id" : "3OftZbLfcqulxWNZMX8zLI",
      "images" : [ {
        "height" : 640,
        "url" : "https://i.scdn.co/image/ab6761610000e5eb9d51924449a56f9c77fc1911",
        "width" : 640
      }, {
        "height" : 320,
        "url" : "https://i.scdn.co/image/ab676161000051749d51924449a56f9c77fc1911",
        "width" : 320
      }, {
        "height" : 160,
        "url" : "https://i.scdn.co/image/ab6761610000f1789d51924449a56f9c77fc1911",
        "width" : 160
      } ],
      "name" : "Wade Bowen",
      "popularity" : 54,
      "type" : "artist",
      "uri" : "spotify:artist:3OftZbLfcqulxWNZMX8zLI"
    }, {
      "external_urls" : {
        "spotify" : "https://open.spotify.com/artist/4eYE8Z6cfEHEdG22lTyucP"
      },
      "followers" : {
        "href" : null,
        "total" : 49845
      },
      "genres" : [ "contemporary country" ],
      "href" : "https://api.spotify.com/v1/artists/4eYE8Z6cfEHEdG22lTyucP",
      "id" : "4eYE8Z6cfEHEdG22lTyucP",
      "images" : [ {
        "height" : 640,
        "url" : "https://i.scdn.co/image/ab6761610000e5eba6b7e562d0b081b45fd97a9c",
        "width" : 640
      }, {
        "height" : 320,
        "url" : "https://i.scdn.co/image/ab67616100005174a6b7e562d0b081b45fd97a9c",
        "width" : 320
      }, {
        "height" : 160,
        "url" : "https://i.scdn.co/image/ab6761610000f178a6b7e562d0b081b45fd97a9c",
        "width" : 160
      } ],
      "name" : "Morgan Wade",
      "popularity" : 63,
      "type" : "artist",
      "uri" : "spotify:artist:4eYE8Z6cfEHEdG22lTyucP"
    }, {
      "external_urls" : {
        "spotify" : "https://open.spotify.com/artist/5aw4j274Y1qya2zez5ctb0"
      },
      "followers" : {
        "href" : null,
        "total" : 19
      },
      "genres" : [ ],
      "href" : "https://api.spotify.com/v1/artists/5aw4j274Y1qya2zez5ctb0",
      "id" : "5aw4j274Y1qya2zez5ctb0",
      "images" : [ {
        "height" : 640,
        "url" : "https://i.scdn.co/image/ab67616d0000b27360291db7134a76a9a06b3ddf",
        "width" : 640
      }, {
        "height" : 300,
        "url" : "https://i.scdn.co/image/ab67616d00001e0260291db7134a76a9a06b3ddf",
        "width" : 300
      }, {
        "height" : 64,
        "url" : "https://i.scdn.co/image/ab67616d0000485160291db7134a76a9a06b3ddf",
        "width" : 64
      } ],
      "name" : "WADE",
      "popularity" : 0,
      "type" : "artist",
      "uri" : "spotify:artist:5aw4j274Y1qya2zez5ctb0"
    }, {
      "external_urls" : {
        "spotify" : "https://open.spotify.com/artist/09iEIVQVBtTVjiuEdqqkIR"
      },
      "followers" : {
        "href" : null,
        "total" : 44021
      },
      "genres" : [ ],
      "href" : "https://api.spotify.com/v1/artists/09iEIVQVBtTVjiuEdqqkIR",
      "id" : "09iEIVQVBtTVjiuEdqqkIR",
      "images" : [ {
        "height" : 640,
        "url" : "https://i.scdn.co/image/ab6761610000e5ebaeef3da421c3bd1792b528f3",
        "width" : 640
      }, {
        "height" : 320,
        "url" : "https://i.scdn.co/image/ab67616100005174aeef3da421c3bd1792b528f3",
        "width" : 320
      }, {
        "height" : 160,
        "url" : "https://i.scdn.co/image/ab6761610000f178aeef3da421c3bd1792b528f3",
        "width" : 160
      } ],
      "name" : "Wade",
      "popularity" : 58,
      "type" : "artist",
      "uri" : "spotify:artist:09iEIVQVBtTVjiuEdqqkIR"
    }, {
      "external_urls" : {
        "spotify" : "https://open.spotify.com/artist/7qKsrTSocGEZLm23pOo5Gy"
      },
      "followers" : {
        "href" : null,
        "total" : 2704
      },
      "genres" : [ ],
      "href" : "https://api.spotify.com/v1/artists/7qKsrTSocGEZLm23pOo5Gy",
      "id" : "7qKsrTSocGEZLm23pOo5Gy",
      "images" : [ {
        "height" : 640,
        "url" : "https://i.scdn.co/image/ab6761610000e5eb8276ed01378d615c95096c42",
        "width" : 640
      }, {
        "height" : 320,
        "url" : "https://i.scdn.co/image/ab676161000051748276ed01378d615c95096c42",
        "width" : 320
      }, {
        "height" : 160,
        "url" : "https://i.scdn.co/image/ab6761610000f1788276ed01378d615c95096c42",
        "width" : 160
      } ],
      "name" : "Wade",
      "popularity" : 38,
      "type" : "artist",
      "uri" : "spotify:artist:7qKsrTSocGEZLm23pOo5Gy"
    }, {
      "external_urls" : {
        "spotify" : "https://open.spotify.com/artist/31CNSjG7i0piX1pwKjMjmp"
      },
      "followers" : {
        "href" : null,
        "total" : 6231
      },
      "genres" : [ "instrumental worship", "piano worship" ],
      "href" : "https://api.spotify.com/v1/artists/31CNSjG7i0piX1pwKjMjmp",
      "id" : "31CNSjG7i0piX1pwKjMjmp",
      "images" : [ {
        "height" : 640,
        "url" : "https://i.scdn.co/image/ab6761610000e5eb3831c415c3ac2ad86b3e28d9",
        "width" : 640
      }, {
        "height" : 320,
        "url" : "https://i.scdn.co/image/ab676161000051743831c415c3ac2ad86b3e28d9",
        "width" : 320
      }, {
        "height" : 160,
        "url" : "https://i.scdn.co/image/ab6761610000f1783831c415c3ac2ad86b3e28d9",
        "width" : 160
      } ],
      "name" : "Wade McNutt",
      "popularity" : 45,
      "type" : "artist",
      "uri" : "spotify:artist:31CNSjG7i0piX1pwKjMjmp"
    }, {
      "external_urls" : {
        "spotify" : "https://open.spotify.com/artist/3hIFPcjNmowwE1S0MtPZ1q"
      },
      "followers" : {
        "href" : null,
        "total" : 663
      },
      "genres" : [ ],
      "href" : "https://api.spotify.com/v1/artists/3hIFPcjNmowwE1S0MtPZ1q",
      "id" : "3hIFPcjNmowwE1S0MtPZ1q",
      "images" : [ {
        "height" : 640,
        "url" : "https://i.scdn.co/image/ab6761610000e5ebc5ca4c3f3fbdcd92f9504677",
        "width" : 640
      }, {
        "height" : 320,
        "url" : "https://i.scdn.co/image/ab67616100005174c5ca4c3f3fbdcd92f9504677",
        "width" : 320
      }, {
        "height" : 160,
        "url" : "https://i.scdn.co/image/ab6761610000f178c5ca4c3f3fbdcd92f9504677",
        "width" : 160
      } ],
      "name" : "WADE08",
      "popularity" : 19,
      "type" : "artist",
      "uri" : "spotify:artist:3hIFPcjNmowwE1S0MtPZ1q"
    }, {
      "external_urls" : {
        "spotify" : "https://open.spotify.com/artist/75SfPjhZGlNGtqhs37BGpU"
      },
      "followers" : {
        "href" : null,
        "total" : 146
      },
      "genres" : [ ],
      "href" : "https://api.spotify.com/v1/artists/75SfPjhZGlNGtqhs37BGpU",
      "id" : "75SfPjhZGlNGtqhs37BGpU",
      "images" : [ {
        "height" : 640,
        "url" : "https://i.scdn.co/image/ab6761610000e5eb6c9929dcc79542a3e70eff06",
        "width" : 640
      }, {
        "height" : 320,
        "url" : "https://i.scdn.co/image/ab676161000051746c9929dcc79542a3e70eff06",
        "width" : 320
      }, {
        "height" : 160,
        "url" : "https://i.scdn.co/image/ab6761610000f1786c9929dcc79542a3e70eff06",
        "width" : 160
      } ],
      "name" : "Ivory Wade",
      "popularity" : 41,
      "type" : "artist",
      "uri" : "spotify:artist:75SfPjhZGlNGtqhs37BGpU"
    }, {
      "external_urls" : {
        "spotify" : "https://open.spotify.com/artist/3Wsbuy58Ku5N0hWjTuERRa"
      },
      "followers" : {
        "href" : null,
        "total" : 62850
      },
      "genres" : [ "country", "country road", "oklahoma country" ],
      "href" : "https://api.spotify.com/v1/artists/3Wsbuy58Ku5N0hWjTuERRa",
      "id" : "3Wsbuy58Ku5N0hWjTuERRa",
      "images" : [ {
        "height" : 1121,
        "url" : "https://i.scdn.co/image/11a8bd4874fc68656236361a1488ad853a45aa9e",
        "width" : 1000
      }, {
        "height" : 717,
        "url" : "https://i.scdn.co/image/e96dc62cd781c4d00acd7976744eaad5c94355e1",
        "width" : 640
      }, {
        "height" : 224,
        "url" : "https://i.scdn.co/image/94df0d88a3cfee85e93c951bdd3a938b67248ff8",
        "width" : 200
      }, {
        "height" : 72,
        "url" : "https://i.scdn.co/image/29fcd3d352406420e3929fcc1fb360cb1f8e2943",
        "width" : 64
      } ],
      "name" : "Wade Hayes",
      "popularity" : 37,
      "type" : "artist",
      "uri" : "spotify:artist:3Wsbuy58Ku5N0hWjTuERRa"
    }, {
      "external_urls" : {
        "spotify" : "https://open.spotify.com/artist/4vBlee4knd2VTRy7tDmqui"
      },
      "followers" : {
        "href" : null,
        "total" : 28698
      },
      "genres" : [ "chattanooga indie", "outlaw country" ],
      "href" : "https://api.spotify.com/v1/artists/4vBlee4knd2VTRy7tDmqui",
      "id" : "4vBlee4knd2VTRy7tDmqui",
      "images" : [ {
        "height" : 640,
        "url" : "https://i.scdn.co/image/ab6761610000e5eb9cdd3c3b6145d78409004652",
        "width" : 640
      }, {
        "height" : 320,
        "url" : "https://i.scdn.co/image/ab676161000051749cdd3c3b6145d78409004652",
        "width" : 320
      }, {
        "height" : 160,
        "url" : "https://i.scdn.co/image/ab6761610000f1789cdd3c3b6145d78409004652",
        "width" : 160
      } ],
      "name" : "Roger Alan Wade",
      "popularity" : 46,
      "type" : "artist",
      "uri" : "spotify:artist:4vBlee4knd2VTRy7tDmqui"
    }, {
      "external_urls" : {
        "spotify" : "https://open.spotify.com/artist/7BOF0CVLlh0NGsrILnEtM0"
      },
      "followers" : {
        "href" : null,
        "total" : 3
      },
      "genres" : [ ],
      "href" : "https://api.spotify.com/v1/artists/7BOF0CVLlh0NGsrILnEtM0",
      "id" : "7BOF0CVLlh0NGsrILnEtM0",
      "images" : [ {
        "height" : 640,
        "url" : "https://i.scdn.co/image/ab67616d0000b27333f7636a0b8fe092b308e2bc",
        "width" : 640
      }, {
        "height" : 300,
        "url" : "https://i.scdn.co/image/ab67616d00001e0233f7636a0b8fe092b308e2bc",
        "width" : 300
      }, {
        "height" : 64,
        "url" : "https://i.scdn.co/image/ab67616d0000485133f7636a0b8fe092b308e2bc",
        "width" : 64
      } ],
      "name" : "WADE",
      "popularity" : 0,
      "type" : "artist",
      "uri" : "spotify:artist:7BOF0CVLlh0NGsrILnEtM0"
    }, {
      "external_urls" : {
        "spotify" : "https://open.spotify.com/artist/4rzD5ooBE6B8r9gwC1Xx4I"
      },
      "followers" : {
        "href" : null,
        "total" : 0
      },
      "genres" : [ ],
      "href" : "https://api.spotify.com/v1/artists/4rzD5ooBE6B8r9gwC1Xx4I",
      "id" : "4rzD5ooBE6B8r9gwC1Xx4I",
      "images" : [ ],
      "name" : "WADE",
      "popularity" : 0,
      "type" : "artist",
      "uri" : "spotify:artist:4rzD5ooBE6B8r9gwC1Xx4I"
    }, {
      "external_urls" : {
        "spotify" : "https://open.spotify.com/artist/6SRngj3jZv4ZH2HDHWMrdQ"
      },
      "followers" : {
        "href" : null,
        "total" : 2520
      },
      "genres" : [ "redneck" ],
      "href" : "https://api.spotify.com/v1/artists/6SRngj3jZv4ZH2HDHWMrdQ",
      "id" : "6SRngj3jZv4ZH2HDHWMrdQ",
      "images" : [ {
        "height" : 640,
        "url" : "https://i.scdn.co/image/ab6761610000e5eba9656d01c6cbe791f1bf3e56",
        "width" : 640
      }, {
        "height" : 320,
        "url" : "https://i.scdn.co/image/ab67616100005174a9656d01c6cbe791f1bf3e56",
        "width" : 320
      }, {
        "height" : 160,
        "url" : "https://i.scdn.co/image/ab6761610000f178a9656d01c6cbe791f1bf3e56",
        "width" : 160
      } ],
      "name" : "Wade B",
      "popularity" : 34,
      "type" : "artist",
      "uri" : "spotify:artist:6SRngj3jZv4ZH2HDHWMrdQ"
    }, {
      "external_urls" : {
        "spotify" : "https://open.spotify.com/artist/59K75RpYYMKL89Z1uxGMuH"
      },
      "followers" : {
        "href" : null,
        "total" : 31150
      },
      "genres" : [ ],
      "href" : "https://api.spotify.com/v1/artists/59K75RpYYMKL89Z1uxGMuH",
      "id" : "59K75RpYYMKL89Z1uxGMuH",
      "images" : [ {
        "height" : 640,
        "url" : "https://i.scdn.co/image/ab6761610000e5eb8c30acb17afc24adc8d693c2",
        "width" : 640
      }, {
        "height" : 320,
        "url" : "https://i.scdn.co/image/ab676161000051748c30acb17afc24adc8d693c2",
        "width" : 320
      }, {
        "height" : 160,
        "url" : "https://i.scdn.co/image/ab6761610000f1788c30acb17afc24adc8d693c2",
        "width" : 160
      } ],
      "name" : "Jamal Wade",
      "popularity" : 36,
      "type" : "artist",
      "uri" : "spotify:artist:59K75RpYYMKL89Z1uxGMuH"
    }, {
      "external_urls" : {
        "spotify" : "https://open.spotify.com/artist/1Qz9RWDy1sAbsRrE6T0dvF"
      },
      "followers" : {
        "href" : null,
        "total" : 3
      },
      "genres" : [ ],
      "href" : "https://api.spotify.com/v1/artists/1Qz9RWDy1sAbsRrE6T0dvF",
      "id" : "1Qz9RWDy1sAbsRrE6T0dvF",
      "images" : [ {
        "height" : 640,
        "url" : "https://i.scdn.co/image/ab67616d0000b27336c1313cc333c39f56a2e884",
        "width" : 640
      }, {
        "height" : 300,
        "url" : "https://i.scdn.co/image/ab67616d00001e0236c1313cc333c39f56a2e884",
        "width" : 300
      }, {
        "height" : 64,
        "url" : "https://i.scdn.co/image/ab67616d0000485136c1313cc333c39f56a2e884",
        "width" : 64
      } ],
      "name" : "WADE",
      "popularity" : 0,
      "type" : "artist",
      "uri" : "spotify:artist:1Qz9RWDy1sAbsRrE6T0dvF"
    }, {
      "external_urls" : {
        "spotify" : "https://open.spotify.com/artist/7cAhn00YWp9BClDOxsAwx0"
      },
      "followers" : {
        "href" : null,
        "total" : 4227
      },
      "genres" : [ "roots americana" ],
      "href" : "https://api.spotify.com/v1/artists/7cAhn00YWp9BClDOxsAwx0",
      "id" : "7cAhn00YWp9BClDOxsAwx0",
      "images" : [ {
        "height" : 640,
        "url" : "https://i.scdn.co/image/ab67616d0000b273ec11c926328640d1ae14549c",
        "width" : 640
      }, {
        "height" : 300,
        "url" : "https://i.scdn.co/image/ab67616d00001e02ec11c926328640d1ae14549c",
        "width" : 300
      }, {
        "height" : 64,
        "url" : "https://i.scdn.co/image/ab67616d00004851ec11c926328640d1ae14549c",
        "width" : 64
      } ],
      "name" : "Wade Reeves",
      "popularity" : 32,
      "type" : "artist",
      "uri" : "spotify:artist:7cAhn00YWp9BClDOxsAwx0"
    }, {
      "external_urls" : {
        "spotify" : "https://open.spotify.com/artist/0GNiT6ret1bxlDQMf8Pm1K"
      },
      "followers" : {
        "href" : null,
        "total" : 945
      },
      "genres" : [ ],
      "href" : "https://api.spotify.com/v1/artists/0GNiT6ret1bxlDQMf8Pm1K",
      "id" : "0GNiT6ret1bxlDQMf8Pm1K",
      "images" : [ {
        "height" : 640,
        "url" : "https://i.scdn.co/image/ab6761610000e5eba3817bc19463d2a655b2f417",
        "width" : 640
      }, {
        "height" : 320,
        "url" : "https://i.scdn.co/image/ab67616100005174a3817bc19463d2a655b2f417",
        "width" : 320
      }, {
        "height" : 160,
        "url" : "https://i.scdn.co/image/ab6761610000f178a3817bc19463d2a655b2f417",
        "width" : 160
      } ],
      "name" : "Wade Graves",
      "popularity" : 26,
      "type" : "artist",
      "uri" : "spotify:artist:0GNiT6ret1bxlDQMf8Pm1K"
    }, {
      "external_urls" : {
        "spotify" : "https://open.spotify.com/artist/0w4e7HVbqAHFPN6VkIlvhe"
      },
      "followers" : {
        "href" : null,
        "total" : 772457
      },
      "genres" : [ "bhajan", "classic bollywood", "desi pop", "filmi", "ghazal", "modern bollywood" ],
      "href" : "https://api.spotify.com/v1/artists/0w4e7HVbqAHFPN6VkIlvhe",
      "id" : "0w4e7HVbqAHFPN6VkIlvhe",
      "images" : [ {
        "height" : 640,
        "url" : "https://i.scdn.co/image/ab6761610000e5ebedc8b6b16d41b66123c96d04",
        "width" : 640
      }, {
        "height" : 320,
        "url" : "https://i.scdn.co/image/ab67616100005174edc8b6b16d41b66123c96d04",
        "width" : 320
      }, {
        "height" : 160,
        "url" : "https://i.scdn.co/image/ab6761610000f178edc8b6b16d41b66123c96d04",
        "width" : 160
      } ],
      "name" : "Suresh Wadkar",
      "popularity" : 59,
      "type" : "artist",
      "uri" : "spotify:artist:0w4e7HVbqAHFPN6VkIlvhe"
    }, {
      "external_urls" : {
        "spotify" : "https://open.spotify.com/artist/4Ui9tD3dU3330diW8IzQyb"
      },
      "followers" : {
        "href" : null,
        "total" : 4821
      },
      "genres" : [ "kirtan" ],
      "href" : "https://api.spotify.com/v1/artists/4Ui9tD3dU3330diW8IzQyb",
      "id" : "4Ui9tD3dU3330diW8IzQyb",
      "images" : [ {
        "height" : 640,
        "url" : "https://i.scdn.co/image/ab67616d0000b273b8b96c5b62a838e530365ea3",
        "width" : 640
      }, {
        "height" : 300,
        "url" : "https://i.scdn.co/image/ab67616d00001e0237b9bcbe9fae1c07e0961fd3",
        "width" : 300
      }, {
        "height" : 64,
        "url" : "https://i.scdn.co/image/ab67616d0000485137b9bcbe9fae1c07e0961fd3",
        "width" : 64
      } ],
      "name" : "Wade Imre Morissette",
      "popularity" : 31,
      "type" : "artist",
      "uri" : "spotify:artist:4Ui9tD3dU3330diW8IzQyb"
    }, {
      "external_urls" : {
        "spotify" : "https://open.spotify.com/artist/7eWcuenC0QbsDXnZ6IeMaW"
      },
      "followers" : {
        "href" : null,
        "total" : 109
      },
      "genres" : [ ],
      "href" : "https://api.spotify.com/v1/artists/7eWcuenC0QbsDXnZ6IeMaW",
      "id" : "7eWcuenC0QbsDXnZ6IeMaW",
      "images" : [ {
        "height" : 640,
        "url" : "https://i.scdn.co/image/ab67616d0000b27384b1798fd4c64a4e1e5edaa6",
        "width" : 640
      }, {
        "height" : 300,
        "url" : "https://i.scdn.co/image/ab67616d00001e0284b1798fd4c64a4e1e5edaa6",
        "width" : 300
      }, {
        "height" : 64,
        "url" : "https://i.scdn.co/image/ab67616d0000485184b1798fd4c64a4e1e5edaa6",
        "width" : 64
      } ],
      "name" : "Segedric Wade",
      "popularity" : 32,
      "type" : "artist",
      "uri" : "spotify:artist:7eWcuenC0QbsDXnZ6IeMaW"
    } ],
    "limit" : 20,
    "next" : "https://api.spotify.com/v1/search?query=WADE&type=artist&market=US&offset=20&limit=20",
    "offset" : 0,
    "previous" : null,
    "total" : 1547
  }
}