{
  "artists" : {
    "href" : "https://api.spotify.com/v1/search?query=ZHU&type=artist&market=US&offset=0&limit=20",
    "items" : [ {
      "external_urls" : {
        "spotify" : "https://open.spotify.com/artist/28j8lBWDdDSHSSt5oPlsX2"
      },
      "followers" : {
        "href" : null,
        "total" : 761717
      },
      "genres" : [ "edm", "electro house" ],
      "href" : "https://api.spotify.com/v1/artists/28j8lBWDdDSHSSt5oPlsX2",
      "id" : "28j8lBWDdDSHSSt5oPlsX2",
      "images" : [ {
        "height" : 640,
        "url" : "https://i.scdn.co/image/ab6761610000e5eb5cc7aca0b30b4214a4dc154e",
        "width" : 640
      }, {
        "height" : 320,
        "url" : "https://i.scdn.co/image/ab676161000051745cc7aca0b30b4214a4dc154e",
        "width" : 320
      }, {
        "height" : 160,
        "url" : "https://i.scdn.co/image/ab6761610000f1785cc7aca0b30b4214a4dc154e",
        "width" : 160
      } ],
      "name" : "ZHU",
      "popularity" : 71,
      "type" : "artist",
      "uri" : "spotify:artist:28j8lBWDdDSHSSt5oPlsX2"
    }, {
      "external_urls" : {
        "spotify" : "https://open.spotify.com/artist/3z5WrAR67znbCVkXjFKM6Q"
      },
      "followers" : {
        "href" : null,
        "total" : 66
      },
      "genres" : [ ],
      "href" : "https://api.spotify.com/v1/artists/3z5WrAR67znbCVkXjFKM6Q",
      "id" : "3z5WrAR67znbCVkXjFKM6Q",
      "images" : [ {
        "height" : 640,
        "url" : "https://i.scdn.co/image/ab67616d0000b2733cd4c24005fbcffe0ff66420",
        "width" : 640
      }, {
        "height" : 300,
        "url" : "https://i.scdn.co/image/ab67616d00001e023cd4c24005fbcffe0ff66420",
        "width" : 300
      }, {
        "height" : 64,
        "url" : "https://i.scdn.co/image/ab67616d000048513cd4c24005fbcffe0ff66420",
        "width" : 64
      } ],
      "name" : "Zhu Wang",
      "popularity" : 40,
      "type" : "artist",
      "uri" : "spotify:artist:3z5WrAR67znbCVkXjFKM6Q"
    }, {
      "external_urls" : {
        "spotify" : "https://open.spotify.com/artist/6wTycbcXniJwwz1SfhpSns"
      },
      "followers" : {
        "href" : null,
        "total" : 462
      },
      "genres" : [ ],
      "href" : "https://api.spotify.com/v1/artists/6wTycbcXniJwwz1SfhpSns",
      "id" : "6wTycbcXniJwwz1SfhpSns",
      "images" : [ {
        "height" : 1000,
        "url" : "https://i.scdn.co/image/42fc35c5b19a8832dbde8f4fded4568950fda2d7",
        "width" : 1000
      }, {
        "height" : 640,
        "url" : "https://i.scdn.co/image/99fcf41856243dc388d7bb8686ea2d6c4b9ea72e",
        "width" : 640
      }, {
        "height" : 200,
        "url" : "https://i.scdn.co/image/5939ec9b7e40908a8d3c5119fff8ce1ec65468ea",
        "width" : 200
      }, {
        "height" : 64,
        "url" : "https://i.scdn.co/image/0e8d0ab816e91f79b235506fd5eb6bc0ab27a1e9",
        "width" : 64
      } ],
      "name" : "Natalie Zhu",
      "popularity" : 45,
      "type" : "artist",
      "uri" : "spotify:artist:6wTycbcXniJwwz1SfhpSns"
    }, {
      "external_urls" : {
        "spotify" : "https://open.spotify.com/artist/1zrG87kuNUe7h8u1C7YdYW"
      },
      "followers" : {
        "href" : null,
        "total" : 170
      },
      "genres" : [ ],
      "href" : "https://api.spotify.com/v1/artists/1zrG87kuNUe7h8u1C7YdYW",
      "id" : "1zrG87kuNUe7h8u1C7YdYW",
      "images" : [ {
        "height" : 640,
        "url" : "https://i.scdn.co/image/ab6761610000e5eb95190258d0af7ef03990bc4d",
        "width" : 640
      }, {
        "height" : 320,
        "url" : "https://i.scdn.co/image/ab6761610000517495190258d0af7ef03990bc4d",
        "width" : 320
      }, {
        "height" : 160,
        "url" : "https://i.scdn.co/image/ab6761610000f17895190258d0af7ef03990bc4d",
        "width" : 160
      } ],
      "name" : "ZHIOHN",
      "popularity" : 12,
      "type" : "artist",
      "uri" : "spotify:artist:1zrG87kuNUe7h8u1C7YdYW"
    }, {
      "external_urls" : {
        "spotify" : "https://open.spotify.com/artist/50vhErWFM57l2MiZcNpNG1"
      },
      "followers" : {
        "href" : null,
        "total" : 153
      },
      "genres" : [ "sped up" ],
      "href" : "https://api.spotify.com/v1/artists/50vhErWFM57l2MiZcNpNG1",
      "id" : "50vhErWFM57l2MiZcNpNG1",
      "images" : [ {
        "height" : 640,
        "url" : "https://i.scdn.co/image/ab6761610000e5eb78e221f82d7f4dff2579806e",
        "width" : 640
      }, {
        "height" : 320,
        "url" : "https://i.scdn.co/image/ab6761610000517478e221f82d7f4dff2579806e",
        "width" : 320
      }, {
        "height" : 160,
        "url" : "https://i.scdn.co/image/ab6761610000f17878e221f82d7f4dff2579806e",
        "width" : 160
      } ],
      "name" : "zhulla11",
      "popularity" : 36,
      "type" : "artist",
      "uri" : "spotify:artist:50vhErWFM57l2MiZcNpNG1"
    }, {
      "external_urls" : {
        "spotify" : "https://open.spotify.com/artist/0Pjf8AOhUsDm7gKd3DEp04"
      },
      "followers" : {
        "href" : null,
        "total" : 32
      },
      "genres" : [ ],
      "href" : "https://api.spotify.com/v1/artists/0Pjf8AOhUsDm7gKd3DEp04",
      "id" : "0Pjf8AOhUsDm7gKd3DEp04",
      "images" : [ {
        "height" : 640,
        "url" : "https://i.scdn.co/image/ab67616d0000b27353c1505ac794313e8be5914b",
        "width" : 640
      }, {
        "height" : 300,
        "url" : "https://i.scdn.co/image/ab67616d00001e0253c1505ac794313e8be5914b",
        "width" : 300
      }, {
        "height" : 64,
        "url" : "https://i.scdn.co/image/ab67616d0000485153c1505ac794313e8be5914b",
        "width" : 64
      } ],
      "name" : "ZHU",
      "popularity" : 2,
      "type" : "artist",
      "uri" : "spotify:artist:0Pjf8AOhUsDm7gKd3DEp04"
    }, {
      "external_urls" : {
        "spotify" : "https://open.spotify.com/artist/5kVqstdlRUQK3cIHbOsyF0"
      },
      "followers" : {
        "href" : null,
        "total" : 114
      },
      "genres" : [ ],
      "href" : "https://api.spotify.com/v1/artists/5kVqstdlRUQK3cIHbOsyF0",
      "id" : "5kVqstdlRUQK3cIHbOsyF0",
      "images" : [ {
        "height" : 640,
        "url" : "https://i.scdn.co/image/ab67616d0000b2739bf0c0a9cf38ba9d55d40894",
        "width" : 640
      }, {
        "height" : 300,
        "url" : "https://i.scdn.co/image/ab67616d00001e029bf0c0a9cf38ba9d55d40894",
        "width" : 300
      }, {
        "height" : 64,
        "url" : "https://i.scdn.co/image/ab67616d000048519bf0c0a9cf38ba9d55d40894",
        "width" : 64
      } ],
      "name" : "Zhu Lin",
      "popularity" : 33,
      "type" : "artist",
      "uri" : "spotify:artist:5kVqstdlRUQK3cIHbOsyF0"
    }, {
      "external_urls" : {
        "spotify" : "https://open.spotify.com/artist/42l9R70OWvywz9JN9DCVOM"
      },
      "followers" : {
        "href" : null,
        "total" : 105551
      },
      "genres" : [ "chinese singer-songwriter", "mainland chinese pop", "mandopop", "taiwan pop" ],
      "href" : "https://api.spotify.com/v1/artists/42l9R70OWvywz9JN9DCVOM",
      "id" : "42l9R70OWvywz9JN9DCVOM",
      "images" : [ {
        "height" : 640,
        "url" : "https://i.scdn.co/image/ab67616d0000b273791465d1e43cbe3940514683",
        "width" : 640
      }, {
        "height" : 300,
        "url" : "https://i.scdn.co/image/ab67616d00001e02791465d1e43cbe3940514683",
        "width" : 300
      }, {
        "height" : 64,
        "url" : "https://i.scdn.co/image/ab67616d00004851791465d1e43cbe3940514683",
        "width" : 64
      } ],
      "name" : "Ada Zhuang",
      "popularity" : 51,
      "type" : "artist",
      "uri" : "spotify:artist:42l9R70OWvywz9JN9DCVOM"
    }, {
      "external_urls" : {
        "spotify" : "https://open.spotify.com/artist/7FYbeZiCZ6pRTx2fAbBW0H"
      },
      "followers" : {
        "href" : null,
        "total" : 4510
      },
      "genres" : [ "chinese classical performance", "chinese classical piano", "classical piano" ],
      "href" : "https://api.spotify.com/v1/artists/7FYbeZiCZ6pRTx2fAbBW0H",
      "id" : "7FYbeZiCZ6pRTx2fAbBW0H",
      "images" : [ {
        "height" : 640,
        "url" : "https://i.scdn.co/image/ab67616d0000b2731267c4d5704018699ee23694",
        "width" : 640
      }, {
        "height" : 300,
        "url" : "https://i.scdn.co/image/ab67616d00001e021267c4d5704018699ee23694",
        "width" : 300
      }, {
        "height" : 64,
        "url" : "https://i.scdn.co/image/ab67616d000048511267c4d5704018699ee23694",
        "width" : 64
      } ],
      "name" : "Zhu Xiao-Mei",
      "popularity" : 35,
      "type" : "artist",
      "uri" : "spotify:artist:7FYbeZiCZ6pRTx2fAbBW0H"
    }, {
      "external_urls" : {
        "spotify" : "https://open.spotify.com/artist/3yPWsDRd9oTw0AI53GmfTu"
      },
      "followers" : {
        "href" : null,
        "total" : 177052
      },
      "genres" : [ "russian rock" ],
      "href" : "https://api.spotify.com/v1/artists/3yPWsDRd9oTw0AI53GmfTu",
      "id" : "3yPWsDRd9oTw0AI53GmfTu",
      "images" : [ {
        "height" : 640,
        "url" : "https://i.scdn.co/image/ab67616d0000b273ba6b8872fede85a4bbd668b2",
        "width" : 640
      }, {
        "height" : 300,
        "url" : "https://i.scdn.co/image/ab67616d00001e02ba6b8872fede85a4bbd668b2",
        "width" : 300
      }, {
        "height" : 64,
        "url" : "https://i.scdn.co/image/ab67616d00004851ba6b8872fede85a4bbd668b2",
        "width" : 64
      } ],
      "name" : "Zhuki",
      "popularity" : 43,
      "type" : "artist",
      "uri" : "spotify:artist:3yPWsDRd9oTw0AI53GmfTu"
    }, {
      "external_urls" : {
        "spotify" : "https://open.spotify.com/artist/0JvihWUI0PyC4sEJGVwrAg"
      },
      "followers" : {
        "href" : null,
        "total" : 30697
      },
      "genres" : [ "chinese viral pop", "mainland chinese pop" ],
      "href" : "https://api.spotify.com/v1/artists/0JvihWUI0PyC4sEJGVwrAg",
      "id" : "0JvihWUI0PyC4sEJGVwrAg",
      "images" : [ {
        "height" : 640,
        "url" : "https://i.scdn.co/image/ab67616d0000b2730ceeb78ed0bf084e08bf4186",
        "width" : 640
      }, {
        "height" : 300,
        "url" : "https://i.scdn.co/image/ab67616d00001e020ceeb78ed0bf084e08bf4186",
        "width" : 300
      }, {
        "height" : 64,
        "url" : "https://i.scdn.co/image/ab67616d000048510ceeb78ed0bf084e08bf4186",
        "width" : 64
      } ],
      "name" : "Da Zhuang",
      "popularity" : 43,
      "type" : "artist",
      "uri" : "spotify:artist:0JvihWUI0PyC4sEJGVwrAg"
    }, {
      "external_urls" : {
        "spotify" : "https://open.spotify.com/artist/6MRw1mgKzI22Yjlcu2Fzea"
      },
      "followers" : {
        "href" : null,
        "total" : 46
      },
      "genres" : [ ],
      "href" : "https://api.spotify.com/v1/artists/6MRw1mgKzI22Yjlcu2Fzea",
      "id" : "6MRw1mgKzI22Yjlcu2Fzea",
      "images" : [ {
        "height" : 640,
        "url" : "https://i.scdn.co/image/ab67616d0000b27398a2b0f01e14c8818c9704eb",
        "width" : 640
      }, {
        "height" : 300,
        "url" : "https://i.scdn.co/image/ab67616d00001e0298a2b0f01e14c8818c9704eb",
        "width" : 300
      }, {
        "height" : 64,
        "url" : "https://i.scdn.co/image/ab67616d0000485198a2b0f01e14c8818c9704eb",
        "width" : 64
      } ],
      "name" : "Zack Zhu",
      "popularity" : 31,
      "type" : "artist",
      "uri" : "spotify:artist:6MRw1mgKzI22Yjlcu2Fzea"
    }, {
      "external_urls" : {
        "spotify" : "https://open.spotify.com/artist/2iOMcsJnGsfP9PqMeaVTkV"
      },
      "followers" : {
        "href" : null,
        "total" : 156
      },
      "genres" : [ ],
      "href" : "https://api.spotify.com/v1/artists/2iOMcsJnGsfP9PqMeaVTkV",
      "id" : "2iOMcsJnGsfP9PqMeaVTkV",
      "images" : [ {
        "height" : 640,
        "url" : "https://i.scdn.co/image/ab6761610000e5eb666b83bdd6066bdf1a8fb5b9",
        "width" : 640
      }, {
        "height" : 320,
        "url" : "https://i.scdn.co/image/ab67616100005174666b83bdd6066bdf1a8fb5b9",
        "width" : 320
      }, {
        "height" : 160,
        "url" : "https://i.scdn.co/image/ab6761610000f178666b83bdd6066bdf1a8fb5b9",
        "width" : 160
      } ],
      "name" : "Yuping Zhu",
      "popularity" : 26,
      "type" : "artist",
      "uri" : "spotify:artist:2iOMcsJnGsfP9PqMeaVTkV"
    }, {
      "external_urls" : {
        "spotify" : "https://open.spotify.com/artist/4Pp02hJDxEtDLSlNl1z3oE"
      },
      "followers" : {
        "href" : null,
        "total" : 119
      },
      "genres" : [ "chinese traditional", "dizi" ],
      "href" : "https://api.spotify.com/v1/artists/4Pp02hJDxEtDLSlNl1z3oE",
      "id" : "4Pp02hJDxEtDLSlNl1z3oE",
      "images" : [ ],
      "name" : "Zhu Runfu",
      "popularity" : 15,
      "type" : "artist",
      "uri" : "spotify:artist:4Pp02hJDxEtDLSlNl1z3oE"
    }, {
      "external_urls" : {
        "spotify" : "https://open.spotify.com/artist/79woHgucZjWY8K6nIkCEMI"
      },
      "followers" : {
        "href" : null,
        "total" : 4578
      },
      "genres" : [ "chinese drama ost" ],
      "href" : "https://api.spotify.com/v1/artists/79woHgucZjWY8K6nIkCEMI",
      "id" : "79woHgucZjWY8K6nIkCEMI",
      "images" : [ {
        "height" : 640,
        "url" : "https://i.scdn.co/image/ab6761610000e5ebe3d97d4dd4589de4185601dd",
        "width" : 640
      }, {
        "height" : 320,
        "url" : "https://i.scdn.co/image/ab67616100005174e3d97d4dd4589de4185601dd",
        "width" : 320
      }, {
        "height" : 160,
        "url" : "https://i.scdn.co/image/ab6761610000f178e3d97d4dd4589de4185601dd",
        "width" : 160
      } ],
      "name" : "Chen Zhuoxuan",
      "popularity" : 38,
      "type" : "artist",
      "uri" : "spotify:artist:79woHgucZjWY8K6nIkCEMI"
    }, {
      "external_urls" : {
        "spotify" : "https://open.spotify.com/artist/5NNzArNgOBByFJrfjeSyMb"
      },
      "followers" : {
        "href" : null,
        "total" : 22
      },
      "genres" : [ ],
      "href" : "https://api.spotify.com/v1/artists/5NNzArNgOBByFJrfjeSyMb",
      "id" : "5NNzArNgOBByFJrfjeSyMb",
      "images" : [ {
        "height" : 640,
        "url" : "https://i.scdn.co/image/ab67616d0000b273fd01001d7375e295229422bb",
        "width" : 640
      }, {
        "height" : 300,
        "url" : "https://i.scdn.co/image/ab67616d00001e02fd01001d7375e295229422bb",
        "width" : 300
      }, {
        "height" : 64,
        "url" : "https://i.scdn.co/image/ab67616d00004851fd01001d7375e295229422bb",
        "width" : 64
      } ],
      "name" : "Zhu Jintai",
      "popularity" : 7,
      "type" : "artist",
      "uri" : "spotify:artist:5NNzArNgOBByFJrfjeSyMb"
    }, {
      "external_urls" : {
        "spotify" : "https://open.spotify.com/artist/0sQMt1Llvcuza8oLKB9bmi"
      },
      "followers" : {
        "href" : null,
        "total" : 22489
      },
      "genres" : [ "cantopop" ],
      "href" : "https://api.spotify.com/v1/artists/0sQMt1Llvcuza8oLKB9bmi",
      "id" : "0sQMt1Llvcuza8oLKB9bmi",
      "images" : [ {
        "height" : 640,
        "url" : "https://i.scdn.co/image/ab6761610000e5eb711c3cf3fa442f2e6bfa8fc6",
        "width" : 640
      }, {
        "height" : 320,
        "url" : "https://i.scdn.co/image/ab67616100005174711c3cf3fa442f2e6bfa8fc6",
        "width" : 320
      }, {
        "height" : 160,
        "url" : "https://i.scdn.co/image/ab6761610000f178711c3cf3fa442f2e6bfa8fc6",
        "width" : 160
      } ],
      "name" : "Ken Hung",
      "popularity" : 38,
      "type" : "artist",
      "uri" : "spotify:artist:0sQMt1Llvcuza8oLKB9bmi"
    }, {
      "external_urls" : {
        "spotify" : "https://open.spotify.com/artist/6taeEKyQYoWFvIhs9GWvHw"
      },
      "followers" : {
        "href" : null,
        "total" : 101
      },
      "genres" : [ ],
      "href" : "https://api.spotify.com/v1/artists/6taeEKyQYoWFvIhs9GWvHw",
      "id" : "6taeEKyQYoWFvIhs9GWvHw",
      "images" : [ {
        "height" : 640,
        "url" : "https://i.scdn.co/image/ab67616d0000b273b8a4ed7f536ff6015a1a288e",
        "width" : 640
      }, {
        "height" : 300,
        "url" : "https://i.scdn.co/image/ab67616d00001e02b8a4ed7f536ff6015a1a288e",
        "width" : 300
      }, {
        "height" : 64,
        "url" : "https://i.scdn.co/image/ab67616d00004851b8a4ed7f536ff6015a1a288e",
        "width" : 64
      } ],
      "name" : "Zhu Zhu Pets",
      "popularity" : 8,
      "type" : "artist",
      "uri" : "spotify:artist:6taeEKyQYoWFvIhs9GWvHw"
    }, {
      "external_urls" : {
        "spotify" : "https://open.spotify.com/artist/1MKEYI70MyToTksrSfzI9T"
      },
      "followers" : {
        "href" : null,
        "total" : 29
      },
      "genres" : [ ],
      "href" : "https://api.spotify.com/v1/artists/1MKEYI70MyToTksrSfzI9T",
      "id" : "1MKEYI70MyToTksrSfzI9T",
      "images" : [ {
        "height" : 640,
        "url" : "https://i.scdn.co/image/ab67616d0000b27328b5e87319ca193ff3e2c5f1",
        "width" : 640
      }, {
        "height" : 300,
        "url" : "https://i.scdn.co/image/ab67616d00001e0228b5e87319ca193ff3e2c5f1",
        "width" : 300
      }, {
        "height" : 64,
        "url" : "https://i.scdn.co/image/ab67616d0000485128b5e87319ca193ff3e2c5f1",
        "width" : 64
      } ],
      "name" : "Sam Zhu",
      "popularity" : 30,
      "type" : "artist",
      "uri" : "spotify:artist:1MKEYI70MyToTksrSfzI9T"
    }, {
      "external_urls" : {
        "spotify" : "https://open.spotify.com/artist/1AKtbYdM9VaXQxr0FBnc1K"
      },
      "followers" : {
        "href" : null,
        "total" : 10
      },
      "genres" : [ ],
      "href" : "https://api.spotify.com/v1/artists/1AKtbYdM9VaXQxr0FBnc1K",
      "id" : "1AKtbYdM9VaXQxr0FBnc1K",
      "images" : [ {
        "height" : 640,
        "url" : "https://i.scdn.co/image/ab67616d0000b2732114adb6dc0d89dbd2d98c2d",
        "width" : 640
      }, {
        "height" : 300,
        "url" : "https://i.scdn.co/image/ab67616d00001e022114adb6dc0d89dbd2d98c2d",
        "width" : 300
      }, {
        "height" : 64,
        "url" : "https://i.scdn.co/image/ab67616d000048512114adb6dc0d89dbd2d98c2d",
        "width" : 64
      } ],
      "name" : "Zhuang Liu",
      "popularity" : 7,
      "type" : "artist",
      "uri" : "spotify:artist:1AKtbYdM9VaXQxr0FBnc1K"
    } ],
    "limit" : 20,
    "next" : "https://api.spotify.com/v1/search?query=ZHU&type=artist&market=US&offset=20&limit=20",
    "offset" : 0,
    "previous" : null,
    "total" : 639
  }
}