{
  "artists" : {
    "href" : "https://api.spotify.com/v1/search?query=Hi-Lo&type=artist&market=US&offset=0&limit=20",
    "items" : [ {
      "external_urls" : {
        "spotify" : "https://open.spotify.com/artist/0ETJQforv5OXgDgidQv9qd"
      },
      "followers" : {
        "href" : null,
        "total" : 93647
      },
      "genres" : [ "electro house", "house" ],
      "href" : "https://api.spotify.com/v1/artists/0ETJQforv5OXgDgidQv9qd",
      "id" : "0ETJQforv5OXgDgidQv9qd",
      "images" : [ {
        "height" : 640,
        "url" : "https://i.scdn.co/image/ab6761610000e5ebcee646ba7aff64ce01c83329",
        "width" : 640
      }, {
        "height" : 320,
        "url" : "https://i.scdn.co/image/ab67616100005174cee646ba7aff64ce01c83329",
        "width" : 320
      }, {
        "height" : 160,
        "url" : "https://i.scdn.co/image/ab6761610000f178cee646ba7aff64ce01c83329",
        "width" : 160
      } ],
      "name" : "HI-LO",
      "popularity" : 53,
      "type" : "artist",
      "uri" : "spotify:artist:0ETJQforv5OXgDgidQv9qd"
    }, {
      "external_urls" : {
        "spotify" : "https://open.spotify.com/artist/19eLuQmk9aCobbVDHc6eek"
      },
      "followers" : {
        "href" : null,
        "total" : 2540382
      },
      "genres" : [ "adult standards", "dixieland", "harlem renaissance", "jazz trumpet", "new orleans jazz", "swing", "vocal jazz" ],
      "href" : "https://api.spotify.com/v1/artists/19eLuQmk9aCobbVDHc6eek",
      "id" : "19eLuQmk9aCobbVDHc6eek",
      "images" : [ {
        "height" : 1000,
        "url" : "https://i.scdn.co/image/ab6772690000c46c4a0e9d5e55f9f3721c3243c5",
        "width" : 1000
      }, {
        "height" : 640,
        "url" : "https://i.scdn.co/image/ab6772690000dd224a0e9d5e55f9f3721c3243c5",
        "width" : 640
      }, {
        "height" : 200,
        "url" : "https://i.scdn.co/image/ab6772690000bac34a0e9d5e55f9f3721c3243c5",
        "width" : 200
      }, {
        "height" : 64,
        "url" : "https://i.scdn.co/image/ab67726900008f744a0e9d5e55f9f3721c3243c5",
        "width" : 64
      } ],
      "name" : "Louis Armstrong",
      "popularity" : 69,
      "type" : "artist",
      "uri" : "spotify:artist:19eLuQmk9aCobbVDHc6eek"
    }, {
      "external_urls" : {
        "spotify" : "https://open.spotify.com/artist/40Hz7AuUTnlK2XpIyq3ghX"
      },
      "followers" : {
        "href" : null,
        "total" : 5244
      },
      "genres" : [ "nyc pop" ],
      "href" : "https://api.spotify.com/v1/artists/40Hz7AuUTnlK2XpIyq3ghX",
      "id" : "40Hz7AuUTnlK2XpIyq3ghX",
      "images" : [ {
        "height" : 640,
        "url" : "https://i.scdn.co/image/ab6761610000e5eb60eab550143edbd379d7c027",
        "width" : 640
      }, {
        "height" : 320,
        "url" : "https://i.scdn.co/image/ab6761610000517460eab550143edbd379d7c027",
        "width" : 320
      }, {
        "height" : 160,
        "url" : "https://i.scdn.co/image/ab6761610000f17860eab550143edbd379d7c027",
        "width" : 160
      } ],
      "name" : "Hi-Lo Jack",
      "popularity" : 21,
      "type" : "artist",
      "uri" : "spotify:artist:40Hz7AuUTnlK2XpIyq3ghX"
    }, {
      "external_urls" : {
        "spotify" : "https://open.spotify.com/artist/52lBOxCxbJg0ttXEW9CQpW"
      },
      "followers" : {
        "href" : null,
        "total" : 170731
      },
      "genres" : [ "adult standards", "jump blues", "lounge", "swing", "vocal jazz" ],
      "href" : "https://api.spotify.com/v1/artists/52lBOxCxbJg0ttXEW9CQpW",
      "id" : "52lBOxCxbJg0ttXEW9CQpW",
      "images" : [ {
        "height" : 1155,
        "url" : "https://i.scdn.co/image/85e8343b215c98ad063417ac2f6b63919557721a",
        "width" : 1000
      }, {
        "height" : 739,
        "url" : "https://i.scdn.co/image/f5cb5a6563460ac7c5bfadccca8cf878193ae247",
        "width" : 640
      }, {
        "height" : 231,
        "url" : "https://i.scdn.co/image/af86486d9fc9a3bc18a88b8e7a3813ffa582db06",
        "width" : 200
      }, {
        "height" : 74,
        "url" : "https://i.scdn.co/image/caffe94c22cbeddaf2ca2bcb56de4bb1e688ed82",
        "width" : 64
      } ],
      "name" : "Louis Prima",
      "popularity" : 58,
      "type" : "artist",
      "uri" : "spotify:artist:52lBOxCxbJg0ttXEW9CQpW"
    }, {
      "external_urls" : {
        "spotify" : "https://open.spotify.com/artist/4GbZiECfSi43J7TJD0PJci"
      },
      "followers" : {
        "href" : null,
        "total" : 0
      },
      "genres" : [ ],
      "href" : "https://api.spotify.com/v1/artists/4GbZiECfSi43J7TJD0PJci",
      "id" : "4GbZiECfSi43J7TJD0PJci",
      "images" : [ ],
      "name" : "Hi-Lo",
      "popularity" : 0,
      "type" : "artist",
      "uri" : "spotify:artist:4GbZiECfSi43J7TJD0PJci"
    }, {
      "external_urls" : {
        "spotify" : "https://open.spotify.com/artist/2kWLLhh4T2mAW9kYuVbd7k"
      },
      "followers" : {
        "href" : null,
        "total" : 3346
      },
      "genres" : [ "vocal harmony group" ],
      "href" : "https://api.spotify.com/v1/artists/2kWLLhh4T2mAW9kYuVbd7k",
      "id" : "2kWLLhh4T2mAW9kYuVbd7k",
      "images" : [ {
        "height" : 640,
        "url" : "https://i.scdn.co/image/ab67616d0000b2737eda3beec270c495bd65a8b3",
        "width" : 640
      }, {
        "height" : 300,
        "url" : "https://i.scdn.co/image/ab67616d00001e02460c9c77fe420dd05572e13a",
        "width" : 300
      }, {
        "height" : 64,
        "url" : "https://i.scdn.co/image/ab67616d000048517eda3beec270c495bd65a8b3",
        "width" : 64
      } ],
      "name" : "The Hi-Lo's",
      "popularity" : 15,
      "type" : "artist",
      "uri" : "spotify:artist:2kWLLhh4T2mAW9kYuVbd7k"
    }, {
      "external_urls" : {
        "spotify" : "https://open.spotify.com/artist/32YGQsNtuwyobFFnn8ikpe"
      },
      "followers" : {
        "href" : null,
        "total" : 518047
      },
      "genres" : [ "corrido", "musica mexicana", "nueva musica mexicana", "sierreno" ],
      "href" : "https://api.spotify.com/v1/artists/32YGQsNtuwyobFFnn8ikpe",
      "id" : "32YGQsNtuwyobFFnn8ikpe",
      "images" : [ {
        "height" : 640,
        "url" : "https://i.scdn.co/image/ab6761610000e5eb336f847135915bacd3c67f16",
        "width" : 640
      }, {
        "height" : 320,
        "url" : "https://i.scdn.co/image/ab67616100005174336f847135915bacd3c67f16",
        "width" : 320
      }, {
        "height" : 160,
        "url" : "https://i.scdn.co/image/ab6761610000f178336f847135915bacd3c67f16",
        "width" : 160
      } ],
      "name" : "Hijos De Barron",
      "popularity" : 59,
      "type" : "artist",
      "uri" : "spotify:artist:32YGQsNtuwyobFFnn8ikpe"
    }, {
      "external_urls" : {
        "spotify" : "https://open.spotify.com/artist/3ocspfRKSu50vCoUYexOpy"
      },
      "followers" : {
        "href" : null,
        "total" : 7291
      },
      "genres" : [ ],
      "href" : "https://api.spotify.com/v1/artists/3ocspfRKSu50vCoUYexOpy",
      "id" : "3ocspfRKSu50vCoUYexOpy",
      "images" : [ {
        "height" : 640,
        "url" : "https://i.scdn.co/image/ab6761610000e5eb4303ebe5dd339b63b2075668",
        "width" : 640
      }, {
        "height" : 320,
        "url" : "https://i.scdn.co/image/ab676161000051744303ebe5dd339b63b2075668",
        "width" : 320
      }, {
        "height" : 160,
        "url" : "https://i.scdn.co/image/ab6761610000f1784303ebe5dd339b63b2075668",
        "width" : 160
      } ],
      "name" : "Sugar & The Hi Lows",
      "popularity" : 23,
      "type" : "artist",
      "uri" : "spotify:artist:3ocspfRKSu50vCoUYexOpy"
    }, {
      "external_urls" : {
        "spotify" : "https://open.spotify.com/artist/3Aw1WaC6Xm8cOOppvXcnfa"
      },
      "followers" : {
        "href" : null,
        "total" : 731836
      },
      "genres" : [ "corrido", "corridos tumbados", "musica mexicana", "nueva musica mexicana", "sierreno" ],
      "href" : "https://api.spotify.com/v1/artists/3Aw1WaC6Xm8cOOppvXcnfa",
      "id" : "3Aw1WaC6Xm8cOOppvXcnfa",
      "images" : [ {
        "height" : 640,
        "url" : "https://i.scdn.co/image/ab6761610000e5ebb21488e3880949080ecd3193",
        "width" : 640
      }, {
        "height" : 320,
        "url" : "https://i.scdn.co/image/ab67616100005174b21488e3880949080ecd3193",
        "width" : 320
      }, {
        "height" : 160,
        "url" : "https://i.scdn.co/image/ab6761610000f178b21488e3880949080ecd3193",
        "width" : 160
      } ],
      "name" : "Los Hijos De Garcia",
      "popularity" : 53,
      "type" : "artist",
      "uri" : "spotify:artist:3Aw1WaC6Xm8cOOppvXcnfa"
    }, {
      "external_urls" : {
        "spotify" : "https://open.spotify.com/artist/1n4GthIRV9So38tR844MCO"
      },
      "followers" : {
        "href" : null,
        "total" : 37
      },
      "genres" : [ ],
      "href" : "https://api.spotify.com/v1/artists/1n4GthIRV9So38tR844MCO",
      "id" : "1n4GthIRV9So38tR844MCO",
      "images" : [ {
        "height" : 640,
        "url" : "https://i.scdn.co/image/ab6761610000e5ebfe709316cba27d662c82a6e6",
        "width" : 640
      }, {
        "height" : 320,
        "url" : "https://i.scdn.co/image/ab67616100005174fe709316cba27d662c82a6e6",
        "width" : 320
      }, {
        "height" : 160,
        "url" : "https://i.scdn.co/image/ab6761610000f178fe709316cba27d662c82a6e6",
        "width" : 160
      } ],
      "name" : "Hi Low",
      "popularity" : 1,
      "type" : "artist",
      "uri" : "spotify:artist:1n4GthIRV9So38tR844MCO"
    }, {
      "external_urls" : {
        "spotify" : "https://open.spotify.com/artist/2tfWguHr2nj4e8KXLKciVq"
      },
      "followers" : {
        "href" : null,
        "total" : 31426
      },
      "genres" : [ "orchestral performance" ],
      "href" : "https://api.spotify.com/v1/artists/2tfWguHr2nj4e8KXLKciVq",
      "id" : "2tfWguHr2nj4e8KXLKciVq",
      "images" : [ {
        "height" : 1000,
        "url" : "https://i.scdn.co/image/8680bc690ee5747b08f6a9a7566f000cce6e220b",
        "width" : 1000
      }, {
        "height" : 640,
        "url" : "https://i.scdn.co/image/a1b38c0bd9d286b9d159444c0588869d949372fb",
        "width" : 640
      }, {
        "height" : 200,
        "url" : "https://i.scdn.co/image/c8fa94aa70645350ddf968a95339c544188be092",
        "width" : 200
      }, {
        "height" : 64,
        "url" : "https://i.scdn.co/image/321bb2d38ee220783f12fcff088d948351cd2c95",
        "width" : 64
      } ],
      "name" : "André Previn",
      "popularity" : 59,
      "type" : "artist",
      "uri" : "spotify:artist:2tfWguHr2nj4e8KXLKciVq"
    }, {
      "external_urls" : {
        "spotify" : "https://open.spotify.com/artist/64tmMaA0ZVmIOBVyEKWVer"
      },
      "followers" : {
        "href" : null,
        "total" : 11
      },
      "genres" : [ ],
      "href" : "https://api.spotify.com/v1/artists/64tmMaA0ZVmIOBVyEKWVer",
      "id" : "64tmMaA0ZVmIOBVyEKWVer",
      "images" : [ {
        "height" : 640,
        "url" : "https://i.scdn.co/image/ab6761610000e5ebb54443ef3e4bdccb297356ce",
        "width" : 640
      }, {
        "height" : 320,
        "url" : "https://i.scdn.co/image/ab67616100005174b54443ef3e4bdccb297356ce",
        "width" : 320
      }, {
        "height" : 160,
        "url" : "https://i.scdn.co/image/ab6761610000f178b54443ef3e4bdccb297356ce",
        "width" : 160
      } ],
      "name" : "$Hi¢ $LO",
      "popularity" : 0,
      "type" : "artist",
      "uri" : "spotify:artist:64tmMaA0ZVmIOBVyEKWVer"
    }, {
      "external_urls" : {
        "spotify" : "https://open.spotify.com/artist/3zw9kN0i8eKIDbGhEiIIwo"
      },
      "followers" : {
        "href" : null,
        "total" : 63104
      },
      "genres" : [ "lo-fi product" ],
      "href" : "https://api.spotify.com/v1/artists/3zw9kN0i8eKIDbGhEiIIwo",
      "id" : "3zw9kN0i8eKIDbGhEiIIwo",
      "images" : [ {
        "height" : 640,
        "url" : "https://i.scdn.co/image/ab6761610000e5eb0cb581237fc313d27ce235b1",
        "width" : 640
      }, {
        "height" : 320,
        "url" : "https://i.scdn.co/image/ab676161000051740cb581237fc313d27ce235b1",
        "width" : 320
      }, {
        "height" : 160,
        "url" : "https://i.scdn.co/image/ab6761610000f1780cb581237fc313d27ce235b1",
        "width" : 160
      } ],
      "name" : "Lofi Hip-Hop Beats",
      "popularity" : 49,
      "type" : "artist",
      "uri" : "spotify:artist:3zw9kN0i8eKIDbGhEiIIwo"
    }, {
      "external_urls" : {
        "spotify" : "https://open.spotify.com/artist/6HcGA4lliyNMuJFXwbi7Os"
      },
      "followers" : {
        "href" : null,
        "total" : 30
      },
      "genres" : [ ],
      "href" : "https://api.spotify.com/v1/artists/6HcGA4lliyNMuJFXwbi7Os",
      "id" : "6HcGA4lliyNMuJFXwbi7Os",
      "images" : [ {
        "height" : 640,
        "url" : "https://i.scdn.co/image/ab67616d0000b273d928d147c046cc032719e180",
        "width" : 640
      }, {
        "height" : 300,
        "url" : "https://i.scdn.co/image/ab67616d00001e02d928d147c046cc032719e180",
        "width" : 300
      }, {
        "height" : 64,
        "url" : "https://i.scdn.co/image/ab67616d00004851d928d147c046cc032719e180",
        "width" : 64
      } ],
      "name" : "HI-LO",
      "popularity" : 0,
      "type" : "artist",
      "uri" : "spotify:artist:6HcGA4lliyNMuJFXwbi7Os"
    }, {
      "external_urls" : {
        "spotify" : "https://open.spotify.com/artist/35hWST2f8cTTFbGzQZzGTZ"
      },
      "followers" : {
        "href" : null,
        "total" : 25469
      },
      "genres" : [ "cumbia sonidera" ],
      "href" : "https://api.spotify.com/v1/artists/35hWST2f8cTTFbGzQZzGTZ",
      "id" : "35hWST2f8cTTFbGzQZzGTZ",
      "images" : [ {
        "height" : 640,
        "url" : "https://i.scdn.co/image/ab6761610000e5eb1a31583d71b34e6997e8ee9e",
        "width" : 640
      }, {
        "height" : 320,
        "url" : "https://i.scdn.co/image/ab676161000051741a31583d71b34e6997e8ee9e",
        "width" : 320
      }, {
        "height" : 160,
        "url" : "https://i.scdn.co/image/ab6761610000f1781a31583d71b34e6997e8ee9e",
        "width" : 160
      } ],
      "name" : "Los Hijos Del Pueblo",
      "popularity" : 49,
      "type" : "artist",
      "uri" : "spotify:artist:35hWST2f8cTTFbGzQZzGTZ"
    }, {
      "external_urls" : {
        "spotify" : "https://open.spotify.com/artist/2pwzoxe4w4eqGpk7hdwkYm"
      },
      "followers" : {
        "href" : null,
        "total" : 70
      },
      "genres" : [ ],
      "href" : "https://api.spotify.com/v1/artists/2pwzoxe4w4eqGpk7hdwkYm",
      "id" : "2pwzoxe4w4eqGpk7hdwkYm",
      "images" : [ {
        "height" : 640,
        "url" : "https://i.scdn.co/image/ab6761610000e5ebebe17abc16a1749c4dce43bf",
        "width" : 640
      }, {
        "height" : 320,
        "url" : "https://i.scdn.co/image/ab67616100005174ebe17abc16a1749c4dce43bf",
        "width" : 320
      }, {
        "height" : 160,
        "url" : "https://i.scdn.co/image/ab6761610000f178ebe17abc16a1749c4dce43bf",
        "width" : 160
      } ],
      "name" : "Hi Love",
      "popularity" : 0,
      "type" : "artist",
      "uri" : "spotify:artist:2pwzoxe4w4eqGpk7hdwkYm"
    }, {
      "external_urls" : {
        "spotify" : "https://open.spotify.com/artist/6WvDtNFHOWHfiNy8NVHujT"
      },
      "followers" : {
        "href" : null,
        "total" : 848174
      },
      "genres" : [ "latin alternative", "latin rock", "mexican pop", "mexican rock", "rock en espanol", "ska mexicano" ],
      "href" : "https://api.spotify.com/v1/artists/6WvDtNFHOWHfiNy8NVHujT",
      "id" : "6WvDtNFHOWHfiNy8NVHujT",
      "images" : [ {
        "height" : 640,
        "url" : "https://i.scdn.co/image/ab6761610000e5eba2c54b769505aba36ca6f1fe",
        "width" : 640
      }, {
        "height" : 320,
        "url" : "https://i.scdn.co/image/ab67616100005174a2c54b769505aba36ca6f1fe",
        "width" : 320
      }, {
        "height" : 160,
        "url" : "https://i.scdn.co/image/ab6761610000f178a2c54b769505aba36ca6f1fe",
        "width" : 160
      } ],
      "name" : "Maldita Vecindad Y Los Hijos Del 5to. Patio",
      "popularity" : 58,
      "type" : "artist",
      "uri" : "spotify:artist:6WvDtNFHOWHfiNy8NVHujT"
    }, {
      "external_urls" : {
        "spotify" : "https://open.spotify.com/artist/6rLJ4jxXnqgU4lWi7QR8wj"
      },
      "followers" : {
        "href" : null,
        "total" : 235
      },
      "genres" : [ ],
      "href" : "https://api.spotify.com/v1/artists/6rLJ4jxXnqgU4lWi7QR8wj",
      "id" : "6rLJ4jxXnqgU4lWi7QR8wj",
      "images" : [ {
        "height" : 640,
        "url" : "https://i.scdn.co/image/ab67616d0000b273bf9fea951c0419691a762a8c",
        "width" : 640
      }, {
        "height" : 300,
        "url" : "https://i.scdn.co/image/ab67616d00001e02bf9fea951c0419691a762a8c",
        "width" : 300
      }, {
        "height" : 64,
        "url" : "https://i.scdn.co/image/ab67616d00004851bf9fea951c0419691a762a8c",
        "width" : 64
      } ],
      "name" : "The Shang Hi Los",
      "popularity" : 2,
      "type" : "artist",
      "uri" : "spotify:artist:6rLJ4jxXnqgU4lWi7QR8wj"
    }, {
      "external_urls" : {
        "spotify" : "https://open.spotify.com/artist/7eNajMgBLMcfimjZ4ou1sg"
      },
      "followers" : {
        "href" : null,
        "total" : 16
      },
      "genres" : [ ],
      "href" : "https://api.spotify.com/v1/artists/7eNajMgBLMcfimjZ4ou1sg",
      "id" : "7eNajMgBLMcfimjZ4ou1sg",
      "images" : [ {
        "height" : 640,
        "url" : "https://i.scdn.co/image/ab67616d0000b273d847d6b225007db79143ddaa",
        "width" : 640
      }, {
        "height" : 300,
        "url" : "https://i.scdn.co/image/ab67616d00001e02d847d6b225007db79143ddaa",
        "width" : 300
      }, {
        "height" : 64,
        "url" : "https://i.scdn.co/image/ab67616d00004851d847d6b225007db79143ddaa",
        "width" : 64
      } ],
      "name" : "Hi-Lo & In Between",
      "popularity" : 0,
      "type" : "artist",
      "uri" : "spotify:artist:7eNajMgBLMcfimjZ4ou1sg"
    }, {
      "external_urls" : {
        "spotify" : "https://open.spotify.com/artist/7xxrAPVVTZaXLTXfvwABVF"
      },
      "followers" : {
        "href" : null,
        "total" : 26083
      },
      "genres" : [ "lo-fi product" ],
      "href" : "https://api.spotify.com/v1/artists/7xxrAPVVTZaXLTXfvwABVF",
      "id" : "7xxrAPVVTZaXLTXfvwABVF",
      "images" : [ {
        "height" : 640,
        "url" : "https://i.scdn.co/image/ab67616d0000b273c2bf756bb43b49ec8a7811f5",
        "width" : 640
      }, {
        "height" : 300,
        "url" : "https://i.scdn.co/image/ab67616d00001e02c2bf756bb43b49ec8a7811f5",
        "width" : 300
      }, {
        "height" : 64,
        "url" : "https://i.scdn.co/image/ab67616d00004851c2bf756bb43b49ec8a7811f5",
        "width" : 64
      } ],
      "name" : "Lo Fi Hip Hop",
      "popularity" : 46,
      "type" : "artist",
      "uri" : "spotify:artist:7xxrAPVVTZaXLTXfvwABVF"
    } ],
    "limit" : 20,
    "next" : "https://api.spotify.com/v1/search?query=Hi-Lo&type=artist&market=US&offset=20&limit=20",
    "offset" : 0,
    "previous" : null,
    "total" : 1601
  }
}