{
  "artists" : {
    "href" : "https://api.spotify.com/v1/search?query=Kayzo&type=artist&market=US&offset=0&limit=20",
    "items" : [ {
      "external_urls" : {
        "spotify" : "https://open.spotify.com/artist/72iCiKwu6nu6Qq9emIwzYv"
      },
      "followers" : {
        "href" : null,
        "total" : 189499
      },
      "genres" : [ "brostep", "dubstep", "edm", "electro house", "electronic trap" ],
      "href" : "https://api.spotify.com/v1/artists/72iCiKwu6nu6Qq9emIwzYv",
      "id" : "72iCiKwu6nu6Qq9emIwzYv",
      "images" : [ {
        "height" : 640,
        "url" : "https://i.scdn.co/image/ab6761610000e5eb54807cfe114cf244435170a3",
        "width" : 640
      }, {
        "height" : 320,
        "url" : "https://i.scdn.co/image/ab6761610000517454807cfe114cf244435170a3",
        "width" : 320
      }, {
        "height" : 160,
        "url" : "https://i.scdn.co/image/ab6761610000f17854807cfe114cf244435170a3",
        "width" : 160
      } ],
      "name" : "Kayzo",
      "popularity" : 56,
      "type" : "artist",
      "uri" : "spotify:artist:72iCiKwu6nu6Qq9emIwzYv"
    }, {
      "external_urls" : {
        "spotify" : "https://open.spotify.com/artist/1kG8uHpUllOkwr48i8jK2x"
      },
      "followers" : {
        "href" : null,
        "total" : 1019
      },
      "genres" : [ ],
      "href" : "https://api.spotify.com/v1/artists/1kG8uHpUllOkwr48i8jK2x",
      "id" : "1kG8uHpUllOkwr48i8jK2x",
      "images" : [ {
        "height" : 640,
        "url" : "https://i.scdn.co/image/ab67616d0000b273010d414f1f239a9cee1b0c6b",
        "width" : 640
      }, {
        "height" : 300,
        "url" : "https://i.scdn.co/image/ab67616d00001e02010d414f1f239a9cee1b0c6b",
        "width" : 300
      }, {
        "height" : 64,
        "url" : "https://i.scdn.co/image/ab67616d00004851010d414f1f239a9cee1b0c6b",
        "width" : 64
      } ],
      "name" : "Kayzon Woods",
      "popularity" : 1,
      "type" : "artist",
      "uri" : "spotify:artist:1kG8uHpUllOkwr48i8jK2x"
    }, {
      "external_urls" : {
        "spotify" : "https://open.spotify.com/artist/2e9Ag4KmByPljWwcc3tdoE"
      },
      "followers" : {
        "href" : null,
        "total" : 2
      },
      "genres" : [ ],
      "href" : "https://api.spotify.com/v1/artists/2e9Ag4KmByPljWwcc3tdoE",
      "id" : "2e9Ag4KmByPljWwcc3tdoE",
      "images" : [ {
        "height" : 640,
        "url" : "https://i.scdn.co/image/ab67616d0000b273af18b4830c9e271b13ae50c2",
        "width" : 640
      }, {
        "height" : 300,
        "url" : "https://i.scdn.co/image/ab67616d00001e02af18b4830c9e271b13ae50c2",
        "width" : 300
      }, {
        "height" : 64,
        "url" : "https://i.scdn.co/image/ab67616d00004851af18b4830c9e271b13ae50c2",
        "width" : 64
      } ],
      "name" : "KAYZON",
      "popularity" : 0,
      "type" : "artist",
      "uri" : "spotify:artist:2e9Ag4KmByPljWwcc3tdoE"
    }, {
      "external_urls" : {
        "spotify" : "https://open.spotify.com/artist/74RET4rCZPTGzhsLjD0i3g"
      },
      "followers" : {
        "href" : null,
        "total" : 64619
      },
      "genres" : [ "dubstep", "electro house", "electronic trap" ],
      "href" : "https://api.spotify.com/v1/artists/74RET4rCZPTGzhsLjD0i3g",
      "id" : "74RET4rCZPTGzhsLjD0i3g",
      "images" : [ {
        "height" : 640,
        "url" : "https://i.scdn.co/image/ab6761610000e5eb6c79c9bcb0e73ad137560a6c",
        "width" : 640
      }, {
        "height" : 320,
        "url" : "https://i.scdn.co/image/ab676161000051746c79c9bcb0e73ad137560a6c",
        "width" : 320
      }, {
        "height" : 160,
        "url" : "https://i.scdn.co/image/ab6761610000f1786c79c9bcb0e73ad137560a6c",
        "width" : 160
      } ],
      "name" : "ATLiens",
      "popularity" : 45,
      "type" : "artist",
      "uri" : "spotify:artist:74RET4rCZPTGzhsLjD0i3g"
    }, {
      "external_urls" : {
        "spotify" : "https://open.spotify.com/artist/3KG398MZEnyOIBbdNYOXeS"
      },
      "followers" : {
        "href" : null,
        "total" : 3
      },
      "genres" : [ ],
      "href" : "https://api.spotify.com/v1/artists/3KG398MZEnyOIBbdNYOXeS",
      "id" : "3KG398MZEnyOIBbdNYOXeS",
      "images" : [ ],
      "name" : "Kayzo TSR",
      "popularity" : 0,
      "type" : "artist",
      "uri" : "spotify:artist:3KG398MZEnyOIBbdNYOXeS"
    }, {
      "external_urls" : {
        "spotify" : "https://open.spotify.com/artist/4CcY9LjGRGfF7aasa9N3bg"
      },
      "followers" : {
        "href" : null,
        "total" : 4
      },
      "genres" : [ ],
      "href" : "https://api.spotify.com/v1/artists/4CcY9LjGRGfF7aasa9N3bg",
      "id" : "4CcY9LjGRGfF7aasa9N3bg",
      "images" : [ {
        "height" : 640,
        "url" : "https://i.scdn.co/image/ab67616d0000b2739245764b560e93dcfbd40ed1",
        "width" : 640
      }, {
        "height" : 300,
        "url" : "https://i.scdn.co/image/ab67616d00001e029245764b560e93dcfbd40ed1",
        "width" : 300
      }, {
        "height" : 64,
        "url" : "https://i.scdn.co/image/ab67616d000048519245764b560e93dcfbd40ed1",
        "width" : 64
      } ],
      "name" : "Kayzon",
      "popularity" : 0,
      "type" : "artist",
      "uri" : "spotify:artist:4CcY9LjGRGfF7aasa9N3bg"
    }, {
      "external_urls" : {
        "spotify" : "https://open.spotify.com/artist/7dtX3ykcuyVmts2HQnWgSP"
      },
      "followers" : {
        "href" : null,
        "total" : 62074
      },
      "genres" : [ "dubstep", "electro house", "electronic trap", "gaming dubstep", "melodic dubstep" ],
      "href" : "https://api.spotify.com/v1/artists/7dtX3ykcuyVmts2HQnWgSP",
      "id" : "7dtX3ykcuyVmts2HQnWgSP",
      "images" : [ {
        "height" : 640,
        "url" : "https://i.scdn.co/image/ab6761610000e5eb79bfdb5356ebd9716201f1a5",
        "width" : 640
      }, {
        "height" : 320,
        "url" : "https://i.scdn.co/image/ab6761610000517479bfdb5356ebd9716201f1a5",
        "width" : 320
      }, {
        "height" : 160,
        "url" : "https://i.scdn.co/image/ab6761610000f17879bfdb5356ebd9716201f1a5",
        "width" : 160
      } ],
      "name" : "Kompany",
      "popularity" : 44,
      "type" : "artist",
      "uri" : "spotify:artist:7dtX3ykcuyVmts2HQnWgSP"
    }, {
      "external_urls" : {
        "spotify" : "https://open.spotify.com/artist/3bz1JD9aM0fU2TKOkS0SN2"
      },
      "followers" : {
        "href" : null,
        "total" : 31
      },
      "genres" : [ ],
      "href" : "https://api.spotify.com/v1/artists/3bz1JD9aM0fU2TKOkS0SN2",
      "id" : "3bz1JD9aM0fU2TKOkS0SN2",
      "images" : [ {
        "height" : 640,
        "url" : "https://i.scdn.co/image/ab6761610000e5eb0663a1db0fcba444a71c5fbd",
        "width" : 640
      }, {
        "height" : 320,
        "url" : "https://i.scdn.co/image/ab676161000051740663a1db0fcba444a71c5fbd",
        "width" : 320
      }, {
        "height" : 160,
        "url" : "https://i.scdn.co/image/ab6761610000f1780663a1db0fcba444a71c5fbd",
        "width" : 160
      } ],
      "name" : "Kayzo",
      "popularity" : 1,
      "type" : "artist",
      "uri" : "spotify:artist:3bz1JD9aM0fU2TKOkS0SN2"
    }, {
      "external_urls" : {
        "spotify" : "https://open.spotify.com/artist/0wseGdtcHxFKgU2l4wCoEi"
      },
      "followers" : {
        "href" : null,
        "total" : 3
      },
      "genres" : [ ],
      "href" : "https://api.spotify.com/v1/artists/0wseGdtcHxFKgU2l4wCoEi",
      "id" : "0wseGdtcHxFKgU2l4wCoEi",
      "images" : [ {
        "height" : 640,
        "url" : "https://i.scdn.co/image/ab6761610000e5ebcfb5ae8162a27150877f713a",
        "width" : 640
      }, {
        "height" : 320,
        "url" : "https://i.scdn.co/image/ab67616100005174cfb5ae8162a27150877f713a",
        "width" : 320
      }, {
        "height" : 160,
        "url" : "https://i.scdn.co/image/ab6761610000f178cfb5ae8162a27150877f713a",
        "width" : 160
      } ],
      "name" : "Kayzon",
      "popularity" : 0,
      "type" : "artist",
      "uri" : "spotify:artist:0wseGdtcHxFKgU2l4wCoEi"
    }, {
      "external_urls" : {
        "spotify" : "https://open.spotify.com/artist/55FVjkpZs1zuo3zqBgrKtC"
      },
      "followers" : {
        "href" : null,
        "total" : 70315
      },
      "genres" : [ "edm", "electro house", "electronic trap", "electropop", "future bass", "melodic dubstep", "pop edm", "vapor twitch" ],
      "href" : "https://api.spotify.com/v1/artists/55FVjkpZs1zuo3zqBgrKtC",
      "id" : "55FVjkpZs1zuo3zqBgrKtC",
      "images" : [ {
        "height" : 640,
        "url" : "https://i.scdn.co/image/ab6761610000e5ebf0675e0c8a300262e3e078d0",
        "width" : 640
      }, {
        "height" : 320,
        "url" : "https://i.scdn.co/image/ab67616100005174f0675e0c8a300262e3e078d0",
        "width" : 320
      }, {
        "height" : 160,
        "url" : "https://i.scdn.co/image/ab6761610000f178f0675e0c8a300262e3e078d0",
        "width" : 160
      } ],
      "name" : "Kaivon",
      "popularity" : 51,
      "type" : "artist",
      "uri" : "spotify:artist:55FVjkpZs1zuo3zqBgrKtC"
    }, {
      "external_urls" : {
        "spotify" : "https://open.spotify.com/artist/5VtsT8PYJP1ocA7SNmgt6E"
      },
      "followers" : {
        "href" : null,
        "total" : 58
      },
      "genres" : [ ],
      "href" : "https://api.spotify.com/v1/artists/5VtsT8PYJP1ocA7SNmgt6E",
      "id" : "5VtsT8PYJP1ocA7SNmgt6E",
      "images" : [ {
        "height" : 640,
        "url" : "https://i.scdn.co/image/ab6761610000e5eb2e4b637f5243d96e93875a4c",
        "width" : 640
      }, {
        "height" : 320,
        "url" : "https://i.scdn.co/image/ab676161000051742e4b637f5243d96e93875a4c",
        "width" : 320
      }, {
        "height" : 160,
        "url" : "https://i.scdn.co/image/ab6761610000f1782e4b637f5243d96e93875a4c",
        "width" : 160
      } ],
      "name" : "Kafi Kayzo",
      "popularity" : 0,
      "type" : "artist",
      "uri" : "spotify:artist:5VtsT8PYJP1ocA7SNmgt6E"
    }, {
      "external_urls" : {
        "spotify" : "https://open.spotify.com/artist/7JQvJroJUQ7nb2Q0c4Gfr8"
      },
      "followers" : {
        "href" : null,
        "total" : 5
      },
      "genres" : [ ],
      "href" : "https://api.spotify.com/v1/artists/7JQvJroJUQ7nb2Q0c4Gfr8",
      "id" : "7JQvJroJUQ7nb2Q0c4Gfr8",
      "images" : [ {
        "height" : 640,
        "url" : "https://i.scdn.co/image/ab67616d0000b273e94894d421b71e2ab70e9f79",
        "width" : 640
      }, {
        "height" : 300,
        "url" : "https://i.scdn.co/image/ab67616d00001e02e94894d421b71e2ab70e9f79",
        "width" : 300
      }, {
        "height" : 64,
        "url" : "https://i.scdn.co/image/ab67616d00004851e94894d421b71e2ab70e9f79",
        "width" : 64
      } ],
      "name" : "Kayzo",
      "popularity" : 0,
      "type" : "artist",
      "uri" : "spotify:artist:7JQvJroJUQ7nb2Q0c4Gfr8"
    }, {
      "external_urls" : {
        "spotify" : "https://open.spotify.com/artist/2fNr4ldujwq97v1jWeqs8K"
      },
      "followers" : {
        "href" : null,
        "total" : 95222
      },
      "genres" : [ "brostep", "deathstep", "dubstep", "edm", "electronic trap" ],
      "href" : "https://api.spotify.com/v1/artists/2fNr4ldujwq97v1jWeqs8K",
      "id" : "2fNr4ldujwq97v1jWeqs8K",
      "images" : [ {
        "height" : 640,
        "url" : "https://i.scdn.co/image/ab6761610000e5eb8aadf1695a1036e2f85afc78",
        "width" : 640
      }, {
        "height" : 320,
        "url" : "https://i.scdn.co/image/ab676161000051748aadf1695a1036e2f85afc78",
        "width" : 320
      }, {
        "height" : 160,
        "url" : "https://i.scdn.co/image/ab6761610000f1788aadf1695a1036e2f85afc78",
        "width" : 160
      } ],
      "name" : "Kai Wachi",
      "popularity" : 52,
      "type" : "artist",
      "uri" : "spotify:artist:2fNr4ldujwq97v1jWeqs8K"
    }, {
      "external_urls" : {
        "spotify" : "https://open.spotify.com/artist/467pH5WhSGATNlqwEbTzi0"
      },
      "followers" : {
        "href" : null,
        "total" : 4
      },
      "genres" : [ ],
      "href" : "https://api.spotify.com/v1/artists/467pH5WhSGATNlqwEbTzi0",
      "id" : "467pH5WhSGATNlqwEbTzi0",
      "images" : [ ],
      "name" : "Kayzo",
      "popularity" : 0,
      "type" : "artist",
      "uri" : "spotify:artist:467pH5WhSGATNlqwEbTzi0"
    }, {
      "external_urls" : {
        "spotify" : "https://open.spotify.com/artist/3jv0UNMqGwuaz4qzFmYtXP"
      },
      "followers" : {
        "href" : null,
        "total" : 4
      },
      "genres" : [ ],
      "href" : "https://api.spotify.com/v1/artists/3jv0UNMqGwuaz4qzFmYtXP",
      "id" : "3jv0UNMqGwuaz4qzFmYtXP",
      "images" : [ {
        "height" : 640,
        "url" : "https://i.scdn.co/image/ab6761610000e5eb26e301a3ad25fd3320102d0c",
        "width" : 640
      }, {
        "height" : 320,
        "url" : "https://i.scdn.co/image/ab6761610000517426e301a3ad25fd3320102d0c",
        "width" : 320
      }, {
        "height" : 160,
        "url" : "https://i.scdn.co/image/ab6761610000f17826e301a3ad25fd3320102d0c",
        "width" : 160
      } ],
      "name" : "Kayzoni",
      "popularity" : 0,
      "type" : "artist",
      "uri" : "spotify:artist:3jv0UNMqGwuaz4qzFmYtXP"
    }, {
      "external_urls" : {
        "spotify" : "https://open.spotify.com/artist/6hFs0utjY3EaXNHQP2zTZt"
      },
      "followers" : {
        "href" : null,
        "total" : 30
      },
      "genres" : [ ],
      "href" : "https://api.spotify.com/v1/artists/6hFs0utjY3EaXNHQP2zTZt",
      "id" : "6hFs0utjY3EaXNHQP2zTZt",
      "images" : [ ],
      "name" : "Kayzo",
      "popularity" : 0,
      "type" : "artist",
      "uri" : "spotify:artist:6hFs0utjY3EaXNHQP2zTZt"
    }, {
      "external_urls" : {
        "spotify" : "https://open.spotify.com/artist/4R9W01XltWHkchhDSnhgmg"
      },
      "followers" : {
        "href" : null,
        "total" : 7
      },
      "genres" : [ ],
      "href" : "https://api.spotify.com/v1/artists/4R9W01XltWHkchhDSnhgmg",
      "id" : "4R9W01XltWHkchhDSnhgmg",
      "images" : [ {
        "height" : 640,
        "url" : "https://i.scdn.co/image/ab67616d0000b2730a906c201c48aea5d87abf78",
        "width" : 640
      }, {
        "height" : 300,
        "url" : "https://i.scdn.co/image/ab67616d00001e020a906c201c48aea5d87abf78",
        "width" : 300
      }, {
        "height" : 64,
        "url" : "https://i.scdn.co/image/ab67616d000048510a906c201c48aea5d87abf78",
        "width" : 64
      } ],
      "name" : "Dj Kayzo Cpt",
      "popularity" : 0,
      "type" : "artist",
      "uri" : "spotify:artist:4R9W01XltWHkchhDSnhgmg"
    }, {
      "external_urls" : {
        "spotify" : "https://open.spotify.com/artist/6dpr0I5cnPl80d1OINOSSh"
      },
      "followers" : {
        "href" : null,
        "total" : 0
      },
      "genres" : [ ],
      "href" : "https://api.spotify.com/v1/artists/6dpr0I5cnPl80d1OINOSSh",
      "id" : "6dpr0I5cnPl80d1OINOSSh",
      "images" : [ ],
      "name" : "Kayzotic",
      "popularity" : 0,
      "type" : "artist",
      "uri" : "spotify:artist:6dpr0I5cnPl80d1OINOSSh"
    }, {
      "external_urls" : {
        "spotify" : "https://open.spotify.com/artist/2cthx64sFbuq5IPCbBWwEd"
      },
      "followers" : {
        "href" : null,
        "total" : 10
      },
      "genres" : [ ],
      "href" : "https://api.spotify.com/v1/artists/2cthx64sFbuq5IPCbBWwEd",
      "id" : "2cthx64sFbuq5IPCbBWwEd",
      "images" : [ {
        "height" : 640,
        "url" : "https://i.scdn.co/image/ab67616d0000b27343306d74cf94566e042cbe9a",
        "width" : 640
      }, {
        "height" : 300,
        "url" : "https://i.scdn.co/image/ab67616d00001e0243306d74cf94566e042cbe9a",
        "width" : 300
      }, {
        "height" : 64,
        "url" : "https://i.scdn.co/image/ab67616d0000485143306d74cf94566e042cbe9a",
        "width" : 64
      } ],
      "name" : "Kayzo",
      "popularity" : 0,
      "type" : "artist",
      "uri" : "spotify:artist:2cthx64sFbuq5IPCbBWwEd"
    }, {
      "external_urls" : {
        "spotify" : "https://open.spotify.com/artist/67gwj2e12mQJkyyH83DY4F"
      },
      "followers" : {
        "href" : null,
        "total" : 9
      },
      "genres" : [ ],
      "href" : "https://api.spotify.com/v1/artists/67gwj2e12mQJkyyH83DY4F",
      "id" : "67gwj2e12mQJkyyH83DY4F",
      "images" : [ ],
      "name" : "Kayzo",
      "popularity" : 0,
      "type" : "artist",
      "uri" : "spotify:artist:67gwj2e12mQJkyyH83DY4F"
    } ],
    "limit" : 20,
    "next" : "https://api.spotify.com/v1/search?query=Kayzo&type=artist&market=US&offset=20&limit=20",
    "offset" : 0,
    "previous" : null,
    "total" : 38
  }
}