{
  "artists" : {
    "href" : "https://api.spotify.com/v1/search?query=Swedish+House+Mafia&type=artist&market=US&offset=0&limit=20",
    "items" : [ {
      "external_urls" : {
        "spotify" : "https://open.spotify.com/artist/1h6Cn3P4NGzXbaXidqURXs"
      },
      "followers" : {
        "href" : null,
        "total" : 3600695
      },
      "genres" : [ "edm", "electro house", "pop", "pop dance", "progressive electro house" ],
      "href" : "https://api.spotify.com/v1/artists/1h6Cn3P4NGzXbaXidqURXs",
      "id" : "1h6Cn3P4NGzXbaXidqURXs",
      "images" : [ {
        "height" : 640,
        "url" : "https://i.scdn.co/image/ab6761610000e5eb0c05adcae61ac479afe35c8e",
        "width" : 640
      }, {
        "height" : 320,
        "url" : "https://i.scdn.co/image/ab676161000051740c05adcae61ac479afe35c8e",
        "width" : 320
      }, {
        "height" : 160,
        "url" : "https://i.scdn.co/image/ab6761610000f1780c05adcae61ac479afe35c8e",
        "width" : 160
      } ],
      "name" : "Swedish House Mafia",
      "popularity" : 76,
      "type" : "artist",
      "uri" : "spotify:artist:1h6Cn3P4NGzXbaXidqURXs"
    }, {
      "external_urls" : {
        "spotify" : "https://open.spotify.com/artist/4oEnPo3WGgvL5hHgD0LNZX"
      },
      "followers" : {
        "href" : null,
        "total" : 212
      },
      "genres" : [ ],
      "href" : "https://api.spotify.com/v1/artists/4oEnPo3WGgvL5hHgD0LNZX",
      "id" : "4oEnPo3WGgvL5hHgD0LNZX",
      "images" : [ {
        "height" : 640,
        "url" : "https://i.scdn.co/image/ab67616d0000b27391da9f73fcd894c97ce3eead",
        "width" : 640
      }, {
        "height" : 300,
        "url" : "https://i.scdn.co/image/ab67616d00001e0291da9f73fcd894c97ce3eead",
        "width" : 300
      }, {
        "height" : 64,
        "url" : "https://i.scdn.co/image/ab67616d0000485191da9f73fcd894c97ce3eead",
        "width" : 64
      } ],
      "name" : "Swedish House Mafia Tribute Team",
      "popularity" : 0,
      "type" : "artist",
      "uri" : "spotify:artist:4oEnPo3WGgvL5hHgD0LNZX"
    }, {
      "external_urls" : {
        "spotify" : "https://open.spotify.com/artist/2XnBwblw31dfGnspMIwgWz"
      },
      "followers" : {
        "href" : null,
        "total" : 2394824
      },
      "genres" : [ "dance pop", "edm", "electro house", "pop", "pop dance", "tropical house" ],
      "href" : "https://api.spotify.com/v1/artists/2XnBwblw31dfGnspMIwgWz",
      "id" : "2XnBwblw31dfGnspMIwgWz",
      "images" : [ {
        "height" : 640,
        "url" : "https://i.scdn.co/image/ab6761610000e5eb9f6e5d736809c4cb40d59a7e",
        "width" : 640
      }, {
        "height" : 320,
        "url" : "https://i.scdn.co/image/ab676161000051749f6e5d736809c4cb40d59a7e",
        "width" : 320
      }, {
        "height" : 160,
        "url" : "https://i.scdn.co/image/ab6761610000f1789f6e5d736809c4cb40d59a7e",
        "width" : 160
      } ],
      "name" : "Axwell /\\ Ingrosso",
      "popularity" : 66,
      "type" : "artist",
      "uri" : "spotify:artist:2XnBwblw31dfGnspMIwgWz"
    }, {
      "external_urls" : {
        "spotify" : "https://open.spotify.com/artist/599aGczoZFptUe5tbS43LT"
      },
      "followers" : {
        "href" : null,
        "total" : 1198
      },
      "genres" : [ ],
      "href" : "https://api.spotify.com/v1/artists/599aGczoZFptUe5tbS43LT",
      "id" : "599aGczoZFptUe5tbS43LT",
      "images" : [ {
        "height" : 640,
        "url" : "https://i.scdn.co/image/ab6761610000e5ebc5f8138922c2cc8cd1eb22d8",
        "width" : 640
      }, {
        "height" : 320,
        "url" : "https://i.scdn.co/image/ab67616100005174c5f8138922c2cc8cd1eb22d8",
        "width" : 320
      }, {
        "height" : 160,
        "url" : "https://i.scdn.co/image/ab6761610000f178c5f8138922c2cc8cd1eb22d8",
        "width" : 160
      } ],
      "name" : "Swedish Jam Factory",
      "popularity" : 45,
      "type" : "artist",
      "uri" : "spotify:artist:599aGczoZFptUe5tbS43LT"
    }, {
      "external_urls" : {
        "spotify" : "https://open.spotify.com/artist/4oLeXFyACqeem2VImYeBFe"
      },
      "followers" : {
        "href" : null,
        "total" : 276658
      },
      "genres" : [ ],
      "href" : "https://api.spotify.com/v1/artists/4oLeXFyACqeem2VImYeBFe",
      "id" : "4oLeXFyACqeem2VImYeBFe",
      "images" : [ {
        "height" : 640,
        "url" : "https://i.scdn.co/image/ab6761610000e5ebc3631d90ebc9440d6fd63755",
        "width" : 640
      }, {
        "height" : 320,
        "url" : "https://i.scdn.co/image/ab67616100005174c3631d90ebc9440d6fd63755",
        "width" : 320
      }, {
        "height" : 160,
        "url" : "https://i.scdn.co/image/ab6761610000f178c3631d90ebc9440d6fd63755",
        "width" : 160
      } ],
      "name" : "Fred again..",
      "popularity" : 72,
      "type" : "artist",
      "uri" : "spotify:artist:4oLeXFyACqeem2VImYeBFe"
    }, {
      "external_urls" : {
        "spotify" : "https://open.spotify.com/artist/5PV3mhZeUlAYdYe7FUA5R3"
      },
      "followers" : {
        "href" : null,
        "total" : 5
      },
      "genres" : [ ],
      "href" : "https://api.spotify.com/v1/artists/5PV3mhZeUlAYdYe7FUA5R3",
      "id" : "5PV3mhZeUlAYdYe7FUA5R3",
      "images" : [ ],
      "name" : "Swedish Funk Mafia",
      "popularity" : 8,
      "type" : "artist",
      "uri" : "spotify:artist:5PV3mhZeUlAYdYe7FUA5R3"
    }, {
      "external_urls" : {
        "spotify" : "https://open.spotify.com/artist/1moxjboGR7GNWYIMWsRjgG"
      },
      "followers" : {
        "href" : null,
        "total" : 6026392
      },
      "genres" : [ "baroque pop", "pop", "uk alternative pop" ],
      "href" : "https://api.spotify.com/v1/artists/1moxjboGR7GNWYIMWsRjgG",
      "id" : "1moxjboGR7GNWYIMWsRjgG",
      "images" : [ {
        "height" : 640,
        "url" : "https://i.scdn.co/image/ab6761610000e5ebe3c37f869b830d1cf1ec829a",
        "width" : 640
      }, {
        "height" : 320,
        "url" : "https://i.scdn.co/image/ab67616100005174e3c37f869b830d1cf1ec829a",
        "width" : 320
      }, {
        "height" : 160,
        "url" : "https://i.scdn.co/image/ab6761610000f178e3c37f869b830d1cf1ec829a",
        "width" : 160
      } ],
      "name" : "Florence + The Machine",
      "popularity" : 75,
      "type" : "artist",
      "uri" : "spotify:artist:1moxjboGR7GNWYIMWsRjgG"
    }, {
      "external_urls" : {
        "spotify" : "https://open.spotify.com/artist/3XOSFh1h6XwHEVz4NTrct1"
      },
      "followers" : {
        "href" : null,
        "total" : 0
      },
      "genres" : [ ],
      "href" : "https://api.spotify.com/v1/artists/3XOSFh1h6XwHEVz4NTrct1",
      "id" : "3XOSFh1h6XwHEVz4NTrct1",
      "images" : [ {
        "height" : 640,
        "url" : "https://i.scdn.co/image/ab67616d0000b273246e825701eff9354d7ebd3d",
        "width" : 640
      }, {
        "height" : 300,
        "url" : "https://i.scdn.co/image/ab67616d00001e02246e825701eff9354d7ebd3d",
        "width" : 300
      }, {
        "height" : 64,
        "url" : "https://i.scdn.co/image/ab67616d00004851246e825701eff9354d7ebd3d",
        "width" : 64
      } ],
      "name" : "The Swedish Lobbyist",
      "popularity" : 16,
      "type" : "artist",
      "uri" : "spotify:artist:3XOSFh1h6XwHEVz4NTrct1"
    }, {
      "external_urls" : {
        "spotify" : "https://open.spotify.com/artist/1Xyo4u8uXC1ZmMpatF05PJ"
      },
      "followers" : {
        "href" : null,
        "total" : 49892438
      },
      "genres" : [ "canadian contemporary r&b", "canadian pop", "pop" ],
      "href" : "https://api.spotify.com/v1/artists/1Xyo4u8uXC1ZmMpatF05PJ",
      "id" : "1Xyo4u8uXC1ZmMpatF05PJ",
      "images" : [ {
        "height" : 640,
        "url" : "https://i.scdn.co/image/ab6761610000e5ebb5f9e28219c169fd4b9e8379",
        "width" : 640
      }, {
        "height" : 320,
        "url" : "https://i.scdn.co/image/ab67616100005174b5f9e28219c169fd4b9e8379",
        "width" : 320
      }, {
        "height" : 160,
        "url" : "https://i.scdn.co/image/ab6761610000f178b5f9e28219c169fd4b9e8379",
        "width" : 160
      } ],
      "name" : "The Weeknd",
      "popularity" : 94,
      "type" : "artist",
      "uri" : "spotify:artist:1Xyo4u8uXC1ZmMpatF05PJ"
    }, {
      "external_urls" : {
        "spotify" : "https://open.spotify.com/artist/7KOdGXQgNSBeq5MlcxHg7i"
      },
      "followers" : {
        "href" : null,
        "total" : 159
      },
      "genres" : [ ],
      "href" : "https://api.spotify.com/v1/artists/7KOdGXQgNSBeq5MlcxHg7i",
      "id" : "7KOdGXQgNSBeq5MlcxHg7i",
      "images" : [ {
        "height" : 640,
        "url" : "https://i.scdn.co/image/ab67616d0000b27351a5e7f3d60a032eaadee2c1",
        "width" : 640
      }, {
        "height" : 300,
        "url" : "https://i.scdn.co/image/ab67616d00001e0251a5e7f3d60a032eaadee2c1",
        "width" : 300
      }, {
        "height" : 64,
        "url" : "https://i.scdn.co/image/ab67616d0000485151a5e7f3d60a032eaadee2c1",
        "width" : 64
      } ],
      "name" : "Swedish Hit Makers",
      "popularity" : 10,
      "type" : "artist",
      "uri" : "spotify:artist:7KOdGXQgNSBeq5MlcxHg7i"
    }, {
      "external_urls" : {
        "spotify" : "https://open.spotify.com/artist/3bEikLTyMbLfOpvrwZ5MsX"
      },
      "followers" : {
        "href" : null,
        "total" : 10879
      },
      "genres" : [ ],
      "href" : "https://api.spotify.com/v1/artists/3bEikLTyMbLfOpvrwZ5MsX",
      "id" : "3bEikLTyMbLfOpvrwZ5MsX",
      "images" : [ {
        "height" : 640,
        "url" : "https://i.scdn.co/image/ab67616d0000b273532527164fd157b7cd452261",
        "width" : 640
      }, {
        "height" : 300,
        "url" : "https://i.scdn.co/image/ab67616d00001e02532527164fd157b7cd452261",
        "width" : 300
      }, {
        "height" : 64,
        "url" : "https://i.scdn.co/image/ab67616d00004851532527164fd157b7cd452261",
        "width" : 64
      } ],
      "name" : "The Swedish Models",
      "popularity" : 11,
      "type" : "artist",
      "uri" : "spotify:artist:3bEikLTyMbLfOpvrwZ5MsX"
    }, {
      "external_urls" : {
        "spotify" : "https://open.spotify.com/artist/15soWw2QpyqwODxsCm1mTo"
      },
      "followers" : {
        "href" : null,
        "total" : 106
      },
      "genres" : [ ],
      "href" : "https://api.spotify.com/v1/artists/15soWw2QpyqwODxsCm1mTo",
      "id" : "15soWw2QpyqwODxsCm1mTo",
      "images" : [ {
        "height" : 640,
        "url" : "https://i.scdn.co/image/ab67616d0000b27334dfc478d0364bdc9104a470",
        "width" : 640
      }, {
        "height" : 300,
        "url" : "https://i.scdn.co/image/ab67616d00001e0234dfc478d0364bdc9104a470",
        "width" : 300
      }, {
        "height" : 64,
        "url" : "https://i.scdn.co/image/ab67616d0000485134dfc478d0364bdc9104a470",
        "width" : 64
      } ],
      "name" : "Swedish House Pussy",
      "popularity" : 3,
      "type" : "artist",
      "uri" : "spotify:artist:15soWw2QpyqwODxsCm1mTo"
    }, {
      "external_urls" : {
        "spotify" : "https://open.spotify.com/artist/3fem2e3Zze52UJL9TvT8r9"
      },
      "followers" : {
        "href" : null,
        "total" : 1007
      },
      "genres" : [ "dansband" ],
      "href" : "https://api.spotify.com/v1/artists/3fem2e3Zze52UJL9TvT8r9",
      "id" : "3fem2e3Zze52UJL9TvT8r9",
      "images" : [ {
        "height" : 640,
        "url" : "https://i.scdn.co/image/ab6761610000e5eb9a0d3149820eb59d42c1790c",
        "width" : 640
      }, {
        "height" : 320,
        "url" : "https://i.scdn.co/image/ab676161000051749a0d3149820eb59d42c1790c",
        "width" : 320
      }, {
        "height" : 160,
        "url" : "https://i.scdn.co/image/ab6761610000f1789a0d3149820eb59d42c1790c",
        "width" : 160
      } ],
      "name" : "Swedish Dance Mafia",
      "popularity" : 25,
      "type" : "artist",
      "uri" : "spotify:artist:3fem2e3Zze52UJL9TvT8r9"
    }, {
      "external_urls" : {
        "spotify" : "https://open.spotify.com/artist/1bDRFpfXPNuwYc5CKihdga"
      },
      "followers" : {
        "href" : null,
        "total" : 17
      },
      "genres" : [ ],
      "href" : "https://api.spotify.com/v1/artists/1bDRFpfXPNuwYc5CKihdga",
      "id" : "1bDRFpfXPNuwYc5CKihdga",
      "images" : [ {
        "height" : 640,
        "url" : "https://i.scdn.co/image/ab6761610000e5ebf59fefa03b82352346f05621",
        "width" : 640
      }, {
        "height" : 320,
        "url" : "https://i.scdn.co/image/ab67616100005174f59fefa03b82352346f05621",
        "width" : 320
      }, {
        "height" : 160,
        "url" : "https://i.scdn.co/image/ab6761610000f178f59fefa03b82352346f05621",
        "width" : 160
      } ],
      "name" : "Swedish House Trance",
      "popularity" : 2,
      "type" : "artist",
      "uri" : "spotify:artist:1bDRFpfXPNuwYc5CKihdga"
    }, {
      "external_urls" : {
        "spotify" : "https://open.spotify.com/artist/4qLGrfqRYzGcIg6oc3y1wd"
      },
      "followers" : {
        "href" : null,
        "total" : 197
      },
      "genres" : [ ],
      "href" : "https://api.spotify.com/v1/artists/4qLGrfqRYzGcIg6oc3y1wd",
      "id" : "4qLGrfqRYzGcIg6oc3y1wd",
      "images" : [ {
        "height" : 640,
        "url" : "https://i.scdn.co/image/ab6761610000e5eb803ce42d67f9597580a5ef87",
        "width" : 640
      }, {
        "height" : 320,
        "url" : "https://i.scdn.co/image/ab67616100005174803ce42d67f9597580a5ef87",
        "width" : 320
      }, {
        "height" : 160,
        "url" : "https://i.scdn.co/image/ab6761610000f178803ce42d67f9597580a5ef87",
        "width" : 160
      } ],
      "name" : "The Swedish Railway Orchestra",
      "popularity" : 4,
      "type" : "artist",
      "uri" : "spotify:artist:4qLGrfqRYzGcIg6oc3y1wd"
    }, {
      "external_urls" : {
        "spotify" : "https://open.spotify.com/artist/2U0VNA1aJyhK48MZXXgHfE"
      },
      "followers" : {
        "href" : null,
        "total" : 128
      },
      "genres" : [ ],
      "href" : "https://api.spotify.com/v1/artists/2U0VNA1aJyhK48MZXXgHfE",
      "id" : "2U0VNA1aJyhK48MZXXgHfE",
      "images" : [ {
        "height" : 640,
        "url" : "https://i.scdn.co/image/ab67616d0000b27318fb36018156d49176a53335",
        "width" : 640
      }, {
        "height" : 300,
        "url" : "https://i.scdn.co/image/ab67616d00001e0218fb36018156d49176a53335",
        "width" : 300
      }, {
        "height" : 64,
        "url" : "https://i.scdn.co/image/ab67616d0000485118fb36018156d49176a53335",
        "width" : 64
      } ],
      "name" : "The Swedish Modern Jazz Group",
      "popularity" : 1,
      "type" : "artist",
      "uri" : "spotify:artist:2U0VNA1aJyhK48MZXXgHfE"
    }, {
      "external_urls" : {
        "spotify" : "https://open.spotify.com/artist/2xq7iwZ2BpFDhbvwrfccVS"
      },
      "followers" : {
        "href" : null,
        "total" : 1
      },
      "genres" : [ ],
      "href" : "https://api.spotify.com/v1/artists/2xq7iwZ2BpFDhbvwrfccVS",
      "id" : "2xq7iwZ2BpFDhbvwrfccVS",
      "images" : [ ],
      "name" : "The Swedish Sex Machine",
      "popularity" : 1,
      "type" : "artist",
      "uri" : "spotify:artist:2xq7iwZ2BpFDhbvwrfccVS"
    }, {
      "external_urls" : {
        "spotify" : "https://open.spotify.com/artist/1Zn0jElCNw4uBTAiJuNV85"
      },
      "followers" : {
        "href" : null,
        "total" : 289
      },
      "genres" : [ "melodipop" ],
      "href" : "https://api.spotify.com/v1/artists/1Zn0jElCNw4uBTAiJuNV85",
      "id" : "1Zn0jElCNw4uBTAiJuNV85",
      "images" : [ {
        "height" : 640,
        "url" : "https://i.scdn.co/image/ab67616d0000b27347fabe485e17b3779b9e5f03",
        "width" : 640
      }, {
        "height" : 300,
        "url" : "https://i.scdn.co/image/ab67616d00001e0247fabe485e17b3779b9e5f03",
        "width" : 300
      }, {
        "height" : 64,
        "url" : "https://i.scdn.co/image/ab67616d0000485147fabe485e17b3779b9e5f03",
        "width" : 64
      } ],
      "name" : "Swedish House Wives",
      "popularity" : 4,
      "type" : "artist",
      "uri" : "spotify:artist:1Zn0jElCNw4uBTAiJuNV85"
    }, {
      "external_urls" : {
        "spotify" : "https://open.spotify.com/artist/4t7wRRtGPYMtDhEzRyArFT"
      },
      "followers" : {
        "href" : null,
        "total" : 98
      },
      "genres" : [ ],
      "href" : "https://api.spotify.com/v1/artists/4t7wRRtGPYMtDhEzRyArFT",
      "id" : "4t7wRRtGPYMtDhEzRyArFT",
      "images" : [ {
        "height" : 640,
        "url" : "https://i.scdn.co/image/ab6761610000e5ebcadc5f53c27cd07058461bcf",
        "width" : 640
      }, {
        "height" : 320,
        "url" : "https://i.scdn.co/image/ab67616100005174cadc5f53c27cd07058461bcf",
        "width" : 320
      }, {
        "height" : 160,
        "url" : "https://i.scdn.co/image/ab6761610000f178cadc5f53c27cd07058461bcf",
        "width" : 160
      } ],
      "name" : "Swedish Magazines",
      "popularity" : 0,
      "type" : "artist",
      "uri" : "spotify:artist:4t7wRRtGPYMtDhEzRyArFT"
    }, {
      "external_urls" : {
        "spotify" : "https://open.spotify.com/artist/0QMmTNlWnrrxDg5EjVY4a6"
      },
      "followers" : {
        "href" : null,
        "total" : 397
      },
      "genres" : [ "swedish melodic rock" ],
      "href" : "https://api.spotify.com/v1/artists/0QMmTNlWnrrxDg5EjVY4a6",
      "id" : "0QMmTNlWnrrxDg5EjVY4a6",
      "images" : [ {
        "height" : 640,
        "url" : "https://i.scdn.co/image/ab67616d0000b2732bd223aefdf5608e8b71ddfb",
        "width" : 640
      }, {
        "height" : 300,
        "url" : "https://i.scdn.co/image/ab67616d00001e022bd223aefdf5608e8b71ddfb",
        "width" : 300
      }, {
        "height" : 64,
        "url" : "https://i.scdn.co/image/ab67616d000048512bd223aefdf5608e8b71ddfb",
        "width" : 64
      } ],
      "name" : "The Swedish Funk Connection",
      "popularity" : 2,
      "type" : "artist",
      "uri" : "spotify:artist:0QMmTNlWnrrxDg5EjVY4a6"
    } ],
    "limit" : 20,
    "next" : "https://api.spotify.com/v1/search?query=Swedish+House+Mafia&type=artist&market=US&offset=20&limit=20",
    "offset" : 0,
    "previous" : null,
    "total" : 22
  }
}