{
  "artists" : {
    "href" : "https://api.spotify.com/v1/search?query=Timmy+Trumpet&type=artist&market=US&offset=0&limit=20",
    "items" : [ {
      "external_urls" : {
        "spotify" : "https://open.spotify.com/artist/0CbeG1224FS58EUx4tPevZ"
      },
      "followers" : {
        "href" : null,
        "total" : 941659
      },
      "genres" : [ "australian dance", "big room", "edm", "electro house", "melbourne bounce", "melbourne bounce international", "pop dance" ],
      "href" : "https://api.spotify.com/v1/artists/0CbeG1224FS58EUx4tPevZ",
      "id" : "0CbeG1224FS58EUx4tPevZ",
      "images" : [ {
        "height" : 640,
        "url" : "https://i.scdn.co/image/ab6761610000e5eb82ac9eee4c8a5f57412b4821",
        "width" : 640
      }, {
        "height" : 320,
        "url" : "https://i.scdn.co/image/ab6761610000517482ac9eee4c8a5f57412b4821",
        "width" : 320
      }, {
        "height" : 160,
        "url" : "https://i.scdn.co/image/ab6761610000f17882ac9eee4c8a5f57412b4821",
        "width" : 160
      } ],
      "name" : "Timmy Trumpet",
      "popularity" : 72,
      "type" : "artist",
      "uri" : "spotify:artist:0CbeG1224FS58EUx4tPevZ"
    }, {
      "external_urls" : {
        "spotify" : "https://open.spotify.com/artist/2Yynks5oDAWChkLzx2qR3r"
      },
      "followers" : {
        "href" : null,
        "total" : 1180
      },
      "genres" : [ ],
      "href" : "https://api.spotify.com/v1/artists/2Yynks5oDAWChkLzx2qR3r",
      "id" : "2Yynks5oDAWChkLzx2qR3r",
      "images" : [ {
        "height" : 640,
        "url" : "https://i.scdn.co/image/ab67616d0000b27326fe9d98b24ca801d975d0ec",
        "width" : 640
      }, {
        "height" : 300,
        "url" : "https://i.scdn.co/image/ab67616d00001e0226fe9d98b24ca801d975d0ec",
        "width" : 300
      }, {
        "height" : 64,
        "url" : "https://i.scdn.co/image/ab67616d0000485126fe9d98b24ca801d975d0ec",
        "width" : 64
      } ],
      "name" : "Timmy Trumpet & Savage",
      "popularity" : 11,
      "type" : "artist",
      "uri" : "spotify:artist:2Yynks5oDAWChkLzx2qR3r"
    }, {
      "external_urls" : {
        "spotify" : "https://open.spotify.com/artist/54ClucHaj0whgtp28G8ktb"
      },
      "followers" : {
        "href" : null,
        "total" : 1233
      },
      "genres" : [ ],
      "href" : "https://api.spotify.com/v1/artists/54ClucHaj0whgtp28G8ktb",
      "id" : "54ClucHaj0whgtp28G8ktb",
      "images" : [ {
        "height" : 640,
        "url" : "https://i.scdn.co/image/ab67616d0000b27348f794b60cd3065c3984120f",
        "width" : 640
      }, {
        "height" : 300,
        "url" : "https://i.scdn.co/image/ab67616d00001e0248f794b60cd3065c3984120f",
        "width" : 300
      }, {
        "height" : 64,
        "url" : "https://i.scdn.co/image/ab67616d0000485148f794b60cd3065c3984120f",
        "width" : 64
      } ],
      "name" : "Timmy Trumpet & Chardy",
      "popularity" : 0,
      "type" : "artist",
      "uri" : "spotify:artist:54ClucHaj0whgtp28G8ktb"
    }, {
      "external_urls" : {
        "spotify" : "https://open.spotify.com/artist/7JLwBH0X2G8tgHceqvOu5B"
      },
      "followers" : {
        "href" : null,
        "total" : 14614
      },
      "genres" : [ "classic soul" ],
      "href" : "https://api.spotify.com/v1/artists/7JLwBH0X2G8tgHceqvOu5B",
      "id" : "7JLwBH0X2G8tgHceqvOu5B",
      "images" : [ {
        "height" : 640,
        "url" : "https://i.scdn.co/image/ab67616d0000b2731cbf8d0693a628a93be45b83",
        "width" : 640
      }, {
        "height" : 300,
        "url" : "https://i.scdn.co/image/ab67616d00001e021cbf8d0693a628a93be45b83",
        "width" : 300
      }, {
        "height" : 64,
        "url" : "https://i.scdn.co/image/ab67616d000048511cbf8d0693a628a93be45b83",
        "width" : 64
      } ],
      "name" : "Timmy Thomas",
      "popularity" : 44,
      "type" : "artist",
      "uri" : "spotify:artist:7JLwBH0X2G8tgHceqvOu5B"
    }, {
      "external_urls" : {
        "spotify" : "https://open.spotify.com/artist/42OVFXja74jNFdbLlc12n8"
      },
      "followers" : {
        "href" : null,
        "total" : 1037
      },
      "genres" : [ ],
      "href" : "https://api.spotify.com/v1/artists/42OVFXja74jNFdbLlc12n8",
      "id" : "42OVFXja74jNFdbLlc12n8",
      "images" : [ ],
      "name" : "KCB & Timmy Trumpet",
      "popularity" : 0,
      "type" : "artist",
      "uri" : "spotify:artist:42OVFXja74jNFdbLlc12n8"
    }, {
      "external_urls" : {
        "spotify" : "https://open.spotify.com/artist/5gqcLXiJcBVEduXVle7JN1"
      },
      "followers" : {
        "href" : null,
        "total" : 32189
      },
      "genres" : [ "freestyle" ],
      "href" : "https://api.spotify.com/v1/artists/5gqcLXiJcBVEduXVle7JN1",
      "id" : "5gqcLXiJcBVEduXVle7JN1",
      "images" : [ {
        "height" : 640,
        "url" : "https://i.scdn.co/image/ab67616d0000b273ccfe352a0ebd4fdb7b438d0c",
        "width" : 640
      }, {
        "height" : 300,
        "url" : "https://i.scdn.co/image/ab67616d00001e02ccfe352a0ebd4fdb7b438d0c",
        "width" : 300
      }, {
        "height" : 64,
        "url" : "https://i.scdn.co/image/ab67616d00004851ccfe352a0ebd4fdb7b438d0c",
        "width" : 64
      } ],
      "name" : "Timmy T",
      "popularity" : 32,
      "type" : "artist",
      "uri" : "spotify:artist:5gqcLXiJcBVEduXVle7JN1"
    }, {
      "external_urls" : {
        "spotify" : "https://open.spotify.com/artist/5mHEnE8FUpg9ZmYNrrCIcU"
      },
      "followers" : {
        "href" : null,
        "total" : 167
      },
      "genres" : [ "trap beats" ],
      "href" : "https://api.spotify.com/v1/artists/5mHEnE8FUpg9ZmYNrrCIcU",
      "id" : "5mHEnE8FUpg9ZmYNrrCIcU",
      "images" : [ {
        "height" : 640,
        "url" : "https://i.scdn.co/image/ab67616d0000b273fedde7430a92330872e89f36",
        "width" : 640
      }, {
        "height" : 300,
        "url" : "https://i.scdn.co/image/ab67616d00001e02fedde7430a92330872e89f36",
        "width" : 300
      }, {
        "height" : 64,
        "url" : "https://i.scdn.co/image/ab67616d00004851fedde7430a92330872e89f36",
        "width" : 64
      } ],
      "name" : "Timmy Tee",
      "popularity" : 25,
      "type" : "artist",
      "uri" : "spotify:artist:5mHEnE8FUpg9ZmYNrrCIcU"
    }, {
      "external_urls" : {
        "spotify" : "https://open.spotify.com/artist/06mH4KpBiqTcLHFiUKpZ89"
      },
      "followers" : {
        "href" : null,
        "total" : 8202
      },
      "genres" : [ ],
      "href" : "https://api.spotify.com/v1/artists/06mH4KpBiqTcLHFiUKpZ89",
      "id" : "06mH4KpBiqTcLHFiUKpZ89",
      "images" : [ {
        "height" : 640,
        "url" : "https://i.scdn.co/image/ab6761610000e5ebee36d1d4dac49052b46ce2c0",
        "width" : 640
      }, {
        "height" : 320,
        "url" : "https://i.scdn.co/image/ab67616100005174ee36d1d4dac49052b46ce2c0",
        "width" : 320
      }, {
        "height" : 160,
        "url" : "https://i.scdn.co/image/ab6761610000f178ee36d1d4dac49052b46ce2c0",
        "width" : 160
      } ],
      "name" : "TimmyT",
      "popularity" : 45,
      "type" : "artist",
      "uri" : "spotify:artist:06mH4KpBiqTcLHFiUKpZ89"
    }, {
      "external_urls" : {
        "spotify" : "https://open.spotify.com/artist/5zoOzwpyBWpLn3VJYhWZTV"
      },
      "followers" : {
        "href" : null,
        "total" : 7825
      },
      "genres" : [ ],
      "href" : "https://api.spotify.com/v1/artists/5zoOzwpyBWpLn3VJYhWZTV",
      "id" : "5zoOzwpyBWpLn3VJYhWZTV",
      "images" : [ {
        "height" : 640,
        "url" : "https://i.scdn.co/image/ab67616d0000b273dc9c3eff6fb285eda0eb490a",
        "width" : 640
      }, {
        "height" : 300,
        "url" : "https://i.scdn.co/image/ab67616d00001e02dc9c3eff6fb285eda0eb490a",
        "width" : 300
      }, {
        "height" : 64,
        "url" : "https://i.scdn.co/image/ab67616d00004851dc9c3eff6fb285eda0eb490a",
        "width" : 64
      } ],
      "name" : "Timmy Turner",
      "popularity" : 11,
      "type" : "artist",
      "uri" : "spotify:artist:5zoOzwpyBWpLn3VJYhWZTV"
    }, {
      "external_urls" : {
        "spotify" : "https://open.spotify.com/artist/7rSSSCxo38P2L7Gr8snBgA"
      },
      "followers" : {
        "href" : null,
        "total" : 398
      },
      "genres" : [ ],
      "href" : "https://api.spotify.com/v1/artists/7rSSSCxo38P2L7Gr8snBgA",
      "id" : "7rSSSCxo38P2L7Gr8snBgA",
      "images" : [ {
        "height" : 640,
        "url" : "https://i.scdn.co/image/ab6761610000e5ebec4039d8aef93351ea77fd31",
        "width" : 640
      }, {
        "height" : 320,
        "url" : "https://i.scdn.co/image/ab67616100005174ec4039d8aef93351ea77fd31",
        "width" : 320
      }, {
        "height" : 160,
        "url" : "https://i.scdn.co/image/ab6761610000f178ec4039d8aef93351ea77fd31",
        "width" : 160
      } ],
      "name" : "TimmyRAY",
      "popularity" : 14,
      "type" : "artist",
      "uri" : "spotify:artist:7rSSSCxo38P2L7Gr8snBgA"
    }, {
      "external_urls" : {
        "spotify" : "https://open.spotify.com/artist/3wLOMEXhqfc4UkJj1hQB4w"
      },
      "followers" : {
        "href" : null,
        "total" : 20
      },
      "genres" : [ ],
      "href" : "https://api.spotify.com/v1/artists/3wLOMEXhqfc4UkJj1hQB4w",
      "id" : "3wLOMEXhqfc4UkJj1hQB4w",
      "images" : [ {
        "height" : 640,
        "url" : "https://i.scdn.co/image/ab67616d0000b273001ba5072dea8ed9989c2df2",
        "width" : 640
      }, {
        "height" : 300,
        "url" : "https://i.scdn.co/image/ab67616d00001e02001ba5072dea8ed9989c2df2",
        "width" : 300
      }, {
        "height" : 64,
        "url" : "https://i.scdn.co/image/ab67616d00004851001ba5072dea8ed9989c2df2",
        "width" : 64
      } ],
      "name" : "Timmy Tombstone",
      "popularity" : 5,
      "type" : "artist",
      "uri" : "spotify:artist:3wLOMEXhqfc4UkJj1hQB4w"
    }, {
      "external_urls" : {
        "spotify" : "https://open.spotify.com/artist/7HDa7jhUlNOWakOPliqWFP"
      },
      "followers" : {
        "href" : null,
        "total" : 1254
      },
      "genres" : [ ],
      "href" : "https://api.spotify.com/v1/artists/7HDa7jhUlNOWakOPliqWFP",
      "id" : "7HDa7jhUlNOWakOPliqWFP",
      "images" : [ {
        "height" : 640,
        "url" : "https://i.scdn.co/image/ab6761610000e5ebadac74a385884272b7f2cb89",
        "width" : 640
      }, {
        "height" : 320,
        "url" : "https://i.scdn.co/image/ab67616100005174adac74a385884272b7f2cb89",
        "width" : 320
      }, {
        "height" : 160,
        "url" : "https://i.scdn.co/image/ab6761610000f178adac74a385884272b7f2cb89",
        "width" : 160
      } ],
      "name" : "Timmy the Teeth",
      "popularity" : 9,
      "type" : "artist",
      "uri" : "spotify:artist:7HDa7jhUlNOWakOPliqWFP"
    }, {
      "external_urls" : {
        "spotify" : "https://open.spotify.com/artist/1h2vGsqYeQhGJ5PLbpc4C5"
      },
      "followers" : {
        "href" : null,
        "total" : 0
      },
      "genres" : [ ],
      "href" : "https://api.spotify.com/v1/artists/1h2vGsqYeQhGJ5PLbpc4C5",
      "id" : "1h2vGsqYeQhGJ5PLbpc4C5",
      "images" : [ ],
      "name" : "Timmy Turn Up",
      "popularity" : 2,
      "type" : "artist",
      "uri" : "spotify:artist:1h2vGsqYeQhGJ5PLbpc4C5"
    }, {
      "external_urls" : {
        "spotify" : "https://open.spotify.com/artist/2IrD5XCZCwFvYshOOXyUsN"
      },
      "followers" : {
        "href" : null,
        "total" : 1
      },
      "genres" : [ ],
      "href" : "https://api.spotify.com/v1/artists/2IrD5XCZCwFvYshOOXyUsN",
      "id" : "2IrD5XCZCwFvYshOOXyUsN",
      "images" : [ ],
      "name" : "Timmy Tmbstone",
      "popularity" : 2,
      "type" : "artist",
      "uri" : "spotify:artist:2IrD5XCZCwFvYshOOXyUsN"
    }, {
      "external_urls" : {
        "spotify" : "https://open.spotify.com/artist/6yIySZfoO3bE7Q9qO6hL0y"
      },
      "followers" : {
        "href" : null,
        "total" : 64
      },
      "genres" : [ "nopixel" ],
      "href" : "https://api.spotify.com/v1/artists/6yIySZfoO3bE7Q9qO6hL0y",
      "id" : "6yIySZfoO3bE7Q9qO6hL0y",
      "images" : [ {
        "height" : 640,
        "url" : "https://i.scdn.co/image/ab67616d0000b273563484f9335e24febca9045b",
        "width" : 640
      }, {
        "height" : 300,
        "url" : "https://i.scdn.co/image/ab67616d00001e02563484f9335e24febca9045b",
        "width" : 300
      }, {
        "height" : 64,
        "url" : "https://i.scdn.co/image/ab67616d00004851563484f9335e24febca9045b",
        "width" : 64
      } ],
      "name" : "Timmy Timmerson",
      "popularity" : 8,
      "type" : "artist",
      "uri" : "spotify:artist:6yIySZfoO3bE7Q9qO6hL0y"
    }, {
      "external_urls" : {
        "spotify" : "https://open.spotify.com/artist/7f1sKm3JANIszxRMJa8x3q"
      },
      "followers" : {
        "href" : null,
        "total" : 106
      },
      "genres" : [ ],
      "href" : "https://api.spotify.com/v1/artists/7f1sKm3JANIszxRMJa8x3q",
      "id" : "7f1sKm3JANIszxRMJa8x3q",
      "images" : [ {
        "height" : 640,
        "url" : "https://i.scdn.co/image/ab6761610000e5eb5d51345a4e3764b7bb201628",
        "width" : 640
      }, {
        "height" : 320,
        "url" : "https://i.scdn.co/image/ab676161000051745d51345a4e3764b7bb201628",
        "width" : 320
      }, {
        "height" : 160,
        "url" : "https://i.scdn.co/image/ab6761610000f1785d51345a4e3764b7bb201628",
        "width" : 160
      } ],
      "name" : "TimmyT",
      "popularity" : 1,
      "type" : "artist",
      "uri" : "spotify:artist:7f1sKm3JANIszxRMJa8x3q"
    }, {
      "external_urls" : {
        "spotify" : "https://open.spotify.com/artist/6uBJfGk4b6zQcFDZO0qCLw"
      },
      "followers" : {
        "href" : null,
        "total" : 213
      },
      "genres" : [ ],
      "href" : "https://api.spotify.com/v1/artists/6uBJfGk4b6zQcFDZO0qCLw",
      "id" : "6uBJfGk4b6zQcFDZO0qCLw",
      "images" : [ {
        "height" : 640,
        "url" : "https://i.scdn.co/image/ab6761610000e5eb9ac97b87504387a096edaad7",
        "width" : 640
      }, {
        "height" : 320,
        "url" : "https://i.scdn.co/image/ab676161000051749ac97b87504387a096edaad7",
        "width" : 320
      }, {
        "height" : 160,
        "url" : "https://i.scdn.co/image/ab6761610000f1789ac97b87504387a096edaad7",
        "width" : 160
      } ],
      "name" : "Timmy & Tommy",
      "popularity" : 6,
      "type" : "artist",
      "uri" : "spotify:artist:6uBJfGk4b6zQcFDZO0qCLw"
    }, {
      "external_urls" : {
        "spotify" : "https://open.spotify.com/artist/5kyxI9aKbc85K1pwrkZol0"
      },
      "followers" : {
        "href" : null,
        "total" : 103
      },
      "genres" : [ ],
      "href" : "https://api.spotify.com/v1/artists/5kyxI9aKbc85K1pwrkZol0",
      "id" : "5kyxI9aKbc85K1pwrkZol0",
      "images" : [ {
        "height" : 640,
        "url" : "https://i.scdn.co/image/ab6761610000e5eb33326c03ce72a70ed62d7c93",
        "width" : 640
      }, {
        "height" : 320,
        "url" : "https://i.scdn.co/image/ab6761610000517433326c03ce72a70ed62d7c93",
        "width" : 320
      }, {
        "height" : 160,
        "url" : "https://i.scdn.co/image/ab6761610000f17833326c03ce72a70ed62d7c93",
        "width" : 160
      } ],
      "name" : "Timmytepp",
      "popularity" : 1,
      "type" : "artist",
      "uri" : "spotify:artist:5kyxI9aKbc85K1pwrkZol0"
    }, {
      "external_urls" : {
        "spotify" : "https://open.spotify.com/artist/5EjkqZEMZps4rtvVjIcbwA"
      },
      "followers" : {
        "href" : null,
        "total" : 2
      },
      "genres" : [ ],
      "href" : "https://api.spotify.com/v1/artists/5EjkqZEMZps4rtvVjIcbwA",
      "id" : "5EjkqZEMZps4rtvVjIcbwA",
      "images" : [ {
        "height" : 640,
        "url" : "https://i.scdn.co/image/ab67616d0000b2736119ebac0ac0905b050e864a",
        "width" : 640
      }, {
        "height" : 300,
        "url" : "https://i.scdn.co/image/ab67616d00001e026119ebac0ac0905b050e864a",
        "width" : 300
      }, {
        "height" : 64,
        "url" : "https://i.scdn.co/image/ab67616d000048516119ebac0ac0905b050e864a",
        "width" : 64
      } ],
      "name" : "Timmy",
      "popularity" : 2,
      "type" : "artist",
      "uri" : "spotify:artist:5EjkqZEMZps4rtvVjIcbwA"
    }, {
      "external_urls" : {
        "spotify" : "https://open.spotify.com/artist/0a4BVd8rF79F0reoRUkUjb"
      },
      "followers" : {
        "href" : null,
        "total" : 34
      },
      "genres" : [ ],
      "href" : "https://api.spotify.com/v1/artists/0a4BVd8rF79F0reoRUkUjb",
      "id" : "0a4BVd8rF79F0reoRUkUjb",
      "images" : [ {
        "height" : 640,
        "url" : "https://i.scdn.co/image/ab6761610000e5eb0b3d11c58203c13ce22cb8f5",
        "width" : 640
      }, {
        "height" : 320,
        "url" : "https://i.scdn.co/image/ab676161000051740b3d11c58203c13ce22cb8f5",
        "width" : 320
      }, {
        "height" : 160,
        "url" : "https://i.scdn.co/image/ab6761610000f1780b3d11c58203c13ce22cb8f5",
        "width" : 160
      } ],
      "name" : "Timmy",
      "popularity" : 1,
      "type" : "artist",
      "uri" : "spotify:artist:0a4BVd8rF79F0reoRUkUjb"
    } ],
    "limit" : 20,
    "next" : "https://api.spotify.com/v1/search?query=Timmy+Trumpet&type=artist&market=US&offset=20&limit=20",
    "offset" : 0,
    "previous" : null,
    "total" : 27
  }
}