{
  "artists" : {
    "href" : "https://api.spotify.com/v1/search?query=Zedd&type=artist&market=US&offset=0&limit=20",
    "items" : [ {
      "external_urls" : {
        "spotify" : "https://open.spotify.com/artist/2qxJFvFYMEDqd7ui6kSAcq"
      },
      "followers" : {
        "href" : null,
        "total" : 5809837
      },
      "genres" : [ "complextro", "dance pop", "edm", "electro house", "electropop", "german techno", "pop", "pop dance", "pop rap", "tropical house", "uk pop" ],
      "href" : "https://api.spotify.com/v1/artists/2qxJFvFYMEDqd7ui6kSAcq",
      "id" : "2qxJFvFYMEDqd7ui6kSAcq",
      "images" : [ {
        "height" : 640,
        "url" : "https://i.scdn.co/image/ab6761610000e5eb88d30a4c3e7d79a0cdfe96b3",
        "width" : 640
      }, {
        "height" : 320,
        "url" : "https://i.scdn.co/image/ab6761610000517488d30a4c3e7d79a0cdfe96b3",
        "width" : 320
      }, {
        "height" : 160,
        "url" : "https://i.scdn.co/image/ab6761610000f17888d30a4c3e7d79a0cdfe96b3",
        "width" : 160
      } ],
      "name" : "Zedd",
      "popularity" : 75,
      "type" : "artist",
      "uri" : "spotify:artist:2qxJFvFYMEDqd7ui6kSAcq"
    }, {
      "external_urls" : {
        "spotify" : "https://open.spotify.com/artist/1alf4P7GDe5aNpALBzWIGf"
      },
      "followers" : {
        "href" : null,
        "total" : 519
      },
      "genres" : [ ],
      "href" : "https://api.spotify.com/v1/artists/1alf4P7GDe5aNpALBzWIGf",
      "id" : "1alf4P7GDe5aNpALBzWIGf",
      "images" : [ {
        "height" : 640,
        "url" : "https://i.scdn.co/image/ab67616d0000b273dd9f8eba9793e2f8b4bae738",
        "width" : 640
      }, {
        "height" : 300,
        "url" : "https://i.scdn.co/image/ab67616d00001e02dd9f8eba9793e2f8b4bae738",
        "width" : 300
      }, {
        "height" : 64,
        "url" : "https://i.scdn.co/image/ab67616d00004851dd9f8eba9793e2f8b4bae738",
        "width" : 64
      } ],
      "name" : "ZEDDY WILL",
      "popularity" : 22,
      "type" : "artist",
      "uri" : "spotify:artist:1alf4P7GDe5aNpALBzWIGf"
    }, {
      "external_urls" : {
        "spotify" : "https://open.spotify.com/artist/67qogtRNI0GjUr8PlaG6Zh"
      },
      "followers" : {
        "href" : null,
        "total" : 536625
      },
      "genres" : [ "brostep", "canadian electronic", "dubstep", "edm", "electro house", "electronic trap", "progressive electro house" ],
      "href" : "https://api.spotify.com/v1/artists/67qogtRNI0GjUr8PlaG6Zh",
      "id" : "67qogtRNI0GjUr8PlaG6Zh",
      "images" : [ {
        "height" : 640,
        "url" : "https://i.scdn.co/image/ab6761610000e5eb8f9c9739f2bbee96365a4b23",
        "width" : 640
      }, {
        "height" : 320,
        "url" : "https://i.scdn.co/image/ab676161000051748f9c9739f2bbee96365a4b23",
        "width" : 320
      }, {
        "height" : 160,
        "url" : "https://i.scdn.co/image/ab6761610000f1788f9c9739f2bbee96365a4b23",
        "width" : 160
      } ],
      "name" : "Zeds Dead",
      "popularity" : 62,
      "type" : "artist",
      "uri" : "spotify:artist:67qogtRNI0GjUr8PlaG6Zh"
    }, {
      "external_urls" : {
        "spotify" : "https://open.spotify.com/artist/08pvyygl17Ub4Q0XWz5RzE"
      },
      "followers" : {
        "href" : null,
        "total" : 17
      },
      "genres" : [ ],
      "href" : "https://api.spotify.com/v1/artists/08pvyygl17Ub4Q0XWz5RzE",
      "id" : "08pvyygl17Ub4Q0XWz5RzE",
      "images" : [ {
        "height" : 640,
        "url" : "https://i.scdn.co/image/ab6761610000e5eba58bc048742fd4486c4e4633",
        "width" : 640
      }, {
        "height" : 320,
        "url" : "https://i.scdn.co/image/ab67616100005174a58bc048742fd4486c4e4633",
        "width" : 320
      }, {
        "height" : 160,
        "url" : "https://i.scdn.co/image/ab6761610000f178a58bc048742fd4486c4e4633",
        "width" : 160
      } ],
      "name" : "ZEDDiii",
      "popularity" : 1,
      "type" : "artist",
      "uri" : "spotify:artist:08pvyygl17Ub4Q0XWz5RzE"
    }, {
      "external_urls" : {
        "spotify" : "https://open.spotify.com/artist/0HLu7PWY34eKZYZ7DUdT30"
      },
      "followers" : {
        "href" : null,
        "total" : 204
      },
      "genres" : [ "historically informed performance" ],
      "href" : "https://api.spotify.com/v1/artists/0HLu7PWY34eKZYZ7DUdT30",
      "id" : "0HLu7PWY34eKZYZ7DUdT30",
      "images" : [ {
        "height" : 1000,
        "url" : "https://i.scdn.co/image/5d391060824fa735f5edcf634d0998b813667fd8",
        "width" : 1000
      }, {
        "height" : 640,
        "url" : "https://i.scdn.co/image/6850b5a789cf1f0e20e72c4226f2f637e72819c3",
        "width" : 640
      }, {
        "height" : 200,
        "url" : "https://i.scdn.co/image/1d181d9fcdc46825ab7fd8450a5925962beceadd",
        "width" : 200
      }, {
        "height" : 64,
        "url" : "https://i.scdn.co/image/0dd9532bff0105b138900c189a9ced8b95acdcef",
        "width" : 64
      } ],
      "name" : "Alberto Zedda",
      "popularity" : 19,
      "type" : "artist",
      "uri" : "spotify:artist:0HLu7PWY34eKZYZ7DUdT30"
    }, {
      "external_urls" : {
        "spotify" : "https://open.spotify.com/artist/7qRll6DYV06u2VuRPAVqug"
      },
      "followers" : {
        "href" : null,
        "total" : 299064
      },
      "genres" : [ "dance pop", "electropop", "indie poptimism", "metropopolis", "post-teen pop", "tropical house", "uk pop" ],
      "href" : "https://api.spotify.com/v1/artists/7qRll6DYV06u2VuRPAVqug",
      "id" : "7qRll6DYV06u2VuRPAVqug",
      "images" : [ {
        "height" : 640,
        "url" : "https://i.scdn.co/image/ab6761610000e5ebadb663c00fcc431448abfcb4",
        "width" : 640
      }, {
        "height" : 320,
        "url" : "https://i.scdn.co/image/ab67616100005174adb663c00fcc431448abfcb4",
        "width" : 320
      }, {
        "height" : 160,
        "url" : "https://i.scdn.co/image/ab6761610000f178adb663c00fcc431448abfcb4",
        "width" : 160
      } ],
      "name" : "Foxes",
      "popularity" : 60,
      "type" : "artist",
      "uri" : "spotify:artist:7qRll6DYV06u2VuRPAVqug"
    }, {
      "external_urls" : {
        "spotify" : "https://open.spotify.com/artist/4GwUD7Uv4IMwLBBUgXpUrK"
      },
      "followers" : {
        "href" : null,
        "total" : 0
      },
      "genres" : [ ],
      "href" : "https://api.spotify.com/v1/artists/4GwUD7Uv4IMwLBBUgXpUrK",
      "id" : "4GwUD7Uv4IMwLBBUgXpUrK",
      "images" : [ ],
      "name" : "ZeddyWill",
      "popularity" : 1,
      "type" : "artist",
      "uri" : "spotify:artist:4GwUD7Uv4IMwLBBUgXpUrK"
    }, {
      "external_urls" : {
        "spotify" : "https://open.spotify.com/artist/6WY7D3jk8zTrHtmkqqo5GI"
      },
      "followers" : {
        "href" : null,
        "total" : 684859
      },
      "genres" : [ "contemporary country", "country", "pop", "texas country" ],
      "href" : "https://api.spotify.com/v1/artists/6WY7D3jk8zTrHtmkqqo5GI",
      "id" : "6WY7D3jk8zTrHtmkqqo5GI",
      "images" : [ {
        "height" : 640,
        "url" : "https://i.scdn.co/image/ab6761610000e5ebf88c7e94699df538db077320",
        "width" : 640
      }, {
        "height" : 320,
        "url" : "https://i.scdn.co/image/ab67616100005174f88c7e94699df538db077320",
        "width" : 320
      }, {
        "height" : 160,
        "url" : "https://i.scdn.co/image/ab6761610000f178f88c7e94699df538db077320",
        "width" : 160
      } ],
      "name" : "Maren Morris",
      "popularity" : 74,
      "type" : "artist",
      "uri" : "spotify:artist:6WY7D3jk8zTrHtmkqqo5GI"
    }, {
      "external_urls" : {
        "spotify" : "https://open.spotify.com/artist/0K1GHnOv4P4wnXvf47BTC7"
      },
      "followers" : {
        "href" : null,
        "total" : 44
      },
      "genres" : [ ],
      "href" : "https://api.spotify.com/v1/artists/0K1GHnOv4P4wnXvf47BTC7",
      "id" : "0K1GHnOv4P4wnXvf47BTC7",
      "images" : [ {
        "height" : 640,
        "url" : "https://i.scdn.co/image/ab67616d0000b2739c4b60beb5f5bcb13213bf22",
        "width" : 640
      }, {
        "height" : 300,
        "url" : "https://i.scdn.co/image/ab67616d00001e029c4b60beb5f5bcb13213bf22",
        "width" : 300
      }, {
        "height" : 64,
        "url" : "https://i.scdn.co/image/ab67616d000048519c4b60beb5f5bcb13213bf22",
        "width" : 64
      } ],
      "name" : "Zeddy Guapo",
      "popularity" : 0,
      "type" : "artist",
      "uri" : "spotify:artist:0K1GHnOv4P4wnXvf47BTC7"
    }, {
      "external_urls" : {
        "spotify" : "https://open.spotify.com/artist/2QpCwKcn9rgFFqGq8GZD1v"
      },
      "followers" : {
        "href" : null,
        "total" : 61
      },
      "genres" : [ ],
      "href" : "https://api.spotify.com/v1/artists/2QpCwKcn9rgFFqGq8GZD1v",
      "id" : "2QpCwKcn9rgFFqGq8GZD1v",
      "images" : [ {
        "height" : 640,
        "url" : "https://i.scdn.co/image/ab6761610000e5eb1a80ffbdd970a86709acfd1f",
        "width" : 640
      }, {
        "height" : 320,
        "url" : "https://i.scdn.co/image/ab676161000051741a80ffbdd970a86709acfd1f",
        "width" : 320
      }, {
        "height" : 160,
        "url" : "https://i.scdn.co/image/ab6761610000f1781a80ffbdd970a86709acfd1f",
        "width" : 160
      } ],
      "name" : "Niqo Zedd",
      "popularity" : 2,
      "type" : "artist",
      "uri" : "spotify:artist:2QpCwKcn9rgFFqGq8GZD1v"
    }, {
      "external_urls" : {
        "spotify" : "https://open.spotify.com/artist/6ypguZRuTjAHXWVRmGmhAv"
      },
      "followers" : {
        "href" : null,
        "total" : 2868
      },
      "genres" : [ ],
      "href" : "https://api.spotify.com/v1/artists/6ypguZRuTjAHXWVRmGmhAv",
      "id" : "6ypguZRuTjAHXWVRmGmhAv",
      "images" : [ {
        "height" : 640,
        "url" : "https://i.scdn.co/image/ab6761610000e5eb199abfc99305d51792325948",
        "width" : 640
      }, {
        "height" : 320,
        "url" : "https://i.scdn.co/image/ab67616100005174199abfc99305d51792325948",
        "width" : 320
      }, {
        "height" : 160,
        "url" : "https://i.scdn.co/image/ab6761610000f178199abfc99305d51792325948",
        "width" : 160
      } ],
      "name" : "Noël Wells",
      "popularity" : 21,
      "type" : "artist",
      "uri" : "spotify:artist:6ypguZRuTjAHXWVRmGmhAv"
    }, {
      "external_urls" : {
        "spotify" : "https://open.spotify.com/artist/5y4dynG4Pj8JGb25WlrvGG"
      },
      "followers" : {
        "href" : null,
        "total" : 58
      },
      "genres" : [ ],
      "href" : "https://api.spotify.com/v1/artists/5y4dynG4Pj8JGb25WlrvGG",
      "id" : "5y4dynG4Pj8JGb25WlrvGG",
      "images" : [ {
        "height" : 640,
        "url" : "https://i.scdn.co/image/ab6761610000e5eb822f196a2de16aeeb9490aa6",
        "width" : 640
      }, {
        "height" : 320,
        "url" : "https://i.scdn.co/image/ab67616100005174822f196a2de16aeeb9490aa6",
        "width" : 320
      }, {
        "height" : 160,
        "url" : "https://i.scdn.co/image/ab6761610000f178822f196a2de16aeeb9490aa6",
        "width" : 160
      } ],
      "name" : "Zeddy",
      "popularity" : 4,
      "type" : "artist",
      "uri" : "spotify:artist:5y4dynG4Pj8JGb25WlrvGG"
    }, {
      "external_urls" : {
        "spotify" : "https://open.spotify.com/artist/6Fjgynm1cKeciKghldYtX6"
      },
      "followers" : {
        "href" : null,
        "total" : 160
      },
      "genres" : [ ],
      "href" : "https://api.spotify.com/v1/artists/6Fjgynm1cKeciKghldYtX6",
      "id" : "6Fjgynm1cKeciKghldYtX6",
      "images" : [ {
        "height" : 640,
        "url" : "https://i.scdn.co/image/ab6761610000e5eb2b8213defc624075ee7ed0f7",
        "width" : 640
      }, {
        "height" : 320,
        "url" : "https://i.scdn.co/image/ab676161000051742b8213defc624075ee7ed0f7",
        "width" : 320
      }, {
        "height" : 160,
        "url" : "https://i.scdn.co/image/ab6761610000f1782b8213defc624075ee7ed0f7",
        "width" : 160
      } ],
      "name" : "Yung Zedd",
      "popularity" : 9,
      "type" : "artist",
      "uri" : "spotify:artist:6Fjgynm1cKeciKghldYtX6"
    }, {
      "external_urls" : {
        "spotify" : "https://open.spotify.com/artist/2yQYndLTC8p1npMeDiDS5W"
      },
      "followers" : {
        "href" : null,
        "total" : 1
      },
      "genres" : [ ],
      "href" : "https://api.spotify.com/v1/artists/2yQYndLTC8p1npMeDiDS5W",
      "id" : "2yQYndLTC8p1npMeDiDS5W",
      "images" : [ {
        "height" : 640,
        "url" : "https://i.scdn.co/image/ab6761610000e5eb5d800ad002b6e7a53b394867",
        "width" : 640
      }, {
        "height" : 320,
        "url" : "https://i.scdn.co/image/ab676161000051745d800ad002b6e7a53b394867",
        "width" : 320
      }, {
        "height" : 160,
        "url" : "https://i.scdn.co/image/ab6761610000f1785d800ad002b6e7a53b394867",
        "width" : 160
      } ],
      "name" : "Zeddess",
      "popularity" : 0,
      "type" : "artist",
      "uri" : "spotify:artist:2yQYndLTC8p1npMeDiDS5W"
    }, {
      "external_urls" : {
        "spotify" : "https://open.spotify.com/artist/4xnMDfgEmXZEEDdITKcGuE"
      },
      "followers" : {
        "href" : null,
        "total" : 170429
      },
      "genres" : [ "edm", "electro house", "pop dance", "pop edm", "progressive house", "tropical house" ],
      "href" : "https://api.spotify.com/v1/artists/4xnMDfgEmXZEEDdITKcGuE",
      "id" : "4xnMDfgEmXZEEDdITKcGuE",
      "images" : [ {
        "height" : 640,
        "url" : "https://i.scdn.co/image/ab6761610000e5eb275d687af88bb66830756ff6",
        "width" : 640
      }, {
        "height" : 320,
        "url" : "https://i.scdn.co/image/ab67616100005174275d687af88bb66830756ff6",
        "width" : 320
      }, {
        "height" : 160,
        "url" : "https://i.scdn.co/image/ab6761610000f178275d687af88bb66830756ff6",
        "width" : 160
      } ],
      "name" : "Audien",
      "popularity" : 60,
      "type" : "artist",
      "uri" : "spotify:artist:4xnMDfgEmXZEEDdITKcGuE"
    }, {
      "external_urls" : {
        "spotify" : "https://open.spotify.com/artist/6YNW60JPM1JacKbn2hfKdL"
      },
      "followers" : {
        "href" : null,
        "total" : 843
      },
      "genres" : [ ],
      "href" : "https://api.spotify.com/v1/artists/6YNW60JPM1JacKbn2hfKdL",
      "id" : "6YNW60JPM1JacKbn2hfKdL",
      "images" : [ {
        "height" : 640,
        "url" : "https://i.scdn.co/image/ab6761610000e5eb705c858ccf9af92b7250ce0d",
        "width" : 640
      }, {
        "height" : 320,
        "url" : "https://i.scdn.co/image/ab67616100005174705c858ccf9af92b7250ce0d",
        "width" : 320
      }, {
        "height" : 160,
        "url" : "https://i.scdn.co/image/ab6761610000f178705c858ccf9af92b7250ce0d",
        "width" : 160
      } ],
      "name" : "Zedd",
      "popularity" : 0,
      "type" : "artist",
      "uri" : "spotify:artist:6YNW60JPM1JacKbn2hfKdL"
    }, {
      "external_urls" : {
        "spotify" : "https://open.spotify.com/artist/6jm9JbA1yq2snQjnzxztuz"
      },
      "followers" : {
        "href" : null,
        "total" : 2
      },
      "genres" : [ ],
      "href" : "https://api.spotify.com/v1/artists/6jm9JbA1yq2snQjnzxztuz",
      "id" : "6jm9JbA1yq2snQjnzxztuz",
      "images" : [ ],
      "name" : "Zedded",
      "popularity" : 0,
      "type" : "artist",
      "uri" : "spotify:artist:6jm9JbA1yq2snQjnzxztuz"
    }, {
      "external_urls" : {
        "spotify" : "https://open.spotify.com/artist/60d24wfXkVzDSfLS6hyCjZ"
      },
      "followers" : {
        "href" : null,
        "total" : 15618134
      },
      "genres" : [ "dance pop", "dutch edm", "edm", "pop", "pop dance", "progressive house", "tropical house" ],
      "href" : "https://api.spotify.com/v1/artists/60d24wfXkVzDSfLS6hyCjZ",
      "id" : "60d24wfXkVzDSfLS6hyCjZ",
      "images" : [ {
        "height" : 640,
        "url" : "https://i.scdn.co/image/ab6761610000e5eb66d17ee8690d2e8d94ee7387",
        "width" : 640
      }, {
        "height" : 320,
        "url" : "https://i.scdn.co/image/ab6761610000517466d17ee8690d2e8d94ee7387",
        "width" : 320
      }, {
        "height" : 160,
        "url" : "https://i.scdn.co/image/ab6761610000f17866d17ee8690d2e8d94ee7387",
        "width" : 160
      } ],
      "name" : "Martin Garrix",
      "popularity" : 76,
      "type" : "artist",
      "uri" : "spotify:artist:60d24wfXkVzDSfLS6hyCjZ"
    }, {
      "external_urls" : {
        "spotify" : "https://open.spotify.com/artist/7eUDf3pRF4ZxCQMLpQC0oH"
      },
      "followers" : {
        "href" : null,
        "total" : 160
      },
      "genres" : [ ],
      "href" : "https://api.spotify.com/v1/artists/7eUDf3pRF4ZxCQMLpQC0oH",
      "id" : "7eUDf3pRF4ZxCQMLpQC0oH",
      "images" : [ {
        "height" : 640,
        "url" : "https://i.scdn.co/image/ab6761610000e5ebece74ef697fdece95679579e",
        "width" : 640
      }, {
        "height" : 320,
        "url" : "https://i.scdn.co/image/ab67616100005174ece74ef697fdece95679579e",
        "width" : 320
      }, {
        "height" : 160,
        "url" : "https://i.scdn.co/image/ab6761610000f178ece74ef697fdece95679579e",
        "width" : 160
      } ],
      "name" : "Zeddy",
      "popularity" : 5,
      "type" : "artist",
      "uri" : "spotify:artist:7eUDf3pRF4ZxCQMLpQC0oH"
    }, {
      "external_urls" : {
        "spotify" : "https://open.spotify.com/artist/6IZjjTqRMeu0w7FmbAIVFX"
      },
      "followers" : {
        "href" : null,
        "total" : 3
      },
      "genres" : [ ],
      "href" : "https://api.spotify.com/v1/artists/6IZjjTqRMeu0w7FmbAIVFX",
      "id" : "6IZjjTqRMeu0w7FmbAIVFX",
      "images" : [ ],
      "name" : "Zeddski",
      "popularity" : 0,
      "type" : "artist",
      "uri" : "spotify:artist:6IZjjTqRMeu0w7FmbAIVFX"
    } ],
    "limit" : 20,
    "next" : "https://api.spotify.com/v1/search?query=Zedd&type=artist&market=US&offset=20&limit=20",
    "offset" : 0,
    "previous" : null,
    "total" : 173
  }
}