{
  "artists" : {
    "href" : "https://api.spotify.com/v1/search?query=Jerro&type=artist&market=US&offset=0&limit=20",
    "items" : [ {
      "external_urls" : {
        "spotify" : "https://open.spotify.com/artist/0RKP52f5PNDCRZ9Luq2Sr7"
      },
      "followers" : {
        "href" : null,
        "total" : 456658
      },
      "genres" : [ "contemporary country", "country", "country road", "modern country rock" ],
      "href" : "https://api.spotify.com/v1/artists/0RKP52f5PNDCRZ9Luq2Sr7",
      "id" : "0RKP52f5PNDCRZ9Luq2Sr7",
      "images" : [ {
        "height" : 640,
        "url" : "https://i.scdn.co/image/ab6761610000e5eb23ad93772765db490cffb551",
        "width" : 640
      }, {
        "height" : 320,
        "url" : "https://i.scdn.co/image/ab6761610000517423ad93772765db490cffb551",
        "width" : 320
      }, {
        "height" : 160,
        "url" : "https://i.scdn.co/image/ab6761610000f17823ad93772765db490cffb551",
        "width" : 160
      } ],
      "name" : "Jerrod Niemann",
      "popularity" : 58,
      "type" : "artist",
      "uri" : "spotify:artist:0RKP52f5PNDCRZ9Luq2Sr7"
    }, {
      "external_urls" : {
        "spotify" : "https://open.spotify.com/artist/1WHFu22zN1C6F11Z1rt12K"
      },
      "followers" : {
        "href" : null,
        "total" : 14443
      },
      "genres" : [ ],
      "href" : "https://api.spotify.com/v1/artists/1WHFu22zN1C6F11Z1rt12K",
      "id" : "1WHFu22zN1C6F11Z1rt12K",
      "images" : [ {
        "height" : 640,
        "url" : "https://i.scdn.co/image/ab6761610000e5ebd200b7beba28ddbb702e2ca0",
        "width" : 640
      }, {
        "height" : 320,
        "url" : "https://i.scdn.co/image/ab67616100005174d200b7beba28ddbb702e2ca0",
        "width" : 320
      }, {
        "height" : 160,
        "url" : "https://i.scdn.co/image/ab6761610000f178d200b7beba28ddbb702e2ca0",
        "width" : 160
      } ],
      "name" : "Jerro",
      "popularity" : 55,
      "type" : "artist",
      "uri" : "spotify:artist:1WHFu22zN1C6F11Z1rt12K"
    }, {
      "external_urls" : {
        "spotify" : "https://open.spotify.com/artist/02UwmGSlq6g9s8CHZ70h7C"
      },
      "followers" : {
        "href" : null,
        "total" : 157
      },
      "genres" : [ ],
      "href" : "https://api.spotify.com/v1/artists/02UwmGSlq6g9s8CHZ70h7C",
      "id" : "02UwmGSlq6g9s8CHZ70h7C",
      "images" : [ {
        "height" : 640,
        "url" : "https://i.scdn.co/image/ab6761610000e5ebc2ed4db83646fced1b605544",
        "width" : 640
      }, {
        "height" : 320,
        "url" : "https://i.scdn.co/image/ab67616100005174c2ed4db83646fced1b605544",
        "width" : 320
      }, {
        "height" : 160,
        "url" : "https://i.scdn.co/image/ab6761610000f178c2ed4db83646fced1b605544",
        "width" : 160
      } ],
      "name" : "Jerrod Azaad",
      "popularity" : 22,
      "type" : "artist",
      "uri" : "spotify:artist:02UwmGSlq6g9s8CHZ70h7C"
    }, {
      "external_urls" : {
        "spotify" : "https://open.spotify.com/artist/06xZxorn7PeAQJfwaokgs2"
      },
      "followers" : {
        "href" : null,
        "total" : 8
      },
      "genres" : [ ],
      "href" : "https://api.spotify.com/v1/artists/06xZxorn7PeAQJfwaokgs2",
      "id" : "06xZxorn7PeAQJfwaokgs2",
      "images" : [ {
        "height" : 640,
        "url" : "https://i.scdn.co/image/ab67616d0000b273cf3842a2f86cfc19419006bd",
        "width" : 640
      }, {
        "height" : 300,
        "url" : "https://i.scdn.co/image/ab67616d00001e02cf3842a2f86cfc19419006bd",
        "width" : 300
      }, {
        "height" : 64,
        "url" : "https://i.scdn.co/image/ab67616d00004851cf3842a2f86cfc19419006bd",
        "width" : 64
      } ],
      "name" : "Jerro",
      "popularity" : 0,
      "type" : "artist",
      "uri" : "spotify:artist:06xZxorn7PeAQJfwaokgs2"
    }, {
      "external_urls" : {
        "spotify" : "https://open.spotify.com/artist/70tSBUIr9n3sV431t90M5H"
      },
      "followers" : {
        "href" : null,
        "total" : 11
      },
      "genres" : [ ],
      "href" : "https://api.spotify.com/v1/artists/70tSBUIr9n3sV431t90M5H",
      "id" : "70tSBUIr9n3sV431t90M5H",
      "images" : [ ],
      "name" : "Jerrod Jixx",
      "popularity" : 9,
      "type" : "artist",
      "uri" : "spotify:artist:70tSBUIr9n3sV431t90M5H"
    }, {
      "external_urls" : {
        "spotify" : "https://open.spotify.com/artist/6UjmSUS82bBSEjsybZkVc2"
      },
      "followers" : {
        "href" : null,
        "total" : 4433
      },
      "genres" : [ "modern old-time" ],
      "href" : "https://api.spotify.com/v1/artists/6UjmSUS82bBSEjsybZkVc2",
      "id" : "6UjmSUS82bBSEjsybZkVc2",
      "images" : [ {
        "height" : 640,
        "url" : "https://i.scdn.co/image/ab6761610000e5ebbfeccd94f7f7004670367e03",
        "width" : 640
      }, {
        "height" : 320,
        "url" : "https://i.scdn.co/image/ab67616100005174bfeccd94f7f7004670367e03",
        "width" : 320
      }, {
        "height" : 160,
        "url" : "https://i.scdn.co/image/ab6761610000f178bfeccd94f7f7004670367e03",
        "width" : 160
      } ],
      "name" : "Blind Boy Paxton",
      "popularity" : 26,
      "type" : "artist",
      "uri" : "spotify:artist:6UjmSUS82bBSEjsybZkVc2"
    }, {
      "external_urls" : {
        "spotify" : "https://open.spotify.com/artist/01yo3ZlNYLzY70vlnCRhKd"
      },
      "followers" : {
        "href" : null,
        "total" : 0
      },
      "genres" : [ ],
      "href" : "https://api.spotify.com/v1/artists/01yo3ZlNYLzY70vlnCRhKd",
      "id" : "01yo3ZlNYLzY70vlnCRhKd",
      "images" : [ ],
      "name" : "Jerro",
      "popularity" : 0,
      "type" : "artist",
      "uri" : "spotify:artist:01yo3ZlNYLzY70vlnCRhKd"
    }, {
      "external_urls" : {
        "spotify" : "https://open.spotify.com/artist/5YGYWdXVlUYcwiwFxcY7C8"
      },
      "followers" : {
        "href" : null,
        "total" : 387
      },
      "genres" : [ ],
      "href" : "https://api.spotify.com/v1/artists/5YGYWdXVlUYcwiwFxcY7C8",
      "id" : "5YGYWdXVlUYcwiwFxcY7C8",
      "images" : [ {
        "height" : 640,
        "url" : "https://i.scdn.co/image/ab6761610000e5ebd41737ddad3f3568c9a35362",
        "width" : 640
      }, {
        "height" : 320,
        "url" : "https://i.scdn.co/image/ab67616100005174d41737ddad3f3568c9a35362",
        "width" : 320
      }, {
        "height" : 160,
        "url" : "https://i.scdn.co/image/ab6761610000f178d41737ddad3f3568c9a35362",
        "width" : 160
      } ],
      "name" : "Jerrod Flusche",
      "popularity" : 9,
      "type" : "artist",
      "uri" : "spotify:artist:5YGYWdXVlUYcwiwFxcY7C8"
    }, {
      "external_urls" : {
        "spotify" : "https://open.spotify.com/artist/1T5Crvf1wCJpscb6Go0fqO"
      },
      "followers" : {
        "href" : null,
        "total" : 1
      },
      "genres" : [ ],
      "href" : "https://api.spotify.com/v1/artists/1T5Crvf1wCJpscb6Go0fqO",
      "id" : "1T5Crvf1wCJpscb6Go0fqO",
      "images" : [ ],
      "name" : "Jerro",
      "popularity" : 0,
      "type" : "artist",
      "uri" : "spotify:artist:1T5Crvf1wCJpscb6Go0fqO"
    }, {
      "external_urls" : {
        "spotify" : "https://open.spotify.com/artist/1SAy0dPUaT6fyPs5JuJIQN"
      },
      "followers" : {
        "href" : null,
        "total" : 416
      },
      "genres" : [ ],
      "href" : "https://api.spotify.com/v1/artists/1SAy0dPUaT6fyPs5JuJIQN",
      "id" : "1SAy0dPUaT6fyPs5JuJIQN",
      "images" : [ {
        "height" : 640,
        "url" : "https://i.scdn.co/image/ab6761610000e5eb3fb7f8332933f6e9ab167562",
        "width" : 640
      }, {
        "height" : 320,
        "url" : "https://i.scdn.co/image/ab676161000051743fb7f8332933f6e9ab167562",
        "width" : 320
      }, {
        "height" : 160,
        "url" : "https://i.scdn.co/image/ab6761610000f1783fb7f8332933f6e9ab167562",
        "width" : 160
      } ],
      "name" : "Jerrod Medulla",
      "popularity" : 8,
      "type" : "artist",
      "uri" : "spotify:artist:1SAy0dPUaT6fyPs5JuJIQN"
    }, {
      "external_urls" : {
        "spotify" : "https://open.spotify.com/artist/2teijNn1isOyUmnSWq9YAI"
      },
      "followers" : {
        "href" : null,
        "total" : 101
      },
      "genres" : [ ],
      "href" : "https://api.spotify.com/v1/artists/2teijNn1isOyUmnSWq9YAI",
      "id" : "2teijNn1isOyUmnSWq9YAI",
      "images" : [ {
        "height" : 640,
        "url" : "https://i.scdn.co/image/ab6761610000e5eb29e9ebcb68ae807a70a6c005",
        "width" : 640
      }, {
        "height" : 320,
        "url" : "https://i.scdn.co/image/ab6761610000517429e9ebcb68ae807a70a6c005",
        "width" : 320
      }, {
        "height" : 160,
        "url" : "https://i.scdn.co/image/ab6761610000f17829e9ebcb68ae807a70a6c005",
        "width" : 160
      } ],
      "name" : "Erik Jerrod",
      "popularity" : 9,
      "type" : "artist",
      "uri" : "spotify:artist:2teijNn1isOyUmnSWq9YAI"
    }, {
      "external_urls" : {
        "spotify" : "https://open.spotify.com/artist/7aqxswTLdIge5KEJTVyFLn"
      },
      "followers" : {
        "href" : null,
        "total" : 0
      },
      "genres" : [ ],
      "href" : "https://api.spotify.com/v1/artists/7aqxswTLdIge5KEJTVyFLn",
      "id" : "7aqxswTLdIge5KEJTVyFLn",
      "images" : [ ],
      "name" : "Jerro",
      "popularity" : 0,
      "type" : "artist",
      "uri" : "spotify:artist:7aqxswTLdIge5KEJTVyFLn"
    }, {
      "external_urls" : {
        "spotify" : "https://open.spotify.com/artist/2w1LimfmsZewJhCHJQ7Gp5"
      },
      "followers" : {
        "href" : null,
        "total" : 15
      },
      "genres" : [ ],
      "href" : "https://api.spotify.com/v1/artists/2w1LimfmsZewJhCHJQ7Gp5",
      "id" : "2w1LimfmsZewJhCHJQ7Gp5",
      "images" : [ {
        "height" : 640,
        "url" : "https://i.scdn.co/image/ab67616d0000b273bece80e6291d029703edf781",
        "width" : 640
      }, {
        "height" : 300,
        "url" : "https://i.scdn.co/image/ab67616d00001e02bece80e6291d029703edf781",
        "width" : 300
      }, {
        "height" : 64,
        "url" : "https://i.scdn.co/image/ab67616d00004851bece80e6291d029703edf781",
        "width" : 64
      } ],
      "name" : "Jerro",
      "popularity" : 0,
      "type" : "artist",
      "uri" : "spotify:artist:2w1LimfmsZewJhCHJQ7Gp5"
    }, {
      "external_urls" : {
        "spotify" : "https://open.spotify.com/artist/4wVbZ5NiJMNMsUYn42p4cB"
      },
      "followers" : {
        "href" : null,
        "total" : 1
      },
      "genres" : [ ],
      "href" : "https://api.spotify.com/v1/artists/4wVbZ5NiJMNMsUYn42p4cB",
      "id" : "4wVbZ5NiJMNMsUYn42p4cB",
      "images" : [ ],
      "name" : "Jerrold Held",
      "popularity" : 5,
      "type" : "artist",
      "uri" : "spotify:artist:4wVbZ5NiJMNMsUYn42p4cB"
    }, {
      "external_urls" : {
        "spotify" : "https://open.spotify.com/artist/3IZQyHGSjX2vmHwVu3tfVG"
      },
      "followers" : {
        "href" : null,
        "total" : 0
      },
      "genres" : [ ],
      "href" : "https://api.spotify.com/v1/artists/3IZQyHGSjX2vmHwVu3tfVG",
      "id" : "3IZQyHGSjX2vmHwVu3tfVG",
      "images" : [ ],
      "name" : "Jerro",
      "popularity" : 0,
      "type" : "artist",
      "uri" : "spotify:artist:3IZQyHGSjX2vmHwVu3tfVG"
    }, {
      "external_urls" : {
        "spotify" : "https://open.spotify.com/artist/6y4CH9VrhzQnJbK1NDmdcI"
      },
      "followers" : {
        "href" : null,
        "total" : 309
      },
      "genres" : [ ],
      "href" : "https://api.spotify.com/v1/artists/6y4CH9VrhzQnJbK1NDmdcI",
      "id" : "6y4CH9VrhzQnJbK1NDmdcI",
      "images" : [ {
        "height" : 640,
        "url" : "https://i.scdn.co/image/ab67616d0000b273865a619ee52538894a0d4d3d",
        "width" : 640
      }, {
        "height" : 300,
        "url" : "https://i.scdn.co/image/ab67616d00001e02865a619ee52538894a0d4d3d",
        "width" : 300
      }, {
        "height" : 64,
        "url" : "https://i.scdn.co/image/ab67616d00004851865a619ee52538894a0d4d3d",
        "width" : 64
      } ],
      "name" : "Jerrod Carmichael",
      "popularity" : 2,
      "type" : "artist",
      "uri" : "spotify:artist:6y4CH9VrhzQnJbK1NDmdcI"
    }, {
      "external_urls" : {
        "spotify" : "https://open.spotify.com/artist/4sfH4zwVllkzQ9ttqhY0V7"
      },
      "followers" : {
        "href" : null,
        "total" : 0
      },
      "genres" : [ ],
      "href" : "https://api.spotify.com/v1/artists/4sfH4zwVllkzQ9ttqhY0V7",
      "id" : "4sfH4zwVllkzQ9ttqhY0V7",
      "images" : [ {
        "height" : 640,
        "url" : "https://i.scdn.co/image/ab67616d0000b27337fb8e82647fa991ddd27f07",
        "width" : 640
      }, {
        "height" : 300,
        "url" : "https://i.scdn.co/image/ab67616d00001e0237fb8e82647fa991ddd27f07",
        "width" : 300
      }, {
        "height" : 64,
        "url" : "https://i.scdn.co/image/ab67616d0000485137fb8e82647fa991ddd27f07",
        "width" : 64
      } ],
      "name" : "Jerro",
      "popularity" : 0,
      "type" : "artist",
      "uri" : "spotify:artist:4sfH4zwVllkzQ9ttqhY0V7"
    }, {
      "external_urls" : {
        "spotify" : "https://open.spotify.com/artist/2CujBcs3jIWY9yxuHWVYSr"
      },
      "followers" : {
        "href" : null,
        "total" : 433
      },
      "genres" : [ ],
      "href" : "https://api.spotify.com/v1/artists/2CujBcs3jIWY9yxuHWVYSr",
      "id" : "2CujBcs3jIWY9yxuHWVYSr",
      "images" : [ {
        "height" : 640,
        "url" : "https://i.scdn.co/image/ab6761610000e5eb5cd04a0fa587df2ad4e695ae",
        "width" : 640
      }, {
        "height" : 320,
        "url" : "https://i.scdn.co/image/ab676161000051745cd04a0fa587df2ad4e695ae",
        "width" : 320
      }, {
        "height" : 160,
        "url" : "https://i.scdn.co/image/ab6761610000f1785cd04a0fa587df2ad4e695ae",
        "width" : 160
      } ],
      "name" : "Jerrold Angeles",
      "popularity" : 12,
      "type" : "artist",
      "uri" : "spotify:artist:2CujBcs3jIWY9yxuHWVYSr"
    }, {
      "external_urls" : {
        "spotify" : "https://open.spotify.com/artist/3kiOTo9KHeWG52792Bw3Je"
      },
      "followers" : {
        "href" : null,
        "total" : 2
      },
      "genres" : [ ],
      "href" : "https://api.spotify.com/v1/artists/3kiOTo9KHeWG52792Bw3Je",
      "id" : "3kiOTo9KHeWG52792Bw3Je",
      "images" : [ ],
      "name" : "Jerror",
      "popularity" : 0,
      "type" : "artist",
      "uri" : "spotify:artist:3kiOTo9KHeWG52792Bw3Je"
    }, {
      "external_urls" : {
        "spotify" : "https://open.spotify.com/artist/5wKqW3pKX5nj3ckJeb8zBg"
      },
      "followers" : {
        "href" : null,
        "total" : 11
      },
      "genres" : [ ],
      "href" : "https://api.spotify.com/v1/artists/5wKqW3pKX5nj3ckJeb8zBg",
      "id" : "5wKqW3pKX5nj3ckJeb8zBg",
      "images" : [ {
        "height" : 640,
        "url" : "https://i.scdn.co/image/ab67616d0000b273ca74b254ef75aa3f71700b3c",
        "width" : 640
      }, {
        "height" : 300,
        "url" : "https://i.scdn.co/image/ab67616d00001e02ca74b254ef75aa3f71700b3c",
        "width" : 300
      }, {
        "height" : 64,
        "url" : "https://i.scdn.co/image/ab67616d00004851ca74b254ef75aa3f71700b3c",
        "width" : 64
      } ],
      "name" : "Jerro",
      "popularity" : 0,
      "type" : "artist",
      "uri" : "spotify:artist:5wKqW3pKX5nj3ckJeb8zBg"
    } ],
    "limit" : 20,
    "next" : "https://api.spotify.com/v1/search?query=Jerro&type=artist&market=US&offset=20&limit=20",
    "offset" : 0,
    "previous" : null,
    "total" : 143
  }
}