{
  "artists" : {
    "href" : "https://api.spotify.com/v1/search?query=1991&type=artist&market=US&offset=0&limit=20",
    "items" : [ {
      "external_urls" : {
        "spotify" : "https://open.spotify.com/artist/2IP71LH7CbwddhsEXBI0fy"
      },
      "followers" : {
        "href" : null,
        "total" : 26598
      },
      "genres" : [ "dancefloor dnb", "drum and bass" ],
      "href" : "https://api.spotify.com/v1/artists/2IP71LH7CbwddhsEXBI0fy",
      "id" : "2IP71LH7CbwddhsEXBI0fy",
      "images" : [ {
        "height" : 640,
        "url" : "https://i.scdn.co/image/ab6761610000e5ebe053c8e13ae389e013f2f14f",
        "width" : 640
      }, {
        "height" : 320,
        "url" : "https://i.scdn.co/image/ab67616100005174e053c8e13ae389e013f2f14f",
        "width" : 320
      }, {
        "height" : 160,
        "url" : "https://i.scdn.co/image/ab6761610000f178e053c8e13ae389e013f2f14f",
        "width" : 160
      } ],
      "name" : "1991",
      "popularity" : 53,
      "type" : "artist",
      "uri" : "spotify:artist:2IP71LH7CbwddhsEXBI0fy"
    }, {
      "external_urls" : {
        "spotify" : "https://open.spotify.com/artist/4zvj6YIQxg7KzWo2ubjZNs"
      },
      "followers" : {
        "href" : null,
        "total" : 3234
      },
      "genres" : [ "hauntology", "outsider house", "vaporwave" ],
      "href" : "https://api.spotify.com/v1/artists/4zvj6YIQxg7KzWo2ubjZNs",
      "id" : "4zvj6YIQxg7KzWo2ubjZNs",
      "images" : [ {
        "height" : 640,
        "url" : "https://i.scdn.co/image/ab67616d0000b273c4c3d79e65a5a51af3ce024a",
        "width" : 640
      }, {
        "height" : 300,
        "url" : "https://i.scdn.co/image/ab67616d00001e02c4c3d79e65a5a51af3ce024a",
        "width" : 300
      }, {
        "height" : 64,
        "url" : "https://i.scdn.co/image/ab67616d00004851c4c3d79e65a5a51af3ce024a",
        "width" : 64
      } ],
      "name" : "1991",
      "popularity" : 21,
      "type" : "artist",
      "uri" : "spotify:artist:4zvj6YIQxg7KzWo2ubjZNs"
    }, {
      "external_urls" : {
        "spotify" : "https://open.spotify.com/artist/7CD4S5LN8BeM1MVjL7ASK4"
      },
      "followers" : {
        "href" : null,
        "total" : 3250
      },
      "genres" : [ ],
      "href" : "https://api.spotify.com/v1/artists/7CD4S5LN8BeM1MVjL7ASK4",
      "id" : "7CD4S5LN8BeM1MVjL7ASK4",
      "images" : [ {
        "height" : 640,
        "url" : "https://i.scdn.co/image/ab67616d0000b2732fd4d63d82ed4c7d1dcbc1ea",
        "width" : 640
      }, {
        "height" : 300,
        "url" : "https://i.scdn.co/image/ab67616d00001e022fd4d63d82ed4c7d1dcbc1ea",
        "width" : 300
      }, {
        "height" : 64,
        "url" : "https://i.scdn.co/image/ab67616d000048512fd4d63d82ed4c7d1dcbc1ea",
        "width" : 64
      } ],
      "name" : "\"Joseph And The Amazing Technicolor Dreamcoat\" 1991 London Cast",
      "popularity" : 46,
      "type" : "artist",
      "uri" : "spotify:artist:7CD4S5LN8BeM1MVjL7ASK4"
    }, {
      "external_urls" : {
        "spotify" : "https://open.spotify.com/artist/6F93aFbWjhUtjRKXYmtr1Z"
      },
      "followers" : {
        "href" : null,
        "total" : 13826
      },
      "genres" : [ "electra" ],
      "href" : "https://api.spotify.com/v1/artists/6F93aFbWjhUtjRKXYmtr1Z",
      "id" : "6F93aFbWjhUtjRKXYmtr1Z",
      "images" : [ {
        "height" : 640,
        "url" : "https://i.scdn.co/image/ab6761610000e5ebfec2fd98888f75cc16fe8d43",
        "width" : 640
      }, {
        "height" : 320,
        "url" : "https://i.scdn.co/image/ab67616100005174fec2fd98888f75cc16fe8d43",
        "width" : 320
      }, {
        "height" : 160,
        "url" : "https://i.scdn.co/image/ab6761610000f178fec2fd98888f75cc16fe8d43",
        "width" : 160
      } ],
      "name" : "BEA1991",
      "popularity" : 32,
      "type" : "artist",
      "uri" : "spotify:artist:6F93aFbWjhUtjRKXYmtr1Z"
    }, {
      "external_urls" : {
        "spotify" : "https://open.spotify.com/artist/6woF70LAQnr8PQV8XypZCI"
      },
      "followers" : {
        "href" : null,
        "total" : 6
      },
      "genres" : [ ],
      "href" : "https://api.spotify.com/v1/artists/6woF70LAQnr8PQV8XypZCI",
      "id" : "6woF70LAQnr8PQV8XypZCI",
      "images" : [ ],
      "name" : "1991",
      "popularity" : 0,
      "type" : "artist",
      "uri" : "spotify:artist:6woF70LAQnr8PQV8XypZCI"
    }, {
      "external_urls" : {
        "spotify" : "https://open.spotify.com/artist/5YpJH85rZvzPOUhHkhuk4Y"
      },
      "followers" : {
        "href" : null,
        "total" : 745
      },
      "genres" : [ "indie hidrocalido", "post-punk mexicano" ],
      "href" : "https://api.spotify.com/v1/artists/5YpJH85rZvzPOUhHkhuk4Y",
      "id" : "5YpJH85rZvzPOUhHkhuk4Y",
      "images" : [ {
        "height" : 640,
        "url" : "https://i.scdn.co/image/ab6761610000e5ebe5bfeb52fecbec4751edd179",
        "width" : 640
      }, {
        "height" : 320,
        "url" : "https://i.scdn.co/image/ab67616100005174e5bfeb52fecbec4751edd179",
        "width" : 320
      }, {
        "height" : 160,
        "url" : "https://i.scdn.co/image/ab6761610000f178e5bfeb52fecbec4751edd179",
        "width" : 160
      } ],
      "name" : "Le 1991",
      "popularity" : 6,
      "type" : "artist",
      "uri" : "spotify:artist:5YpJH85rZvzPOUhHkhuk4Y"
    }, {
      "external_urls" : {
        "spotify" : "https://open.spotify.com/artist/7mDROBKSY7D8MACrDdt1DT"
      },
      "followers" : {
        "href" : null,
        "total" : 14
      },
      "genres" : [ ],
      "href" : "https://api.spotify.com/v1/artists/7mDROBKSY7D8MACrDdt1DT",
      "id" : "7mDROBKSY7D8MACrDdt1DT",
      "images" : [ {
        "height" : 640,
        "url" : "https://i.scdn.co/image/ab67616d0000b2737971920a20dd5696e74d7438",
        "width" : 640
      }, {
        "height" : 300,
        "url" : "https://i.scdn.co/image/ab67616d00001e027971920a20dd5696e74d7438",
        "width" : 300
      }, {
        "height" : 64,
        "url" : "https://i.scdn.co/image/ab67616d000048517971920a20dd5696e74d7438",
        "width" : 64
      } ],
      "name" : "1991",
      "popularity" : 0,
      "type" : "artist",
      "uri" : "spotify:artist:7mDROBKSY7D8MACrDdt1DT"
    }, {
      "external_urls" : {
        "spotify" : "https://open.spotify.com/artist/77gAvxBfM5g3RLl7qAvwRv"
      },
      "followers" : {
        "href" : null,
        "total" : 89
      },
      "genres" : [ ],
      "href" : "https://api.spotify.com/v1/artists/77gAvxBfM5g3RLl7qAvwRv",
      "id" : "77gAvxBfM5g3RLl7qAvwRv",
      "images" : [ {
        "height" : 640,
        "url" : "https://i.scdn.co/image/ab67616d0000b2739e8dd5f72781b4f7b1246ae1",
        "width" : 640
      }, {
        "height" : 300,
        "url" : "https://i.scdn.co/image/ab67616d00001e029e8dd5f72781b4f7b1246ae1",
        "width" : 300
      }, {
        "height" : 64,
        "url" : "https://i.scdn.co/image/ab67616d000048519e8dd5f72781b4f7b1246ae1",
        "width" : 64
      } ],
      "name" : "Tc 1991",
      "popularity" : 6,
      "type" : "artist",
      "uri" : "spotify:artist:77gAvxBfM5g3RLl7qAvwRv"
    }, {
      "external_urls" : {
        "spotify" : "https://open.spotify.com/artist/785LK0wdH237ObFtWyToeI"
      },
      "followers" : {
        "href" : null,
        "total" : 72
      },
      "genres" : [ ],
      "href" : "https://api.spotify.com/v1/artists/785LK0wdH237ObFtWyToeI",
      "id" : "785LK0wdH237ObFtWyToeI",
      "images" : [ {
        "height" : 640,
        "url" : "https://i.scdn.co/image/ab67616d0000b27319dd3cb9c8a37461037cc9cb",
        "width" : 640
      }, {
        "height" : 300,
        "url" : "https://i.scdn.co/image/ab67616d00001e0219dd3cb9c8a37461037cc9cb",
        "width" : 300
      }, {
        "height" : 64,
        "url" : "https://i.scdn.co/image/ab67616d0000485119dd3cb9c8a37461037cc9cb",
        "width" : 64
      } ],
      "name" : "Cory1991",
      "popularity" : 5,
      "type" : "artist",
      "uri" : "spotify:artist:785LK0wdH237ObFtWyToeI"
    }, {
      "external_urls" : {
        "spotify" : "https://open.spotify.com/artist/57bPOuNpSjoGRH7MiWtzsd"
      },
      "followers" : {
        "href" : null,
        "total" : 9
      },
      "genres" : [ ],
      "href" : "https://api.spotify.com/v1/artists/57bPOuNpSjoGRH7MiWtzsd",
      "id" : "57bPOuNpSjoGRH7MiWtzsd",
      "images" : [ {
        "height" : 640,
        "url" : "https://i.scdn.co/image/ab67616d0000b2733bc241abbca1e6cb31290b97",
        "width" : 640
      }, {
        "height" : 300,
        "url" : "https://i.scdn.co/image/ab67616d00001e023bc241abbca1e6cb31290b97",
        "width" : 300
      }, {
        "height" : 64,
        "url" : "https://i.scdn.co/image/ab67616d000048513bc241abbca1e6cb31290b97",
        "width" : 64
      } ],
      "name" : "Galaxia 1991",
      "popularity" : 0,
      "type" : "artist",
      "uri" : "spotify:artist:57bPOuNpSjoGRH7MiWtzsd"
    }, {
      "external_urls" : {
        "spotify" : "https://open.spotify.com/artist/218ObvkBPgngtyc8DDDinY"
      },
      "followers" : {
        "href" : null,
        "total" : 0
      },
      "genres" : [ ],
      "href" : "https://api.spotify.com/v1/artists/218ObvkBPgngtyc8DDDinY",
      "id" : "218ObvkBPgngtyc8DDDinY",
      "images" : [ {
        "height" : 640,
        "url" : "https://i.scdn.co/image/ab67616d0000b273976c57c21f2e0e14eceba9a6",
        "width" : 640
      }, {
        "height" : 300,
        "url" : "https://i.scdn.co/image/ab67616d00001e02976c57c21f2e0e14eceba9a6",
        "width" : 300
      }, {
        "height" : 64,
        "url" : "https://i.scdn.co/image/ab67616d00004851976c57c21f2e0e14eceba9a6",
        "width" : 64
      } ],
      "name" : "1991EASTSIDEATLANTYBOYZ",
      "popularity" : 0,
      "type" : "artist",
      "uri" : "spotify:artist:218ObvkBPgngtyc8DDDinY"
    }, {
      "external_urls" : {
        "spotify" : "https://open.spotify.com/artist/1MSLdO5wjHoOVge0F0m0fc"
      },
      "followers" : {
        "href" : null,
        "total" : 0
      },
      "genres" : [ ],
      "href" : "https://api.spotify.com/v1/artists/1MSLdO5wjHoOVge0F0m0fc",
      "id" : "1MSLdO5wjHoOVge0F0m0fc",
      "images" : [ ],
      "name" : "The Spanish Steps - 1991",
      "popularity" : 0,
      "type" : "artist",
      "uri" : "spotify:artist:1MSLdO5wjHoOVge0F0m0fc"
    }, {
      "external_urls" : {
        "spotify" : "https://open.spotify.com/artist/5yVLyQ76yQVvdzONL7tDAw"
      },
      "followers" : {
        "href" : null,
        "total" : 23
      },
      "genres" : [ ],
      "href" : "https://api.spotify.com/v1/artists/5yVLyQ76yQVvdzONL7tDAw",
      "id" : "5yVLyQ76yQVvdzONL7tDAw",
      "images" : [ {
        "height" : 640,
        "url" : "https://i.scdn.co/image/ab6761610000e5eb6c3b96093e5d5465be606f02",
        "width" : 640
      }, {
        "height" : 320,
        "url" : "https://i.scdn.co/image/ab676161000051746c3b96093e5d5465be606f02",
        "width" : 320
      }, {
        "height" : 160,
        "url" : "https://i.scdn.co/image/ab6761610000f1786c3b96093e5d5465be606f02",
        "width" : 160
      } ],
      "name" : "The 1991",
      "popularity" : 0,
      "type" : "artist",
      "uri" : "spotify:artist:5yVLyQ76yQVvdzONL7tDAw"
    }, {
      "external_urls" : {
        "spotify" : "https://open.spotify.com/artist/22tSnGe5ZXUVNLWobiLuNR"
      },
      "followers" : {
        "href" : null,
        "total" : 0
      },
      "genres" : [ ],
      "href" : "https://api.spotify.com/v1/artists/22tSnGe5ZXUVNLWobiLuNR",
      "id" : "22tSnGe5ZXUVNLWobiLuNR",
      "images" : [ ],
      "name" : "Bokonon 1991",
      "popularity" : 0,
      "type" : "artist",
      "uri" : "spotify:artist:22tSnGe5ZXUVNLWobiLuNR"
    }, {
      "external_urls" : {
        "spotify" : "https://open.spotify.com/artist/1fK9UF2pQlCUv9z6HXKEcD"
      },
      "followers" : {
        "href" : null,
        "total" : 1
      },
      "genres" : [ ],
      "href" : "https://api.spotify.com/v1/artists/1fK9UF2pQlCUv9z6HXKEcD",
      "id" : "1fK9UF2pQlCUv9z6HXKEcD",
      "images" : [ {
        "height" : 640,
        "url" : "https://i.scdn.co/image/ab67616d0000b273133fbbeaa4de692f39f0a6db",
        "width" : 640
      }, {
        "height" : 300,
        "url" : "https://i.scdn.co/image/ab67616d00001e02133fbbeaa4de692f39f0a6db",
        "width" : 300
      }, {
        "height" : 64,
        "url" : "https://i.scdn.co/image/ab67616d00004851133fbbeaa4de692f39f0a6db",
        "width" : 64
      } ],
      "name" : "Универсиада 1991",
      "popularity" : 0,
      "type" : "artist",
      "uri" : "spotify:artist:1fK9UF2pQlCUv9z6HXKEcD"
    }, {
      "external_urls" : {
        "spotify" : "https://open.spotify.com/artist/1llFjEDdESJmxokjTTKqWX"
      },
      "followers" : {
        "href" : null,
        "total" : 1
      },
      "genres" : [ ],
      "href" : "https://api.spotify.com/v1/artists/1llFjEDdESJmxokjTTKqWX",
      "id" : "1llFjEDdESJmxokjTTKqWX",
      "images" : [ ],
      "name" : "Grolse Horeca 1991",
      "popularity" : 0,
      "type" : "artist",
      "uri" : "spotify:artist:1llFjEDdESJmxokjTTKqWX"
    }, {
      "external_urls" : {
        "spotify" : "https://open.spotify.com/artist/3YbYgcvahsXcdYHsVt8QvW"
      },
      "followers" : {
        "href" : null,
        "total" : 1
      },
      "genres" : [ ],
      "href" : "https://api.spotify.com/v1/artists/3YbYgcvahsXcdYHsVt8QvW",
      "id" : "3YbYgcvahsXcdYHsVt8QvW",
      "images" : [ {
        "height" : 640,
        "url" : "https://i.scdn.co/image/c6fa53c060ccce65bb9f8a6ffaa2c7a786ca3fd7",
        "width" : 640
      }, {
        "height" : 300,
        "url" : "https://i.scdn.co/image/96476b8fbebaadf3943dfb9adb307b1c10795698",
        "width" : 300
      }, {
        "height" : 64,
        "url" : "https://i.scdn.co/image/055669159ad08bf98867af20e04204472c55c427",
        "width" : 64
      } ],
      "name" : "Circa 1991",
      "popularity" : 0,
      "type" : "artist",
      "uri" : "spotify:artist:3YbYgcvahsXcdYHsVt8QvW"
    }, {
      "external_urls" : {
        "spotify" : "https://open.spotify.com/artist/11RuKSOTInIiED3VPFAOwX"
      },
      "followers" : {
        "href" : null,
        "total" : 179
      },
      "genres" : [ ],
      "href" : "https://api.spotify.com/v1/artists/11RuKSOTInIiED3VPFAOwX",
      "id" : "11RuKSOTInIiED3VPFAOwX",
      "images" : [ {
        "height" : 640,
        "url" : "https://i.scdn.co/image/ab67616d0000b273d6ad2c2c269ad69951a17651",
        "width" : 640
      }, {
        "height" : 300,
        "url" : "https://i.scdn.co/image/ab67616d00001e02d6ad2c2c269ad69951a17651",
        "width" : 300
      }, {
        "height" : 64,
        "url" : "https://i.scdn.co/image/ab67616d00004851d6ad2c2c269ad69951a17651",
        "width" : 64
      } ],
      "name" : "Fury 1991",
      "popularity" : 1,
      "type" : "artist",
      "uri" : "spotify:artist:11RuKSOTInIiED3VPFAOwX"
    }, {
      "external_urls" : {
        "spotify" : "https://open.spotify.com/artist/3iyeOvSTpOP7Cdl8vQqdp0"
      },
      "followers" : {
        "href" : null,
        "total" : 25
      },
      "genres" : [ ],
      "href" : "https://api.spotify.com/v1/artists/3iyeOvSTpOP7Cdl8vQqdp0",
      "id" : "3iyeOvSTpOP7Cdl8vQqdp0",
      "images" : [ {
        "height" : 640,
        "url" : "https://i.scdn.co/image/ab67616d0000b273dcaf2024ff495d835b5aba29",
        "width" : 640
      }, {
        "height" : 300,
        "url" : "https://i.scdn.co/image/ab67616d00001e02dcaf2024ff495d835b5aba29",
        "width" : 300
      }, {
        "height" : 64,
        "url" : "https://i.scdn.co/image/ab67616d00004851dcaf2024ff495d835b5aba29",
        "width" : 64
      } ],
      "name" : "Radd 1991",
      "popularity" : 0,
      "type" : "artist",
      "uri" : "spotify:artist:3iyeOvSTpOP7Cdl8vQqdp0"
    }, {
      "external_urls" : {
        "spotify" : "https://open.spotify.com/artist/1g6lPHl48H9tgmDQkjAWsN"
      },
      "followers" : {
        "href" : null,
        "total" : 0
      },
      "genres" : [ ],
      "href" : "https://api.spotify.com/v1/artists/1g6lPHl48H9tgmDQkjAWsN",
      "id" : "1g6lPHl48H9tgmDQkjAWsN",
      "images" : [ {
        "height" : 640,
        "url" : "https://i.scdn.co/image/ab67616d0000b27364b590193a96fcbd97c0670b",
        "width" : 640
      }, {
        "height" : 300,
        "url" : "https://i.scdn.co/image/ab67616d00001e0264b590193a96fcbd97c0670b",
        "width" : 300
      }, {
        "height" : 64,
        "url" : "https://i.scdn.co/image/ab67616d0000485164b590193a96fcbd97c0670b",
        "width" : 64
      } ],
      "name" : "X-1991",
      "popularity" : 0,
      "type" : "artist",
      "uri" : "spotify:artist:1g6lPHl48H9tgmDQkjAWsN"
    } ],
    "limit" : 20,
    "next" : "https://api.spotify.com/v1/search?query=1991&type=artist&market=US&offset=20&limit=20",
    "offset" : 0,
    "previous" : null,
    "total" : 44
  }
}