{
  "artists" : {
    "href" : "https://api.spotify.com/v1/search?query=ALESSO&type=artist&market=US&offset=0&limit=20",
    "items" : [ {
      "external_urls" : {
        "spotify" : "https://open.spotify.com/artist/4AVFqumd2ogHFlRbKIjp1t"
      },
      "followers" : {
        "href" : null,
        "total" : 3784970
      },
      "genres" : [ "dance pop", "edm", "electro house", "pop", "pop dance", "tropical house" ],
      "href" : "https://api.spotify.com/v1/artists/4AVFqumd2ogHFlRbKIjp1t",
      "id" : "4AVFqumd2ogHFlRbKIjp1t",
      "images" : [ {
        "height" : 640,
        "url" : "https://i.scdn.co/image/ab6761610000e5ebb5712a1a45f469f906023e7f",
        "width" : 640
      }, {
        "height" : 320,
        "url" : "https://i.scdn.co/image/ab67616100005174b5712a1a45f469f906023e7f",
        "width" : 320
      }, {
        "height" : 160,
        "url" : "https://i.scdn.co/image/ab6761610000f178b5712a1a45f469f906023e7f",
        "width" : 160
      } ],
      "name" : "Alesso",
      "popularity" : 80,
      "type" : "artist",
      "uri" : "spotify:artist:4AVFqumd2ogHFlRbKIjp1t"
    }, {
      "external_urls" : {
        "spotify" : "https://open.spotify.com/artist/6izUgEDYxfaxVS5SXzGba5"
      },
      "followers" : {
        "href" : null,
        "total" : 236
      },
      "genres" : [ ],
      "href" : "https://api.spotify.com/v1/artists/6izUgEDYxfaxVS5SXzGba5",
      "id" : "6izUgEDYxfaxVS5SXzGba5",
      "images" : [ {
        "height" : 640,
        "url" : "https://i.scdn.co/image/ab6761610000e5eb14c78f3046f3657edc23c4f1",
        "width" : 640
      }, {
        "height" : 320,
        "url" : "https://i.scdn.co/image/ab6761610000517414c78f3046f3657edc23c4f1",
        "width" : 320
      }, {
        "height" : 160,
        "url" : "https://i.scdn.co/image/ab6761610000f17814c78f3046f3657edc23c4f1",
        "width" : 160
      } ],
      "name" : "Steven Alesso",
      "popularity" : 20,
      "type" : "artist",
      "uri" : "spotify:artist:6izUgEDYxfaxVS5SXzGba5"
    }, {
      "external_urls" : {
        "spotify" : "https://open.spotify.com/artist/1nH6waCfP9ueNy4fEb1GtE"
      },
      "followers" : {
        "href" : null,
        "total" : 20
      },
      "genres" : [ ],
      "href" : "https://api.spotify.com/v1/artists/1nH6waCfP9ueNy4fEb1GtE",
      "id" : "1nH6waCfP9ueNy4fEb1GtE",
      "images" : [ {
        "height" : 640,
        "url" : "https://i.scdn.co/image/ab67616d0000b2730198903fd02680ba3307944c",
        "width" : 640
      }, {
        "height" : 300,
        "url" : "https://i.scdn.co/image/ab67616d00001e020198903fd02680ba3307944c",
        "width" : 300
      }, {
        "height" : 64,
        "url" : "https://i.scdn.co/image/ab67616d000048510198903fd02680ba3307944c",
        "width" : 64
      } ],
      "name" : "Alesson",
      "popularity" : 1,
      "type" : "artist",
      "uri" : "spotify:artist:1nH6waCfP9ueNy4fEb1GtE"
    }, {
      "external_urls" : {
        "spotify" : "https://open.spotify.com/artist/6Q2zZyNXiXS1ldCygzXXJU"
      },
      "followers" : {
        "href" : null,
        "total" : 0
      },
      "genres" : [ ],
      "href" : "https://api.spotify.com/v1/artists/6Q2zZyNXiXS1ldCygzXXJU",
      "id" : "6Q2zZyNXiXS1ldCygzXXJU",
      "images" : [ ],
      "name" : "AlessoFamilyGang",
      "popularity" : 0,
      "type" : "artist",
      "uri" : "spotify:artist:6Q2zZyNXiXS1ldCygzXXJU"
    }, {
      "external_urls" : {
        "spotify" : "https://open.spotify.com/artist/00OzYRHsg7YE03etRy1Niw"
      },
      "followers" : {
        "href" : null,
        "total" : 433
      },
      "genres" : [ ],
      "href" : "https://api.spotify.com/v1/artists/00OzYRHsg7YE03etRy1Niw",
      "id" : "00OzYRHsg7YE03etRy1Niw",
      "images" : [ {
        "height" : 640,
        "url" : "https://i.scdn.co/image/ab67616d0000b2736111d989f92d98a55bf9dbd2",
        "width" : 640
      }, {
        "height" : 300,
        "url" : "https://i.scdn.co/image/ab67616d00001e026111d989f92d98a55bf9dbd2",
        "width" : 300
      }, {
        "height" : 64,
        "url" : "https://i.scdn.co/image/ab67616d000048516111d989f92d98a55bf9dbd2",
        "width" : 64
      } ],
      "name" : "Alesso Dj",
      "popularity" : 2,
      "type" : "artist",
      "uri" : "spotify:artist:00OzYRHsg7YE03etRy1Niw"
    }, {
      "external_urls" : {
        "spotify" : "https://open.spotify.com/artist/2dfGJly4euJ3og9vva2CS9"
      },
      "followers" : {
        "href" : null,
        "total" : 1
      },
      "genres" : [ ],
      "href" : "https://api.spotify.com/v1/artists/2dfGJly4euJ3og9vva2CS9",
      "id" : "2dfGJly4euJ3og9vva2CS9",
      "images" : [ {
        "height" : 640,
        "url" : "https://i.scdn.co/image/ab67616d0000b273733aee51bc5ea0d1ffbf52af",
        "width" : 640
      }, {
        "height" : 300,
        "url" : "https://i.scdn.co/image/ab67616d00001e02733aee51bc5ea0d1ffbf52af",
        "width" : 300
      }, {
        "height" : 64,
        "url" : "https://i.scdn.co/image/ab67616d00004851733aee51bc5ea0d1ffbf52af",
        "width" : 64
      } ],
      "name" : "Alesso",
      "popularity" : 2,
      "type" : "artist",
      "uri" : "spotify:artist:2dfGJly4euJ3og9vva2CS9"
    }, {
      "external_urls" : {
        "spotify" : "https://open.spotify.com/artist/7mKm5o1xWgpPcbKZcWmz1d"
      },
      "followers" : {
        "href" : null,
        "total" : 5
      },
      "genres" : [ ],
      "href" : "https://api.spotify.com/v1/artists/7mKm5o1xWgpPcbKZcWmz1d",
      "id" : "7mKm5o1xWgpPcbKZcWmz1d",
      "images" : [ {
        "height" : 640,
        "url" : "https://i.scdn.co/image/ab67616d0000b2736cf7887fc42ee5bf5fe93ae3",
        "width" : 640
      }, {
        "height" : 300,
        "url" : "https://i.scdn.co/image/ab67616d00001e026cf7887fc42ee5bf5fe93ae3",
        "width" : 300
      }, {
        "height" : 64,
        "url" : "https://i.scdn.co/image/ab67616d000048516cf7887fc42ee5bf5fe93ae3",
        "width" : 64
      } ],
      "name" : "Alesson Porto",
      "popularity" : 0,
      "type" : "artist",
      "uri" : "spotify:artist:7mKm5o1xWgpPcbKZcWmz1d"
    }, {
      "external_urls" : {
        "spotify" : "https://open.spotify.com/artist/59FC6DvCTD1xnqn33H6yca"
      },
      "followers" : {
        "href" : null,
        "total" : 162
      },
      "genres" : [ ],
      "href" : "https://api.spotify.com/v1/artists/59FC6DvCTD1xnqn33H6yca",
      "id" : "59FC6DvCTD1xnqn33H6yca",
      "images" : [ {
        "height" : 640,
        "url" : "https://i.scdn.co/image/ab67616d0000b273cf89d4dbb2e990c18deed812",
        "width" : 640
      }, {
        "height" : 300,
        "url" : "https://i.scdn.co/image/ab67616d00001e02cf89d4dbb2e990c18deed812",
        "width" : 300
      }, {
        "height" : 64,
        "url" : "https://i.scdn.co/image/ab67616d00004851cf89d4dbb2e990c18deed812",
        "width" : 64
      } ],
      "name" : "Alesso Bomba",
      "popularity" : 0,
      "type" : "artist",
      "uri" : "spotify:artist:59FC6DvCTD1xnqn33H6yca"
    }, {
      "external_urls" : {
        "spotify" : "https://open.spotify.com/artist/2VN7QA0qqyrITQfsZBOALK"
      },
      "followers" : {
        "href" : null,
        "total" : 158
      },
      "genres" : [ ],
      "href" : "https://api.spotify.com/v1/artists/2VN7QA0qqyrITQfsZBOALK",
      "id" : "2VN7QA0qqyrITQfsZBOALK",
      "images" : [ ],
      "name" : "Alesso",
      "popularity" : 0,
      "type" : "artist",
      "uri" : "spotify:artist:2VN7QA0qqyrITQfsZBOALK"
    }, {
      "external_urls" : {
        "spotify" : "https://open.spotify.com/artist/7Grhp8QIXzcoOsM8OmcARe"
      },
      "followers" : {
        "href" : null,
        "total" : 1
      },
      "genres" : [ ],
      "href" : "https://api.spotify.com/v1/artists/7Grhp8QIXzcoOsM8OmcARe",
      "id" : "7Grhp8QIXzcoOsM8OmcARe",
      "images" : [ ],
      "name" : "Alesso Family Gang",
      "popularity" : 0,
      "type" : "artist",
      "uri" : "spotify:artist:7Grhp8QIXzcoOsM8OmcARe"
    }, {
      "external_urls" : {
        "spotify" : "https://open.spotify.com/artist/6lrZzLeyzmB1oBvFL5pDRp"
      },
      "followers" : {
        "href" : null,
        "total" : 0
      },
      "genres" : [ ],
      "href" : "https://api.spotify.com/v1/artists/6lrZzLeyzmB1oBvFL5pDRp",
      "id" : "6lrZzLeyzmB1oBvFL5pDRp",
      "images" : [ ],
      "name" : "Alesso Collina",
      "popularity" : 0,
      "type" : "artist",
      "uri" : "spotify:artist:6lrZzLeyzmB1oBvFL5pDRp"
    }, {
      "external_urls" : {
        "spotify" : "https://open.spotify.com/artist/3yGLuSzxUhIDLWmv0Wgzcg"
      },
      "followers" : {
        "href" : null,
        "total" : 2
      },
      "genres" : [ ],
      "href" : "https://api.spotify.com/v1/artists/3yGLuSzxUhIDLWmv0Wgzcg",
      "id" : "3yGLuSzxUhIDLWmv0Wgzcg",
      "images" : [ {
        "height" : 640,
        "url" : "https://i.scdn.co/image/ab67616d0000b273142000bd0b83cc65228a1134",
        "width" : 640
      }, {
        "height" : 300,
        "url" : "https://i.scdn.co/image/ab67616d00001e02142000bd0b83cc65228a1134",
        "width" : 300
      }, {
        "height" : 64,
        "url" : "https://i.scdn.co/image/ab67616d00004851142000bd0b83cc65228a1134",
        "width" : 64
      } ],
      "name" : "Alesson Freire",
      "popularity" : 0,
      "type" : "artist",
      "uri" : "spotify:artist:3yGLuSzxUhIDLWmv0Wgzcg"
    }, {
      "external_urls" : {
        "spotify" : "https://open.spotify.com/artist/3iUK5lQaPs528eovOTHSow"
      },
      "followers" : {
        "href" : null,
        "total" : 0
      },
      "genres" : [ ],
      "href" : "https://api.spotify.com/v1/artists/3iUK5lQaPs528eovOTHSow",
      "id" : "3iUK5lQaPs528eovOTHSow",
      "images" : [ {
        "height" : 640,
        "url" : "https://i.scdn.co/image/ab67616d0000b273332f6ee5f489bb2d734d5c58",
        "width" : 640
      }, {
        "height" : 300,
        "url" : "https://i.scdn.co/image/ab67616d00001e02332f6ee5f489bb2d734d5c58",
        "width" : 300
      }, {
        "height" : 64,
        "url" : "https://i.scdn.co/image/ab67616d00004851332f6ee5f489bb2d734d5c58",
        "width" : 64
      } ],
      "name" : "Alesso Darbonne",
      "popularity" : 0,
      "type" : "artist",
      "uri" : "spotify:artist:3iUK5lQaPs528eovOTHSow"
    }, {
      "external_urls" : {
        "spotify" : "https://open.spotify.com/artist/2DbUpVWP5fAvbMymbLbu6J"
      },
      "followers" : {
        "href" : null,
        "total" : 10
      },
      "genres" : [ ],
      "href" : "https://api.spotify.com/v1/artists/2DbUpVWP5fAvbMymbLbu6J",
      "id" : "2DbUpVWP5fAvbMymbLbu6J",
      "images" : [ {
        "height" : 640,
        "url" : "https://i.scdn.co/image/ab67616d0000b27366d093b550fbd3cc28e6041d",
        "width" : 640
      }, {
        "height" : 300,
        "url" : "https://i.scdn.co/image/ab67616d00001e0266d093b550fbd3cc28e6041d",
        "width" : 300
      }, {
        "height" : 64,
        "url" : "https://i.scdn.co/image/ab67616d0000485166d093b550fbd3cc28e6041d",
        "width" : 64
      } ],
      "name" : "Alesso Guten",
      "popularity" : 0,
      "type" : "artist",
      "uri" : "spotify:artist:2DbUpVWP5fAvbMymbLbu6J"
    }, {
      "external_urls" : {
        "spotify" : "https://open.spotify.com/artist/4e1pN5NpM6YZO7Ozlx9olC"
      },
      "followers" : {
        "href" : null,
        "total" : 0
      },
      "genres" : [ ],
      "href" : "https://api.spotify.com/v1/artists/4e1pN5NpM6YZO7Ozlx9olC",
      "id" : "4e1pN5NpM6YZO7Ozlx9olC",
      "images" : [ ],
      "name" : "Alesso FamilyGang",
      "popularity" : 0,
      "type" : "artist",
      "uri" : "spotify:artist:4e1pN5NpM6YZO7Ozlx9olC"
    }, {
      "external_urls" : {
        "spotify" : "https://open.spotify.com/artist/0lV6u5sGESOOmAZDwfyctJ"
      },
      "followers" : {
        "href" : null,
        "total" : 0
      },
      "genres" : [ ],
      "href" : "https://api.spotify.com/v1/artists/0lV6u5sGESOOmAZDwfyctJ",
      "id" : "0lV6u5sGESOOmAZDwfyctJ",
      "images" : [ ],
      "name" : "Alesso Guten",
      "popularity" : 0,
      "type" : "artist",
      "uri" : "spotify:artist:0lV6u5sGESOOmAZDwfyctJ"
    }, {
      "external_urls" : {
        "spotify" : "https://open.spotify.com/artist/4y3P6H2pjThZp06dFzWcmO"
      },
      "followers" : {
        "href" : null,
        "total" : 0
      },
      "genres" : [ ],
      "href" : "https://api.spotify.com/v1/artists/4y3P6H2pjThZp06dFzWcmO",
      "id" : "4y3P6H2pjThZp06dFzWcmO",
      "images" : [ {
        "height" : 640,
        "url" : "https://i.scdn.co/image/ab67616d0000b2736d7717e336776dfa4e891ebf",
        "width" : 640
      }, {
        "height" : 300,
        "url" : "https://i.scdn.co/image/ab67616d00001e026d7717e336776dfa4e891ebf",
        "width" : 300
      }, {
        "height" : 64,
        "url" : "https://i.scdn.co/image/ab67616d000048516d7717e336776dfa4e891ebf",
        "width" : 64
      } ],
      "name" : "Alesson Wellington Cordeiro",
      "popularity" : 0,
      "type" : "artist",
      "uri" : "spotify:artist:4y3P6H2pjThZp06dFzWcmO"
    }, {
      "external_urls" : {
        "spotify" : "https://open.spotify.com/artist/2owGkL6FIzhNpKisLz48xp"
      },
      "followers" : {
        "href" : null,
        "total" : 9
      },
      "genres" : [ ],
      "href" : "https://api.spotify.com/v1/artists/2owGkL6FIzhNpKisLz48xp",
      "id" : "2owGkL6FIzhNpKisLz48xp",
      "images" : [ {
        "height" : 640,
        "url" : "https://i.scdn.co/image/ab67616d0000b273052ead5c10c121270b20de1b",
        "width" : 640
      }, {
        "height" : 300,
        "url" : "https://i.scdn.co/image/ab67616d00001e02052ead5c10c121270b20de1b",
        "width" : 300
      }, {
        "height" : 64,
        "url" : "https://i.scdn.co/image/ab67616d00004851052ead5c10c121270b20de1b",
        "width" : 64
      } ],
      "name" : "Alesso Agardh",
      "popularity" : 0,
      "type" : "artist",
      "uri" : "spotify:artist:2owGkL6FIzhNpKisLz48xp"
    }, {
      "external_urls" : {
        "spotify" : "https://open.spotify.com/artist/7t5ga8MSkmjWlJ4S81tZM0"
      },
      "followers" : {
        "href" : null,
        "total" : 11
      },
      "genres" : [ ],
      "href" : "https://api.spotify.com/v1/artists/7t5ga8MSkmjWlJ4S81tZM0",
      "id" : "7t5ga8MSkmjWlJ4S81tZM0",
      "images" : [ {
        "height" : 640,
        "url" : "https://i.scdn.co/image/ab6761610000e5ebfe977363b7c6eb1cb1e7ea88",
        "width" : 640
      }, {
        "height" : 320,
        "url" : "https://i.scdn.co/image/ab67616100005174fe977363b7c6eb1cb1e7ea88",
        "width" : 320
      }, {
        "height" : 160,
        "url" : "https://i.scdn.co/image/ab6761610000f178fe977363b7c6eb1cb1e7ea88",
        "width" : 160
      } ],
      "name" : "Franco Alesso",
      "popularity" : 0,
      "type" : "artist",
      "uri" : "spotify:artist:7t5ga8MSkmjWlJ4S81tZM0"
    }, {
      "external_urls" : {
        "spotify" : "https://open.spotify.com/artist/43hGNjnV90rqTHKYrlObWt"
      },
      "followers" : {
        "href" : null,
        "total" : 0
      },
      "genres" : [ ],
      "href" : "https://api.spotify.com/v1/artists/43hGNjnV90rqTHKYrlObWt",
      "id" : "43hGNjnV90rqTHKYrlObWt",
      "images" : [ ],
      "name" : "Cataldo Alesso",
      "popularity" : 0,
      "type" : "artist",
      "uri" : "spotify:artist:43hGNjnV90rqTHKYrlObWt"
    } ],
    "limit" : 20,
    "next" : "https://api.spotify.com/v1/search?query=ALESSO&type=artist&market=US&offset=20&limit=20",
    "offset" : 0,
    "previous" : null,
    "total" : 41
  }
}