{
  "artists" : {
    "href" : "https://api.spotify.com/v1/search?query=ALY+&type=artist&market=US&offset=0&limit=20",
    "items" : [ {
      "external_urls" : {
        "spotify" : "https://open.spotify.com/artist/5wugb0kaq0J6nyQ5Xgd17i"
      },
      "followers" : {
        "href" : null,
        "total" : 559595
      },
      "genres" : [ "dance pop", "electropop", "girl group", "indie pop", "indie poptimism", "pop", "post-teen pop" ],
      "href" : "https://api.spotify.com/v1/artists/5wugb0kaq0J6nyQ5Xgd17i",
      "id" : "5wugb0kaq0J6nyQ5Xgd17i",
      "images" : [ {
        "height" : 640,
        "url" : "https://i.scdn.co/image/ab6761610000e5ebe11496afea5d159f0252e7f2",
        "width" : 640
      }, {
        "height" : 320,
        "url" : "https://i.scdn.co/image/ab67616100005174e11496afea5d159f0252e7f2",
        "width" : 320
      }, {
        "height" : 160,
        "url" : "https://i.scdn.co/image/ab6761610000f178e11496afea5d159f0252e7f2",
        "width" : 160
      } ],
      "name" : "Aly & AJ",
      "popularity" : 65,
      "type" : "artist",
      "uri" : "spotify:artist:5wugb0kaq0J6nyQ5Xgd17i"
    }, {
      "external_urls" : {
        "spotify" : "https://open.spotify.com/artist/5ZuWrQzWBgJXbAfcLx2WTL"
      },
      "followers" : {
        "href" : null,
        "total" : 124316
      },
      "genres" : [ "post-teen pop" ],
      "href" : "https://api.spotify.com/v1/artists/5ZuWrQzWBgJXbAfcLx2WTL",
      "id" : "5ZuWrQzWBgJXbAfcLx2WTL",
      "images" : [ {
        "height" : 640,
        "url" : "https://i.scdn.co/image/ab6761610000e5eba47eb5960a7dec481e9cfba1",
        "width" : 640
      }, {
        "height" : 320,
        "url" : "https://i.scdn.co/image/ab67616100005174a47eb5960a7dec481e9cfba1",
        "width" : 320
      }, {
        "height" : 160,
        "url" : "https://i.scdn.co/image/ab6761610000f178a47eb5960a7dec481e9cfba1",
        "width" : 160
      } ],
      "name" : "Alyson Stoner",
      "popularity" : 58,
      "type" : "artist",
      "uri" : "spotify:artist:5ZuWrQzWBgJXbAfcLx2WTL"
    }, {
      "external_urls" : {
        "spotify" : "https://open.spotify.com/artist/2hL1EouqXLtBEB6JKnPF0h"
      },
      "followers" : {
        "href" : null,
        "total" : 151778
      },
      "genres" : [ "progressive house", "progressive trance", "trance", "uplifting trance" ],
      "href" : "https://api.spotify.com/v1/artists/2hL1EouqXLtBEB6JKnPF0h",
      "id" : "2hL1EouqXLtBEB6JKnPF0h",
      "images" : [ {
        "height" : 640,
        "url" : "https://i.scdn.co/image/ab6761610000e5eb708c6be46aed23f2de0b157d",
        "width" : 640
      }, {
        "height" : 320,
        "url" : "https://i.scdn.co/image/ab67616100005174708c6be46aed23f2de0b157d",
        "width" : 320
      }, {
        "height" : 160,
        "url" : "https://i.scdn.co/image/ab6761610000f178708c6be46aed23f2de0b157d",
        "width" : 160
      } ],
      "name" : "Aly & Fila",
      "popularity" : 54,
      "type" : "artist",
      "uri" : "spotify:artist:2hL1EouqXLtBEB6JKnPF0h"
    }, {
      "external_urls" : {
        "spotify" : "https://open.spotify.com/artist/6h6jp2XsW3RvXdQs7Pfu4m"
      },
      "followers" : {
        "href" : null,
        "total" : 5777
      },
      "genres" : [ "uk alternative pop" ],
      "href" : "https://api.spotify.com/v1/artists/6h6jp2XsW3RvXdQs7Pfu4m",
      "id" : "6h6jp2XsW3RvXdQs7Pfu4m",
      "images" : [ {
        "height" : 640,
        "url" : "https://i.scdn.co/image/ab6761610000e5ebf6266e5e1ce10d36a0519bd5",
        "width" : 640
      }, {
        "height" : 320,
        "url" : "https://i.scdn.co/image/ab67616100005174f6266e5e1ce10d36a0519bd5",
        "width" : 320
      }, {
        "height" : 160,
        "url" : "https://i.scdn.co/image/ab6761610000f178f6266e5e1ce10d36a0519bd5",
        "width" : 160
      } ],
      "name" : "ALYSS",
      "popularity" : 51,
      "type" : "artist",
      "uri" : "spotify:artist:6h6jp2XsW3RvXdQs7Pfu4m"
    }, {
      "external_urls" : {
        "spotify" : "https://open.spotify.com/artist/6okAv2ACUPrUrwux2B17Rc"
      },
      "followers" : {
        "href" : null,
        "total" : 51600
      },
      "genres" : [ "canadian pop" ],
      "href" : "https://api.spotify.com/v1/artists/6okAv2ACUPrUrwux2B17Rc",
      "id" : "6okAv2ACUPrUrwux2B17Rc",
      "images" : [ {
        "height" : 640,
        "url" : "https://i.scdn.co/image/ab6761610000e5ebd571e325b19c1c17b654a1d0",
        "width" : 640
      }, {
        "height" : 320,
        "url" : "https://i.scdn.co/image/ab67616100005174d571e325b19c1c17b654a1d0",
        "width" : 320
      }, {
        "height" : 160,
        "url" : "https://i.scdn.co/image/ab6761610000f178d571e325b19c1c17b654a1d0",
        "width" : 160
      } ],
      "name" : "Alyssa Reid",
      "popularity" : 49,
      "type" : "artist",
      "uri" : "spotify:artist:6okAv2ACUPrUrwux2B17Rc"
    }, {
      "external_urls" : {
        "spotify" : "https://open.spotify.com/artist/3D1IyJznpDnWnnFrzjuWnh"
      },
      "followers" : {
        "href" : null,
        "total" : 33140
      },
      "genres" : [ "acoustic pop", "folk-pop", "indie folk", "indiecoustica", "stomp and holler" ],
      "href" : "https://api.spotify.com/v1/artists/3D1IyJznpDnWnnFrzjuWnh",
      "id" : "3D1IyJznpDnWnnFrzjuWnh",
      "images" : [ {
        "height" : 640,
        "url" : "https://i.scdn.co/image/ab6761610000e5ebc305e3a5a7b3ad7aed52521c",
        "width" : 640
      }, {
        "height" : 320,
        "url" : "https://i.scdn.co/image/ab67616100005174c305e3a5a7b3ad7aed52521c",
        "width" : 320
      }, {
        "height" : 160,
        "url" : "https://i.scdn.co/image/ab6761610000f178c305e3a5a7b3ad7aed52521c",
        "width" : 160
      } ],
      "name" : "Ivan & Alyosha",
      "popularity" : 44,
      "type" : "artist",
      "uri" : "spotify:artist:3D1IyJznpDnWnnFrzjuWnh"
    }, {
      "external_urls" : {
        "spotify" : "https://open.spotify.com/artist/279ZItWl3nzCaO4SJJdzAN"
      },
      "followers" : {
        "href" : null,
        "total" : 2910
      },
      "genres" : [ "modern bollywood" ],
      "href" : "https://api.spotify.com/v1/artists/279ZItWl3nzCaO4SJJdzAN",
      "id" : "279ZItWl3nzCaO4SJJdzAN",
      "images" : [ {
        "height" : 640,
        "url" : "https://i.scdn.co/image/ab67616d0000b27328d609d7c650e4449e066ebf",
        "width" : 640
      }, {
        "height" : 300,
        "url" : "https://i.scdn.co/image/ab67616d00001e0228d609d7c650e4449e066ebf",
        "width" : 300
      }, {
        "height" : 64,
        "url" : "https://i.scdn.co/image/ab67616d0000485128d609d7c650e4449e066ebf",
        "width" : 64
      } ],
      "name" : "Alyssa Mendonsa",
      "popularity" : 56,
      "type" : "artist",
      "uri" : "spotify:artist:279ZItWl3nzCaO4SJJdzAN"
    }, {
      "external_urls" : {
        "spotify" : "https://open.spotify.com/artist/01CktpdDnrnnfx3wKMbnPT"
      },
      "followers" : {
        "href" : null,
        "total" : 23
      },
      "genres" : [ ],
      "href" : "https://api.spotify.com/v1/artists/01CktpdDnrnnfx3wKMbnPT",
      "id" : "01CktpdDnrnnfx3wKMbnPT",
      "images" : [ {
        "height" : 640,
        "url" : "https://i.scdn.co/image/ab67616d0000b2737327cc5d648186debbf0012e",
        "width" : 640
      }, {
        "height" : 300,
        "url" : "https://i.scdn.co/image/ab67616d00001e027327cc5d648186debbf0012e",
        "width" : 300
      }, {
        "height" : 64,
        "url" : "https://i.scdn.co/image/ab67616d000048517327cc5d648186debbf0012e",
        "width" : 64
      } ],
      "name" : "Shel Alyse",
      "popularity" : 43,
      "type" : "artist",
      "uri" : "spotify:artist:01CktpdDnrnnfx3wKMbnPT"
    }, {
      "external_urls" : {
        "spotify" : "https://open.spotify.com/artist/1bZnA1Sap0jCKey1L6683Z"
      },
      "followers" : {
        "href" : null,
        "total" : 24
      },
      "genres" : [ ],
      "href" : "https://api.spotify.com/v1/artists/1bZnA1Sap0jCKey1L6683Z",
      "id" : "1bZnA1Sap0jCKey1L6683Z",
      "images" : [ {
        "height" : 640,
        "url" : "https://i.scdn.co/image/ab67616d0000b273721436ef39908fbe411eb839",
        "width" : 640
      }, {
        "height" : 300,
        "url" : "https://i.scdn.co/image/ab67616d00001e02721436ef39908fbe411eb839",
        "width" : 300
      }, {
        "height" : 64,
        "url" : "https://i.scdn.co/image/ab67616d00004851721436ef39908fbe411eb839",
        "width" : 64
      } ],
      "name" : "Alysha Joseph",
      "popularity" : 35,
      "type" : "artist",
      "uri" : "spotify:artist:1bZnA1Sap0jCKey1L6683Z"
    }, {
      "external_urls" : {
        "spotify" : "https://open.spotify.com/artist/4cS8r9JlwhqLafUWAXkzHx"
      },
      "followers" : {
        "href" : null,
        "total" : 1914
      },
      "genres" : [ ],
      "href" : "https://api.spotify.com/v1/artists/4cS8r9JlwhqLafUWAXkzHx",
      "id" : "4cS8r9JlwhqLafUWAXkzHx",
      "images" : [ {
        "height" : 640,
        "url" : "https://i.scdn.co/image/ab6761610000e5ebabbdcbf7cbabcb05f57e0013",
        "width" : 640
      }, {
        "height" : 320,
        "url" : "https://i.scdn.co/image/ab67616100005174abbdcbf7cbabcb05f57e0013",
        "width" : 320
      }, {
        "height" : 160,
        "url" : "https://i.scdn.co/image/ab6761610000f178abbdcbf7cbabcb05f57e0013",
        "width" : 160
      } ],
      "name" : "Alys",
      "popularity" : 39,
      "type" : "artist",
      "uri" : "spotify:artist:4cS8r9JlwhqLafUWAXkzHx"
    }, {
      "external_urls" : {
        "spotify" : "https://open.spotify.com/artist/1p2RVv2wjq7aDQ6HPsjVgd"
      },
      "followers" : {
        "href" : null,
        "total" : 141
      },
      "genres" : [ ],
      "href" : "https://api.spotify.com/v1/artists/1p2RVv2wjq7aDQ6HPsjVgd",
      "id" : "1p2RVv2wjq7aDQ6HPsjVgd",
      "images" : [ {
        "height" : 640,
        "url" : "https://i.scdn.co/image/ab6761610000e5eb4c7b6e461afc2f095d2603f0",
        "width" : 640
      }, {
        "height" : 320,
        "url" : "https://i.scdn.co/image/ab676161000051744c7b6e461afc2f095d2603f0",
        "width" : 320
      }, {
        "height" : 160,
        "url" : "https://i.scdn.co/image/ab6761610000f1784c7b6e461afc2f095d2603f0",
        "width" : 160
      } ],
      "name" : "Alys Good",
      "popularity" : 37,
      "type" : "artist",
      "uri" : "spotify:artist:1p2RVv2wjq7aDQ6HPsjVgd"
    }, {
      "external_urls" : {
        "spotify" : "https://open.spotify.com/artist/4ZCLW0wjXKywrk4nB5XENP"
      },
      "followers" : {
        "href" : null,
        "total" : 6148
      },
      "genres" : [ "ballet class" ],
      "href" : "https://api.spotify.com/v1/artists/4ZCLW0wjXKywrk4nB5XENP",
      "id" : "4ZCLW0wjXKywrk4nB5XENP",
      "images" : [ {
        "height" : 640,
        "url" : "https://i.scdn.co/image/ab67616d0000b273f36dc9b7bd16b9fed903a843",
        "width" : 640
      }, {
        "height" : 300,
        "url" : "https://i.scdn.co/image/ab67616d00001e02f36dc9b7bd16b9fed903a843",
        "width" : 300
      }, {
        "height" : 64,
        "url" : "https://i.scdn.co/image/ab67616d00004851f36dc9b7bd16b9fed903a843",
        "width" : 64
      } ],
      "name" : "Aly Tejas",
      "popularity" : 45,
      "type" : "artist",
      "uri" : "spotify:artist:4ZCLW0wjXKywrk4nB5XENP"
    }, {
      "external_urls" : {
        "spotify" : "https://open.spotify.com/artist/2ic3GGGmkixOZP4qnakSA8"
      },
      "followers" : {
        "href" : null,
        "total" : 48169
      },
      "genres" : [ "ukrainian hip hop", "ukrainian pop", "ukrainian rock" ],
      "href" : "https://api.spotify.com/v1/artists/2ic3GGGmkixOZP4qnakSA8",
      "id" : "2ic3GGGmkixOZP4qnakSA8",
      "images" : [ {
        "height" : 640,
        "url" : "https://i.scdn.co/image/ab6761610000e5ebb951d2a8f6e07420fc64a791",
        "width" : 640
      }, {
        "height" : 320,
        "url" : "https://i.scdn.co/image/ab67616100005174b951d2a8f6e07420fc64a791",
        "width" : 320
      }, {
        "height" : 160,
        "url" : "https://i.scdn.co/image/ab6761610000f178b951d2a8f6e07420fc64a791",
        "width" : 160
      } ],
      "name" : "alyona alyona",
      "popularity" : 48,
      "type" : "artist",
      "uri" : "spotify:artist:2ic3GGGmkixOZP4qnakSA8"
    }, {
      "external_urls" : {
        "spotify" : "https://open.spotify.com/artist/25wh2sZ8y8AkKSW9m7jIGC"
      },
      "followers" : {
        "href" : null,
        "total" : 16159
      },
      "genres" : [ "gen z singer-songwriter" ],
      "href" : "https://api.spotify.com/v1/artists/25wh2sZ8y8AkKSW9m7jIGC",
      "id" : "25wh2sZ8y8AkKSW9m7jIGC",
      "images" : [ {
        "height" : 640,
        "url" : "https://i.scdn.co/image/ab6761610000e5eb73ad5c6e2672f258e3ee70a0",
        "width" : 640
      }, {
        "height" : 320,
        "url" : "https://i.scdn.co/image/ab6761610000517473ad5c6e2672f258e3ee70a0",
        "width" : 320
      }, {
        "height" : 160,
        "url" : "https://i.scdn.co/image/ab6761610000f17873ad5c6e2672f258e3ee70a0",
        "width" : 160
      } ],
      "name" : "alybob",
      "popularity" : 35,
      "type" : "artist",
      "uri" : "spotify:artist:25wh2sZ8y8AkKSW9m7jIGC"
    }, {
      "external_urls" : {
        "spotify" : "https://open.spotify.com/artist/31P1IMaJH0mI1pvB9jATHB"
      },
      "followers" : {
        "href" : null,
        "total" : 3995
      },
      "genres" : [ ],
      "href" : "https://api.spotify.com/v1/artists/31P1IMaJH0mI1pvB9jATHB",
      "id" : "31P1IMaJH0mI1pvB9jATHB",
      "images" : [ {
        "height" : 640,
        "url" : "https://i.scdn.co/image/ab6761610000e5ebf5437332fed3dc4c197d31ba",
        "width" : 640
      }, {
        "height" : 320,
        "url" : "https://i.scdn.co/image/ab67616100005174f5437332fed3dc4c197d31ba",
        "width" : 320
      }, {
        "height" : 160,
        "url" : "https://i.scdn.co/image/ab6761610000f178f5437332fed3dc4c197d31ba",
        "width" : 160
      } ],
      "name" : "Alyssa Bonagura",
      "popularity" : 32,
      "type" : "artist",
      "uri" : "spotify:artist:31P1IMaJH0mI1pvB9jATHB"
    }, {
      "external_urls" : {
        "spotify" : "https://open.spotify.com/artist/1IBDfeAuKWGg435csFT4rY"
      },
      "followers" : {
        "href" : null,
        "total" : 6375
      },
      "genres" : [ "quiet storm", "urban contemporary" ],
      "href" : "https://api.spotify.com/v1/artists/1IBDfeAuKWGg435csFT4rY",
      "id" : "1IBDfeAuKWGg435csFT4rY",
      "images" : [ {
        "height" : 1156,
        "url" : "https://i.scdn.co/image/6e5100dd18def735fbe4966cefa7b0fbbfb011da",
        "width" : 1000
      }, {
        "height" : 740,
        "url" : "https://i.scdn.co/image/3d03f8ce1fe94148e3cd27ed276ca25f99cef3ab",
        "width" : 640
      }, {
        "height" : 231,
        "url" : "https://i.scdn.co/image/1e8a338a3dfa3c62ecdc585a50ac3a70d5c42bea",
        "width" : 200
      }, {
        "height" : 74,
        "url" : "https://i.scdn.co/image/a1e2c89ed02df57bbe807a1d8d9cd147268eaf55",
        "width" : 64
      } ],
      "name" : "Alyson Williams",
      "popularity" : 31,
      "type" : "artist",
      "uri" : "spotify:artist:1IBDfeAuKWGg435csFT4rY"
    }, {
      "external_urls" : {
        "spotify" : "https://open.spotify.com/artist/4gxmaAX3cWO9PUVmEYVAhd"
      },
      "followers" : {
        "href" : null,
        "total" : 6565
      },
      "genres" : [ ],
      "href" : "https://api.spotify.com/v1/artists/4gxmaAX3cWO9PUVmEYVAhd",
      "id" : "4gxmaAX3cWO9PUVmEYVAhd",
      "images" : [ {
        "height" : 640,
        "url" : "https://i.scdn.co/image/ab6761610000e5eb11cc802639031e574262c986",
        "width" : 640
      }, {
        "height" : 320,
        "url" : "https://i.scdn.co/image/ab6761610000517411cc802639031e574262c986",
        "width" : 320
      }, {
        "height" : 160,
        "url" : "https://i.scdn.co/image/ab6761610000f17811cc802639031e574262c986",
        "width" : 160
      } ],
      "name" : "Alyx Ander",
      "popularity" : 40,
      "type" : "artist",
      "uri" : "spotify:artist:4gxmaAX3cWO9PUVmEYVAhd"
    }, {
      "external_urls" : {
        "spotify" : "https://open.spotify.com/artist/7m9RH1V73dYjGv8RgGP39c"
      },
      "followers" : {
        "href" : null,
        "total" : 1237116
      },
      "genres" : [ "russian alt pop", "russian indie" ],
      "href" : "https://api.spotify.com/v1/artists/7m9RH1V73dYjGv8RgGP39c",
      "id" : "7m9RH1V73dYjGv8RgGP39c",
      "images" : [ {
        "height" : 640,
        "url" : "https://i.scdn.co/image/ab6761610000e5eb888f4ef8168f951cdf792c17",
        "width" : 640
      }, {
        "height" : 320,
        "url" : "https://i.scdn.co/image/ab67616100005174888f4ef8168f951cdf792c17",
        "width" : 320
      }, {
        "height" : 160,
        "url" : "https://i.scdn.co/image/ab6761610000f178888f4ef8168f951cdf792c17",
        "width" : 160
      } ],
      "name" : "алёна швец.",
      "popularity" : 68,
      "type" : "artist",
      "uri" : "spotify:artist:7m9RH1V73dYjGv8RgGP39c"
    }, {
      "external_urls" : {
        "spotify" : "https://open.spotify.com/artist/4MnBfIdylI5EASiTCsNA7r"
      },
      "followers" : {
        "href" : null,
        "total" : 3516
      },
      "genres" : [ "classic house", "garage house" ],
      "href" : "https://api.spotify.com/v1/artists/4MnBfIdylI5EASiTCsNA7r",
      "id" : "4MnBfIdylI5EASiTCsNA7r",
      "images" : [ {
        "height" : 300,
        "url" : "https://i.scdn.co/image/7950bcf8c899e223f059a90fd640aa99148b45f3",
        "width" : 347
      }, {
        "height" : 173,
        "url" : "https://i.scdn.co/image/ce07aee0d1860497faad6a3087211acdce02fe80",
        "width" : 200
      }, {
        "height" : 55,
        "url" : "https://i.scdn.co/image/9d1112b8909cbad6ed2450859938a10ed80b2f45",
        "width" : 64
      } ],
      "name" : "Aly-Us",
      "popularity" : 33,
      "type" : "artist",
      "uri" : "spotify:artist:4MnBfIdylI5EASiTCsNA7r"
    }, {
      "external_urls" : {
        "spotify" : "https://open.spotify.com/artist/2Rt01SKPHcPjFVzApytiow"
      },
      "followers" : {
        "href" : null,
        "total" : 1295
      },
      "genres" : [ ],
      "href" : "https://api.spotify.com/v1/artists/2Rt01SKPHcPjFVzApytiow",
      "id" : "2Rt01SKPHcPjFVzApytiow",
      "images" : [ {
        "height" : 640,
        "url" : "https://i.scdn.co/image/ab67616d0000b273a18aebcb55b96047046613f7",
        "width" : 640
      }, {
        "height" : 300,
        "url" : "https://i.scdn.co/image/ab67616d00001e02a18aebcb55b96047046613f7",
        "width" : 300
      }, {
        "height" : 64,
        "url" : "https://i.scdn.co/image/ab67616d00004851a18aebcb55b96047046613f7",
        "width" : 64
      } ],
      "name" : "Alynda Segarra",
      "popularity" : 30,
      "type" : "artist",
      "uri" : "spotify:artist:2Rt01SKPHcPjFVzApytiow"
    } ],
    "limit" : 20,
    "next" : "https://api.spotify.com/v1/search?query=ALY+&type=artist&market=US&offset=20&limit=20",
    "offset" : 0,
    "previous" : null,
    "total" : 2639
  }
}