{
  "artists" : {
    "href" : "https://api.spotify.com/v1/search?query=KREAM&type=artist&market=US&offset=0&limit=20",
    "items" : [ {
      "external_urls" : {
        "spotify" : "https://open.spotify.com/artist/0DdDnziut7wOo6cAYWVZC5"
      },
      "followers" : {
        "href" : null,
        "total" : 194326
      },
      "genres" : [ "dance pop", "deep house", "edm", "electro house", "house", "pop dance", "pop edm", "tropical house" ],
      "href" : "https://api.spotify.com/v1/artists/0DdDnziut7wOo6cAYWVZC5",
      "id" : "0DdDnziut7wOo6cAYWVZC5",
      "images" : [ {
        "height" : 640,
        "url" : "https://i.scdn.co/image/ab6761610000e5ebb81a5f8e567a98dcf30fbc79",
        "width" : 640
      }, {
        "height" : 320,
        "url" : "https://i.scdn.co/image/ab67616100005174b81a5f8e567a98dcf30fbc79",
        "width" : 320
      }, {
        "height" : 160,
        "url" : "https://i.scdn.co/image/ab6761610000f178b81a5f8e567a98dcf30fbc79",
        "width" : 160
      } ],
      "name" : "KREAM",
      "popularity" : 68,
      "type" : "artist",
      "uri" : "spotify:artist:0DdDnziut7wOo6cAYWVZC5"
    }, {
      "external_urls" : {
        "spotify" : "https://open.spotify.com/artist/6xS5PpBWaVYraexEkEjjXv"
      },
      "followers" : {
        "href" : null,
        "total" : 397410
      },
      "genres" : [ "hip hop", "houston rap", "melodic rap", "pop rap", "rap", "southern hip hop", "trap", "underground hip hop", "vapor trap" ],
      "href" : "https://api.spotify.com/v1/artists/6xS5PpBWaVYraexEkEjjXv",
      "id" : "6xS5PpBWaVYraexEkEjjXv",
      "images" : [ {
        "height" : 640,
        "url" : "https://i.scdn.co/image/ab6761610000e5ebda1fb9f98253581afbc6ce23",
        "width" : 640
      }, {
        "height" : 320,
        "url" : "https://i.scdn.co/image/ab67616100005174da1fb9f98253581afbc6ce23",
        "width" : 320
      }, {
        "height" : 160,
        "url" : "https://i.scdn.co/image/ab6761610000f178da1fb9f98253581afbc6ce23",
        "width" : 160
      } ],
      "name" : "Maxo Kream",
      "popularity" : 64,
      "type" : "artist",
      "uri" : "spotify:artist:6xS5PpBWaVYraexEkEjjXv"
    }, {
      "external_urls" : {
        "spotify" : "https://open.spotify.com/artist/3VrAdkRvMBU7JxPURFda9l"
      },
      "followers" : {
        "href" : null,
        "total" : 12248
      },
      "genres" : [ "korean city pop" ],
      "href" : "https://api.spotify.com/v1/artists/3VrAdkRvMBU7JxPURFda9l",
      "id" : "3VrAdkRvMBU7JxPURFda9l",
      "images" : [ {
        "height" : 640,
        "url" : "https://i.scdn.co/image/ab67616d0000b2730ceb00e6baf1f0df1c17db82",
        "width" : 640
      }, {
        "height" : 300,
        "url" : "https://i.scdn.co/image/ab67616d00001e020ceb00e6baf1f0df1c17db82",
        "width" : 300
      }, {
        "height" : 64,
        "url" : "https://i.scdn.co/image/ab67616d000048510ceb00e6baf1f0df1c17db82",
        "width" : 64
      } ],
      "name" : "KREAM",
      "popularity" : 25,
      "type" : "artist",
      "uri" : "spotify:artist:3VrAdkRvMBU7JxPURFda9l"
    }, {
      "external_urls" : {
        "spotify" : "https://open.spotify.com/artist/2CrFSerN5iFdm8DQAmtV83"
      },
      "followers" : {
        "href" : null,
        "total" : 28
      },
      "genres" : [ ],
      "href" : "https://api.spotify.com/v1/artists/2CrFSerN5iFdm8DQAmtV83",
      "id" : "2CrFSerN5iFdm8DQAmtV83",
      "images" : [ {
        "height" : 640,
        "url" : "https://i.scdn.co/image/ab67616d0000b27354b0d0246dd5f0e4b9b3753f",
        "width" : 640
      }, {
        "height" : 300,
        "url" : "https://i.scdn.co/image/ab67616d00001e0254b0d0246dd5f0e4b9b3753f",
        "width" : 300
      }, {
        "height" : 64,
        "url" : "https://i.scdn.co/image/ab67616d0000485154b0d0246dd5f0e4b9b3753f",
        "width" : 64
      } ],
      "name" : "KREAM",
      "popularity" : 1,
      "type" : "artist",
      "uri" : "spotify:artist:2CrFSerN5iFdm8DQAmtV83"
    }, {
      "external_urls" : {
        "spotify" : "https://open.spotify.com/artist/6CUkyrWR8wuW1pTaC65FcO"
      },
      "followers" : {
        "href" : null,
        "total" : 47
      },
      "genres" : [ ],
      "href" : "https://api.spotify.com/v1/artists/6CUkyrWR8wuW1pTaC65FcO",
      "id" : "6CUkyrWR8wuW1pTaC65FcO",
      "images" : [ {
        "height" : 640,
        "url" : "https://i.scdn.co/image/ab67616d0000b273fd0066228a0d952defde6f21",
        "width" : 640
      }, {
        "height" : 300,
        "url" : "https://i.scdn.co/image/ab67616d00001e02fd0066228a0d952defde6f21",
        "width" : 300
      }, {
        "height" : 64,
        "url" : "https://i.scdn.co/image/ab67616d00004851fd0066228a0d952defde6f21",
        "width" : 64
      } ],
      "name" : "K'ream",
      "popularity" : 8,
      "type" : "artist",
      "uri" : "spotify:artist:6CUkyrWR8wuW1pTaC65FcO"
    }, {
      "external_urls" : {
        "spotify" : "https://open.spotify.com/artist/5gTgkMwqg3AfEh01cx897m"
      },
      "followers" : {
        "href" : null,
        "total" : 1674
      },
      "genres" : [ ],
      "href" : "https://api.spotify.com/v1/artists/5gTgkMwqg3AfEh01cx897m",
      "id" : "5gTgkMwqg3AfEh01cx897m",
      "images" : [ {
        "height" : 640,
        "url" : "https://i.scdn.co/image/ab6761610000e5eb251169a150c7a4ed64dc3dc4",
        "width" : 640
      }, {
        "height" : 320,
        "url" : "https://i.scdn.co/image/ab67616100005174251169a150c7a4ed64dc3dc4",
        "width" : 320
      }, {
        "height" : 160,
        "url" : "https://i.scdn.co/image/ab6761610000f178251169a150c7a4ed64dc3dc4",
        "width" : 160
      } ],
      "name" : "K:ream",
      "popularity" : 23,
      "type" : "artist",
      "uri" : "spotify:artist:5gTgkMwqg3AfEh01cx897m"
    }, {
      "external_urls" : {
        "spotify" : "https://open.spotify.com/artist/3760tzdG8YsHuVJj9YIsCp"
      },
      "followers" : {
        "href" : null,
        "total" : 0
      },
      "genres" : [ ],
      "href" : "https://api.spotify.com/v1/artists/3760tzdG8YsHuVJj9YIsCp",
      "id" : "3760tzdG8YsHuVJj9YIsCp",
      "images" : [ ],
      "name" : "KREAM",
      "popularity" : 0,
      "type" : "artist",
      "uri" : "spotify:artist:3760tzdG8YsHuVJj9YIsCp"
    }, {
      "external_urls" : {
        "spotify" : "https://open.spotify.com/artist/1K2VmkPhoOjYb538evXeYp"
      },
      "followers" : {
        "href" : null,
        "total" : 214
      },
      "genres" : [ ],
      "href" : "https://api.spotify.com/v1/artists/1K2VmkPhoOjYb538evXeYp",
      "id" : "1K2VmkPhoOjYb538evXeYp",
      "images" : [ {
        "height" : 640,
        "url" : "https://i.scdn.co/image/ab6761610000e5eb73637611ffc68a1605c56e7d",
        "width" : 640
      }, {
        "height" : 320,
        "url" : "https://i.scdn.co/image/ab6761610000517473637611ffc68a1605c56e7d",
        "width" : 320
      }, {
        "height" : 160,
        "url" : "https://i.scdn.co/image/ab6761610000f17873637611ffc68a1605c56e7d",
        "width" : 160
      } ],
      "name" : "Kream",
      "popularity" : 7,
      "type" : "artist",
      "uri" : "spotify:artist:1K2VmkPhoOjYb538evXeYp"
    }, {
      "external_urls" : {
        "spotify" : "https://open.spotify.com/artist/177Drl1M8gAQmEuDiS0rxZ"
      },
      "followers" : {
        "href" : null,
        "total" : 14
      },
      "genres" : [ ],
      "href" : "https://api.spotify.com/v1/artists/177Drl1M8gAQmEuDiS0rxZ",
      "id" : "177Drl1M8gAQmEuDiS0rxZ",
      "images" : [ {
        "height" : 640,
        "url" : "https://i.scdn.co/image/ab67616d0000b273bf93244d648b984e694cac8f",
        "width" : 640
      }, {
        "height" : 300,
        "url" : "https://i.scdn.co/image/ab67616d00001e02bf93244d648b984e694cac8f",
        "width" : 300
      }, {
        "height" : 64,
        "url" : "https://i.scdn.co/image/ab67616d00004851bf93244d648b984e694cac8f",
        "width" : 64
      } ],
      "name" : "KREAM",
      "popularity" : 0,
      "type" : "artist",
      "uri" : "spotify:artist:177Drl1M8gAQmEuDiS0rxZ"
    }, {
      "external_urls" : {
        "spotify" : "https://open.spotify.com/artist/6yJ9BRkSlU26BWlMCvhxeW"
      },
      "followers" : {
        "href" : null,
        "total" : 12
      },
      "genres" : [ ],
      "href" : "https://api.spotify.com/v1/artists/6yJ9BRkSlU26BWlMCvhxeW",
      "id" : "6yJ9BRkSlU26BWlMCvhxeW",
      "images" : [ ],
      "name" : "Kream Jay",
      "popularity" : 7,
      "type" : "artist",
      "uri" : "spotify:artist:6yJ9BRkSlU26BWlMCvhxeW"
    }, {
      "external_urls" : {
        "spotify" : "https://open.spotify.com/artist/0KB8ahMF0pYpEDenECuYOK"
      },
      "followers" : {
        "href" : null,
        "total" : 0
      },
      "genres" : [ ],
      "href" : "https://api.spotify.com/v1/artists/0KB8ahMF0pYpEDenECuYOK",
      "id" : "0KB8ahMF0pYpEDenECuYOK",
      "images" : [ ],
      "name" : "KREAM",
      "popularity" : 1,
      "type" : "artist",
      "uri" : "spotify:artist:0KB8ahMF0pYpEDenECuYOK"
    }, {
      "external_urls" : {
        "spotify" : "https://open.spotify.com/artist/3wjcj0YD2UGN0mDa5WCDH4"
      },
      "followers" : {
        "href" : null,
        "total" : 5800
      },
      "genres" : [ "rap espanol" ],
      "href" : "https://api.spotify.com/v1/artists/3wjcj0YD2UGN0mDa5WCDH4",
      "id" : "3wjcj0YD2UGN0mDa5WCDH4",
      "images" : [ {
        "height" : 640,
        "url" : "https://i.scdn.co/image/ab6761610000e5ebe594d3af0f4d0d38b896b2a7",
        "width" : 640
      }, {
        "height" : 320,
        "url" : "https://i.scdn.co/image/ab67616100005174e594d3af0f4d0d38b896b2a7",
        "width" : 320
      }, {
        "height" : 160,
        "url" : "https://i.scdn.co/image/ab6761610000f178e594d3af0f4d0d38b896b2a7",
        "width" : 160
      } ],
      "name" : "Kream",
      "popularity" : 39,
      "type" : "artist",
      "uri" : "spotify:artist:3wjcj0YD2UGN0mDa5WCDH4"
    }, {
      "external_urls" : {
        "spotify" : "https://open.spotify.com/artist/2e3QSIqJIFiOQvDZy21UTe"
      },
      "followers" : {
        "href" : null,
        "total" : 111
      },
      "genres" : [ ],
      "href" : "https://api.spotify.com/v1/artists/2e3QSIqJIFiOQvDZy21UTe",
      "id" : "2e3QSIqJIFiOQvDZy21UTe",
      "images" : [ {
        "height" : 640,
        "url" : "https://i.scdn.co/image/ab6761610000e5eb4918058de3d3181d3446378a",
        "width" : 640
      }, {
        "height" : 320,
        "url" : "https://i.scdn.co/image/ab676161000051744918058de3d3181d3446378a",
        "width" : 320
      }, {
        "height" : 160,
        "url" : "https://i.scdn.co/image/ab6761610000f1784918058de3d3181d3446378a",
        "width" : 160
      } ],
      "name" : "KREAM",
      "popularity" : 2,
      "type" : "artist",
      "uri" : "spotify:artist:2e3QSIqJIFiOQvDZy21UTe"
    }, {
      "external_urls" : {
        "spotify" : "https://open.spotify.com/artist/5qJnHgvlRIOEADy06qC4dk"
      },
      "followers" : {
        "href" : null,
        "total" : 163
      },
      "genres" : [ ],
      "href" : "https://api.spotify.com/v1/artists/5qJnHgvlRIOEADy06qC4dk",
      "id" : "5qJnHgvlRIOEADy06qC4dk",
      "images" : [ ],
      "name" : "Kream",
      "popularity" : 33,
      "type" : "artist",
      "uri" : "spotify:artist:5qJnHgvlRIOEADy06qC4dk"
    }, {
      "external_urls" : {
        "spotify" : "https://open.spotify.com/artist/5Ijopu5fShiahrcrFtZEr1"
      },
      "followers" : {
        "href" : null,
        "total" : 5
      },
      "genres" : [ ],
      "href" : "https://api.spotify.com/v1/artists/5Ijopu5fShiahrcrFtZEr1",
      "id" : "5Ijopu5fShiahrcrFtZEr1",
      "images" : [ ],
      "name" : "KREAM",
      "popularity" : 0,
      "type" : "artist",
      "uri" : "spotify:artist:5Ijopu5fShiahrcrFtZEr1"
    }, {
      "external_urls" : {
        "spotify" : "https://open.spotify.com/artist/1A2GLD4Xm5vFLvpd1eW1JG"
      },
      "followers" : {
        "href" : null,
        "total" : 353
      },
      "genres" : [ ],
      "href" : "https://api.spotify.com/v1/artists/1A2GLD4Xm5vFLvpd1eW1JG",
      "id" : "1A2GLD4Xm5vFLvpd1eW1JG",
      "images" : [ {
        "height" : 640,
        "url" : "https://i.scdn.co/image/ab6761610000e5ebb837387a08e2051e650b3c13",
        "width" : 640
      }, {
        "height" : 320,
        "url" : "https://i.scdn.co/image/ab67616100005174b837387a08e2051e650b3c13",
        "width" : 320
      }, {
        "height" : 160,
        "url" : "https://i.scdn.co/image/ab6761610000f178b837387a08e2051e650b3c13",
        "width" : 160
      } ],
      "name" : "Kream Tech",
      "popularity" : 6,
      "type" : "artist",
      "uri" : "spotify:artist:1A2GLD4Xm5vFLvpd1eW1JG"
    }, {
      "external_urls" : {
        "spotify" : "https://open.spotify.com/artist/6UcAZGHMhvkJhmzPyfpk9u"
      },
      "followers" : {
        "href" : null,
        "total" : 2
      },
      "genres" : [ ],
      "href" : "https://api.spotify.com/v1/artists/6UcAZGHMhvkJhmzPyfpk9u",
      "id" : "6UcAZGHMhvkJhmzPyfpk9u",
      "images" : [ ],
      "name" : "444Kream444",
      "popularity" : 7,
      "type" : "artist",
      "uri" : "spotify:artist:6UcAZGHMhvkJhmzPyfpk9u"
    }, {
      "external_urls" : {
        "spotify" : "https://open.spotify.com/artist/47Vwd6u3vd8LuEsFVj4laz"
      },
      "followers" : {
        "href" : null,
        "total" : 0
      },
      "genres" : [ ],
      "href" : "https://api.spotify.com/v1/artists/47Vwd6u3vd8LuEsFVj4laz",
      "id" : "47Vwd6u3vd8LuEsFVj4laz",
      "images" : [ {
        "height" : 640,
        "url" : "https://i.scdn.co/image/ab67616d0000b273287b08223f3543c119a4631c",
        "width" : 640
      }, {
        "height" : 300,
        "url" : "https://i.scdn.co/image/ab67616d00001e02287b08223f3543c119a4631c",
        "width" : 300
      }, {
        "height" : 64,
        "url" : "https://i.scdn.co/image/ab67616d00004851287b08223f3543c119a4631c",
        "width" : 64
      } ],
      "name" : "KREAM",
      "popularity" : 0,
      "type" : "artist",
      "uri" : "spotify:artist:47Vwd6u3vd8LuEsFVj4laz"
    }, {
      "external_urls" : {
        "spotify" : "https://open.spotify.com/artist/4ojbQc3LnhbnkI6QH5v3pM"
      },
      "followers" : {
        "href" : null,
        "total" : 28
      },
      "genres" : [ ],
      "href" : "https://api.spotify.com/v1/artists/4ojbQc3LnhbnkI6QH5v3pM",
      "id" : "4ojbQc3LnhbnkI6QH5v3pM",
      "images" : [ {
        "height" : 640,
        "url" : "https://i.scdn.co/image/ab6761610000e5eb8953f85d1cb8f972f47aa9a5",
        "width" : 640
      }, {
        "height" : 320,
        "url" : "https://i.scdn.co/image/ab676161000051748953f85d1cb8f972f47aa9a5",
        "width" : 320
      }, {
        "height" : 160,
        "url" : "https://i.scdn.co/image/ab6761610000f1788953f85d1cb8f972f47aa9a5",
        "width" : 160
      } ],
      "name" : "Kream D Slim",
      "popularity" : 2,
      "type" : "artist",
      "uri" : "spotify:artist:4ojbQc3LnhbnkI6QH5v3pM"
    }, {
      "external_urls" : {
        "spotify" : "https://open.spotify.com/artist/59JlJA53cO4IZVJ89frk0I"
      },
      "followers" : {
        "href" : null,
        "total" : 0
      },
      "genres" : [ ],
      "href" : "https://api.spotify.com/v1/artists/59JlJA53cO4IZVJ89frk0I",
      "id" : "59JlJA53cO4IZVJ89frk0I",
      "images" : [ ],
      "name" : "KREAM",
      "popularity" : 0,
      "type" : "artist",
      "uri" : "spotify:artist:59JlJA53cO4IZVJ89frk0I"
    } ],
    "limit" : 20,
    "next" : "https://api.spotify.com/v1/search?query=KREAM&type=artist&market=US&offset=20&limit=20",
    "offset" : 0,
    "previous" : null,
    "total" : 173
  }
}