{
  "artists" : {
    "href" : "https://api.spotify.com/v1/search?query=MUZZ&type=artist&market=US&offset=0&limit=20",
    "items" : [ {
      "external_urls" : {
        "spotify" : "https://open.spotify.com/artist/4UNnRb4LN2hGtbtMfPzMhg"
      },
      "followers" : {
        "href" : null,
        "total" : 69558
      },
      "genres" : [ "brostep", "chillstep", "dancefloor dnb", "edm", "electro house", "gaming edm" ],
      "href" : "https://api.spotify.com/v1/artists/4UNnRb4LN2hGtbtMfPzMhg",
      "id" : "4UNnRb4LN2hGtbtMfPzMhg",
      "images" : [ {
        "height" : 640,
        "url" : "https://i.scdn.co/image/ab6761610000e5eb907487ab7f2f54efb99d57f8",
        "width" : 640
      }, {
        "height" : 320,
        "url" : "https://i.scdn.co/image/ab67616100005174907487ab7f2f54efb99d57f8",
        "width" : 320
      }, {
        "height" : 160,
        "url" : "https://i.scdn.co/image/ab6761610000f178907487ab7f2f54efb99d57f8",
        "width" : 160
      } ],
      "name" : "MUZZ",
      "popularity" : 56,
      "type" : "artist",
      "uri" : "spotify:artist:4UNnRb4LN2hGtbtMfPzMhg"
    }, {
      "external_urls" : {
        "spotify" : "https://open.spotify.com/artist/4nZTcwItN2j9H21sJBZ2Nq"
      },
      "followers" : {
        "href" : null,
        "total" : 27599
      },
      "genres" : [ ],
      "href" : "https://api.spotify.com/v1/artists/4nZTcwItN2j9H21sJBZ2Nq",
      "id" : "4nZTcwItN2j9H21sJBZ2Nq",
      "images" : [ {
        "height" : 1000,
        "url" : "https://i.scdn.co/image/ab6772690000c46cd34be1e044e87be8781dccc8",
        "width" : 1000
      }, {
        "height" : 640,
        "url" : "https://i.scdn.co/image/ab6772690000dd22d34be1e044e87be8781dccc8",
        "width" : 640
      }, {
        "height" : 200,
        "url" : "https://i.scdn.co/image/ab6772690000bac3d34be1e044e87be8781dccc8",
        "width" : 200
      }, {
        "height" : 64,
        "url" : "https://i.scdn.co/image/ab67726900008f74d34be1e044e87be8781dccc8",
        "width" : 64
      } ],
      "name" : "Muzz",
      "popularity" : 36,
      "type" : "artist",
      "uri" : "spotify:artist:4nZTcwItN2j9H21sJBZ2Nq"
    }, {
      "external_urls" : {
        "spotify" : "https://open.spotify.com/artist/2qloEYc0JkLRuRYCPFfPiY"
      },
      "followers" : {
        "href" : null,
        "total" : 0
      },
      "genres" : [ ],
      "href" : "https://api.spotify.com/v1/artists/2qloEYc0JkLRuRYCPFfPiY",
      "id" : "2qloEYc0JkLRuRYCPFfPiY",
      "images" : [ ],
      "name" : "MUZZ",
      "popularity" : 1,
      "type" : "artist",
      "uri" : "spotify:artist:2qloEYc0JkLRuRYCPFfPiY"
    }, {
      "external_urls" : {
        "spotify" : "https://open.spotify.com/artist/2sZH6pjeQy28MIAfw2DUIi"
      },
      "followers" : {
        "href" : null,
        "total" : 3453
      },
      "genres" : [ "jamtronica" ],
      "href" : "https://api.spotify.com/v1/artists/2sZH6pjeQy28MIAfw2DUIi",
      "id" : "2sZH6pjeQy28MIAfw2DUIi",
      "images" : [ {
        "height" : 640,
        "url" : "https://i.scdn.co/image/ab6761610000e5eb0ad5d2170bdea07a6526e38e",
        "width" : 640
      }, {
        "height" : 320,
        "url" : "https://i.scdn.co/image/ab676161000051740ad5d2170bdea07a6526e38e",
        "width" : 320
      }, {
        "height" : 160,
        "url" : "https://i.scdn.co/image/ab6761610000f1780ad5d2170bdea07a6526e38e",
        "width" : 160
      } ],
      "name" : "Muzzy Bearr",
      "popularity" : 24,
      "type" : "artist",
      "uri" : "spotify:artist:2sZH6pjeQy28MIAfw2DUIi"
    }, {
      "external_urls" : {
        "spotify" : "https://open.spotify.com/artist/7ndTTFAuhKKlTl30GGDd2G"
      },
      "followers" : {
        "href" : null,
        "total" : 6
      },
      "genres" : [ ],
      "href" : "https://api.spotify.com/v1/artists/7ndTTFAuhKKlTl30GGDd2G",
      "id" : "7ndTTFAuhKKlTl30GGDd2G",
      "images" : [ {
        "height" : 640,
        "url" : "https://i.scdn.co/image/ab67616d0000b273b1b37d3990fdbe7f959913a4",
        "width" : 640
      }, {
        "height" : 300,
        "url" : "https://i.scdn.co/image/ab67616d00001e02b1b37d3990fdbe7f959913a4",
        "width" : 300
      }, {
        "height" : 64,
        "url" : "https://i.scdn.co/image/ab67616d00004851b1b37d3990fdbe7f959913a4",
        "width" : 64
      } ],
      "name" : "MUZZ",
      "popularity" : 0,
      "type" : "artist",
      "uri" : "spotify:artist:7ndTTFAuhKKlTl30GGDd2G"
    }, {
      "external_urls" : {
        "spotify" : "https://open.spotify.com/artist/67ioaQXaKks7oMCHAgqIna"
      },
      "followers" : {
        "href" : null,
        "total" : 1694
      },
      "genres" : [ ],
      "href" : "https://api.spotify.com/v1/artists/67ioaQXaKks7oMCHAgqIna",
      "id" : "67ioaQXaKks7oMCHAgqIna",
      "images" : [ {
        "height" : 640,
        "url" : "https://i.scdn.co/image/ab6761610000e5eb31d4975dc8904bcf00a40b74",
        "width" : 640
      }, {
        "height" : 320,
        "url" : "https://i.scdn.co/image/ab6761610000517431d4975dc8904bcf00a40b74",
        "width" : 320
      }, {
        "height" : 160,
        "url" : "https://i.scdn.co/image/ab6761610000f17831d4975dc8904bcf00a40b74",
        "width" : 160
      } ],
      "name" : "Muzzocircus",
      "popularity" : 19,
      "type" : "artist",
      "uri" : "spotify:artist:67ioaQXaKks7oMCHAgqIna"
    }, {
      "external_urls" : {
        "spotify" : "https://open.spotify.com/artist/42ZxYNK8wmSwfkwV1oesGb"
      },
      "followers" : {
        "href" : null,
        "total" : 2495
      },
      "genres" : [ "epicore" ],
      "href" : "https://api.spotify.com/v1/artists/42ZxYNK8wmSwfkwV1oesGb",
      "id" : "42ZxYNK8wmSwfkwV1oesGb",
      "images" : [ {
        "height" : 640,
        "url" : "https://i.scdn.co/image/ab6761610000e5ebf211894e6a41bf1a13291ed4",
        "width" : 640
      }, {
        "height" : 320,
        "url" : "https://i.scdn.co/image/ab67616100005174f211894e6a41bf1a13291ed4",
        "width" : 320
      }, {
        "height" : 160,
        "url" : "https://i.scdn.co/image/ab6761610000f178f211894e6a41bf1a13291ed4",
        "width" : 160
      } ],
      "name" : "Kerry Muzzey",
      "popularity" : 22,
      "type" : "artist",
      "uri" : "spotify:artist:42ZxYNK8wmSwfkwV1oesGb"
    }, {
      "external_urls" : {
        "spotify" : "https://open.spotify.com/artist/5v2vY1aUV6yFfUMo6x0z8C"
      },
      "followers" : {
        "href" : null,
        "total" : 1550
      },
      "genres" : [ ],
      "href" : "https://api.spotify.com/v1/artists/5v2vY1aUV6yFfUMo6x0z8C",
      "id" : "5v2vY1aUV6yFfUMo6x0z8C",
      "images" : [ {
        "height" : 640,
        "url" : "https://i.scdn.co/image/ab6761610000e5eb440d2fd73607c339bea25b26",
        "width" : 640
      }, {
        "height" : 320,
        "url" : "https://i.scdn.co/image/ab67616100005174440d2fd73607c339bea25b26",
        "width" : 320
      }, {
        "height" : 160,
        "url" : "https://i.scdn.co/image/ab6761610000f178440d2fd73607c339bea25b26",
        "width" : 160
      } ],
      "name" : "Muzzy D Pilot",
      "popularity" : 31,
      "type" : "artist",
      "uri" : "spotify:artist:5v2vY1aUV6yFfUMo6x0z8C"
    }, {
      "external_urls" : {
        "spotify" : "https://open.spotify.com/artist/24p18ZRiWWS3GmR4J1QrNp"
      },
      "followers" : {
        "href" : null,
        "total" : 2693
      },
      "genres" : [ "house" ],
      "href" : "https://api.spotify.com/v1/artists/24p18ZRiWWS3GmR4J1QrNp",
      "id" : "24p18ZRiWWS3GmR4J1QrNp",
      "images" : [ {
        "height" : 664,
        "url" : "https://i.scdn.co/image/f5e70d7d7aa9706c796d8e734369fa9b3d159d86",
        "width" : 1000
      }, {
        "height" : 425,
        "url" : "https://i.scdn.co/image/db926e0fb771844e7ce09ec4bc5aa09341319a1e",
        "width" : 640
      }, {
        "height" : 133,
        "url" : "https://i.scdn.co/image/9501e22a651e5a7fb283f3fd559fa1bdb1afe51b",
        "width" : 200
      }, {
        "height" : 43,
        "url" : "https://i.scdn.co/image/b62b3588f6d1193949b90df789bf431e4a887f7d",
        "width" : 64
      } ],
      "name" : "Muzzaik",
      "popularity" : 27,
      "type" : "artist",
      "uri" : "spotify:artist:24p18ZRiWWS3GmR4J1QrNp"
    }, {
      "external_urls" : {
        "spotify" : "https://open.spotify.com/artist/0aqxEXnVNzEUMzOFgLqUZ5"
      },
      "followers" : {
        "href" : null,
        "total" : 0
      },
      "genres" : [ ],
      "href" : "https://api.spotify.com/v1/artists/0aqxEXnVNzEUMzOFgLqUZ5",
      "id" : "0aqxEXnVNzEUMzOFgLqUZ5",
      "images" : [ {
        "height" : 640,
        "url" : "https://i.scdn.co/image/ab67616d0000b2737b6f61f0f1b3623d0429b172",
        "width" : 640
      }, {
        "height" : 300,
        "url" : "https://i.scdn.co/image/ab67616d00001e027b6f61f0f1b3623d0429b172",
        "width" : 300
      }, {
        "height" : 64,
        "url" : "https://i.scdn.co/image/ab67616d000048517b6f61f0f1b3623d0429b172",
        "width" : 64
      } ],
      "name" : "Mikel Muzzath",
      "popularity" : 18,
      "type" : "artist",
      "uri" : "spotify:artist:0aqxEXnVNzEUMzOFgLqUZ5"
    }, {
      "external_urls" : {
        "spotify" : "https://open.spotify.com/artist/2xUUrmK5OCSeOtAckDWKc2"
      },
      "followers" : {
        "href" : null,
        "total" : 79
      },
      "genres" : [ ],
      "href" : "https://api.spotify.com/v1/artists/2xUUrmK5OCSeOtAckDWKc2",
      "id" : "2xUUrmK5OCSeOtAckDWKc2",
      "images" : [ {
        "height" : 640,
        "url" : "https://i.scdn.co/image/ab6761610000e5eb0cde052add41e29e3dd8bb5e",
        "width" : 640
      }, {
        "height" : 320,
        "url" : "https://i.scdn.co/image/ab676161000051740cde052add41e29e3dd8bb5e",
        "width" : 320
      }, {
        "height" : 160,
        "url" : "https://i.scdn.co/image/ab6761610000f1780cde052add41e29e3dd8bb5e",
        "width" : 160
      } ],
      "name" : "Muzz",
      "popularity" : 9,
      "type" : "artist",
      "uri" : "spotify:artist:2xUUrmK5OCSeOtAckDWKc2"
    }, {
      "external_urls" : {
        "spotify" : "https://open.spotify.com/artist/6DrNChDVxjgL11hENtQAnV"
      },
      "followers" : {
        "href" : null,
        "total" : 350
      },
      "genres" : [ ],
      "href" : "https://api.spotify.com/v1/artists/6DrNChDVxjgL11hENtQAnV",
      "id" : "6DrNChDVxjgL11hENtQAnV",
      "images" : [ {
        "height" : 640,
        "url" : "https://i.scdn.co/image/ab67616d0000b273be0235782db0738883a3147d",
        "width" : 640
      }, {
        "height" : 300,
        "url" : "https://i.scdn.co/image/ab67616d00001e02be0235782db0738883a3147d",
        "width" : 300
      }, {
        "height" : 64,
        "url" : "https://i.scdn.co/image/ab67616d00004851be0235782db0738883a3147d",
        "width" : 64
      } ],
      "name" : "Muzzie Braun",
      "popularity" : 9,
      "type" : "artist",
      "uri" : "spotify:artist:6DrNChDVxjgL11hENtQAnV"
    }, {
      "external_urls" : {
        "spotify" : "https://open.spotify.com/artist/4pgkwvn9MGjJTnf33twhb1"
      },
      "followers" : {
        "href" : null,
        "total" : 4
      },
      "genres" : [ ],
      "href" : "https://api.spotify.com/v1/artists/4pgkwvn9MGjJTnf33twhb1",
      "id" : "4pgkwvn9MGjJTnf33twhb1",
      "images" : [ ],
      "name" : "Muzzaik",
      "popularity" : 14,
      "type" : "artist",
      "uri" : "spotify:artist:4pgkwvn9MGjJTnf33twhb1"
    }, {
      "external_urls" : {
        "spotify" : "https://open.spotify.com/artist/6X3gyYaDA5zufxC3IIlxuX"
      },
      "followers" : {
        "href" : null,
        "total" : 2218
      },
      "genres" : [ ],
      "href" : "https://api.spotify.com/v1/artists/6X3gyYaDA5zufxC3IIlxuX",
      "id" : "6X3gyYaDA5zufxC3IIlxuX",
      "images" : [ {
        "height" : 640,
        "url" : "https://i.scdn.co/image/ab6761610000e5eb8a34129320cb6b5402f77491",
        "width" : 640
      }, {
        "height" : 320,
        "url" : "https://i.scdn.co/image/ab676161000051748a34129320cb6b5402f77491",
        "width" : 320
      }, {
        "height" : 160,
        "url" : "https://i.scdn.co/image/ab6761610000f1788a34129320cb6b5402f77491",
        "width" : 160
      } ],
      "name" : "Manuel Muzzu",
      "popularity" : 19,
      "type" : "artist",
      "uri" : "spotify:artist:6X3gyYaDA5zufxC3IIlxuX"
    }, {
      "external_urls" : {
        "spotify" : "https://open.spotify.com/artist/6xlhPcuGffc8r89F4JCQnC"
      },
      "followers" : {
        "href" : null,
        "total" : 2
      },
      "genres" : [ ],
      "href" : "https://api.spotify.com/v1/artists/6xlhPcuGffc8r89F4JCQnC",
      "id" : "6xlhPcuGffc8r89F4JCQnC",
      "images" : [ ],
      "name" : "Muzziq Dior",
      "popularity" : 11,
      "type" : "artist",
      "uri" : "spotify:artist:6xlhPcuGffc8r89F4JCQnC"
    }, {
      "external_urls" : {
        "spotify" : "https://open.spotify.com/artist/7AhWQzkifsQXXXpfrnyHPs"
      },
      "followers" : {
        "href" : null,
        "total" : 71
      },
      "genres" : [ ],
      "href" : "https://api.spotify.com/v1/artists/7AhWQzkifsQXXXpfrnyHPs",
      "id" : "7AhWQzkifsQXXXpfrnyHPs",
      "images" : [ {
        "height" : 640,
        "url" : "https://i.scdn.co/image/ab67616d0000b2739a8ba676fa79a6f589132743",
        "width" : 640
      }, {
        "height" : 300,
        "url" : "https://i.scdn.co/image/ab67616d00001e029a8ba676fa79a6f589132743",
        "width" : 300
      }, {
        "height" : 64,
        "url" : "https://i.scdn.co/image/ab67616d000048519a8ba676fa79a6f589132743",
        "width" : 64
      } ],
      "name" : "Muzzy G.",
      "popularity" : 26,
      "type" : "artist",
      "uri" : "spotify:artist:7AhWQzkifsQXXXpfrnyHPs"
    }, {
      "external_urls" : {
        "spotify" : "https://open.spotify.com/artist/2XTtA7Pvl5vucL3oFXlMyT"
      },
      "followers" : {
        "href" : null,
        "total" : 4051
      },
      "genres" : [ "trap brasileiro" ],
      "href" : "https://api.spotify.com/v1/artists/2XTtA7Pvl5vucL3oFXlMyT",
      "id" : "2XTtA7Pvl5vucL3oFXlMyT",
      "images" : [ {
        "height" : 640,
        "url" : "https://i.scdn.co/image/ab6761610000e5eb962fd5b170de12721acb0fb3",
        "width" : 640
      }, {
        "height" : 320,
        "url" : "https://i.scdn.co/image/ab67616100005174962fd5b170de12721acb0fb3",
        "width" : 320
      }, {
        "height" : 160,
        "url" : "https://i.scdn.co/image/ab6761610000f178962fd5b170de12721acb0fb3",
        "width" : 160
      } ],
      "name" : "Muzzike",
      "popularity" : 39,
      "type" : "artist",
      "uri" : "spotify:artist:2XTtA7Pvl5vucL3oFXlMyT"
    }, {
      "external_urls" : {
        "spotify" : "https://open.spotify.com/artist/116e9G3vAEstSM7UXvIR0J"
      },
      "followers" : {
        "href" : null,
        "total" : 162
      },
      "genres" : [ ],
      "href" : "https://api.spotify.com/v1/artists/116e9G3vAEstSM7UXvIR0J",
      "id" : "116e9G3vAEstSM7UXvIR0J",
      "images" : [ {
        "height" : 640,
        "url" : "https://i.scdn.co/image/ab6761610000e5eb53ab6ed3e69adaee5c37c6e5",
        "width" : 640
      }, {
        "height" : 320,
        "url" : "https://i.scdn.co/image/ab6761610000517453ab6ed3e69adaee5c37c6e5",
        "width" : 320
      }, {
        "height" : 160,
        "url" : "https://i.scdn.co/image/ab6761610000f17853ab6ed3e69adaee5c37c6e5",
        "width" : 160
      } ],
      "name" : "Muzzy",
      "popularity" : 5,
      "type" : "artist",
      "uri" : "spotify:artist:116e9G3vAEstSM7UXvIR0J"
    }, {
      "external_urls" : {
        "spotify" : "https://open.spotify.com/artist/7uRhymmIttUu5cbYlOeX4C"
      },
      "followers" : {
        "href" : null,
        "total" : 1039
      },
      "genres" : [ "exotica", "lounge" ],
      "href" : "https://api.spotify.com/v1/artists/7uRhymmIttUu5cbYlOeX4C",
      "id" : "7uRhymmIttUu5cbYlOeX4C",
      "images" : [ {
        "height" : 640,
        "url" : "https://i.scdn.co/image/ab67616d0000b27359eb3f53329978df4434fbec",
        "width" : 640
      }, {
        "height" : 300,
        "url" : "https://i.scdn.co/image/ab67616d00001e0259eb3f53329978df4434fbec",
        "width" : 300
      }, {
        "height" : 64,
        "url" : "https://i.scdn.co/image/ab67616d0000485159eb3f53329978df4434fbec",
        "width" : 64
      } ],
      "name" : "Muzzy Marcellino",
      "popularity" : 8,
      "type" : "artist",
      "uri" : "spotify:artist:7uRhymmIttUu5cbYlOeX4C"
    }, {
      "external_urls" : {
        "spotify" : "https://open.spotify.com/artist/4OgHQbKliS8bpd7IiN7K9F"
      },
      "followers" : {
        "href" : null,
        "total" : 0
      },
      "genres" : [ ],
      "href" : "https://api.spotify.com/v1/artists/4OgHQbKliS8bpd7IiN7K9F",
      "id" : "4OgHQbKliS8bpd7IiN7K9F",
      "images" : [ {
        "height" : 640,
        "url" : "https://i.scdn.co/image/ab67616d0000b2738672973f59386936298f260b",
        "width" : 640
      }, {
        "height" : 300,
        "url" : "https://i.scdn.co/image/ab67616d00001e028672973f59386936298f260b",
        "width" : 300
      }, {
        "height" : 64,
        "url" : "https://i.scdn.co/image/ab67616d000048518672973f59386936298f260b",
        "width" : 64
      } ],
      "name" : "Muzzy Forced",
      "popularity" : 2,
      "type" : "artist",
      "uri" : "spotify:artist:4OgHQbKliS8bpd7IiN7K9F"
    } ],
    "limit" : 20,
    "next" : "https://api.spotify.com/v1/search?query=MUZZ&type=artist&market=US&offset=20&limit=20",
    "offset" : 0,
    "previous" : null,
    "total" : 316
  }
}