{
  "artists" : {
    "href" : "https://api.spotify.com/v1/search?query=TALON&type=artist&market=US&offset=0&limit=20",
    "items" : [ {
      "external_urls" : {
        "spotify" : "https://open.spotify.com/artist/4rVWk1fEcvDeMjlj7T60Bx"
      },
      "followers" : {
        "href" : null,
        "total" : 831
      },
      "genres" : [ ],
      "href" : "https://api.spotify.com/v1/artists/4rVWk1fEcvDeMjlj7T60Bx",
      "id" : "4rVWk1fEcvDeMjlj7T60Bx",
      "images" : [ {
        "height" : 640,
        "url" : "https://i.scdn.co/image/ab6761610000e5eb63f6566623f2bdd451b6b98c",
        "width" : 640
      }, {
        "height" : 320,
        "url" : "https://i.scdn.co/image/ab6761610000517463f6566623f2bdd451b6b98c",
        "width" : 320
      }, {
        "height" : 160,
        "url" : "https://i.scdn.co/image/ab6761610000f17863f6566623f2bdd451b6b98c",
        "width" : 160
      } ],
      "name" : "Talon David",
      "popularity" : 23,
      "type" : "artist",
      "uri" : "spotify:artist:4rVWk1fEcvDeMjlj7T60Bx"
    }, {
      "external_urls" : {
        "spotify" : "https://open.spotify.com/artist/1mICjTX0jJvdYFe2FHs1lx"
      },
      "followers" : {
        "href" : null,
        "total" : 0
      },
      "genres" : [ ],
      "href" : "https://api.spotify.com/v1/artists/1mICjTX0jJvdYFe2FHs1lx",
      "id" : "1mICjTX0jJvdYFe2FHs1lx",
      "images" : [ ],
      "name" : "TALON",
      "popularity" : 0,
      "type" : "artist",
      "uri" : "spotify:artist:1mICjTX0jJvdYFe2FHs1lx"
    }, {
      "external_urls" : {
        "spotify" : "https://open.spotify.com/artist/0OG12Q6f2nnOvaSuFwa0iH"
      },
      "followers" : {
        "href" : null,
        "total" : 1622
      },
      "genres" : [ ],
      "href" : "https://api.spotify.com/v1/artists/0OG12Q6f2nnOvaSuFwa0iH",
      "id" : "0OG12Q6f2nnOvaSuFwa0iH",
      "images" : [ {
        "height" : 640,
        "url" : "https://i.scdn.co/image/ab6761610000e5eb3e1f49cb69bc4cc3136e180c",
        "width" : 640
      }, {
        "height" : 320,
        "url" : "https://i.scdn.co/image/ab676161000051743e1f49cb69bc4cc3136e180c",
        "width" : 320
      }, {
        "height" : 160,
        "url" : "https://i.scdn.co/image/ab6761610000f1783e1f49cb69bc4cc3136e180c",
        "width" : 160
      } ],
      "name" : "TALONS",
      "popularity" : 24,
      "type" : "artist",
      "uri" : "spotify:artist:0OG12Q6f2nnOvaSuFwa0iH"
    }, {
      "external_urls" : {
        "spotify" : "https://open.spotify.com/artist/24uHiwLTTs916kQsoEXcMv"
      },
      "followers" : {
        "href" : null,
        "total" : 657
      },
      "genres" : [ ],
      "href" : "https://api.spotify.com/v1/artists/24uHiwLTTs916kQsoEXcMv",
      "id" : "24uHiwLTTs916kQsoEXcMv",
      "images" : [ {
        "height" : 640,
        "url" : "https://i.scdn.co/image/ab6761610000e5eb8ca018dca806348f1cc45299",
        "width" : 640
      }, {
        "height" : 320,
        "url" : "https://i.scdn.co/image/ab676161000051748ca018dca806348f1cc45299",
        "width" : 320
      }, {
        "height" : 160,
        "url" : "https://i.scdn.co/image/ab6761610000f1788ca018dca806348f1cc45299",
        "width" : 160
      } ],
      "name" : "TALON",
      "popularity" : 17,
      "type" : "artist",
      "uri" : "spotify:artist:24uHiwLTTs916kQsoEXcMv"
    }, {
      "external_urls" : {
        "spotify" : "https://open.spotify.com/artist/2Rjc6yThK4bYey9m7PaPFs"
      },
      "followers" : {
        "href" : null,
        "total" : 1042
      },
      "genres" : [ ],
      "href" : "https://api.spotify.com/v1/artists/2Rjc6yThK4bYey9m7PaPFs",
      "id" : "2Rjc6yThK4bYey9m7PaPFs",
      "images" : [ {
        "height" : 640,
        "url" : "https://i.scdn.co/image/ab6761610000e5ebabaab7086f2119ca3d81ec44",
        "width" : 640
      }, {
        "height" : 320,
        "url" : "https://i.scdn.co/image/ab67616100005174abaab7086f2119ca3d81ec44",
        "width" : 320
      }, {
        "height" : 160,
        "url" : "https://i.scdn.co/image/ab6761610000f178abaab7086f2119ca3d81ec44",
        "width" : 160
      } ],
      "name" : "Talons'",
      "popularity" : 17,
      "type" : "artist",
      "uri" : "spotify:artist:2Rjc6yThK4bYey9m7PaPFs"
    }, {
      "external_urls" : {
        "spotify" : "https://open.spotify.com/artist/2FaBKc5uSzWRIzI5nePTFs"
      },
      "followers" : {
        "href" : null,
        "total" : 120
      },
      "genres" : [ ],
      "href" : "https://api.spotify.com/v1/artists/2FaBKc5uSzWRIzI5nePTFs",
      "id" : "2FaBKc5uSzWRIzI5nePTFs",
      "images" : [ {
        "height" : 640,
        "url" : "https://i.scdn.co/image/ab6761610000e5eb7fe8bfc09d9225b967f83d66",
        "width" : 640
      }, {
        "height" : 320,
        "url" : "https://i.scdn.co/image/ab676161000051747fe8bfc09d9225b967f83d66",
        "width" : 320
      }, {
        "height" : 160,
        "url" : "https://i.scdn.co/image/ab6761610000f1787fe8bfc09d9225b967f83d66",
        "width" : 160
      } ],
      "name" : "Talon",
      "popularity" : 10,
      "type" : "artist",
      "uri" : "spotify:artist:2FaBKc5uSzWRIzI5nePTFs"
    }, {
      "external_urls" : {
        "spotify" : "https://open.spotify.com/artist/2xzmBFPxodSCBLlq5d8Cax"
      },
      "followers" : {
        "href" : null,
        "total" : 3480
      },
      "genres" : [ "us power metal" ],
      "href" : "https://api.spotify.com/v1/artists/2xzmBFPxodSCBLlq5d8Cax",
      "id" : "2xzmBFPxodSCBLlq5d8Cax",
      "images" : [ {
        "height" : 640,
        "url" : "https://i.scdn.co/image/ab6761610000e5eb8a6dfe3888916b3b3a1b5d8d",
        "width" : 640
      }, {
        "height" : 320,
        "url" : "https://i.scdn.co/image/ab676161000051748a6dfe3888916b3b3a1b5d8d",
        "width" : 320
      }, {
        "height" : 160,
        "url" : "https://i.scdn.co/image/ab6761610000f1788a6dfe3888916b3b3a1b5d8d",
        "width" : 160
      } ],
      "name" : "Silver Talon",
      "popularity" : 18,
      "type" : "artist",
      "uri" : "spotify:artist:2xzmBFPxodSCBLlq5d8Cax"
    }, {
      "external_urls" : {
        "spotify" : "https://open.spotify.com/artist/76mGLjlGH9tnvUiHFakxDi"
      },
      "followers" : {
        "href" : null,
        "total" : 10
      },
      "genres" : [ ],
      "href" : "https://api.spotify.com/v1/artists/76mGLjlGH9tnvUiHFakxDi",
      "id" : "76mGLjlGH9tnvUiHFakxDi",
      "images" : [ {
        "height" : 640,
        "url" : "https://i.scdn.co/image/ab67616d0000b273290950cb8ca0a16f7e78be79",
        "width" : 640
      }, {
        "height" : 300,
        "url" : "https://i.scdn.co/image/ab67616d00001e02290950cb8ca0a16f7e78be79",
        "width" : 300
      }, {
        "height" : 64,
        "url" : "https://i.scdn.co/image/ab67616d00004851290950cb8ca0a16f7e78be79",
        "width" : 64
      } ],
      "name" : "TALON",
      "popularity" : 0,
      "type" : "artist",
      "uri" : "spotify:artist:76mGLjlGH9tnvUiHFakxDi"
    }, {
      "external_urls" : {
        "spotify" : "https://open.spotify.com/artist/7dYmPqRjUWP21xj3b7EQPp"
      },
      "followers" : {
        "href" : null,
        "total" : 19665
      },
      "genres" : [ ],
      "href" : "https://api.spotify.com/v1/artists/7dYmPqRjUWP21xj3b7EQPp",
      "id" : "7dYmPqRjUWP21xj3b7EQPp",
      "images" : [ {
        "height" : 640,
        "url" : "https://i.scdn.co/image/ab6761610000e5eb79b5e25fcbeb20235ba15b33",
        "width" : 640
      }, {
        "height" : 320,
        "url" : "https://i.scdn.co/image/ab6761610000517479b5e25fcbeb20235ba15b33",
        "width" : 320
      }, {
        "height" : 160,
        "url" : "https://i.scdn.co/image/ab6761610000f17879b5e25fcbeb20235ba15b33",
        "width" : 160
      } ],
      "name" : "Talon Majors",
      "popularity" : 21,
      "type" : "artist",
      "uri" : "spotify:artist:7dYmPqRjUWP21xj3b7EQPp"
    }, {
      "external_urls" : {
        "spotify" : "https://open.spotify.com/artist/2RBIA415UZH2QCcpoqDn0O"
      },
      "followers" : {
        "href" : null,
        "total" : 15
      },
      "genres" : [ ],
      "href" : "https://api.spotify.com/v1/artists/2RBIA415UZH2QCcpoqDn0O",
      "id" : "2RBIA415UZH2QCcpoqDn0O",
      "images" : [ {
        "height" : 640,
        "url" : "https://i.scdn.co/image/ab6761610000e5eb832b01fc1ce1f5535034dd4f",
        "width" : 640
      }, {
        "height" : 320,
        "url" : "https://i.scdn.co/image/ab67616100005174832b01fc1ce1f5535034dd4f",
        "width" : 320
      }, {
        "height" : 160,
        "url" : "https://i.scdn.co/image/ab6761610000f178832b01fc1ce1f5535034dd4f",
        "width" : 160
      } ],
      "name" : "Tom Talon",
      "popularity" : 16,
      "type" : "artist",
      "uri" : "spotify:artist:2RBIA415UZH2QCcpoqDn0O"
    }, {
      "external_urls" : {
        "spotify" : "https://open.spotify.com/artist/7o7Uf1xRSsnRnfz3qWZJSW"
      },
      "followers" : {
        "href" : null,
        "total" : 704
      },
      "genres" : [ ],
      "href" : "https://api.spotify.com/v1/artists/7o7Uf1xRSsnRnfz3qWZJSW",
      "id" : "7o7Uf1xRSsnRnfz3qWZJSW",
      "images" : [ {
        "height" : 640,
        "url" : "https://i.scdn.co/image/ab67616d0000b2739a59c11a1fdfe252ae236585",
        "width" : 640
      }, {
        "height" : 300,
        "url" : "https://i.scdn.co/image/ab67616d00001e029a59c11a1fdfe252ae236585",
        "width" : 300
      }, {
        "height" : 64,
        "url" : "https://i.scdn.co/image/ab67616d000048519a59c11a1fdfe252ae236585",
        "width" : 64
      } ],
      "name" : "Talon",
      "popularity" : 15,
      "type" : "artist",
      "uri" : "spotify:artist:7o7Uf1xRSsnRnfz3qWZJSW"
    }, {
      "external_urls" : {
        "spotify" : "https://open.spotify.com/artist/0rwnYwutmFoe1HqFmvEubO"
      },
      "followers" : {
        "href" : null,
        "total" : 358
      },
      "genres" : [ ],
      "href" : "https://api.spotify.com/v1/artists/0rwnYwutmFoe1HqFmvEubO",
      "id" : "0rwnYwutmFoe1HqFmvEubO",
      "images" : [ {
        "height" : 640,
        "url" : "https://i.scdn.co/image/ab6761610000e5ebb8b9ac8899c6ceb22ff350d2",
        "width" : 640
      }, {
        "height" : 320,
        "url" : "https://i.scdn.co/image/ab67616100005174b8b9ac8899c6ceb22ff350d2",
        "width" : 320
      }, {
        "height" : 160,
        "url" : "https://i.scdn.co/image/ab6761610000f178b8b9ac8899c6ceb22ff350d2",
        "width" : 160
      } ],
      "name" : "Talone",
      "popularity" : 3,
      "type" : "artist",
      "uri" : "spotify:artist:0rwnYwutmFoe1HqFmvEubO"
    }, {
      "external_urls" : {
        "spotify" : "https://open.spotify.com/artist/48jIqFIYQOKbzJieXtX9gq"
      },
      "followers" : {
        "href" : null,
        "total" : 0
      },
      "genres" : [ ],
      "href" : "https://api.spotify.com/v1/artists/48jIqFIYQOKbzJieXtX9gq",
      "id" : "48jIqFIYQOKbzJieXtX9gq",
      "images" : [ {
        "height" : 640,
        "url" : "https://i.scdn.co/image/ab67616d0000b273072d8b2c6c9078d97a2a7748",
        "width" : 640
      }, {
        "height" : 300,
        "url" : "https://i.scdn.co/image/ab67616d00001e02072d8b2c6c9078d97a2a7748",
        "width" : 300
      }, {
        "height" : 64,
        "url" : "https://i.scdn.co/image/ab67616d00004851072d8b2c6c9078d97a2a7748",
        "width" : 64
      } ],
      "name" : "Talon Mcbride",
      "popularity" : 2,
      "type" : "artist",
      "uri" : "spotify:artist:48jIqFIYQOKbzJieXtX9gq"
    }, {
      "external_urls" : {
        "spotify" : "https://open.spotify.com/artist/0UMGymu3fhHkW7shvNvYqK"
      },
      "followers" : {
        "href" : null,
        "total" : 89
      },
      "genres" : [ ],
      "href" : "https://api.spotify.com/v1/artists/0UMGymu3fhHkW7shvNvYqK",
      "id" : "0UMGymu3fhHkW7shvNvYqK",
      "images" : [ {
        "height" : 640,
        "url" : "https://i.scdn.co/image/ab6761610000e5eba1104db369fe85b8e4d69969",
        "width" : 640
      }, {
        "height" : 320,
        "url" : "https://i.scdn.co/image/ab67616100005174a1104db369fe85b8e4d69969",
        "width" : 320
      }, {
        "height" : 160,
        "url" : "https://i.scdn.co/image/ab6761610000f178a1104db369fe85b8e4d69969",
        "width" : 160
      } ],
      "name" : "Talon Cardon",
      "popularity" : 1,
      "type" : "artist",
      "uri" : "spotify:artist:0UMGymu3fhHkW7shvNvYqK"
    }, {
      "external_urls" : {
        "spotify" : "https://open.spotify.com/artist/54zuP5bPhqBrrdgV9a9O3l"
      },
      "followers" : {
        "href" : null,
        "total" : 687
      },
      "genres" : [ "deep r&b" ],
      "href" : "https://api.spotify.com/v1/artists/54zuP5bPhqBrrdgV9a9O3l",
      "id" : "54zuP5bPhqBrrdgV9a9O3l",
      "images" : [ {
        "height" : 640,
        "url" : "https://i.scdn.co/image/ab67616d0000b273f35aa3d63a6058a7cf41d224",
        "width" : 640
      }, {
        "height" : 300,
        "url" : "https://i.scdn.co/image/ab67616d00001e02f35aa3d63a6058a7cf41d224",
        "width" : 300
      }, {
        "height" : 64,
        "url" : "https://i.scdn.co/image/ab67616d00004851f35aa3d63a6058a7cf41d224",
        "width" : 64
      } ],
      "name" : "Talon Haynes",
      "popularity" : 6,
      "type" : "artist",
      "uri" : "spotify:artist:54zuP5bPhqBrrdgV9a9O3l"
    }, {
      "external_urls" : {
        "spotify" : "https://open.spotify.com/artist/2YTrsreB2mGpHPHnNM9ohv"
      },
      "followers" : {
        "href" : null,
        "total" : 1
      },
      "genres" : [ ],
      "href" : "https://api.spotify.com/v1/artists/2YTrsreB2mGpHPHnNM9ohv",
      "id" : "2YTrsreB2mGpHPHnNM9ohv",
      "images" : [ {
        "height" : 640,
        "url" : "https://i.scdn.co/image/ab67616d0000b273722cb7a752c789e4f0151928",
        "width" : 640
      }, {
        "height" : 300,
        "url" : "https://i.scdn.co/image/ab67616d00001e02722cb7a752c789e4f0151928",
        "width" : 300
      }, {
        "height" : 64,
        "url" : "https://i.scdn.co/image/ab67616d00004851722cb7a752c789e4f0151928",
        "width" : 64
      } ],
      "name" : "€TALON",
      "popularity" : 0,
      "type" : "artist",
      "uri" : "spotify:artist:2YTrsreB2mGpHPHnNM9ohv"
    }, {
      "external_urls" : {
        "spotify" : "https://open.spotify.com/artist/7F4BflS6V9E7Ey4G1XqGuL"
      },
      "followers" : {
        "href" : null,
        "total" : 222
      },
      "genres" : [ ],
      "href" : "https://api.spotify.com/v1/artists/7F4BflS6V9E7Ey4G1XqGuL",
      "id" : "7F4BflS6V9E7Ey4G1XqGuL",
      "images" : [ ],
      "name" : "Talon Bourne",
      "popularity" : 5,
      "type" : "artist",
      "uri" : "spotify:artist:7F4BflS6V9E7Ey4G1XqGuL"
    }, {
      "external_urls" : {
        "spotify" : "https://open.spotify.com/artist/1V7smn9Zl7Aqw5dbK8rd7C"
      },
      "followers" : {
        "href" : null,
        "total" : 11
      },
      "genres" : [ ],
      "href" : "https://api.spotify.com/v1/artists/1V7smn9Zl7Aqw5dbK8rd7C",
      "id" : "1V7smn9Zl7Aqw5dbK8rd7C",
      "images" : [ {
        "height" : 640,
        "url" : "https://i.scdn.co/image/ab67616d0000b273f6e6524fa9d64f3219ae3325",
        "width" : 640
      }, {
        "height" : 300,
        "url" : "https://i.scdn.co/image/ab67616d00001e02f6e6524fa9d64f3219ae3325",
        "width" : 300
      }, {
        "height" : 64,
        "url" : "https://i.scdn.co/image/ab67616d00004851f6e6524fa9d64f3219ae3325",
        "width" : 64
      } ],
      "name" : "Talons",
      "popularity" : 0,
      "type" : "artist",
      "uri" : "spotify:artist:1V7smn9Zl7Aqw5dbK8rd7C"
    }, {
      "external_urls" : {
        "spotify" : "https://open.spotify.com/artist/0Ji5AUYHZf05ycq9j95liM"
      },
      "followers" : {
        "href" : null,
        "total" : 3168
      },
      "genres" : [ "british post-rock", "math pop" ],
      "href" : "https://api.spotify.com/v1/artists/0Ji5AUYHZf05ycq9j95liM",
      "id" : "0Ji5AUYHZf05ycq9j95liM",
      "images" : [ {
        "height" : 640,
        "url" : "https://i.scdn.co/image/ab6761610000e5ebf6c6bd8782095e3c9abcf00f",
        "width" : 640
      }, {
        "height" : 320,
        "url" : "https://i.scdn.co/image/ab67616100005174f6c6bd8782095e3c9abcf00f",
        "width" : 320
      }, {
        "height" : 160,
        "url" : "https://i.scdn.co/image/ab6761610000f178f6c6bd8782095e3c9abcf00f",
        "width" : 160
      } ],
      "name" : "Talons",
      "popularity" : 6,
      "type" : "artist",
      "uri" : "spotify:artist:0Ji5AUYHZf05ycq9j95liM"
    }, {
      "external_urls" : {
        "spotify" : "https://open.spotify.com/artist/2WRauYSKRMJ6wNb3FiCfBe"
      },
      "followers" : {
        "href" : null,
        "total" : 1
      },
      "genres" : [ ],
      "href" : "https://api.spotify.com/v1/artists/2WRauYSKRMJ6wNb3FiCfBe",
      "id" : "2WRauYSKRMJ6wNb3FiCfBe",
      "images" : [ {
        "height" : 640,
        "url" : "https://i.scdn.co/image/ab67616d0000b273240452b6e1964d66922aa549",
        "width" : 640
      }, {
        "height" : 300,
        "url" : "https://i.scdn.co/image/ab67616d00001e02240452b6e1964d66922aa549",
        "width" : 300
      }, {
        "height" : 64,
        "url" : "https://i.scdn.co/image/ab67616d00004851240452b6e1964d66922aa549",
        "width" : 64
      } ],
      "name" : "TalonSAGI",
      "popularity" : 0,
      "type" : "artist",
      "uri" : "spotify:artist:2WRauYSKRMJ6wNb3FiCfBe"
    } ],
    "limit" : 20,
    "next" : "https://api.spotify.com/v1/search?query=TALON&type=artist&market=US&offset=20&limit=20",
    "offset" : 0,
    "previous" : null,
    "total" : 174
  }
}