{
  "artists" : {
    "href" : "https://api.spotify.com/v1/search?query=ALOK&type=artist&market=US&offset=0&limit=20",
    "items" : [ {
      "external_urls" : {
        "spotify" : "https://open.spotify.com/artist/0NGAZxHanS9e0iNHpR8f2W"
      },
      "followers" : {
        "href" : null,
        "total" : 11236728
      },
      "genres" : [ "electro house", "pop nacional", "slap house" ],
      "href" : "https://api.spotify.com/v1/artists/0NGAZxHanS9e0iNHpR8f2W",
      "id" : "0NGAZxHanS9e0iNHpR8f2W",
      "images" : [ {
        "height" : 640,
        "url" : "https://i.scdn.co/image/ab6761610000e5eb83c76c9545193b431a44a8f6",
        "width" : 640
      }, {
        "height" : 320,
        "url" : "https://i.scdn.co/image/ab6761610000517483c76c9545193b431a44a8f6",
        "width" : 320
      }, {
        "height" : 160,
        "url" : "https://i.scdn.co/image/ab6761610000f17883c76c9545193b431a44a8f6",
        "width" : 160
      } ],
      "name" : "Alok",
      "popularity" : 84,
      "type" : "artist",
      "uri" : "spotify:artist:0NGAZxHanS9e0iNHpR8f2W"
    }, {
      "external_urls" : {
        "spotify" : "https://open.spotify.com/artist/4nOFg36Ik1t2NvGyPn4awu"
      },
      "followers" : {
        "href" : null,
        "total" : 24
      },
      "genres" : [ ],
      "href" : "https://api.spotify.com/v1/artists/4nOFg36Ik1t2NvGyPn4awu",
      "id" : "4nOFg36Ik1t2NvGyPn4awu",
      "images" : [ ],
      "name" : "Alok Tewari",
      "popularity" : 17,
      "type" : "artist",
      "uri" : "spotify:artist:4nOFg36Ik1t2NvGyPn4awu"
    }, {
      "external_urls" : {
        "spotify" : "https://open.spotify.com/artist/4UbgpaTDik0SDhBQq5Ucmt"
      },
      "followers" : {
        "href" : null,
        "total" : 5117
      },
      "genres" : [ ],
      "href" : "https://api.spotify.com/v1/artists/4UbgpaTDik0SDhBQq5Ucmt",
      "id" : "4UbgpaTDik0SDhBQq5Ucmt",
      "images" : [ {
        "height" : 640,
        "url" : "https://i.scdn.co/image/ab6761610000e5ebbbbc522b781c98ec1f3cdcc9",
        "width" : 640
      }, {
        "height" : 320,
        "url" : "https://i.scdn.co/image/ab67616100005174bbbc522b781c98ec1f3cdcc9",
        "width" : 320
      }, {
        "height" : 160,
        "url" : "https://i.scdn.co/image/ab6761610000f178bbbc522b781c98ec1f3cdcc9",
        "width" : 160
      } ],
      "name" : "Aloka",
      "popularity" : 33,
      "type" : "artist",
      "uri" : "spotify:artist:4UbgpaTDik0SDhBQq5Ucmt"
    }, {
      "external_urls" : {
        "spotify" : "https://open.spotify.com/artist/3gBKY0y3dFFVRqicLnVZYz"
      },
      "followers" : {
        "href" : null,
        "total" : 4815815
      },
      "genres" : [ "classic bollywood", "desi pop", "filmi", "modern bollywood" ],
      "href" : "https://api.spotify.com/v1/artists/3gBKY0y3dFFVRqicLnVZYz",
      "id" : "3gBKY0y3dFFVRqicLnVZYz",
      "images" : [ {
        "height" : 640,
        "url" : "https://i.scdn.co/image/ab6761610000e5eb935b2dd507212bd72a71d7f9",
        "width" : 640
      }, {
        "height" : 320,
        "url" : "https://i.scdn.co/image/ab67616100005174935b2dd507212bd72a71d7f9",
        "width" : 320
      }, {
        "height" : 160,
        "url" : "https://i.scdn.co/image/ab6761610000f178935b2dd507212bd72a71d7f9",
        "width" : 160
      } ],
      "name" : "Alka Yagnik",
      "popularity" : 77,
      "type" : "artist",
      "uri" : "spotify:artist:3gBKY0y3dFFVRqicLnVZYz"
    }, {
      "external_urls" : {
        "spotify" : "https://open.spotify.com/artist/0x6crh3utjx74bX5fpXgQh"
      },
      "followers" : {
        "href" : null,
        "total" : 204
      },
      "genres" : [ ],
      "href" : "https://api.spotify.com/v1/artists/0x6crh3utjx74bX5fpXgQh",
      "id" : "0x6crh3utjx74bX5fpXgQh",
      "images" : [ {
        "height" : 640,
        "url" : "https://i.scdn.co/image/ab67616d0000b27371facef8b7f8b42f57d7e15f",
        "width" : 640
      }, {
        "height" : 300,
        "url" : "https://i.scdn.co/image/ab67616d00001e0271facef8b7f8b42f57d7e15f",
        "width" : 300
      }, {
        "height" : 64,
        "url" : "https://i.scdn.co/image/ab67616d0000485171facef8b7f8b42f57d7e15f",
        "width" : 64
      } ],
      "name" : "Aloka",
      "popularity" : 10,
      "type" : "artist",
      "uri" : "spotify:artist:0x6crh3utjx74bX5fpXgQh"
    }, {
      "external_urls" : {
        "spotify" : "https://open.spotify.com/artist/1SwwTFxstdiiTjyAW11Rwh"
      },
      "followers" : {
        "href" : null,
        "total" : 13
      },
      "genres" : [ ],
      "href" : "https://api.spotify.com/v1/artists/1SwwTFxstdiiTjyAW11Rwh",
      "id" : "1SwwTFxstdiiTjyAW11Rwh",
      "images" : [ ],
      "name" : "Alok Nath",
      "popularity" : 6,
      "type" : "artist",
      "uri" : "spotify:artist:1SwwTFxstdiiTjyAW11Rwh"
    }, {
      "external_urls" : {
        "spotify" : "https://open.spotify.com/artist/600hQrWquhV2Wt91LC0NcS"
      },
      "followers" : {
        "href" : null,
        "total" : 10
      },
      "genres" : [ ],
      "href" : "https://api.spotify.com/v1/artists/600hQrWquhV2Wt91LC0NcS",
      "id" : "600hQrWquhV2Wt91LC0NcS",
      "images" : [ ],
      "name" : "Alokanonda",
      "popularity" : 0,
      "type" : "artist",
      "uri" : "spotify:artist:600hQrWquhV2Wt91LC0NcS"
    }, {
      "external_urls" : {
        "spotify" : "https://open.spotify.com/artist/2z2TRvloJt4EfUNQp9rHAi"
      },
      "followers" : {
        "href" : null,
        "total" : 1523910
      },
      "genres" : [ "francoton", "french hip hop", "french pop", "pop urbaine", "rap francais", "rap marseille" ],
      "href" : "https://api.spotify.com/v1/artists/2z2TRvloJt4EfUNQp9rHAi",
      "id" : "2z2TRvloJt4EfUNQp9rHAi",
      "images" : [ {
        "height" : 640,
        "url" : "https://i.scdn.co/image/ab6761610000e5ebbfba3d3408c57a37afb1f9cf",
        "width" : 640
      }, {
        "height" : 320,
        "url" : "https://i.scdn.co/image/ab67616100005174bfba3d3408c57a37afb1f9cf",
        "width" : 320
      }, {
        "height" : 160,
        "url" : "https://i.scdn.co/image/ab6761610000f178bfba3d3408c57a37afb1f9cf",
        "width" : 160
      } ],
      "name" : "Alonzo",
      "popularity" : 70,
      "type" : "artist",
      "uri" : "spotify:artist:2z2TRvloJt4EfUNQp9rHAi"
    }, {
      "external_urls" : {
        "spotify" : "https://open.spotify.com/artist/7fTwDlcBXS7F7Wel4JJ00U"
      },
      "followers" : {
        "href" : null,
        "total" : 0
      },
      "genres" : [ ],
      "href" : "https://api.spotify.com/v1/artists/7fTwDlcBXS7F7Wel4JJ00U",
      "id" : "7fTwDlcBXS7F7Wel4JJ00U",
      "images" : [ ],
      "name" : "Alokoko",
      "popularity" : 0,
      "type" : "artist",
      "uri" : "spotify:artist:7fTwDlcBXS7F7Wel4JJ00U"
    }, {
      "external_urls" : {
        "spotify" : "https://open.spotify.com/artist/5DexCXOx7knvTPNU8KBYep"
      },
      "followers" : {
        "href" : null,
        "total" : 36
      },
      "genres" : [ ],
      "href" : "https://api.spotify.com/v1/artists/5DexCXOx7knvTPNU8KBYep",
      "id" : "5DexCXOx7knvTPNU8KBYep",
      "images" : [ {
        "height" : 640,
        "url" : "https://i.scdn.co/image/ab6761610000e5eb93c493d12f3cf6a481d8d9eb",
        "width" : 640
      }, {
        "height" : 320,
        "url" : "https://i.scdn.co/image/ab6761610000517493c493d12f3cf6a481d8d9eb",
        "width" : 320
      }, {
        "height" : 160,
        "url" : "https://i.scdn.co/image/ab6761610000f17893c493d12f3cf6a481d8d9eb",
        "width" : 160
      } ],
      "name" : "Alok Ranjan Srivastava",
      "popularity" : 17,
      "type" : "artist",
      "uri" : "spotify:artist:5DexCXOx7knvTPNU8KBYep"
    }, {
      "external_urls" : {
        "spotify" : "https://open.spotify.com/artist/6IMuu2cKQSmyrXMuXC2MUV"
      },
      "followers" : {
        "href" : null,
        "total" : 17
      },
      "genres" : [ ],
      "href" : "https://api.spotify.com/v1/artists/6IMuu2cKQSmyrXMuXC2MUV",
      "id" : "6IMuu2cKQSmyrXMuXC2MUV",
      "images" : [ {
        "height" : 640,
        "url" : "https://i.scdn.co/image/ab67616d0000b273b1b4dc4a0e83a0a160b1b644",
        "width" : 640
      }, {
        "height" : 300,
        "url" : "https://i.scdn.co/image/ab67616d00001e02b1b4dc4a0e83a0a160b1b644",
        "width" : 300
      }, {
        "height" : 64,
        "url" : "https://i.scdn.co/image/ab67616d00004851b1b4dc4a0e83a0a160b1b644",
        "width" : 64
      } ],
      "name" : "Alok101",
      "popularity" : 0,
      "type" : "artist",
      "uri" : "spotify:artist:6IMuu2cKQSmyrXMuXC2MUV"
    }, {
      "external_urls" : {
        "spotify" : "https://open.spotify.com/artist/2GE5WBvnXs9v3o17gjLpap"
      },
      "followers" : {
        "href" : null,
        "total" : 60
      },
      "genres" : [ ],
      "href" : "https://api.spotify.com/v1/artists/2GE5WBvnXs9v3o17gjLpap",
      "id" : "2GE5WBvnXs9v3o17gjLpap",
      "images" : [ {
        "height" : 640,
        "url" : "https://i.scdn.co/image/ab67616d0000b2730980443779a65dd653b0f86f",
        "width" : 640
      }, {
        "height" : 300,
        "url" : "https://i.scdn.co/image/ab67616d00001e020980443779a65dd653b0f86f",
        "width" : 300
      }, {
        "height" : 64,
        "url" : "https://i.scdn.co/image/ab67616d000048510980443779a65dd653b0f86f",
        "width" : 64
      } ],
      "name" : "Aloka Collister",
      "popularity" : 10,
      "type" : "artist",
      "uri" : "spotify:artist:2GE5WBvnXs9v3o17gjLpap"
    }, {
      "external_urls" : {
        "spotify" : "https://open.spotify.com/artist/4XRsPLsA1IJIQvzwsz4i2g"
      },
      "followers" : {
        "href" : null,
        "total" : 5
      },
      "genres" : [ ],
      "href" : "https://api.spotify.com/v1/artists/4XRsPLsA1IJIQvzwsz4i2g",
      "id" : "4XRsPLsA1IJIQvzwsz4i2g",
      "images" : [ {
        "height" : 640,
        "url" : "https://i.scdn.co/image/ab6761610000e5ebe46a293cb26d05d54002c035",
        "width" : 640
      }, {
        "height" : 320,
        "url" : "https://i.scdn.co/image/ab67616100005174e46a293cb26d05d54002c035",
        "width" : 320
      }, {
        "height" : 160,
        "url" : "https://i.scdn.co/image/ab6761610000f178e46a293cb26d05d54002c035",
        "width" : 160
      } ],
      "name" : "Alokin",
      "popularity" : 0,
      "type" : "artist",
      "uri" : "spotify:artist:4XRsPLsA1IJIQvzwsz4i2g"
    }, {
      "external_urls" : {
        "spotify" : "https://open.spotify.com/artist/0SuhnjduBSSga2aYFXZAne"
      },
      "followers" : {
        "href" : null,
        "total" : 941
      },
      "genres" : [ ],
      "href" : "https://api.spotify.com/v1/artists/0SuhnjduBSSga2aYFXZAne",
      "id" : "0SuhnjduBSSga2aYFXZAne",
      "images" : [ {
        "height" : 640,
        "url" : "https://i.scdn.co/image/ab67616d0000b273c62edc2b439c70a5fa325a3c",
        "width" : 640
      }, {
        "height" : 300,
        "url" : "https://i.scdn.co/image/ab67616d00001e02c62edc2b439c70a5fa325a3c",
        "width" : 300
      }, {
        "height" : 64,
        "url" : "https://i.scdn.co/image/ab67616d00004851c62edc2b439c70a5fa325a3c",
        "width" : 64
      } ],
      "name" : "ALOKE",
      "popularity" : 3,
      "type" : "artist",
      "uri" : "spotify:artist:0SuhnjduBSSga2aYFXZAne"
    }, {
      "external_urls" : {
        "spotify" : "https://open.spotify.com/artist/0N5ZYb5cr7vPXDpeMCD1Au"
      },
      "followers" : {
        "href" : null,
        "total" : 3
      },
      "genres" : [ ],
      "href" : "https://api.spotify.com/v1/artists/0N5ZYb5cr7vPXDpeMCD1Au",
      "id" : "0N5ZYb5cr7vPXDpeMCD1Au",
      "images" : [ {
        "height" : 640,
        "url" : "https://i.scdn.co/image/ab67616d0000b273568fe0755508e6290348af22",
        "width" : 640
      }, {
        "height" : 300,
        "url" : "https://i.scdn.co/image/ab67616d00001e02568fe0755508e6290348af22",
        "width" : 300
      }, {
        "height" : 64,
        "url" : "https://i.scdn.co/image/ab67616d00004851568fe0755508e6290348af22",
        "width" : 64
      } ],
      "name" : "AloKard",
      "popularity" : 0,
      "type" : "artist",
      "uri" : "spotify:artist:0N5ZYb5cr7vPXDpeMCD1Au"
    }, {
      "external_urls" : {
        "spotify" : "https://open.spotify.com/artist/2bHbRSAOEco0YyMFxHCg3o"
      },
      "followers" : {
        "href" : null,
        "total" : 27
      },
      "genres" : [ ],
      "href" : "https://api.spotify.com/v1/artists/2bHbRSAOEco0YyMFxHCg3o",
      "id" : "2bHbRSAOEco0YyMFxHCg3o",
      "images" : [ {
        "height" : 640,
        "url" : "https://i.scdn.co/image/ab67616d0000b273d3b04076514c9f762054c4c9",
        "width" : 640
      }, {
        "height" : 300,
        "url" : "https://i.scdn.co/image/ab67616d00001e02d3b04076514c9f762054c4c9",
        "width" : 300
      }, {
        "height" : 64,
        "url" : "https://i.scdn.co/image/ab67616d00004851d3b04076514c9f762054c4c9",
        "width" : 64
      } ],
      "name" : "Alok Official",
      "popularity" : 13,
      "type" : "artist",
      "uri" : "spotify:artist:2bHbRSAOEco0YyMFxHCg3o"
    }, {
      "external_urls" : {
        "spotify" : "https://open.spotify.com/artist/2vIPX1XqR04e7OjS9kG5vM"
      },
      "followers" : {
        "href" : null,
        "total" : 7
      },
      "genres" : [ ],
      "href" : "https://api.spotify.com/v1/artists/2vIPX1XqR04e7OjS9kG5vM",
      "id" : "2vIPX1XqR04e7OjS9kG5vM",
      "images" : [ {
        "height" : 640,
        "url" : "https://i.scdn.co/image/ab6761610000e5eb02ecd0e7c606f54499051b4b",
        "width" : 640
      }, {
        "height" : 320,
        "url" : "https://i.scdn.co/image/ab6761610000517402ecd0e7c606f54499051b4b",
        "width" : 320
      }, {
        "height" : 160,
        "url" : "https://i.scdn.co/image/ab6761610000f17802ecd0e7c606f54499051b4b",
        "width" : 160
      } ],
      "name" : "Alokor",
      "popularity" : 0,
      "type" : "artist",
      "uri" : "spotify:artist:2vIPX1XqR04e7OjS9kG5vM"
    }, {
      "external_urls" : {
        "spotify" : "https://open.spotify.com/artist/6OtXlm1xi9dkdlhUUzgTFy"
      },
      "followers" : {
        "href" : null,
        "total" : 1007
      },
      "genres" : [ ],
      "href" : "https://api.spotify.com/v1/artists/6OtXlm1xi9dkdlhUUzgTFy",
      "id" : "6OtXlm1xi9dkdlhUUzgTFy",
      "images" : [ {
        "height" : 640,
        "url" : "https://i.scdn.co/image/ab6761610000e5eb2c89d0092d687827398d02a9",
        "width" : 640
      }, {
        "height" : 320,
        "url" : "https://i.scdn.co/image/ab676161000051742c89d0092d687827398d02a9",
        "width" : 320
      }, {
        "height" : 160,
        "url" : "https://i.scdn.co/image/ab6761610000f1782c89d0092d687827398d02a9",
        "width" : 160
      } ],
      "name" : "Alok Kumar",
      "popularity" : 21,
      "type" : "artist",
      "uri" : "spotify:artist:6OtXlm1xi9dkdlhUUzgTFy"
    }, {
      "external_urls" : {
        "spotify" : "https://open.spotify.com/artist/51P5LPIFbFPssIoIIIs8LJ"
      },
      "followers" : {
        "href" : null,
        "total" : 0
      },
      "genres" : [ ],
      "href" : "https://api.spotify.com/v1/artists/51P5LPIFbFPssIoIIIs8LJ",
      "id" : "51P5LPIFbFPssIoIIIs8LJ",
      "images" : [ ],
      "name" : "Alok2",
      "popularity" : 0,
      "type" : "artist",
      "uri" : "spotify:artist:51P5LPIFbFPssIoIIIs8LJ"
    }, {
      "external_urls" : {
        "spotify" : "https://open.spotify.com/artist/6OphtNgDjNUif4tvFfbRm5"
      },
      "followers" : {
        "href" : null,
        "total" : 33
      },
      "genres" : [ ],
      "href" : "https://api.spotify.com/v1/artists/6OphtNgDjNUif4tvFfbRm5",
      "id" : "6OphtNgDjNUif4tvFfbRm5",
      "images" : [ {
        "height" : 640,
        "url" : "https://i.scdn.co/image/ab6761610000e5eb1866b6a64264c9134b1ed53b",
        "width" : 640
      }, {
        "height" : 320,
        "url" : "https://i.scdn.co/image/ab676161000051741866b6a64264c9134b1ed53b",
        "width" : 320
      }, {
        "height" : 160,
        "url" : "https://i.scdn.co/image/ab6761610000f1781866b6a64264c9134b1ed53b",
        "width" : 160
      } ],
      "name" : "Alok Modi",
      "popularity" : 2,
      "type" : "artist",
      "uri" : "spotify:artist:6OphtNgDjNUif4tvFfbRm5"
    } ],
    "limit" : 20,
    "next" : "https://api.spotify.com/v1/search?query=ALOK&type=artist&market=US&offset=20&limit=20",
    "offset" : 0,
    "previous" : null,
    "total" : 329
  }
}