{
  "artists" : {
    "href" : "https://api.spotify.com/v1/search?query=LEVEL+UP&type=artist&market=US&offset=0&limit=20",
    "items" : [ {
      "external_urls" : {
        "spotify" : "https://open.spotify.com/artist/1ZpDxqXS6HAvoZyCzQfKRb"
      },
      "followers" : {
        "href" : null,
        "total" : 10745
      },
      "genres" : [ "dubstep" ],
      "href" : "https://api.spotify.com/v1/artists/1ZpDxqXS6HAvoZyCzQfKRb",
      "id" : "1ZpDxqXS6HAvoZyCzQfKRb",
      "images" : [ {
        "height" : 640,
        "url" : "https://i.scdn.co/image/ab6761610000e5eb6dc2b46539097968b388d207",
        "width" : 640
      }, {
        "height" : 320,
        "url" : "https://i.scdn.co/image/ab676161000051746dc2b46539097968b388d207",
        "width" : 320
      }, {
        "height" : 160,
        "url" : "https://i.scdn.co/image/ab6761610000f1786dc2b46539097968b388d207",
        "width" : 160
      } ],
      "name" : "LEVEL UP",
      "popularity" : 34,
      "type" : "artist",
      "uri" : "spotify:artist:1ZpDxqXS6HAvoZyCzQfKRb"
    }, {
      "external_urls" : {
        "spotify" : "https://open.spotify.com/artist/35SHEhtQsgHu3Zh4E88nYN"
      },
      "followers" : {
        "href" : null,
        "total" : 1514
      },
      "genres" : [ ],
      "href" : "https://api.spotify.com/v1/artists/35SHEhtQsgHu3Zh4E88nYN",
      "id" : "35SHEhtQsgHu3Zh4E88nYN",
      "images" : [ {
        "height" : 640,
        "url" : "https://i.scdn.co/image/ab6761610000e5ebfe31a3ff78f2b92608baa7c2",
        "width" : 640
      }, {
        "height" : 320,
        "url" : "https://i.scdn.co/image/ab67616100005174fe31a3ff78f2b92608baa7c2",
        "width" : 320
      }, {
        "height" : 160,
        "url" : "https://i.scdn.co/image/ab6761610000f178fe31a3ff78f2b92608baa7c2",
        "width" : 160
      } ],
      "name" : "Level Up",
      "popularity" : 30,
      "type" : "artist",
      "uri" : "spotify:artist:35SHEhtQsgHu3Zh4E88nYN"
    }, {
      "external_urls" : {
        "spotify" : "https://open.spotify.com/artist/7d34DvqI68UZ6HD0sRiEzM"
      },
      "followers" : {
        "href" : null,
        "total" : 0
      },
      "genres" : [ ],
      "href" : "https://api.spotify.com/v1/artists/7d34DvqI68UZ6HD0sRiEzM",
      "id" : "7d34DvqI68UZ6HD0sRiEzM",
      "images" : [ {
        "height" : 640,
        "url" : "https://i.scdn.co/image/ab67616d0000b273f184b4b27f322147cba48777",
        "width" : 640
      }, {
        "height" : 300,
        "url" : "https://i.scdn.co/image/ab67616d00001e02f184b4b27f322147cba48777",
        "width" : 300
      }, {
        "height" : 64,
        "url" : "https://i.scdn.co/image/ab67616d00004851f184b4b27f322147cba48777",
        "width" : 64
      } ],
      "name" : "LEVEL UP",
      "popularity" : 0,
      "type" : "artist",
      "uri" : "spotify:artist:7d34DvqI68UZ6HD0sRiEzM"
    }, {
      "external_urls" : {
        "spotify" : "https://open.spotify.com/artist/3hHhirqzOaVcwGL0p7KkwN"
      },
      "followers" : {
        "href" : null,
        "total" : 604
      },
      "genres" : [ ],
      "href" : "https://api.spotify.com/v1/artists/3hHhirqzOaVcwGL0p7KkwN",
      "id" : "3hHhirqzOaVcwGL0p7KkwN",
      "images" : [ {
        "height" : 640,
        "url" : "https://i.scdn.co/image/ab67616d0000b273a3dc6539f49e425894d59ace",
        "width" : 640
      }, {
        "height" : 300,
        "url" : "https://i.scdn.co/image/ab67616d00001e02a3dc6539f49e425894d59ace",
        "width" : 300
      }, {
        "height" : 64,
        "url" : "https://i.scdn.co/image/ab67616d00004851a3dc6539f49e425894d59ace",
        "width" : 64
      } ],
      "name" : "Level-Up",
      "popularity" : 13,
      "type" : "artist",
      "uri" : "spotify:artist:3hHhirqzOaVcwGL0p7KkwN"
    }, {
      "external_urls" : {
        "spotify" : "https://open.spotify.com/artist/05FQEgAXOJCzy8iyEdAOQl"
      },
      "followers" : {
        "href" : null,
        "total" : 4
      },
      "genres" : [ ],
      "href" : "https://api.spotify.com/v1/artists/05FQEgAXOJCzy8iyEdAOQl",
      "id" : "05FQEgAXOJCzy8iyEdAOQl",
      "images" : [ {
        "height" : 640,
        "url" : "https://i.scdn.co/image/ab67616d0000b273df9dfbd097248fa1d803645e",
        "width" : 640
      }, {
        "height" : 300,
        "url" : "https://i.scdn.co/image/ab67616d00001e02df9dfbd097248fa1d803645e",
        "width" : 300
      }, {
        "height" : 64,
        "url" : "https://i.scdn.co/image/ab67616d00004851df9dfbd097248fa1d803645e",
        "width" : 64
      } ],
      "name" : "Level Ups",
      "popularity" : 19,
      "type" : "artist",
      "uri" : "spotify:artist:05FQEgAXOJCzy8iyEdAOQl"
    }, {
      "external_urls" : {
        "spotify" : "https://open.spotify.com/artist/5CFpYeCVmPQBPACKyYNlul"
      },
      "followers" : {
        "href" : null,
        "total" : 5
      },
      "genres" : [ ],
      "href" : "https://api.spotify.com/v1/artists/5CFpYeCVmPQBPACKyYNlul",
      "id" : "5CFpYeCVmPQBPACKyYNlul",
      "images" : [ {
        "height" : 640,
        "url" : "https://i.scdn.co/image/ab67616d0000b2739cba592b47b24f35890fd8ae",
        "width" : 640
      }, {
        "height" : 300,
        "url" : "https://i.scdn.co/image/ab67616d00001e029cba592b47b24f35890fd8ae",
        "width" : 300
      }, {
        "height" : 64,
        "url" : "https://i.scdn.co/image/ab67616d000048519cba592b47b24f35890fd8ae",
        "width" : 64
      } ],
      "name" : "LEVEL UP",
      "popularity" : 0,
      "type" : "artist",
      "uri" : "spotify:artist:5CFpYeCVmPQBPACKyYNlul"
    }, {
      "external_urls" : {
        "spotify" : "https://open.spotify.com/artist/3ff0yM7WCbW4wr2TyjiFbV"
      },
      "followers" : {
        "href" : null,
        "total" : 3
      },
      "genres" : [ ],
      "href" : "https://api.spotify.com/v1/artists/3ff0yM7WCbW4wr2TyjiFbV",
      "id" : "3ff0yM7WCbW4wr2TyjiFbV",
      "images" : [ {
        "height" : 640,
        "url" : "https://i.scdn.co/image/ab67616d0000b2732ab9f9439f0c2527c32ca475",
        "width" : 640
      }, {
        "height" : 300,
        "url" : "https://i.scdn.co/image/ab67616d00001e022ab9f9439f0c2527c32ca475",
        "width" : 300
      }, {
        "height" : 64,
        "url" : "https://i.scdn.co/image/ab67616d000048512ab9f9439f0c2527c32ca475",
        "width" : 64
      } ],
      "name" : "Level Up Entertainment",
      "popularity" : 1,
      "type" : "artist",
      "uri" : "spotify:artist:3ff0yM7WCbW4wr2TyjiFbV"
    }, {
      "external_urls" : {
        "spotify" : "https://open.spotify.com/artist/6bdF60pPfD0yM1N8H0DuP1"
      },
      "followers" : {
        "href" : null,
        "total" : 13
      },
      "genres" : [ ],
      "href" : "https://api.spotify.com/v1/artists/6bdF60pPfD0yM1N8H0DuP1",
      "id" : "6bdF60pPfD0yM1N8H0DuP1",
      "images" : [ {
        "height" : 640,
        "url" : "https://i.scdn.co/image/ab6761610000e5ebcb8aa4005d4ac126fb89c3b9",
        "width" : 640
      }, {
        "height" : 320,
        "url" : "https://i.scdn.co/image/ab67616100005174cb8aa4005d4ac126fb89c3b9",
        "width" : 320
      }, {
        "height" : 160,
        "url" : "https://i.scdn.co/image/ab6761610000f178cb8aa4005d4ac126fb89c3b9",
        "width" : 160
      } ],
      "name" : "Level^Up",
      "popularity" : 1,
      "type" : "artist",
      "uri" : "spotify:artist:6bdF60pPfD0yM1N8H0DuP1"
    }, {
      "external_urls" : {
        "spotify" : "https://open.spotify.com/artist/2QkQDK1z7JbZ0qX27NCsAQ"
      },
      "followers" : {
        "href" : null,
        "total" : 0
      },
      "genres" : [ ],
      "href" : "https://api.spotify.com/v1/artists/2QkQDK1z7JbZ0qX27NCsAQ",
      "id" : "2QkQDK1z7JbZ0qX27NCsAQ",
      "images" : [ ],
      "name" : "UpDown Level",
      "popularity" : 0,
      "type" : "artist",
      "uri" : "spotify:artist:2QkQDK1z7JbZ0qX27NCsAQ"
    }, {
      "external_urls" : {
        "spotify" : "https://open.spotify.com/artist/1jsAAADWrBsSnnQIUDtqnr"
      },
      "followers" : {
        "href" : null,
        "total" : 1191
      },
      "genres" : [ ],
      "href" : "https://api.spotify.com/v1/artists/1jsAAADWrBsSnnQIUDtqnr",
      "id" : "1jsAAADWrBsSnnQIUDtqnr",
      "images" : [ {
        "height" : 640,
        "url" : "https://i.scdn.co/image/ab67616d0000b2738cdf13bef855c4aab0466e2e",
        "width" : 640
      }, {
        "height" : 300,
        "url" : "https://i.scdn.co/image/ab67616d00001e028cdf13bef855c4aab0466e2e",
        "width" : 300
      }, {
        "height" : 64,
        "url" : "https://i.scdn.co/image/ab67616d000048518cdf13bef855c4aab0466e2e",
        "width" : 64
      } ],
      "name" : "Level Up",
      "popularity" : 1,
      "type" : "artist",
      "uri" : "spotify:artist:1jsAAADWrBsSnnQIUDtqnr"
    }, {
      "external_urls" : {
        "spotify" : "https://open.spotify.com/artist/0HxiSGfKnj466UyjesPwSI"
      },
      "followers" : {
        "href" : null,
        "total" : 0
      },
      "genres" : [ ],
      "href" : "https://api.spotify.com/v1/artists/0HxiSGfKnj466UyjesPwSI",
      "id" : "0HxiSGfKnj466UyjesPwSI",
      "images" : [ ],
      "name" : "Level Up",
      "popularity" : 0,
      "type" : "artist",
      "uri" : "spotify:artist:0HxiSGfKnj466UyjesPwSI"
    }, {
      "external_urls" : {
        "spotify" : "https://open.spotify.com/artist/6CwkYKiLuXupta2iNS086a"
      },
      "followers" : {
        "href" : null,
        "total" : 192
      },
      "genres" : [ ],
      "href" : "https://api.spotify.com/v1/artists/6CwkYKiLuXupta2iNS086a",
      "id" : "6CwkYKiLuXupta2iNS086a",
      "images" : [ {
        "height" : 640,
        "url" : "https://i.scdn.co/image/ab6761610000e5eb31450e78e3a99aad148c82c7",
        "width" : 640
      }, {
        "height" : 320,
        "url" : "https://i.scdn.co/image/ab6761610000517431450e78e3a99aad148c82c7",
        "width" : 320
      }, {
        "height" : 160,
        "url" : "https://i.scdn.co/image/ab6761610000f17831450e78e3a99aad148c82c7",
        "width" : 160
      } ],
      "name" : "Level Up!",
      "popularity" : 3,
      "type" : "artist",
      "uri" : "spotify:artist:6CwkYKiLuXupta2iNS086a"
    }, {
      "external_urls" : {
        "spotify" : "https://open.spotify.com/artist/0On4oxqRj1e8oNPXKsLD1q"
      },
      "followers" : {
        "href" : null,
        "total" : 1
      },
      "genres" : [ ],
      "href" : "https://api.spotify.com/v1/artists/0On4oxqRj1e8oNPXKsLD1q",
      "id" : "0On4oxqRj1e8oNPXKsLD1q",
      "images" : [ {
        "height" : 640,
        "url" : "https://i.scdn.co/image/ab67616d0000b273abf51232d9cba886f391faad",
        "width" : 640
      }, {
        "height" : 300,
        "url" : "https://i.scdn.co/image/ab67616d00001e02abf51232d9cba886f391faad",
        "width" : 300
      }, {
        "height" : 64,
        "url" : "https://i.scdn.co/image/ab67616d00004851abf51232d9cba886f391faad",
        "width" : 64
      } ],
      "name" : "LEVEL-UP",
      "popularity" : 0,
      "type" : "artist",
      "uri" : "spotify:artist:0On4oxqRj1e8oNPXKsLD1q"
    }, {
      "external_urls" : {
        "spotify" : "https://open.spotify.com/artist/4IpVJospyqDhBNzmIf3XkN"
      },
      "followers" : {
        "href" : null,
        "total" : 81
      },
      "genres" : [ ],
      "href" : "https://api.spotify.com/v1/artists/4IpVJospyqDhBNzmIf3XkN",
      "id" : "4IpVJospyqDhBNzmIf3XkN",
      "images" : [ {
        "height" : 640,
        "url" : "https://i.scdn.co/image/ab67616d0000b27379925d1c454eb3846c1aa805",
        "width" : 640
      }, {
        "height" : 300,
        "url" : "https://i.scdn.co/image/ab67616d00001e0279925d1c454eb3846c1aa805",
        "width" : 300
      }, {
        "height" : 64,
        "url" : "https://i.scdn.co/image/ab67616d0000485179925d1c454eb3846c1aa805",
        "width" : 64
      } ],
      "name" : "Level Up 2 Hero",
      "popularity" : 0,
      "type" : "artist",
      "uri" : "spotify:artist:4IpVJospyqDhBNzmIf3XkN"
    }, {
      "external_urls" : {
        "spotify" : "https://open.spotify.com/artist/5yrjLpxO9E4ySukcPROvNe"
      },
      "followers" : {
        "href" : null,
        "total" : 3
      },
      "genres" : [ ],
      "href" : "https://api.spotify.com/v1/artists/5yrjLpxO9E4ySukcPROvNe",
      "id" : "5yrjLpxO9E4ySukcPROvNe",
      "images" : [ {
        "height" : 640,
        "url" : "https://i.scdn.co/image/ab6761610000e5eb0331b5d2fc83b2b9ffcbd694",
        "width" : 640
      }, {
        "height" : 320,
        "url" : "https://i.scdn.co/image/ab676161000051740331b5d2fc83b2b9ffcbd694",
        "width" : 320
      }, {
        "height" : 160,
        "url" : "https://i.scdn.co/image/ab6761610000f1780331b5d2fc83b2b9ffcbd694",
        "width" : 160
      } ],
      "name" : "LEVEL UP!",
      "popularity" : 0,
      "type" : "artist",
      "uri" : "spotify:artist:5yrjLpxO9E4ySukcPROvNe"
    }, {
      "external_urls" : {
        "spotify" : "https://open.spotify.com/artist/1z28bCjBcVOZeL0M6Uve0y"
      },
      "followers" : {
        "href" : null,
        "total" : 2
      },
      "genres" : [ ],
      "href" : "https://api.spotify.com/v1/artists/1z28bCjBcVOZeL0M6Uve0y",
      "id" : "1z28bCjBcVOZeL0M6Uve0y",
      "images" : [ {
        "height" : 640,
        "url" : "https://i.scdn.co/image/ab67616d0000b2738689814328b903302a23bdc2",
        "width" : 640
      }, {
        "height" : 300,
        "url" : "https://i.scdn.co/image/ab67616d00001e028689814328b903302a23bdc2",
        "width" : 300
      }, {
        "height" : 64,
        "url" : "https://i.scdn.co/image/ab67616d000048518689814328b903302a23bdc2",
        "width" : 64
      } ],
      "name" : "Level Up Music",
      "popularity" : 0,
      "type" : "artist",
      "uri" : "spotify:artist:1z28bCjBcVOZeL0M6Uve0y"
    }, {
      "external_urls" : {
        "spotify" : "https://open.spotify.com/artist/50zRrJJ92Ip9SvmC6qgnQH"
      },
      "followers" : {
        "href" : null,
        "total" : 0
      },
      "genres" : [ ],
      "href" : "https://api.spotify.com/v1/artists/50zRrJJ92Ip9SvmC6qgnQH",
      "id" : "50zRrJJ92Ip9SvmC6qgnQH",
      "images" : [ ],
      "name" : "Level UP",
      "popularity" : 0,
      "type" : "artist",
      "uri" : "spotify:artist:50zRrJJ92Ip9SvmC6qgnQH"
    }, {
      "external_urls" : {
        "spotify" : "https://open.spotify.com/artist/7zdoJbdzMRHE8fKybkTh2S"
      },
      "followers" : {
        "href" : null,
        "total" : 54
      },
      "genres" : [ ],
      "href" : "https://api.spotify.com/v1/artists/7zdoJbdzMRHE8fKybkTh2S",
      "id" : "7zdoJbdzMRHE8fKybkTh2S",
      "images" : [ {
        "height" : 640,
        "url" : "https://i.scdn.co/image/ab67616d0000b2733c5523042ce5524bf87be825",
        "width" : 640
      }, {
        "height" : 300,
        "url" : "https://i.scdn.co/image/ab67616d00001e023c5523042ce5524bf87be825",
        "width" : 300
      }, {
        "height" : 64,
        "url" : "https://i.scdn.co/image/ab67616d000048513c5523042ce5524bf87be825",
        "width" : 64
      } ],
      "name" : "LEVEL UP YOO",
      "popularity" : 4,
      "type" : "artist",
      "uri" : "spotify:artist:7zdoJbdzMRHE8fKybkTh2S"
    }, {
      "external_urls" : {
        "spotify" : "https://open.spotify.com/artist/1HIgoJd4zBLufIwVmi4tFg"
      },
      "followers" : {
        "href" : null,
        "total" : 2
      },
      "genres" : [ ],
      "href" : "https://api.spotify.com/v1/artists/1HIgoJd4zBLufIwVmi4tFg",
      "id" : "1HIgoJd4zBLufIwVmi4tFg",
      "images" : [ {
        "height" : 640,
        "url" : "https://i.scdn.co/image/ab67616d0000b2736575dc0f48fb70d6ba8a5c63",
        "width" : 640
      }, {
        "height" : 300,
        "url" : "https://i.scdn.co/image/ab67616d00001e026575dc0f48fb70d6ba8a5c63",
        "width" : 300
      }, {
        "height" : 64,
        "url" : "https://i.scdn.co/image/ab67616d000048516575dc0f48fb70d6ba8a5c63",
        "width" : 64
      } ],
      "name" : "Level Up",
      "popularity" : 0,
      "type" : "artist",
      "uri" : "spotify:artist:1HIgoJd4zBLufIwVmi4tFg"
    }, {
      "external_urls" : {
        "spotify" : "https://open.spotify.com/artist/6nqXu3SPWrNMq7xSKXdokt"
      },
      "followers" : {
        "href" : null,
        "total" : 11
      },
      "genres" : [ ],
      "href" : "https://api.spotify.com/v1/artists/6nqXu3SPWrNMq7xSKXdokt",
      "id" : "6nqXu3SPWrNMq7xSKXdokt",
      "images" : [ {
        "height" : 640,
        "url" : "https://i.scdn.co/image/ab67616d0000b273a1af2d1fdd0f8c45b383af71",
        "width" : 640
      }, {
        "height" : 300,
        "url" : "https://i.scdn.co/image/ab67616d00001e02a1af2d1fdd0f8c45b383af71",
        "width" : 300
      }, {
        "height" : 64,
        "url" : "https://i.scdn.co/image/ab67616d00004851a1af2d1fdd0f8c45b383af71",
        "width" : 64
      } ],
      "name" : "Level Up",
      "popularity" : 31,
      "type" : "artist",
      "uri" : "spotify:artist:6nqXu3SPWrNMq7xSKXdokt"
    } ],
    "limit" : 20,
    "next" : "https://api.spotify.com/v1/search?query=LEVEL+UP&type=artist&market=US&offset=20&limit=20",
    "offset" : 0,
    "previous" : null,
    "total" : 48
  }
}