{
  "artists" : {
    "href" : "https://api.spotify.com/v1/search?query=Fallen&type=artist&market=US&offset=0&limit=20",
    "items" : [ {
      "external_urls" : {
        "spotify" : "https://open.spotify.com/artist/5I6WLC9Auo6aeTRHPQbdOv"
      },
      "followers" : {
        "href" : null,
        "total" : 17486
      },
      "genres" : [ "lo-fi cover" ],
      "href" : "https://api.spotify.com/v1/artists/5I6WLC9Auo6aeTRHPQbdOv",
      "id" : "5I6WLC9Auo6aeTRHPQbdOv",
      "images" : [ {
        "height" : 640,
        "url" : "https://i.scdn.co/image/ab6761610000e5ebcc25d5532622ed3fa082eca1",
        "width" : 640
      }, {
        "height" : 320,
        "url" : "https://i.scdn.co/image/ab67616100005174cc25d5532622ed3fa082eca1",
        "width" : 320
      }, {
        "height" : 160,
        "url" : "https://i.scdn.co/image/ab6761610000f178cc25d5532622ed3fa082eca1",
        "width" : 160
      } ],
      "name" : "Fallen Roses",
      "popularity" : 65,
      "type" : "artist",
      "uri" : "spotify:artist:5I6WLC9Auo6aeTRHPQbdOv"
    }, {
      "external_urls" : {
        "spotify" : "https://open.spotify.com/artist/4lET4bWdSD116tQndRZ96X"
      },
      "followers" : {
        "href" : null,
        "total" : 770
      },
      "genres" : [ ],
      "href" : "https://api.spotify.com/v1/artists/4lET4bWdSD116tQndRZ96X",
      "id" : "4lET4bWdSD116tQndRZ96X",
      "images" : [ {
        "height" : 640,
        "url" : "https://i.scdn.co/image/ab6761610000e5ebdba7b9de23798a1c98225f8e",
        "width" : 640
      }, {
        "height" : 320,
        "url" : "https://i.scdn.co/image/ab67616100005174dba7b9de23798a1c98225f8e",
        "width" : 320
      }, {
        "height" : 160,
        "url" : "https://i.scdn.co/image/ab6761610000f178dba7b9de23798a1c98225f8e",
        "width" : 160
      } ],
      "name" : "Fallen Oceans",
      "popularity" : 39,
      "type" : "artist",
      "uri" : "spotify:artist:4lET4bWdSD116tQndRZ96X"
    }, {
      "external_urls" : {
        "spotify" : "https://open.spotify.com/artist/0rsHKddRhuze38fVL0egOY"
      },
      "followers" : {
        "href" : null,
        "total" : 103773
      },
      "genres" : [ "deathcore", "melodic hardcore", "melodic metalcore", "metalcore", "screamo" ],
      "href" : "https://api.spotify.com/v1/artists/0rsHKddRhuze38fVL0egOY",
      "id" : "0rsHKddRhuze38fVL0egOY",
      "images" : [ {
        "height" : 640,
        "url" : "https://i.scdn.co/image/ab6761610000e5eb9d890ca6f450822f3c4ff23b",
        "width" : 640
      }, {
        "height" : 320,
        "url" : "https://i.scdn.co/image/ab676161000051749d890ca6f450822f3c4ff23b",
        "width" : 320
      }, {
        "height" : 160,
        "url" : "https://i.scdn.co/image/ab6761610000f1789d890ca6f450822f3c4ff23b",
        "width" : 160
      } ],
      "name" : "For The Fallen Dreams",
      "popularity" : 42,
      "type" : "artist",
      "uri" : "spotify:artist:0rsHKddRhuze38fVL0egOY"
    }, {
      "external_urls" : {
        "spotify" : "https://open.spotify.com/artist/20Zt0tHU7sQDqzML1kZTpe"
      },
      "followers" : {
        "href" : null,
        "total" : 615
      },
      "genres" : [ ],
      "href" : "https://api.spotify.com/v1/artists/20Zt0tHU7sQDqzML1kZTpe",
      "id" : "20Zt0tHU7sQDqzML1kZTpe",
      "images" : [ {
        "height" : 640,
        "url" : "https://i.scdn.co/image/ab6761610000e5ebeb3b4581b03e4fda358c0e65",
        "width" : 640
      }, {
        "height" : 320,
        "url" : "https://i.scdn.co/image/ab67616100005174eb3b4581b03e4fda358c0e65",
        "width" : 320
      }, {
        "height" : 160,
        "url" : "https://i.scdn.co/image/ab6761610000f178eb3b4581b03e4fda358c0e65",
        "width" : 160
      } ],
      "name" : "Fallen",
      "popularity" : 39,
      "type" : "artist",
      "uri" : "spotify:artist:20Zt0tHU7sQDqzML1kZTpe"
    }, {
      "external_urls" : {
        "spotify" : "https://open.spotify.com/artist/2f3vPfwYtLjabnaQMR0hTC"
      },
      "followers" : {
        "href" : null,
        "total" : 6030
      },
      "genres" : [ ],
      "href" : "https://api.spotify.com/v1/artists/2f3vPfwYtLjabnaQMR0hTC",
      "id" : "2f3vPfwYtLjabnaQMR0hTC",
      "images" : [ {
        "height" : 640,
        "url" : "https://i.scdn.co/image/ab6761610000e5eb0284ea727e4d3193afbe2a29",
        "width" : 640
      }, {
        "height" : 320,
        "url" : "https://i.scdn.co/image/ab676161000051740284ea727e4d3193afbe2a29",
        "width" : 320
      }, {
        "height" : 160,
        "url" : "https://i.scdn.co/image/ab6761610000f1780284ea727e4d3193afbe2a29",
        "width" : 160
      } ],
      "name" : "Fallen Pine",
      "popularity" : 33,
      "type" : "artist",
      "uri" : "spotify:artist:2f3vPfwYtLjabnaQMR0hTC"
    }, {
      "external_urls" : {
        "spotify" : "https://open.spotify.com/artist/4V0jSDdGGQ2VhYuSOjBUjI"
      },
      "followers" : {
        "href" : null,
        "total" : 104302
      },
      "genres" : [ "gothic metal", "gothic symphonic metal", "pixie", "symphonic metal" ],
      "href" : "https://api.spotify.com/v1/artists/4V0jSDdGGQ2VhYuSOjBUjI",
      "id" : "4V0jSDdGGQ2VhYuSOjBUjI",
      "images" : [ {
        "height" : 667,
        "url" : "https://i.scdn.co/image/95b8bdaf9af42a38a26d86e3fe73bf5f79c77b9d",
        "width" : 1000
      }, {
        "height" : 427,
        "url" : "https://i.scdn.co/image/6ff74d67ff667e7470ff67fef49e18a1828c9a0e",
        "width" : 640
      }, {
        "height" : 133,
        "url" : "https://i.scdn.co/image/b0f1ae4e67fbfe0b6e1675b83e6a6c767039be90",
        "width" : 200
      }, {
        "height" : 43,
        "url" : "https://i.scdn.co/image/899f4b789348be8c2fb714e0d81d8528a291bd35",
        "width" : 64
      } ],
      "name" : "We Are The Fallen",
      "popularity" : 43,
      "type" : "artist",
      "uri" : "spotify:artist:4V0jSDdGGQ2VhYuSOjBUjI"
    }, {
      "external_urls" : {
        "spotify" : "https://open.spotify.com/artist/2NLpJ077o7AodPUEFbPDLb"
      },
      "followers" : {
        "href" : null,
        "total" : 1176
      },
      "genres" : [ "doom metal", "funeral doom" ],
      "href" : "https://api.spotify.com/v1/artists/2NLpJ077o7AodPUEFbPDLb",
      "id" : "2NLpJ077o7AodPUEFbPDLb",
      "images" : [ {
        "height" : 640,
        "url" : "https://i.scdn.co/image/ab67616d0000b273ce3dbd24077ba9682187588d",
        "width" : 640
      }, {
        "height" : 300,
        "url" : "https://i.scdn.co/image/ab67616d00001e02ce3dbd24077ba9682187588d",
        "width" : 300
      }, {
        "height" : 64,
        "url" : "https://i.scdn.co/image/ab67616d00004851ce3dbd24077ba9682187588d",
        "width" : 64
      } ],
      "name" : "Fallen",
      "popularity" : 17,
      "type" : "artist",
      "uri" : "spotify:artist:2NLpJ077o7AodPUEFbPDLb"
    }, {
      "external_urls" : {
        "spotify" : "https://open.spotify.com/artist/4FQWpLnTqvKczzgi0D7w7m"
      },
      "followers" : {
        "href" : null,
        "total" : 117
      },
      "genres" : [ ],
      "href" : "https://api.spotify.com/v1/artists/4FQWpLnTqvKczzgi0D7w7m",
      "id" : "4FQWpLnTqvKczzgi0D7w7m",
      "images" : [ {
        "height" : 640,
        "url" : "https://i.scdn.co/image/ab6761610000e5ebc087ceb24ea90b381cf18ab8",
        "width" : 640
      }, {
        "height" : 320,
        "url" : "https://i.scdn.co/image/ab67616100005174c087ceb24ea90b381cf18ab8",
        "width" : 320
      }, {
        "height" : 160,
        "url" : "https://i.scdn.co/image/ab6761610000f178c087ceb24ea90b381cf18ab8",
        "width" : 160
      } ],
      "name" : "FALLEN",
      "popularity" : 36,
      "type" : "artist",
      "uri" : "spotify:artist:4FQWpLnTqvKczzgi0D7w7m"
    }, {
      "external_urls" : {
        "spotify" : "https://open.spotify.com/artist/56dxnjtgC6RcQiHMJSqT2e"
      },
      "followers" : {
        "href" : null,
        "total" : 100
      },
      "genres" : [ ],
      "href" : "https://api.spotify.com/v1/artists/56dxnjtgC6RcQiHMJSqT2e",
      "id" : "56dxnjtgC6RcQiHMJSqT2e",
      "images" : [ {
        "height" : 640,
        "url" : "https://i.scdn.co/image/ab6761610000e5eb4baca4023738750162884a73",
        "width" : 640
      }, {
        "height" : 320,
        "url" : "https://i.scdn.co/image/ab676161000051744baca4023738750162884a73",
        "width" : 320
      }, {
        "height" : 160,
        "url" : "https://i.scdn.co/image/ab6761610000f1784baca4023738750162884a73",
        "width" : 160
      } ],
      "name" : "Fallen",
      "popularity" : 3,
      "type" : "artist",
      "uri" : "spotify:artist:56dxnjtgC6RcQiHMJSqT2e"
    }, {
      "external_urls" : {
        "spotify" : "https://open.spotify.com/artist/054Pqx7Nqx2Wcpxv5rylcc"
      },
      "followers" : {
        "href" : null,
        "total" : 252
      },
      "genres" : [ ],
      "href" : "https://api.spotify.com/v1/artists/054Pqx7Nqx2Wcpxv5rylcc",
      "id" : "054Pqx7Nqx2Wcpxv5rylcc",
      "images" : [ {
        "height" : 640,
        "url" : "https://i.scdn.co/image/ab6761610000e5eb673bbb93990a3e0f3da14326",
        "width" : 640
      }, {
        "height" : 320,
        "url" : "https://i.scdn.co/image/ab67616100005174673bbb93990a3e0f3da14326",
        "width" : 320
      }, {
        "height" : 160,
        "url" : "https://i.scdn.co/image/ab6761610000f178673bbb93990a3e0f3da14326",
        "width" : 160
      } ],
      "name" : "Fallen Shores",
      "popularity" : 32,
      "type" : "artist",
      "uri" : "spotify:artist:054Pqx7Nqx2Wcpxv5rylcc"
    }, {
      "external_urls" : {
        "spotify" : "https://open.spotify.com/artist/1EZcMGTG7JuHcBOT6S17Vn"
      },
      "followers" : {
        "href" : null,
        "total" : 24
      },
      "genres" : [ ],
      "href" : "https://api.spotify.com/v1/artists/1EZcMGTG7JuHcBOT6S17Vn",
      "id" : "1EZcMGTG7JuHcBOT6S17Vn",
      "images" : [ {
        "height" : 640,
        "url" : "https://i.scdn.co/image/ab67616d0000b273cdcad20eabde86881d93c9a6",
        "width" : 640
      }, {
        "height" : 300,
        "url" : "https://i.scdn.co/image/ab67616d00001e02cdcad20eabde86881d93c9a6",
        "width" : 300
      }, {
        "height" : 64,
        "url" : "https://i.scdn.co/image/ab67616d00004851cdcad20eabde86881d93c9a6",
        "width" : 64
      } ],
      "name" : "Fallen",
      "popularity" : 0,
      "type" : "artist",
      "uri" : "spotify:artist:1EZcMGTG7JuHcBOT6S17Vn"
    }, {
      "external_urls" : {
        "spotify" : "https://open.spotify.com/artist/7kKZ8hZMkKwSqEv1M8hxUp"
      },
      "followers" : {
        "href" : null,
        "total" : 83
      },
      "genres" : [ ],
      "href" : "https://api.spotify.com/v1/artists/7kKZ8hZMkKwSqEv1M8hxUp",
      "id" : "7kKZ8hZMkKwSqEv1M8hxUp",
      "images" : [ {
        "height" : 640,
        "url" : "https://i.scdn.co/image/ab6761610000e5ebdd8766e9b1022a3f40cd741b",
        "width" : 640
      }, {
        "height" : 320,
        "url" : "https://i.scdn.co/image/ab67616100005174dd8766e9b1022a3f40cd741b",
        "width" : 320
      }, {
        "height" : 160,
        "url" : "https://i.scdn.co/image/ab6761610000f178dd8766e9b1022a3f40cd741b",
        "width" : 160
      } ],
      "name" : "FallenAngel1212",
      "popularity" : 23,
      "type" : "artist",
      "uri" : "spotify:artist:7kKZ8hZMkKwSqEv1M8hxUp"
    }, {
      "external_urls" : {
        "spotify" : "https://open.spotify.com/artist/3wNjTfkaWlmNat9VufX7Ua"
      },
      "followers" : {
        "href" : null,
        "total" : 12542
      },
      "genres" : [ "gymcore", "post-screamo" ],
      "href" : "https://api.spotify.com/v1/artists/3wNjTfkaWlmNat9VufX7Ua",
      "id" : "3wNjTfkaWlmNat9VufX7Ua",
      "images" : [ {
        "height" : 640,
        "url" : "https://i.scdn.co/image/ab6761610000e5eb30469d618525e149f3732c5f",
        "width" : 640
      }, {
        "height" : 320,
        "url" : "https://i.scdn.co/image/ab6761610000517430469d618525e149f3732c5f",
        "width" : 320
      }, {
        "height" : 160,
        "url" : "https://i.scdn.co/image/ab6761610000f17830469d618525e149f3732c5f",
        "width" : 160
      } ],
      "name" : "The Fallen State",
      "popularity" : 37,
      "type" : "artist",
      "uri" : "spotify:artist:3wNjTfkaWlmNat9VufX7Ua"
    }, {
      "external_urls" : {
        "spotify" : "https://open.spotify.com/artist/1QmF4Y2XK7p63RMJKjmgB4"
      },
      "followers" : {
        "href" : null,
        "total" : 32
      },
      "genres" : [ ],
      "href" : "https://api.spotify.com/v1/artists/1QmF4Y2XK7p63RMJKjmgB4",
      "id" : "1QmF4Y2XK7p63RMJKjmgB4",
      "images" : [ {
        "height" : 640,
        "url" : "https://i.scdn.co/image/ab6761610000e5eb8eb0228e2a100c7d9b00dd14",
        "width" : 640
      }, {
        "height" : 320,
        "url" : "https://i.scdn.co/image/ab676161000051748eb0228e2a100c7d9b00dd14",
        "width" : 320
      }, {
        "height" : 160,
        "url" : "https://i.scdn.co/image/ab6761610000f1788eb0228e2a100c7d9b00dd14",
        "width" : 160
      } ],
      "name" : "Fallen",
      "popularity" : 10,
      "type" : "artist",
      "uri" : "spotify:artist:1QmF4Y2XK7p63RMJKjmgB4"
    }, {
      "external_urls" : {
        "spotify" : "https://open.spotify.com/artist/4MEWX9bvTrFQhabAPT5XoV"
      },
      "followers" : {
        "href" : null,
        "total" : 24
      },
      "genres" : [ ],
      "href" : "https://api.spotify.com/v1/artists/4MEWX9bvTrFQhabAPT5XoV",
      "id" : "4MEWX9bvTrFQhabAPT5XoV",
      "images" : [ {
        "height" : 640,
        "url" : "https://i.scdn.co/image/ab67616d0000b273b941b3156245a80e18b7a5a0",
        "width" : 640
      }, {
        "height" : 300,
        "url" : "https://i.scdn.co/image/ab67616d00001e02b941b3156245a80e18b7a5a0",
        "width" : 300
      }, {
        "height" : 64,
        "url" : "https://i.scdn.co/image/ab67616d00004851b941b3156245a80e18b7a5a0",
        "width" : 64
      } ],
      "name" : "Fallen",
      "popularity" : 0,
      "type" : "artist",
      "uri" : "spotify:artist:4MEWX9bvTrFQhabAPT5XoV"
    }, {
      "external_urls" : {
        "spotify" : "https://open.spotify.com/artist/4XFbi551hXFADmZ7HHCiyY"
      },
      "followers" : {
        "href" : null,
        "total" : 1892
      },
      "genres" : [ "singaporean electronic" ],
      "href" : "https://api.spotify.com/v1/artists/4XFbi551hXFADmZ7HHCiyY",
      "id" : "4XFbi551hXFADmZ7HHCiyY",
      "images" : [ {
        "height" : 640,
        "url" : "https://i.scdn.co/image/ab6761610000e5ebbb3c82056ba94bc9223ea927",
        "width" : 640
      }, {
        "height" : 320,
        "url" : "https://i.scdn.co/image/ab67616100005174bb3c82056ba94bc9223ea927",
        "width" : 320
      }, {
        "height" : 160,
        "url" : "https://i.scdn.co/image/ab6761610000f178bb3c82056ba94bc9223ea927",
        "width" : 160
      } ],
      "name" : "Fallen Superhero",
      "popularity" : 41,
      "type" : "artist",
      "uri" : "spotify:artist:4XFbi551hXFADmZ7HHCiyY"
    }, {
      "external_urls" : {
        "spotify" : "https://open.spotify.com/artist/4nAMwHWyPg7tqxSPK21nlX"
      },
      "followers" : {
        "href" : null,
        "total" : 3
      },
      "genres" : [ ],
      "href" : "https://api.spotify.com/v1/artists/4nAMwHWyPg7tqxSPK21nlX",
      "id" : "4nAMwHWyPg7tqxSPK21nlX",
      "images" : [ {
        "height" : 640,
        "url" : "https://i.scdn.co/image/ab67616d0000b27321e60e4be647d9b0936bd225",
        "width" : 640
      }, {
        "height" : 300,
        "url" : "https://i.scdn.co/image/ab67616d00001e0221e60e4be647d9b0936bd225",
        "width" : 300
      }, {
        "height" : 64,
        "url" : "https://i.scdn.co/image/ab67616d0000485121e60e4be647d9b0936bd225",
        "width" : 64
      } ],
      "name" : "Fallen",
      "popularity" : 0,
      "type" : "artist",
      "uri" : "spotify:artist:4nAMwHWyPg7tqxSPK21nlX"
    }, {
      "external_urls" : {
        "spotify" : "https://open.spotify.com/artist/1dfrxGIlnwIsXyrhbLzgQR"
      },
      "followers" : {
        "href" : null,
        "total" : 2
      },
      "genres" : [ ],
      "href" : "https://api.spotify.com/v1/artists/1dfrxGIlnwIsXyrhbLzgQR",
      "id" : "1dfrxGIlnwIsXyrhbLzgQR",
      "images" : [ ],
      "name" : "FallenAngel1212",
      "popularity" : 22,
      "type" : "artist",
      "uri" : "spotify:artist:1dfrxGIlnwIsXyrhbLzgQR"
    }, {
      "external_urls" : {
        "spotify" : "https://open.spotify.com/artist/1j9yhc8NKqweD0kR1eonFZ"
      },
      "followers" : {
        "href" : null,
        "total" : 1110
      },
      "genres" : [ "australian post-hardcore" ],
      "href" : "https://api.spotify.com/v1/artists/1j9yhc8NKqweD0kR1eonFZ",
      "id" : "1j9yhc8NKqweD0kR1eonFZ",
      "images" : [ {
        "height" : 640,
        "url" : "https://i.scdn.co/image/ab6761610000e5eb15c6c68a64a4f71e381a0971",
        "width" : 640
      }, {
        "height" : 320,
        "url" : "https://i.scdn.co/image/ab6761610000517415c6c68a64a4f71e381a0971",
        "width" : 320
      }, {
        "height" : 160,
        "url" : "https://i.scdn.co/image/ab6761610000f17815c6c68a64a4f71e381a0971",
        "width" : 160
      } ],
      "name" : "Above the Fallen",
      "popularity" : 28,
      "type" : "artist",
      "uri" : "spotify:artist:1j9yhc8NKqweD0kR1eonFZ"
    }, {
      "external_urls" : {
        "spotify" : "https://open.spotify.com/artist/6v5A0o7haIPHXRkjeC7Eet"
      },
      "followers" : {
        "href" : null,
        "total" : 242
      },
      "genres" : [ ],
      "href" : "https://api.spotify.com/v1/artists/6v5A0o7haIPHXRkjeC7Eet",
      "id" : "6v5A0o7haIPHXRkjeC7Eet",
      "images" : [ {
        "height" : 640,
        "url" : "https://i.scdn.co/image/ab67616d0000b2733f7c45daea5af3d77496ea58",
        "width" : 640
      }, {
        "height" : 300,
        "url" : "https://i.scdn.co/image/ab67616d00001e023f7c45daea5af3d77496ea58",
        "width" : 300
      }, {
        "height" : 64,
        "url" : "https://i.scdn.co/image/ab67616d000048513f7c45daea5af3d77496ea58",
        "width" : 64
      } ],
      "name" : "Fallen",
      "popularity" : 1,
      "type" : "artist",
      "uri" : "spotify:artist:6v5A0o7haIPHXRkjeC7Eet"
    } ],
    "limit" : 20,
    "next" : "https://api.spotify.com/v1/search?query=Fallen&type=artist&market=US&offset=20&limit=20",
    "offset" : 0,
    "previous" : null,
    "total" : 822
  }
}