{
  "artists" : {
    "href" : "https://api.spotify.com/v1/search?query=G-Space&type=artist&market=US&offset=0&limit=20",
    "items" : [ {
      "external_urls" : {
        "spotify" : "https://open.spotify.com/artist/1yxgjoiYczfFDnh4YYp4t1"
      },
      "followers" : {
        "href" : null,
        "total" : 9182
      },
      "genres" : [ "experimental bass" ],
      "href" : "https://api.spotify.com/v1/artists/1yxgjoiYczfFDnh4YYp4t1",
      "id" : "1yxgjoiYczfFDnh4YYp4t1",
      "images" : [ {
        "height" : 640,
        "url" : "https://i.scdn.co/image/ab6761610000e5eba8bbf49de20be11c2dfe2c6f",
        "width" : 640
      }, {
        "height" : 320,
        "url" : "https://i.scdn.co/image/ab67616100005174a8bbf49de20be11c2dfe2c6f",
        "width" : 320
      }, {
        "height" : 160,
        "url" : "https://i.scdn.co/image/ab6761610000f178a8bbf49de20be11c2dfe2c6f",
        "width" : 160
      } ],
      "name" : "G-Space",
      "popularity" : 37,
      "type" : "artist",
      "uri" : "spotify:artist:1yxgjoiYczfFDnh4YYp4t1"
    }, {
      "external_urls" : {
        "spotify" : "https://open.spotify.com/artist/6yR6M6V6I7GhhYf6A7Wif9"
      },
      "followers" : {
        "href" : null,
        "total" : 92010
      },
      "genres" : [ "miami hip hop", "phonk", "underground hip hop", "vapor trap" ],
      "href" : "https://api.spotify.com/v1/artists/6yR6M6V6I7GhhYf6A7Wif9",
      "id" : "6yR6M6V6I7GhhYf6A7Wif9",
      "images" : [ {
        "height" : 543,
        "url" : "https://i.scdn.co/image/8140a37f5ea7e2f5cea0e459d30dfe9a026900c6",
        "width" : 1000
      }, {
        "height" : 347,
        "url" : "https://i.scdn.co/image/1a566e1cc07a28fbeb58fbc8ca696366c7c1adda",
        "width" : 640
      }, {
        "height" : 109,
        "url" : "https://i.scdn.co/image/d2dadd5e4d0070a1dab03381b5e66e4dcac54935",
        "width" : 200
      }, {
        "height" : 35,
        "url" : "https://i.scdn.co/image/c38f71f532a96de43f2810d3c2afb2f1462db195",
        "width" : 64
      } ],
      "name" : "SpaceGhostPurrp",
      "popularity" : 48,
      "type" : "artist",
      "uri" : "spotify:artist:6yR6M6V6I7GhhYf6A7Wif9"
    }, {
      "external_urls" : {
        "spotify" : "https://open.spotify.com/artist/5P2MxPx8z074TWyjljhd9a"
      },
      "followers" : {
        "href" : null,
        "total" : 0
      },
      "genres" : [ ],
      "href" : "https://api.spotify.com/v1/artists/5P2MxPx8z074TWyjljhd9a",
      "id" : "5P2MxPx8z074TWyjljhd9a",
      "images" : [ ],
      "name" : "G-Space",
      "popularity" : 0,
      "type" : "artist",
      "uri" : "spotify:artist:5P2MxPx8z074TWyjljhd9a"
    }, {
      "external_urls" : {
        "spotify" : "https://open.spotify.com/artist/7rxWYbDjc5Qlt2l9JEyaNe"
      },
      "followers" : {
        "href" : null,
        "total" : 12567
      },
      "genres" : [ ],
      "href" : "https://api.spotify.com/v1/artists/7rxWYbDjc5Qlt2l9JEyaNe",
      "id" : "7rxWYbDjc5Qlt2l9JEyaNe",
      "images" : [ {
        "height" : 640,
        "url" : "https://i.scdn.co/image/ab6761610000e5eb9eb84ba3258b1ca2a805558f",
        "width" : 640
      }, {
        "height" : 320,
        "url" : "https://i.scdn.co/image/ab676161000051749eb84ba3258b1ca2a805558f",
        "width" : 320
      }, {
        "height" : 160,
        "url" : "https://i.scdn.co/image/ab6761610000f1789eb84ba3258b1ca2a805558f",
        "width" : 160
      } ],
      "name" : "Going Spaceward",
      "popularity" : 31,
      "type" : "artist",
      "uri" : "spotify:artist:7rxWYbDjc5Qlt2l9JEyaNe"
    }, {
      "external_urls" : {
        "spotify" : "https://open.spotify.com/artist/3YfpfN9dOwJUoeqXoWazgi"
      },
      "followers" : {
        "href" : null,
        "total" : 3707
      },
      "genres" : [ "float house", "jazz house" ],
      "href" : "https://api.spotify.com/v1/artists/3YfpfN9dOwJUoeqXoWazgi",
      "id" : "3YfpfN9dOwJUoeqXoWazgi",
      "images" : [ {
        "height" : 640,
        "url" : "https://i.scdn.co/image/ab6761610000e5eb0c30ca9997e5890c0598c764",
        "width" : 640
      }, {
        "height" : 320,
        "url" : "https://i.scdn.co/image/ab676161000051740c30ca9997e5890c0598c764",
        "width" : 320
      }, {
        "height" : 160,
        "url" : "https://i.scdn.co/image/ab6761610000f1780c30ca9997e5890c0598c764",
        "width" : 160
      } ],
      "name" : "Space Ghost",
      "popularity" : 33,
      "type" : "artist",
      "uri" : "spotify:artist:3YfpfN9dOwJUoeqXoWazgi"
    }, {
      "external_urls" : {
        "spotify" : "https://open.spotify.com/artist/5jaMYhpbtINBNEzdwaDFTK"
      },
      "followers" : {
        "href" : null,
        "total" : 3982
      },
      "genres" : [ ],
      "href" : "https://api.spotify.com/v1/artists/5jaMYhpbtINBNEzdwaDFTK",
      "id" : "5jaMYhpbtINBNEzdwaDFTK",
      "images" : [ {
        "height" : 640,
        "url" : "https://i.scdn.co/image/ab6761610000e5eb57b63ed9c72a2d9989a63860",
        "width" : 640
      }, {
        "height" : 320,
        "url" : "https://i.scdn.co/image/ab6761610000517457b63ed9c72a2d9989a63860",
        "width" : 320
      }, {
        "height" : 160,
        "url" : "https://i.scdn.co/image/ab6761610000f17857b63ed9c72a2d9989a63860",
        "width" : 160
      } ],
      "name" : "Snow the Space God",
      "popularity" : 24,
      "type" : "artist",
      "uri" : "spotify:artist:5jaMYhpbtINBNEzdwaDFTK"
    }, {
      "external_urls" : {
        "spotify" : "https://open.spotify.com/artist/3R4wOxBYTNKIw48JzCFLIZ"
      },
      "followers" : {
        "href" : null,
        "total" : 98
      },
      "genres" : [ ],
      "href" : "https://api.spotify.com/v1/artists/3R4wOxBYTNKIw48JzCFLIZ",
      "id" : "3R4wOxBYTNKIw48JzCFLIZ",
      "images" : [ {
        "height" : 640,
        "url" : "https://i.scdn.co/image/ab6761610000e5eb466b8928340b63c533fc16e9",
        "width" : 640
      }, {
        "height" : 320,
        "url" : "https://i.scdn.co/image/ab67616100005174466b8928340b63c533fc16e9",
        "width" : 320
      }, {
        "height" : 160,
        "url" : "https://i.scdn.co/image/ab6761610000f178466b8928340b63c533fc16e9",
        "width" : 160
      } ],
      "name" : "Gravity in Space",
      "popularity" : 32,
      "type" : "artist",
      "uri" : "spotify:artist:3R4wOxBYTNKIw48JzCFLIZ"
    }, {
      "external_urls" : {
        "spotify" : "https://open.spotify.com/artist/60sXtYj7O71jOuGUSeSV9q"
      },
      "followers" : {
        "href" : null,
        "total" : 191
      },
      "genres" : [ ],
      "href" : "https://api.spotify.com/v1/artists/60sXtYj7O71jOuGUSeSV9q",
      "id" : "60sXtYj7O71jOuGUSeSV9q",
      "images" : [ ],
      "name" : "Spacegirl Gemmy",
      "popularity" : 22,
      "type" : "artist",
      "uri" : "spotify:artist:60sXtYj7O71jOuGUSeSV9q"
    }, {
      "external_urls" : {
        "spotify" : "https://open.spotify.com/artist/31UKKb3hOdISmDC67aeqGJ"
      },
      "followers" : {
        "href" : null,
        "total" : 5704
      },
      "genres" : [ "lo-fi rap" ],
      "href" : "https://api.spotify.com/v1/artists/31UKKb3hOdISmDC67aeqGJ",
      "id" : "31UKKb3hOdISmDC67aeqGJ",
      "images" : [ {
        "height" : 640,
        "url" : "https://i.scdn.co/image/ab6761610000e5eb435116139e9674ea4d4f3205",
        "width" : 640
      }, {
        "height" : 320,
        "url" : "https://i.scdn.co/image/ab67616100005174435116139e9674ea4d4f3205",
        "width" : 320
      }, {
        "height" : 160,
        "url" : "https://i.scdn.co/image/ab6761610000f178435116139e9674ea4d4f3205",
        "width" : 160
      } ],
      "name" : "SPACEGIRL GEMMY",
      "popularity" : 21,
      "type" : "artist",
      "uri" : "spotify:artist:31UKKb3hOdISmDC67aeqGJ"
    }, {
      "external_urls" : {
        "spotify" : "https://open.spotify.com/artist/1lNMTjOubgSS5upZHRPAMa"
      },
      "followers" : {
        "href" : null,
        "total" : 555
      },
      "genres" : [ ],
      "href" : "https://api.spotify.com/v1/artists/1lNMTjOubgSS5upZHRPAMa",
      "id" : "1lNMTjOubgSS5upZHRPAMa",
      "images" : [ {
        "height" : 640,
        "url" : "https://i.scdn.co/image/ab6761610000e5eb08dc6499252e3c2acf30e17d",
        "width" : 640
      }, {
        "height" : 320,
        "url" : "https://i.scdn.co/image/ab6761610000517408dc6499252e3c2acf30e17d",
        "width" : 320
      }, {
        "height" : 160,
        "url" : "https://i.scdn.co/image/ab6761610000f17808dc6499252e3c2acf30e17d",
        "width" : 160
      } ],
      "name" : "Space Gang",
      "popularity" : 30,
      "type" : "artist",
      "uri" : "spotify:artist:1lNMTjOubgSS5upZHRPAMa"
    }, {
      "external_urls" : {
        "spotify" : "https://open.spotify.com/artist/7mKw9sgZMLl6elOjvFobs7"
      },
      "followers" : {
        "href" : null,
        "total" : 763
      },
      "genres" : [ ],
      "href" : "https://api.spotify.com/v1/artists/7mKw9sgZMLl6elOjvFobs7",
      "id" : "7mKw9sgZMLl6elOjvFobs7",
      "images" : [ {
        "height" : 640,
        "url" : "https://i.scdn.co/image/ab6761610000e5eb00e1dd7ed7f4403029c0da51",
        "width" : 640
      }, {
        "height" : 320,
        "url" : "https://i.scdn.co/image/ab6761610000517400e1dd7ed7f4403029c0da51",
        "width" : 320
      }, {
        "height" : 160,
        "url" : "https://i.scdn.co/image/ab6761610000f17800e1dd7ed7f4403029c0da51",
        "width" : 160
      } ],
      "name" : "Space Gravy",
      "popularity" : 11,
      "type" : "artist",
      "uri" : "spotify:artist:7mKw9sgZMLl6elOjvFobs7"
    }, {
      "external_urls" : {
        "spotify" : "https://open.spotify.com/artist/688fFcubUemQWWoimqNXhW"
      },
      "followers" : {
        "href" : null,
        "total" : 1072
      },
      "genres" : [ ],
      "href" : "https://api.spotify.com/v1/artists/688fFcubUemQWWoimqNXhW",
      "id" : "688fFcubUemQWWoimqNXhW",
      "images" : [ {
        "height" : 640,
        "url" : "https://i.scdn.co/image/ab6761610000e5eb7893bb46f7317635983e77e5",
        "width" : 640
      }, {
        "height" : 320,
        "url" : "https://i.scdn.co/image/ab676161000051747893bb46f7317635983e77e5",
        "width" : 320
      }, {
        "height" : 160,
        "url" : "https://i.scdn.co/image/ab6761610000f1787893bb46f7317635983e77e5",
        "width" : 160
      } ],
      "name" : "Space Gang",
      "popularity" : 11,
      "type" : "artist",
      "uri" : "spotify:artist:688fFcubUemQWWoimqNXhW"
    }, {
      "external_urls" : {
        "spotify" : "https://open.spotify.com/artist/0bbw65s9B3DUieVNpBtcoG"
      },
      "followers" : {
        "href" : null,
        "total" : 444
      },
      "genres" : [ ],
      "href" : "https://api.spotify.com/v1/artists/0bbw65s9B3DUieVNpBtcoG",
      "id" : "0bbw65s9B3DUieVNpBtcoG",
      "images" : [ {
        "height" : 640,
        "url" : "https://i.scdn.co/image/ab6761610000e5ebbe4026748c857d21c5021b86",
        "width" : 640
      }, {
        "height" : 320,
        "url" : "https://i.scdn.co/image/ab67616100005174be4026748c857d21c5021b86",
        "width" : 320
      }, {
        "height" : 160,
        "url" : "https://i.scdn.co/image/ab6761610000f178be4026748c857d21c5021b86",
        "width" : 160
      } ],
      "name" : "Space Ghetto",
      "popularity" : 19,
      "type" : "artist",
      "uri" : "spotify:artist:0bbw65s9B3DUieVNpBtcoG"
    }, {
      "external_urls" : {
        "spotify" : "https://open.spotify.com/artist/2ETM4LzLQdD5YE8eeO0JVd"
      },
      "followers" : {
        "href" : null,
        "total" : 233
      },
      "genres" : [ ],
      "href" : "https://api.spotify.com/v1/artists/2ETM4LzLQdD5YE8eeO0JVd",
      "id" : "2ETM4LzLQdD5YE8eeO0JVd",
      "images" : [ {
        "height" : 640,
        "url" : "https://i.scdn.co/image/ab6761610000e5eb0b35ff5c43314a0d72efb64f",
        "width" : 640
      }, {
        "height" : 320,
        "url" : "https://i.scdn.co/image/ab676161000051740b35ff5c43314a0d72efb64f",
        "width" : 320
      }, {
        "height" : 160,
        "url" : "https://i.scdn.co/image/ab6761610000f1780b35ff5c43314a0d72efb64f",
        "width" : 160
      } ],
      "name" : "Ghetto of Space",
      "popularity" : 14,
      "type" : "artist",
      "uri" : "spotify:artist:2ETM4LzLQdD5YE8eeO0JVd"
    }, {
      "external_urls" : {
        "spotify" : "https://open.spotify.com/artist/5MASEvULEe06yeIvRwrPMB"
      },
      "followers" : {
        "href" : null,
        "total" : 2461
      },
      "genres" : [ "afrofuturism", "wonky" ],
      "href" : "https://api.spotify.com/v1/artists/5MASEvULEe06yeIvRwrPMB",
      "id" : "5MASEvULEe06yeIvRwrPMB",
      "images" : [ {
        "height" : 1000,
        "url" : "https://i.scdn.co/image/ca4e85b0914074fd84f8d3de58f5ede4fd7caa9c",
        "width" : 1000
      }, {
        "height" : 640,
        "url" : "https://i.scdn.co/image/2496e257128f95c443d36fe8dbf76443a30b4744",
        "width" : 640
      }, {
        "height" : 200,
        "url" : "https://i.scdn.co/image/7b56fef8ae7e6182105f9422bbab22b7586afd39",
        "width" : 200
      }, {
        "height" : 64,
        "url" : "https://i.scdn.co/image/9786d7fb44f3a25cd6fdde09893b93bc9740a0f3",
        "width" : 64
      } ],
      "name" : "Ras G & The Afrikan Space Program",
      "popularity" : 11,
      "type" : "artist",
      "uri" : "spotify:artist:5MASEvULEe06yeIvRwrPMB"
    }, {
      "external_urls" : {
        "spotify" : "https://open.spotify.com/artist/00P4KrfzsswOYPmS3sQge7"
      },
      "followers" : {
        "href" : null,
        "total" : 236
      },
      "genres" : [ ],
      "href" : "https://api.spotify.com/v1/artists/00P4KrfzsswOYPmS3sQge7",
      "id" : "00P4KrfzsswOYPmS3sQge7",
      "images" : [ {
        "height" : 640,
        "url" : "https://i.scdn.co/image/ab6761610000e5ebec3efdf508ff0afd5ac66230",
        "width" : 640
      }, {
        "height" : 320,
        "url" : "https://i.scdn.co/image/ab67616100005174ec3efdf508ff0afd5ac66230",
        "width" : 320
      }, {
        "height" : 160,
        "url" : "https://i.scdn.co/image/ab6761610000f178ec3efdf508ff0afd5ac66230",
        "width" : 160
      } ],
      "name" : "Ghosts in Space",
      "popularity" : 8,
      "type" : "artist",
      "uri" : "spotify:artist:00P4KrfzsswOYPmS3sQge7"
    }, {
      "external_urls" : {
        "spotify" : "https://open.spotify.com/artist/5pRXPHSmg3DB5nq4eHtOtB"
      },
      "followers" : {
        "href" : null,
        "total" : 0
      },
      "genres" : [ ],
      "href" : "https://api.spotify.com/v1/artists/5pRXPHSmg3DB5nq4eHtOtB",
      "id" : "5pRXPHSmg3DB5nq4eHtOtB",
      "images" : [ {
        "height" : 640,
        "url" : "https://i.scdn.co/image/ab67616d0000b273d68880a866c3cb0f719fdf43",
        "width" : 640
      }, {
        "height" : 300,
        "url" : "https://i.scdn.co/image/ab67616d00001e02d68880a866c3cb0f719fdf43",
        "width" : 300
      }, {
        "height" : 64,
        "url" : "https://i.scdn.co/image/ab67616d00004851d68880a866c3cb0f719fdf43",
        "width" : 64
      } ],
      "name" : "Space Probe Geosynchronous",
      "popularity" : 4,
      "type" : "artist",
      "uri" : "spotify:artist:5pRXPHSmg3DB5nq4eHtOtB"
    }, {
      "external_urls" : {
        "spotify" : "https://open.spotify.com/artist/5xZ66bvdP7f9SzYO33KW1k"
      },
      "followers" : {
        "href" : null,
        "total" : 0
      },
      "genres" : [ ],
      "href" : "https://api.spotify.com/v1/artists/5xZ66bvdP7f9SzYO33KW1k",
      "id" : "5xZ66bvdP7f9SzYO33KW1k",
      "images" : [ {
        "height" : 640,
        "url" : "https://i.scdn.co/image/ab6761610000e5eba6402dcb6657c2a42da3724f",
        "width" : 640
      }, {
        "height" : 320,
        "url" : "https://i.scdn.co/image/ab67616100005174a6402dcb6657c2a42da3724f",
        "width" : 320
      }, {
        "height" : 160,
        "url" : "https://i.scdn.co/image/ab6761610000f178a6402dcb6657c2a42da3724f",
        "width" : 160
      } ],
      "name" : "Space Gangster",
      "popularity" : 0,
      "type" : "artist",
      "uri" : "spotify:artist:5xZ66bvdP7f9SzYO33KW1k"
    }, {
      "external_urls" : {
        "spotify" : "https://open.spotify.com/artist/3AHkP8s6lselGzyF2vUecP"
      },
      "followers" : {
        "href" : null,
        "total" : 0
      },
      "genres" : [ ],
      "href" : "https://api.spotify.com/v1/artists/3AHkP8s6lselGzyF2vUecP",
      "id" : "3AHkP8s6lselGzyF2vUecP",
      "images" : [ ],
      "name" : "Spacey Gray",
      "popularity" : 0,
      "type" : "artist",
      "uri" : "spotify:artist:3AHkP8s6lselGzyF2vUecP"
    }, {
      "external_urls" : {
        "spotify" : "https://open.spotify.com/artist/246M5xOzYOtsQk1NuHXgEM"
      },
      "followers" : {
        "href" : null,
        "total" : 1
      },
      "genres" : [ ],
      "href" : "https://api.spotify.com/v1/artists/246M5xOzYOtsQk1NuHXgEM",
      "id" : "246M5xOzYOtsQk1NuHXgEM",
      "images" : [ {
        "height" : 640,
        "url" : "https://i.scdn.co/image/ab67616d0000b273707a737e84dd593b9875fc89",
        "width" : 640
      }, {
        "height" : 300,
        "url" : "https://i.scdn.co/image/ab67616d00001e02707a737e84dd593b9875fc89",
        "width" : 300
      }, {
        "height" : 64,
        "url" : "https://i.scdn.co/image/ab67616d00004851707a737e84dd593b9875fc89",
        "width" : 64
      } ],
      "name" : "Spaceship Gotti",
      "popularity" : 0,
      "type" : "artist",
      "uri" : "spotify:artist:246M5xOzYOtsQk1NuHXgEM"
    } ],
    "limit" : 20,
    "next" : "https://api.spotify.com/v1/search?query=G-Space&type=artist&market=US&offset=20&limit=20",
    "offset" : 0,
    "previous" : null,
    "total" : 284
  }
}