{
  "artists" : {
    "href" : "https://api.spotify.com/v1/search?query=HOL&type=artist&market=US&offset=0&limit=20",
    "items" : [ {
      "external_urls" : {
        "spotify" : "https://open.spotify.com/artist/0CEFCo8288kQU7mJi25s6E"
      },
      "followers" : {
        "href" : null,
        "total" : 2157488
      },
      "genres" : [ "alternative metal", "modern rock", "nu metal", "rap metal", "rap rock", "rock" ],
      "href" : "https://api.spotify.com/v1/artists/0CEFCo8288kQU7mJi25s6E",
      "id" : "0CEFCo8288kQU7mJi25s6E",
      "images" : [ {
        "height" : 640,
        "url" : "https://i.scdn.co/image/ab6761610000e5eb7fa4eae2283454a067613275",
        "width" : 640
      }, {
        "height" : 320,
        "url" : "https://i.scdn.co/image/ab676161000051747fa4eae2283454a067613275",
        "width" : 320
      }, {
        "height" : 160,
        "url" : "https://i.scdn.co/image/ab6761610000f1787fa4eae2283454a067613275",
        "width" : 160
      } ],
      "name" : "Hollywood Undead",
      "popularity" : 74,
      "type" : "artist",
      "uri" : "spotify:artist:0CEFCo8288kQU7mJi25s6E"
    }, {
      "external_urls" : {
        "spotify" : "https://open.spotify.com/artist/75YeSAKC6xPhgkjnltCmGB"
      },
      "followers" : {
        "href" : null,
        "total" : 7031
      },
      "genres" : [ "dubstep", "gaming dubstep", "riddim dubstep" ],
      "href" : "https://api.spotify.com/v1/artists/75YeSAKC6xPhgkjnltCmGB",
      "id" : "75YeSAKC6xPhgkjnltCmGB",
      "images" : [ {
        "height" : 640,
        "url" : "https://i.scdn.co/image/ab6761610000e5ebedf225a7615ee9509b6e0231",
        "width" : 640
      }, {
        "height" : 320,
        "url" : "https://i.scdn.co/image/ab67616100005174edf225a7615ee9509b6e0231",
        "width" : 320
      }, {
        "height" : 160,
        "url" : "https://i.scdn.co/image/ab6761610000f178edf225a7615ee9509b6e0231",
        "width" : 160
      } ],
      "name" : "HOL!",
      "popularity" : 35,
      "type" : "artist",
      "uri" : "spotify:artist:75YeSAKC6xPhgkjnltCmGB"
    }, {
      "external_urls" : {
        "spotify" : "https://open.spotify.com/artist/5SHQUMAmEK5KmuSb0aDvsn"
      },
      "followers" : {
        "href" : null,
        "total" : 821658
      },
      "genres" : [ "alternative rock", "grunge", "pop rock", "rock" ],
      "href" : "https://api.spotify.com/v1/artists/5SHQUMAmEK5KmuSb0aDvsn",
      "id" : "5SHQUMAmEK5KmuSb0aDvsn",
      "images" : [ {
        "height" : 1000,
        "url" : "https://i.scdn.co/image/3f070ac89152fcd23f90c1351295d8cc64d54cb2",
        "width" : 1000
      }, {
        "height" : 640,
        "url" : "https://i.scdn.co/image/4d1dc978370d560ada4f7d9ef85e08ee6ec21212",
        "width" : 640
      }, {
        "height" : 200,
        "url" : "https://i.scdn.co/image/2a03ef85bb104a23cc7f782fbbc8e418665c518a",
        "width" : 200
      }, {
        "height" : 64,
        "url" : "https://i.scdn.co/image/2f646d59d4d4a907f47a6374557053358df12aae",
        "width" : 64
      } ],
      "name" : "Hole",
      "popularity" : 65,
      "type" : "artist",
      "uri" : "spotify:artist:5SHQUMAmEK5KmuSb0aDvsn"
    }, {
      "external_urls" : {
        "spotify" : "https://open.spotify.com/artist/1YzCsTRb22dQkh9lghPIrp"
      },
      "followers" : {
        "href" : null,
        "total" : 1588925
      },
      "genres" : [ "adult standards", "harlem renaissance", "jazz", "jazz blues", "lounge", "soul", "torch song", "vocal jazz" ],
      "href" : "https://api.spotify.com/v1/artists/1YzCsTRb22dQkh9lghPIrp",
      "id" : "1YzCsTRb22dQkh9lghPIrp",
      "images" : [ {
        "height" : 828,
        "url" : "https://i.scdn.co/image/4efa6b6871a0f672b78b3d16fd5a03c6cd212d58",
        "width" : 1000
      }, {
        "height" : 530,
        "url" : "https://i.scdn.co/image/11f685f3011fd163c386ce1afe7ce543ad814817",
        "width" : 640
      }, {
        "height" : 166,
        "url" : "https://i.scdn.co/image/0f472c69891d82d5049f7de35426b2fdeb6051c0",
        "width" : 200
      }, {
        "height" : 53,
        "url" : "https://i.scdn.co/image/73b9538798c13c7be7558d69b02019cf19e1d5db",
        "width" : 64
      } ],
      "name" : "Billie Holiday",
      "popularity" : 68,
      "type" : "artist",
      "uri" : "spotify:artist:1YzCsTRb22dQkh9lghPIrp"
    }, {
      "external_urls" : {
        "spotify" : "https://open.spotify.com/artist/4itksv8jgpEcvRvZ7lDalQ"
      },
      "followers" : {
        "href" : null,
        "total" : 46144
      },
      "genres" : [ "indie poptimism", "la indie" ],
      "href" : "https://api.spotify.com/v1/artists/4itksv8jgpEcvRvZ7lDalQ",
      "id" : "4itksv8jgpEcvRvZ7lDalQ",
      "images" : [ {
        "height" : 640,
        "url" : "https://i.scdn.co/image/ab6761610000e5eb45367a2be0c10cab69830508",
        "width" : 640
      }, {
        "height" : 320,
        "url" : "https://i.scdn.co/image/ab6761610000517445367a2be0c10cab69830508",
        "width" : 320
      }, {
        "height" : 160,
        "url" : "https://i.scdn.co/image/ab6761610000f17845367a2be0c10cab69830508",
        "width" : 160
      } ],
      "name" : "HOLYCHILD",
      "popularity" : 45,
      "type" : "artist",
      "uri" : "spotify:artist:4itksv8jgpEcvRvZ7lDalQ"
    }, {
      "external_urls" : {
        "spotify" : "https://open.spotify.com/artist/0nnYdIpahs41QiZ9MWp5Wx"
      },
      "followers" : {
        "href" : null,
        "total" : 137089
      },
      "genres" : [ "alt z", "indie pop", "modern alternative pop", "uk pop" ],
      "href" : "https://api.spotify.com/v1/artists/0nnYdIpahs41QiZ9MWp5Wx",
      "id" : "0nnYdIpahs41QiZ9MWp5Wx",
      "images" : [ {
        "height" : 640,
        "url" : "https://i.scdn.co/image/ab6761610000e5ebaeefd08e91c8375b0fc5bca5",
        "width" : 640
      }, {
        "height" : 320,
        "url" : "https://i.scdn.co/image/ab67616100005174aeefd08e91c8375b0fc5bca5",
        "width" : 320
      }, {
        "height" : 160,
        "url" : "https://i.scdn.co/image/ab6761610000f178aeefd08e91c8375b0fc5bca5",
        "width" : 160
      } ],
      "name" : "Holly Humberstone",
      "popularity" : 65,
      "type" : "artist",
      "uri" : "spotify:artist:0nnYdIpahs41QiZ9MWp5Wx"
    }, {
      "external_urls" : {
        "spotify" : "https://open.spotify.com/artist/0jNDKefhfSbLR9sFvcPLHo"
      },
      "followers" : {
        "href" : null,
        "total" : 656501
      },
      "genres" : [ "edm", "electronic trap", "electropop", "future bass", "pop dance", "pop edm", "vapor twitch" ],
      "href" : "https://api.spotify.com/v1/artists/0jNDKefhfSbLR9sFvcPLHo",
      "id" : "0jNDKefhfSbLR9sFvcPLHo",
      "images" : [ {
        "height" : 640,
        "url" : "https://i.scdn.co/image/ab6761610000e5ebbea280428d4ffabf1d7b0095",
        "width" : 640
      }, {
        "height" : 320,
        "url" : "https://i.scdn.co/image/ab67616100005174bea280428d4ffabf1d7b0095",
        "width" : 320
      }, {
        "height" : 160,
        "url" : "https://i.scdn.co/image/ab6761610000f178bea280428d4ffabf1d7b0095",
        "width" : 160
      } ],
      "name" : "San Holo",
      "popularity" : 64,
      "type" : "artist",
      "uri" : "spotify:artist:0jNDKefhfSbLR9sFvcPLHo"
    }, {
      "external_urls" : {
        "spotify" : "https://open.spotify.com/artist/4r6k3Um3KY1CMLoU8c7D8d"
      },
      "followers" : {
        "href" : null,
        "total" : 273
      },
      "genres" : [ ],
      "href" : "https://api.spotify.com/v1/artists/4r6k3Um3KY1CMLoU8c7D8d",
      "id" : "4r6k3Um3KY1CMLoU8c7D8d",
      "images" : [ {
        "height" : 640,
        "url" : "https://i.scdn.co/image/ab6761610000e5ebd51af52be2d60d741232e124",
        "width" : 640
      }, {
        "height" : 320,
        "url" : "https://i.scdn.co/image/ab67616100005174d51af52be2d60d741232e124",
        "width" : 320
      }, {
        "height" : 160,
        "url" : "https://i.scdn.co/image/ab6761610000f178d51af52be2d60d741232e124",
        "width" : 160
      } ],
      "name" : "HOL",
      "popularity" : 8,
      "type" : "artist",
      "uri" : "spotify:artist:4r6k3Um3KY1CMLoU8c7D8d"
    }, {
      "external_urls" : {
        "spotify" : "https://open.spotify.com/artist/7IAFAOtc9kTYNTizhLSWM6"
      },
      "followers" : {
        "href" : null,
        "total" : 366420
      },
      "genres" : [ "indie folk" ],
      "href" : "https://api.spotify.com/v1/artists/7IAFAOtc9kTYNTizhLSWM6",
      "id" : "7IAFAOtc9kTYNTizhLSWM6",
      "images" : [ {
        "height" : 640,
        "url" : "https://i.scdn.co/image/ab6761610000e5eb5a3071c1f11ee74dfe32e66e",
        "width" : 640
      }, {
        "height" : 320,
        "url" : "https://i.scdn.co/image/ab676161000051745a3071c1f11ee74dfe32e66e",
        "width" : 320
      }, {
        "height" : 160,
        "url" : "https://i.scdn.co/image/ab6761610000f1785a3071c1f11ee74dfe32e66e",
        "width" : 160
      } ],
      "name" : "Hollow Coves",
      "popularity" : 65,
      "type" : "artist",
      "uri" : "spotify:artist:7IAFAOtc9kTYNTizhLSWM6"
    }, {
      "external_urls" : {
        "spotify" : "https://open.spotify.com/artist/6wVnFvn3BWcOkI8xbEeMz4"
      },
      "followers" : {
        "href" : null,
        "total" : 21
      },
      "genres" : [ ],
      "href" : "https://api.spotify.com/v1/artists/6wVnFvn3BWcOkI8xbEeMz4",
      "id" : "6wVnFvn3BWcOkI8xbEeMz4",
      "images" : [ {
        "height" : 640,
        "url" : "https://i.scdn.co/image/ab67616d0000b273f63deb397e2726409c1ab505",
        "width" : 640
      }, {
        "height" : 300,
        "url" : "https://i.scdn.co/image/ab67616d00001e02f63deb397e2726409c1ab505",
        "width" : 300
      }, {
        "height" : 64,
        "url" : "https://i.scdn.co/image/ab67616d00004851f63deb397e2726409c1ab505",
        "width" : 64
      } ],
      "name" : "HOL",
      "popularity" : 0,
      "type" : "artist",
      "uri" : "spotify:artist:6wVnFvn3BWcOkI8xbEeMz4"
    }, {
      "external_urls" : {
        "spotify" : "https://open.spotify.com/artist/2E6Nnh7AAOVajEHHRDALav"
      },
      "followers" : {
        "href" : null,
        "total" : 263085
      },
      "genres" : [ "ccm", "christian alternative rock", "christian hip hop", "christian music", "christian pop", "worship" ],
      "href" : "https://api.spotify.com/v1/artists/2E6Nnh7AAOVajEHHRDALav",
      "id" : "2E6Nnh7AAOVajEHHRDALav",
      "images" : [ {
        "height" : 640,
        "url" : "https://i.scdn.co/image/ab6761610000e5eb0dbba74f0591d34e5e0a09fb",
        "width" : 640
      }, {
        "height" : 320,
        "url" : "https://i.scdn.co/image/ab676161000051740dbba74f0591d34e5e0a09fb",
        "width" : 320
      }, {
        "height" : 160,
        "url" : "https://i.scdn.co/image/ab6761610000f1780dbba74f0591d34e5e0a09fb",
        "width" : 160
      } ],
      "name" : "Hollyn",
      "popularity" : 56,
      "type" : "artist",
      "uri" : "spotify:artist:2E6Nnh7AAOVajEHHRDALav"
    }, {
      "external_urls" : {
        "spotify" : "https://open.spotify.com/artist/58nB2Z6IiDdTUTwHYw56xI"
      },
      "followers" : {
        "href" : null,
        "total" : 150260
      },
      "genres" : [ "contemporary country", "redneck" ],
      "href" : "https://api.spotify.com/v1/artists/58nB2Z6IiDdTUTwHYw56xI",
      "id" : "58nB2Z6IiDdTUTwHYw56xI",
      "images" : [ {
        "height" : 640,
        "url" : "https://i.scdn.co/image/ab6761610000e5eb1528bcb239b3c89e87d753ba",
        "width" : 640
      }, {
        "height" : 320,
        "url" : "https://i.scdn.co/image/ab676161000051741528bcb239b3c89e87d753ba",
        "width" : 320
      }, {
        "height" : 160,
        "url" : "https://i.scdn.co/image/ab6761610000f1781528bcb239b3c89e87d753ba",
        "width" : 160
      } ],
      "name" : "Taylor Ray Holbrook",
      "popularity" : 60,
      "type" : "artist",
      "uri" : "spotify:artist:58nB2Z6IiDdTUTwHYw56xI"
    }, {
      "external_urls" : {
        "spotify" : "https://open.spotify.com/artist/2tl280wIokrLjabzrSKTgU"
      },
      "followers" : {
        "href" : null,
        "total" : 59536
      },
      "genres" : [ "pop punk", "uk pop punk" ],
      "href" : "https://api.spotify.com/v1/artists/2tl280wIokrLjabzrSKTgU",
      "id" : "2tl280wIokrLjabzrSKTgU",
      "images" : [ {
        "height" : 640,
        "url" : "https://i.scdn.co/image/ab6761610000e5eb112ed3be06b94eda75645b2d",
        "width" : 640
      }, {
        "height" : 320,
        "url" : "https://i.scdn.co/image/ab67616100005174112ed3be06b94eda75645b2d",
        "width" : 320
      }, {
        "height" : 160,
        "url" : "https://i.scdn.co/image/ab6761610000f178112ed3be06b94eda75645b2d",
        "width" : 160
      } ],
      "name" : "Holding Absence",
      "popularity" : 57,
      "type" : "artist",
      "uri" : "spotify:artist:2tl280wIokrLjabzrSKTgU"
    }, {
      "external_urls" : {
        "spotify" : "https://open.spotify.com/artist/5hNiAUVPCTgcpy8vljCxzs"
      },
      "followers" : {
        "href" : null,
        "total" : 74667
      },
      "genres" : [ "anthem worship", "ccm", "indiecoustica", "roots worship" ],
      "href" : "https://api.spotify.com/v1/artists/5hNiAUVPCTgcpy8vljCxzs",
      "id" : "5hNiAUVPCTgcpy8vljCxzs",
      "images" : [ {
        "height" : 640,
        "url" : "https://i.scdn.co/image/ab6761610000e5eb38a54cdcb2af0fc85a289e58",
        "width" : 640
      }, {
        "height" : 320,
        "url" : "https://i.scdn.co/image/ab6761610000517438a54cdcb2af0fc85a289e58",
        "width" : 320
      }, {
        "height" : 160,
        "url" : "https://i.scdn.co/image/ab6761610000f17838a54cdcb2af0fc85a289e58",
        "width" : 160
      } ],
      "name" : "Ellie Holcomb",
      "popularity" : 60,
      "type" : "artist",
      "uri" : "spotify:artist:5hNiAUVPCTgcpy8vljCxzs"
    }, {
      "external_urls" : {
        "spotify" : "https://open.spotify.com/artist/28KOnhhvUnyvgRNXEQ41WL"
      },
      "followers" : {
        "href" : null,
        "total" : 3834
      },
      "genres" : [ ],
      "href" : "https://api.spotify.com/v1/artists/28KOnhhvUnyvgRNXEQ41WL",
      "id" : "28KOnhhvUnyvgRNXEQ41WL",
      "images" : [ {
        "height" : 640,
        "url" : "https://i.scdn.co/image/ab6761610000e5eb92b842d20042aeffddb7e5ed",
        "width" : 640
      }, {
        "height" : 320,
        "url" : "https://i.scdn.co/image/ab6761610000517492b842d20042aeffddb7e5ed",
        "width" : 320
      }, {
        "height" : 160,
        "url" : "https://i.scdn.co/image/ab6761610000f17892b842d20042aeffddb7e5ed",
        "width" : 160
      } ],
      "name" : "Hollis",
      "popularity" : 56,
      "type" : "artist",
      "uri" : "spotify:artist:28KOnhhvUnyvgRNXEQ41WL"
    }, {
      "external_urls" : {
        "spotify" : "https://open.spotify.com/artist/4RwbDag6jWIYJnEGH6Wte9"
      },
      "followers" : {
        "href" : null,
        "total" : 116348
      },
      "genres" : [ "acoustic pop", "indie folk", "indiecoustica", "neo mellow", "new americana", "pop rock", "stomp and holler" ],
      "href" : "https://api.spotify.com/v1/artists/4RwbDag6jWIYJnEGH6Wte9",
      "id" : "4RwbDag6jWIYJnEGH6Wte9",
      "images" : [ {
        "height" : 640,
        "url" : "https://i.scdn.co/image/ab6761610000e5ebf7e446ee9d58f8b0e2b5f100",
        "width" : 640
      }, {
        "height" : 320,
        "url" : "https://i.scdn.co/image/ab67616100005174f7e446ee9d58f8b0e2b5f100",
        "width" : 320
      }, {
        "height" : 160,
        "url" : "https://i.scdn.co/image/ab6761610000f178f7e446ee9d58f8b0e2b5f100",
        "width" : 160
      } ],
      "name" : "Drew Holcomb & The Neighbors",
      "popularity" : 60,
      "type" : "artist",
      "uri" : "spotify:artist:4RwbDag6jWIYJnEGH6Wte9"
    }, {
      "external_urls" : {
        "spotify" : "https://open.spotify.com/artist/5vssQp6TyMHsx4mihKVAsC"
      },
      "followers" : {
        "href" : null,
        "total" : 12293
      },
      "genres" : [ "uk pop" ],
      "href" : "https://api.spotify.com/v1/artists/5vssQp6TyMHsx4mihKVAsC",
      "id" : "5vssQp6TyMHsx4mihKVAsC",
      "images" : [ {
        "height" : 640,
        "url" : "https://i.scdn.co/image/ab6761610000e5eb4b1aa4ef55bdfd93595464a4",
        "width" : 640
      }, {
        "height" : 320,
        "url" : "https://i.scdn.co/image/ab676161000051744b1aa4ef55bdfd93595464a4",
        "width" : 320
      }, {
        "height" : 160,
        "url" : "https://i.scdn.co/image/ab6761610000f1784b1aa4ef55bdfd93595464a4",
        "width" : 160
      } ],
      "name" : "Holly Walker",
      "popularity" : 63,
      "type" : "artist",
      "uri" : "spotify:artist:5vssQp6TyMHsx4mihKVAsC"
    }, {
      "external_urls" : {
        "spotify" : "https://open.spotify.com/artist/6waa8mKu91GjzD4NlONlNJ"
      },
      "followers" : {
        "href" : null,
        "total" : 936644
      },
      "genres" : [ "album rock", "brill building pop", "british invasion", "bubblegum pop", "classic rock", "classic uk pop", "country rock", "folk rock", "mellow gold", "merseybeat", "psychedelic rock", "rock", "rock-and-roll", "soft rock" ],
      "href" : "https://api.spotify.com/v1/artists/6waa8mKu91GjzD4NlONlNJ",
      "id" : "6waa8mKu91GjzD4NlONlNJ",
      "images" : [ {
        "height" : 600,
        "url" : "https://i.scdn.co/image/722e36849bde408b99330c713ebeb19157eabc89",
        "width" : 603
      }, {
        "height" : 199,
        "url" : "https://i.scdn.co/image/370be1cac834984b90b117db8bc018bb0337a6d9",
        "width" : 200
      }, {
        "height" : 64,
        "url" : "https://i.scdn.co/image/b3c6240bac22dcb19cc689b7d1002cf6cf4508e5",
        "width" : 64
      } ],
      "name" : "The Hollies",
      "popularity" : 65,
      "type" : "artist",
      "uri" : "spotify:artist:6waa8mKu91GjzD4NlONlNJ"
    }, {
      "external_urls" : {
        "spotify" : "https://open.spotify.com/artist/2L3geJ3pFSYkXI8RdOFQfj"
      },
      "followers" : {
        "href" : null,
        "total" : 6740
      },
      "genres" : [ ],
      "href" : "https://api.spotify.com/v1/artists/2L3geJ3pFSYkXI8RdOFQfj",
      "id" : "2L3geJ3pFSYkXI8RdOFQfj",
      "images" : [ {
        "height" : 640,
        "url" : "https://i.scdn.co/image/ab6761610000e5eb34a51ef007fd898b5a7f05cd",
        "width" : 640
      }, {
        "height" : 320,
        "url" : "https://i.scdn.co/image/ab6761610000517434a51ef007fd898b5a7f05cd",
        "width" : 320
      }, {
        "height" : 160,
        "url" : "https://i.scdn.co/image/ab6761610000f17834a51ef007fd898b5a7f05cd",
        "width" : 160
      } ],
      "name" : "Holybrune",
      "popularity" : 58,
      "type" : "artist",
      "uri" : "spotify:artist:2L3geJ3pFSYkXI8RdOFQfj"
    }, {
      "external_urls" : {
        "spotify" : "https://open.spotify.com/artist/3wYyutjgII8LJVVOLrGI0D"
      },
      "followers" : {
        "href" : null,
        "total" : 1017250
      },
      "genres" : [ "adult standards", "brill building pop", "bubblegum pop", "classic rock", "folk rock", "rock-and-roll", "rockabilly" ],
      "href" : "https://api.spotify.com/v1/artists/3wYyutjgII8LJVVOLrGI0D",
      "id" : "3wYyutjgII8LJVVOLrGI0D",
      "images" : [ {
        "height" : 1266,
        "url" : "https://i.scdn.co/image/ff6c6ecd90618f5fb0f8fbf51bf8477586c8843b",
        "width" : 1000
      }, {
        "height" : 810,
        "url" : "https://i.scdn.co/image/a6f9cbb13f743c1b397e73e77d564603ea8a7c1a",
        "width" : 640
      }, {
        "height" : 253,
        "url" : "https://i.scdn.co/image/6291c6dce69ccc5bf017a2a348c8b7e507882e0c",
        "width" : 200
      }, {
        "height" : 81,
        "url" : "https://i.scdn.co/image/b187258df5341858dbc1d4c09fc098a9a7aedbab",
        "width" : 64
      } ],
      "name" : "Buddy Holly",
      "popularity" : 63,
      "type" : "artist",
      "uri" : "spotify:artist:3wYyutjgII8LJVVOLrGI0D"
    } ],
    "limit" : 20,
    "next" : "https://api.spotify.com/v1/search?query=HOL&type=artist&market=US&offset=20&limit=20",
    "offset" : 0,
    "previous" : null,
    "total" : 10016
  }
}