{
  "artists" : {
    "href" : "https://api.spotify.com/v1/search?query=INZO&type=artist&market=US&offset=0&limit=20",
    "items" : [ {
      "external_urls" : {
        "spotify" : "https://open.spotify.com/artist/18Eu7uJEMPWwwt1QUdCglQ"
      },
      "followers" : {
        "href" : null,
        "total" : 102969
      },
      "genres" : [ "edm", "future bass" ],
      "href" : "https://api.spotify.com/v1/artists/18Eu7uJEMPWwwt1QUdCglQ",
      "id" : "18Eu7uJEMPWwwt1QUdCglQ",
      "images" : [ {
        "height" : 640,
        "url" : "https://i.scdn.co/image/ab6761610000e5eb780aaba7765cf031292368cd",
        "width" : 640
      }, {
        "height" : 320,
        "url" : "https://i.scdn.co/image/ab67616100005174780aaba7765cf031292368cd",
        "width" : 320
      }, {
        "height" : 160,
        "url" : "https://i.scdn.co/image/ab6761610000f178780aaba7765cf031292368cd",
        "width" : 160
      } ],
      "name" : "INZO",
      "popularity" : 55,
      "type" : "artist",
      "uri" : "spotify:artist:18Eu7uJEMPWwwt1QUdCglQ"
    }, {
      "external_urls" : {
        "spotify" : "https://open.spotify.com/artist/0tPttYcucRZTcYCCAy4Bat"
      },
      "followers" : {
        "href" : null,
        "total" : 1
      },
      "genres" : [ ],
      "href" : "https://api.spotify.com/v1/artists/0tPttYcucRZTcYCCAy4Bat",
      "id" : "0tPttYcucRZTcYCCAy4Bat",
      "images" : [ ],
      "name" : "INZO",
      "popularity" : 15,
      "type" : "artist",
      "uri" : "spotify:artist:0tPttYcucRZTcYCCAy4Bat"
    }, {
      "external_urls" : {
        "spotify" : "https://open.spotify.com/artist/7bcHkfCsx1kLXropo9Farw"
      },
      "followers" : {
        "href" : null,
        "total" : 61
      },
      "genres" : [ ],
      "href" : "https://api.spotify.com/v1/artists/7bcHkfCsx1kLXropo9Farw",
      "id" : "7bcHkfCsx1kLXropo9Farw",
      "images" : [ {
        "height" : 640,
        "url" : "https://i.scdn.co/image/ab67616d0000b2734ac260283c4ee2792b498c1d",
        "width" : 640
      }, {
        "height" : 300,
        "url" : "https://i.scdn.co/image/ab67616d00001e024ac260283c4ee2792b498c1d",
        "width" : 300
      }, {
        "height" : 64,
        "url" : "https://i.scdn.co/image/ab67616d000048514ac260283c4ee2792b498c1d",
        "width" : 64
      } ],
      "name" : "Inzom",
      "popularity" : 9,
      "type" : "artist",
      "uri" : "spotify:artist:7bcHkfCsx1kLXropo9Farw"
    }, {
      "external_urls" : {
        "spotify" : "https://open.spotify.com/artist/4ypSsO5nvY7WUfQv4k9PRE"
      },
      "followers" : {
        "href" : null,
        "total" : 14
      },
      "genres" : [ ],
      "href" : "https://api.spotify.com/v1/artists/4ypSsO5nvY7WUfQv4k9PRE",
      "id" : "4ypSsO5nvY7WUfQv4k9PRE",
      "images" : [ {
        "height" : 640,
        "url" : "https://i.scdn.co/image/ab67616d0000b27350b38b0990e996c354dae158",
        "width" : 640
      }, {
        "height" : 300,
        "url" : "https://i.scdn.co/image/ab67616d00001e0250b38b0990e996c354dae158",
        "width" : 300
      }, {
        "height" : 64,
        "url" : "https://i.scdn.co/image/ab67616d0000485150b38b0990e996c354dae158",
        "width" : 64
      } ],
      "name" : "INZO",
      "popularity" : 0,
      "type" : "artist",
      "uri" : "spotify:artist:4ypSsO5nvY7WUfQv4k9PRE"
    }, {
      "external_urls" : {
        "spotify" : "https://open.spotify.com/artist/0N36TbUZGD5RBO7apQtHiQ"
      },
      "followers" : {
        "href" : null,
        "total" : 1328
      },
      "genres" : [ ],
      "href" : "https://api.spotify.com/v1/artists/0N36TbUZGD5RBO7apQtHiQ",
      "id" : "0N36TbUZGD5RBO7apQtHiQ",
      "images" : [ {
        "height" : 640,
        "url" : "https://i.scdn.co/image/ab67616d0000b273cb9834a47c5056ebf80fc4d3",
        "width" : 640
      }, {
        "height" : 300,
        "url" : "https://i.scdn.co/image/ab67616d00001e02cb9834a47c5056ebf80fc4d3",
        "width" : 300
      }, {
        "height" : 64,
        "url" : "https://i.scdn.co/image/ab67616d00004851cb9834a47c5056ebf80fc4d3",
        "width" : 64
      } ],
      "name" : "Inzomnia",
      "popularity" : 11,
      "type" : "artist",
      "uri" : "spotify:artist:0N36TbUZGD5RBO7apQtHiQ"
    }, {
      "external_urls" : {
        "spotify" : "https://open.spotify.com/artist/58PDKtCb0p3xrEtTzGepEn"
      },
      "followers" : {
        "href" : null,
        "total" : 78
      },
      "genres" : [ ],
      "href" : "https://api.spotify.com/v1/artists/58PDKtCb0p3xrEtTzGepEn",
      "id" : "58PDKtCb0p3xrEtTzGepEn",
      "images" : [ {
        "height" : 640,
        "url" : "https://i.scdn.co/image/ab67616d0000b27311ee196005e9dedecd130b3e",
        "width" : 640
      }, {
        "height" : 300,
        "url" : "https://i.scdn.co/image/ab67616d00001e0211ee196005e9dedecd130b3e",
        "width" : 300
      }, {
        "height" : 64,
        "url" : "https://i.scdn.co/image/ab67616d0000485111ee196005e9dedecd130b3e",
        "width" : 64
      } ],
      "name" : "Inzo",
      "popularity" : 1,
      "type" : "artist",
      "uri" : "spotify:artist:58PDKtCb0p3xrEtTzGepEn"
    }, {
      "external_urls" : {
        "spotify" : "https://open.spotify.com/artist/5j3n5WknamOfyUWctN3jLQ"
      },
      "followers" : {
        "href" : null,
        "total" : 4
      },
      "genres" : [ ],
      "href" : "https://api.spotify.com/v1/artists/5j3n5WknamOfyUWctN3jLQ",
      "id" : "5j3n5WknamOfyUWctN3jLQ",
      "images" : [ {
        "height" : 640,
        "url" : "https://i.scdn.co/image/ab67616d0000b2733c7e2dc60f68e3d742e812ec",
        "width" : 640
      }, {
        "height" : 300,
        "url" : "https://i.scdn.co/image/ab67616d00001e023c7e2dc60f68e3d742e812ec",
        "width" : 300
      }, {
        "height" : 64,
        "url" : "https://i.scdn.co/image/ab67616d000048513c7e2dc60f68e3d742e812ec",
        "width" : 64
      } ],
      "name" : "Inzoned",
      "popularity" : 0,
      "type" : "artist",
      "uri" : "spotify:artist:5j3n5WknamOfyUWctN3jLQ"
    }, {
      "external_urls" : {
        "spotify" : "https://open.spotify.com/artist/1nNDexv1cTJhcjOxUbRfLx"
      },
      "followers" : {
        "href" : null,
        "total" : 0
      },
      "genres" : [ ],
      "href" : "https://api.spotify.com/v1/artists/1nNDexv1cTJhcjOxUbRfLx",
      "id" : "1nNDexv1cTJhcjOxUbRfLx",
      "images" : [ {
        "height" : 640,
        "url" : "https://i.scdn.co/image/ab67616d0000b2732ca999755ec0526bc2885d47",
        "width" : 640
      }, {
        "height" : 300,
        "url" : "https://i.scdn.co/image/ab67616d00001e022ca999755ec0526bc2885d47",
        "width" : 300
      }, {
        "height" : 64,
        "url" : "https://i.scdn.co/image/ab67616d000048512ca999755ec0526bc2885d47",
        "width" : 64
      } ],
      "name" : "Inzoom",
      "popularity" : 0,
      "type" : "artist",
      "uri" : "spotify:artist:1nNDexv1cTJhcjOxUbRfLx"
    }, {
      "external_urls" : {
        "spotify" : "https://open.spotify.com/artist/6ZMeK6DQ3FObmG608k0JpH"
      },
      "followers" : {
        "href" : null,
        "total" : 2
      },
      "genres" : [ ],
      "href" : "https://api.spotify.com/v1/artists/6ZMeK6DQ3FObmG608k0JpH",
      "id" : "6ZMeK6DQ3FObmG608k0JpH",
      "images" : [ ],
      "name" : "Inzo",
      "popularity" : 0,
      "type" : "artist",
      "uri" : "spotify:artist:6ZMeK6DQ3FObmG608k0JpH"
    }, {
      "external_urls" : {
        "spotify" : "https://open.spotify.com/artist/6ER67x0f5t2LzrXG007Bbd"
      },
      "followers" : {
        "href" : null,
        "total" : 0
      },
      "genres" : [ ],
      "href" : "https://api.spotify.com/v1/artists/6ER67x0f5t2LzrXG007Bbd",
      "id" : "6ER67x0f5t2LzrXG007Bbd",
      "images" : [ ],
      "name" : "Inzom",
      "popularity" : 0,
      "type" : "artist",
      "uri" : "spotify:artist:6ER67x0f5t2LzrXG007Bbd"
    }, {
      "external_urls" : {
        "spotify" : "https://open.spotify.com/artist/3nKMyCArTV5dQbjhcPQXCv"
      },
      "followers" : {
        "href" : null,
        "total" : 15
      },
      "genres" : [ ],
      "href" : "https://api.spotify.com/v1/artists/3nKMyCArTV5dQbjhcPQXCv",
      "id" : "3nKMyCArTV5dQbjhcPQXCv",
      "images" : [ {
        "height" : 640,
        "url" : "https://i.scdn.co/image/ab6761610000e5ebbcfe4d9b8d3edf670f9aa9e4",
        "width" : 640
      }, {
        "height" : 320,
        "url" : "https://i.scdn.co/image/ab67616100005174bcfe4d9b8d3edf670f9aa9e4",
        "width" : 320
      }, {
        "height" : 160,
        "url" : "https://i.scdn.co/image/ab6761610000f178bcfe4d9b8d3edf670f9aa9e4",
        "width" : 160
      } ],
      "name" : "Gino Inzo",
      "popularity" : 0,
      "type" : "artist",
      "uri" : "spotify:artist:3nKMyCArTV5dQbjhcPQXCv"
    }, {
      "external_urls" : {
        "spotify" : "https://open.spotify.com/artist/5vlLUWbbPnKEacLB3VI8Pn"
      },
      "followers" : {
        "href" : null,
        "total" : 2
      },
      "genres" : [ ],
      "href" : "https://api.spotify.com/v1/artists/5vlLUWbbPnKEacLB3VI8Pn",
      "id" : "5vlLUWbbPnKEacLB3VI8Pn",
      "images" : [ {
        "height" : 640,
        "url" : "https://i.scdn.co/image/ab67616d0000b273f083365853dba0b7faedd14d",
        "width" : 640
      }, {
        "height" : 300,
        "url" : "https://i.scdn.co/image/ab67616d00001e02f083365853dba0b7faedd14d",
        "width" : 300
      }, {
        "height" : 64,
        "url" : "https://i.scdn.co/image/ab67616d00004851f083365853dba0b7faedd14d",
        "width" : 64
      } ],
      "name" : "inZombia",
      "popularity" : 0,
      "type" : "artist",
      "uri" : "spotify:artist:5vlLUWbbPnKEacLB3VI8Pn"
    }, {
      "external_urls" : {
        "spotify" : "https://open.spotify.com/artist/3O678afvrGrgUJBlzRyfzB"
      },
      "followers" : {
        "href" : null,
        "total" : 0
      },
      "genres" : [ ],
      "href" : "https://api.spotify.com/v1/artists/3O678afvrGrgUJBlzRyfzB",
      "id" : "3O678afvrGrgUJBlzRyfzB",
      "images" : [ ],
      "name" : "INZOMNIUM",
      "popularity" : 0,
      "type" : "artist",
      "uri" : "spotify:artist:3O678afvrGrgUJBlzRyfzB"
    }, {
      "external_urls" : {
        "spotify" : "https://open.spotify.com/artist/6pwHBNe76cT8IBTiXhFjE0"
      },
      "followers" : {
        "href" : null,
        "total" : 0
      },
      "genres" : [ ],
      "href" : "https://api.spotify.com/v1/artists/6pwHBNe76cT8IBTiXhFjE0",
      "id" : "6pwHBNe76cT8IBTiXhFjE0",
      "images" : [ ],
      "name" : "Inzolitomc",
      "popularity" : 0,
      "type" : "artist",
      "uri" : "spotify:artist:6pwHBNe76cT8IBTiXhFjE0"
    }, {
      "external_urls" : {
        "spotify" : "https://open.spotify.com/artist/744SxC3R4GEhcA1TPcaAKv"
      },
      "followers" : {
        "href" : null,
        "total" : 25
      },
      "genres" : [ ],
      "href" : "https://api.spotify.com/v1/artists/744SxC3R4GEhcA1TPcaAKv",
      "id" : "744SxC3R4GEhcA1TPcaAKv",
      "images" : [ {
        "height" : 640,
        "url" : "https://i.scdn.co/image/ab67616d0000b2737bcd38f22851d8d277175b6e",
        "width" : 640
      }, {
        "height" : 300,
        "url" : "https://i.scdn.co/image/ab67616d00001e027bcd38f22851d8d277175b6e",
        "width" : 300
      }, {
        "height" : 64,
        "url" : "https://i.scdn.co/image/ab67616d000048517bcd38f22851d8d277175b6e",
        "width" : 64
      } ],
      "name" : "hongnam 2 inzo",
      "popularity" : 1,
      "type" : "artist",
      "uri" : "spotify:artist:744SxC3R4GEhcA1TPcaAKv"
    }, {
      "external_urls" : {
        "spotify" : "https://open.spotify.com/artist/1XXiJ7Ie12Dtf5mU6WYdUu"
      },
      "followers" : {
        "href" : null,
        "total" : 0
      },
      "genres" : [ ],
      "href" : "https://api.spotify.com/v1/artists/1XXiJ7Ie12Dtf5mU6WYdUu",
      "id" : "1XXiJ7Ie12Dtf5mU6WYdUu",
      "images" : [ ],
      "name" : "Inzomia",
      "popularity" : 0,
      "type" : "artist",
      "uri" : "spotify:artist:1XXiJ7Ie12Dtf5mU6WYdUu"
    }, {
      "external_urls" : {
        "spotify" : "https://open.spotify.com/artist/7anAMmLf0d3R3Ik51VCj3S"
      },
      "followers" : {
        "href" : null,
        "total" : 230
      },
      "genres" : [ ],
      "href" : "https://api.spotify.com/v1/artists/7anAMmLf0d3R3Ik51VCj3S",
      "id" : "7anAMmLf0d3R3Ik51VCj3S",
      "images" : [ {
        "height" : 640,
        "url" : "https://i.scdn.co/image/ab67616d0000b273e318154e316d7759346dc0ad",
        "width" : 640
      }, {
        "height" : 300,
        "url" : "https://i.scdn.co/image/ab67616d00001e02e318154e316d7759346dc0ad",
        "width" : 300
      }, {
        "height" : 64,
        "url" : "https://i.scdn.co/image/ab67616d00004851e318154e316d7759346dc0ad",
        "width" : 64
      } ],
      "name" : "Inzoe",
      "popularity" : 1,
      "type" : "artist",
      "uri" : "spotify:artist:7anAMmLf0d3R3Ik51VCj3S"
    }, {
      "external_urls" : {
        "spotify" : "https://open.spotify.com/artist/21EXSPqFmcJNp9euGxM9PR"
      },
      "followers" : {
        "href" : null,
        "total" : 0
      },
      "genres" : [ ],
      "href" : "https://api.spotify.com/v1/artists/21EXSPqFmcJNp9euGxM9PR",
      "id" : "21EXSPqFmcJNp9euGxM9PR",
      "images" : [ {
        "height" : 640,
        "url" : "https://i.scdn.co/image/ab67616d0000b273a8b8afbcdaa8735bd8c6bf07",
        "width" : 640
      }, {
        "height" : 300,
        "url" : "https://i.scdn.co/image/ab67616d00001e02a8b8afbcdaa8735bd8c6bf07",
        "width" : 300
      }, {
        "height" : 64,
        "url" : "https://i.scdn.co/image/ab67616d00004851a8b8afbcdaa8735bd8c6bf07",
        "width" : 64
      } ],
      "name" : "Inzo",
      "popularity" : 0,
      "type" : "artist",
      "uri" : "spotify:artist:21EXSPqFmcJNp9euGxM9PR"
    }, {
      "external_urls" : {
        "spotify" : "https://open.spotify.com/artist/6Rjh69B51trGpjrKZgmMkS"
      },
      "followers" : {
        "href" : null,
        "total" : 1
      },
      "genres" : [ ],
      "href" : "https://api.spotify.com/v1/artists/6Rjh69B51trGpjrKZgmMkS",
      "id" : "6Rjh69B51trGpjrKZgmMkS",
      "images" : [ ],
      "name" : "Sinuhe feat. Inzoe",
      "popularity" : 0,
      "type" : "artist",
      "uri" : "spotify:artist:6Rjh69B51trGpjrKZgmMkS"
    }, {
      "external_urls" : {
        "spotify" : "https://open.spotify.com/artist/6arL16FS7djWL1gPeDeBPY"
      },
      "followers" : {
        "href" : null,
        "total" : 21
      },
      "genres" : [ ],
      "href" : "https://api.spotify.com/v1/artists/6arL16FS7djWL1gPeDeBPY",
      "id" : "6arL16FS7djWL1gPeDeBPY",
      "images" : [ {
        "height" : 640,
        "url" : "https://i.scdn.co/image/ab6761610000e5eb206f5ee2b2eb2572958b0266",
        "width" : 640
      }, {
        "height" : 320,
        "url" : "https://i.scdn.co/image/ab67616100005174206f5ee2b2eb2572958b0266",
        "width" : 320
      }, {
        "height" : 160,
        "url" : "https://i.scdn.co/image/ab6761610000f178206f5ee2b2eb2572958b0266",
        "width" : 160
      } ],
      "name" : "INZONA",
      "popularity" : 0,
      "type" : "artist",
      "uri" : "spotify:artist:6arL16FS7djWL1gPeDeBPY"
    } ],
    "limit" : 20,
    "next" : "https://api.spotify.com/v1/search?query=INZO&type=artist&market=US&offset=20&limit=20",
    "offset" : 0,
    "previous" : null,
    "total" : 35
  }
}