{
  "artists" : {
    "href" : "https://api.spotify.com/v1/search?query=Kompany&type=artist&market=US&offset=0&limit=20",
    "items" : [ {
      "external_urls" : {
        "spotify" : "https://open.spotify.com/artist/7dtX3ykcuyVmts2HQnWgSP"
      },
      "followers" : {
        "href" : null,
        "total" : 58598
      },
      "genres" : [ "dubstep", "electro house", "electronic trap", "gaming dubstep", "melodic dubstep" ],
      "href" : "https://api.spotify.com/v1/artists/7dtX3ykcuyVmts2HQnWgSP",
      "id" : "7dtX3ykcuyVmts2HQnWgSP",
      "images" : [ {
        "height" : 640,
        "url" : "https://i.scdn.co/image/ab6761610000e5eb79bfdb5356ebd9716201f1a5",
        "width" : 640
      }, {
        "height" : 320,
        "url" : "https://i.scdn.co/image/ab6761610000517479bfdb5356ebd9716201f1a5",
        "width" : 320
      }, {
        "height" : 160,
        "url" : "https://i.scdn.co/image/ab6761610000f17879bfdb5356ebd9716201f1a5",
        "width" : 160
      } ],
      "name" : "Kompany",
      "popularity" : 51,
      "type" : "artist",
      "uri" : "spotify:artist:7dtX3ykcuyVmts2HQnWgSP"
    }, {
      "external_urls" : {
        "spotify" : "https://open.spotify.com/artist/2Udiv31AsrRzKJ1X6cUuu7"
      },
      "followers" : {
        "href" : null,
        "total" : 4618
      },
      "genres" : [ ],
      "href" : "https://api.spotify.com/v1/artists/2Udiv31AsrRzKJ1X6cUuu7",
      "id" : "2Udiv31AsrRzKJ1X6cUuu7",
      "images" : [ {
        "height" : 640,
        "url" : "https://i.scdn.co/image/ab6761610000e5ebf5d6f31a711915bbcb6f9b60",
        "width" : 640
      }, {
        "height" : 320,
        "url" : "https://i.scdn.co/image/ab67616100005174f5d6f31a711915bbcb6f9b60",
        "width" : 320
      }, {
        "height" : 160,
        "url" : "https://i.scdn.co/image/ab6761610000f178f5d6f31a711915bbcb6f9b60",
        "width" : 160
      } ],
      "name" : "Vokab Kompany",
      "popularity" : 32,
      "type" : "artist",
      "uri" : "spotify:artist:2Udiv31AsrRzKJ1X6cUuu7"
    }, {
      "external_urls" : {
        "spotify" : "https://open.spotify.com/artist/4TEZLGjAzVZ1GJ9vtExPMG"
      },
      "followers" : {
        "href" : null,
        "total" : 13
      },
      "genres" : [ ],
      "href" : "https://api.spotify.com/v1/artists/4TEZLGjAzVZ1GJ9vtExPMG",
      "id" : "4TEZLGjAzVZ1GJ9vtExPMG",
      "images" : [ {
        "height" : 640,
        "url" : "https://i.scdn.co/image/ab6761610000e5eba28869facd07b65a59107874",
        "width" : 640
      }, {
        "height" : 320,
        "url" : "https://i.scdn.co/image/ab67616100005174a28869facd07b65a59107874",
        "width" : 320
      }, {
        "height" : 160,
        "url" : "https://i.scdn.co/image/ab6761610000f178a28869facd07b65a59107874",
        "width" : 160
      } ],
      "name" : "Kompany",
      "popularity" : 0,
      "type" : "artist",
      "uri" : "spotify:artist:4TEZLGjAzVZ1GJ9vtExPMG"
    }, {
      "external_urls" : {
        "spotify" : "https://open.spotify.com/artist/71e6LUPSv9NakWs2OybO4s"
      },
      "followers" : {
        "href" : null,
        "total" : 25
      },
      "genres" : [ ],
      "href" : "https://api.spotify.com/v1/artists/71e6LUPSv9NakWs2OybO4s",
      "id" : "71e6LUPSv9NakWs2OybO4s",
      "images" : [ {
        "height" : 640,
        "url" : "https://i.scdn.co/image/ab67616d0000b273828dd3d1d1a0f60782509f17",
        "width" : 640
      }, {
        "height" : 300,
        "url" : "https://i.scdn.co/image/ab67616d00001e02828dd3d1d1a0f60782509f17",
        "width" : 300
      }, {
        "height" : 64,
        "url" : "https://i.scdn.co/image/ab67616d00004851828dd3d1d1a0f60782509f17",
        "width" : 64
      } ],
      "name" : "Kompany",
      "popularity" : 0,
      "type" : "artist",
      "uri" : "spotify:artist:71e6LUPSv9NakWs2OybO4s"
    }, {
      "external_urls" : {
        "spotify" : "https://open.spotify.com/artist/3YJx2bLeaA0Z9o9Azwb5jg"
      },
      "followers" : {
        "href" : null,
        "total" : 1879
      },
      "genres" : [ ],
      "href" : "https://api.spotify.com/v1/artists/3YJx2bLeaA0Z9o9Azwb5jg",
      "id" : "3YJx2bLeaA0Z9o9Azwb5jg",
      "images" : [ {
        "height" : 640,
        "url" : "https://i.scdn.co/image/ab6761610000e5eb95447924641bf0eb7deca529",
        "width" : 640
      }, {
        "height" : 320,
        "url" : "https://i.scdn.co/image/ab6761610000517495447924641bf0eb7deca529",
        "width" : 320
      }, {
        "height" : 160,
        "url" : "https://i.scdn.co/image/ab6761610000f17895447924641bf0eb7deca529",
        "width" : 160
      } ],
      "name" : "KRYZLER & KOMPANY",
      "popularity" : 16,
      "type" : "artist",
      "uri" : "spotify:artist:3YJx2bLeaA0Z9o9Azwb5jg"
    }, {
      "external_urls" : {
        "spotify" : "https://open.spotify.com/artist/2VLtEgtfYAI8m0ISIytvmg"
      },
      "followers" : {
        "href" : null,
        "total" : 112
      },
      "genres" : [ ],
      "href" : "https://api.spotify.com/v1/artists/2VLtEgtfYAI8m0ISIytvmg",
      "id" : "2VLtEgtfYAI8m0ISIytvmg",
      "images" : [ {
        "height" : 640,
        "url" : "https://i.scdn.co/image/ab6761610000e5eb394b0fd7aa9cf2d783de2cc1",
        "width" : 640
      }, {
        "height" : 320,
        "url" : "https://i.scdn.co/image/ab67616100005174394b0fd7aa9cf2d783de2cc1",
        "width" : 320
      }, {
        "height" : 160,
        "url" : "https://i.scdn.co/image/ab6761610000f178394b0fd7aa9cf2d783de2cc1",
        "width" : 160
      } ],
      "name" : "The Kompany",
      "popularity" : 5,
      "type" : "artist",
      "uri" : "spotify:artist:2VLtEgtfYAI8m0ISIytvmg"
    }, {
      "external_urls" : {
        "spotify" : "https://open.spotify.com/artist/0hLHM2i2PXVqeRdwU0uNTJ"
      },
      "followers" : {
        "href" : null,
        "total" : 1
      },
      "genres" : [ ],
      "href" : "https://api.spotify.com/v1/artists/0hLHM2i2PXVqeRdwU0uNTJ",
      "id" : "0hLHM2i2PXVqeRdwU0uNTJ",
      "images" : [ {
        "height" : 640,
        "url" : "https://i.scdn.co/image/ab67616d0000b27333e77c506ef9d7cac00ab22b",
        "width" : 640
      }, {
        "height" : 300,
        "url" : "https://i.scdn.co/image/ab67616d00001e0233e77c506ef9d7cac00ab22b",
        "width" : 300
      }, {
        "height" : 64,
        "url" : "https://i.scdn.co/image/ab67616d0000485133e77c506ef9d7cac00ab22b",
        "width" : 64
      } ],
      "name" : "Kompany Caine",
      "popularity" : 0,
      "type" : "artist",
      "uri" : "spotify:artist:0hLHM2i2PXVqeRdwU0uNTJ"
    }, {
      "external_urls" : {
        "spotify" : "https://open.spotify.com/artist/379lcxhVMv0wZCNFmAw2nn"
      },
      "followers" : {
        "href" : null,
        "total" : 5
      },
      "genres" : [ ],
      "href" : "https://api.spotify.com/v1/artists/379lcxhVMv0wZCNFmAw2nn",
      "id" : "379lcxhVMv0wZCNFmAw2nn",
      "images" : [ {
        "height" : 640,
        "url" : "https://i.scdn.co/image/ab67616d0000b273faee56465b57136568e4ab5c",
        "width" : 640
      }, {
        "height" : 300,
        "url" : "https://i.scdn.co/image/ab67616d00001e02faee56465b57136568e4ab5c",
        "width" : 300
      }, {
        "height" : 64,
        "url" : "https://i.scdn.co/image/ab67616d00004851faee56465b57136568e4ab5c",
        "width" : 64
      } ],
      "name" : "Warnkizzle & Kompany",
      "popularity" : 1,
      "type" : "artist",
      "uri" : "spotify:artist:379lcxhVMv0wZCNFmAw2nn"
    }, {
      "external_urls" : {
        "spotify" : "https://open.spotify.com/artist/3c8gPyfHrMp5ffbblVQIbD"
      },
      "followers" : {
        "href" : null,
        "total" : 1
      },
      "genres" : [ ],
      "href" : "https://api.spotify.com/v1/artists/3c8gPyfHrMp5ffbblVQIbD",
      "id" : "3c8gPyfHrMp5ffbblVQIbD",
      "images" : [ {
        "height" : 640,
        "url" : "https://i.scdn.co/image/ab67616d0000b273c6217f02a787e8b6ad9616fa",
        "width" : 640
      }, {
        "height" : 300,
        "url" : "https://i.scdn.co/image/ab67616d00001e02c6217f02a787e8b6ad9616fa",
        "width" : 300
      }, {
        "height" : 64,
        "url" : "https://i.scdn.co/image/ab67616d00004851c6217f02a787e8b6ad9616fa",
        "width" : 64
      } ],
      "name" : "The Kompany",
      "popularity" : 0,
      "type" : "artist",
      "uri" : "spotify:artist:3c8gPyfHrMp5ffbblVQIbD"
    }, {
      "external_urls" : {
        "spotify" : "https://open.spotify.com/artist/75N43x201XNEGYnPL7eiEl"
      },
      "followers" : {
        "href" : null,
        "total" : 352
      },
      "genres" : [ ],
      "href" : "https://api.spotify.com/v1/artists/75N43x201XNEGYnPL7eiEl",
      "id" : "75N43x201XNEGYnPL7eiEl",
      "images" : [ {
        "height" : 640,
        "url" : "https://i.scdn.co/image/ab6761610000e5eb3e003fa89c3e83e100025377",
        "width" : 640
      }, {
        "height" : 320,
        "url" : "https://i.scdn.co/image/ab676161000051743e003fa89c3e83e100025377",
        "width" : 320
      }, {
        "height" : 160,
        "url" : "https://i.scdn.co/image/ab6761610000f1783e003fa89c3e83e100025377",
        "width" : 160
      } ],
      "name" : "Rare Kompany",
      "popularity" : 7,
      "type" : "artist",
      "uri" : "spotify:artist:75N43x201XNEGYnPL7eiEl"
    }, {
      "external_urls" : {
        "spotify" : "https://open.spotify.com/artist/04YRKZdOxqMgS1Z2CB86bR"
      },
      "followers" : {
        "href" : null,
        "total" : 0
      },
      "genres" : [ ],
      "href" : "https://api.spotify.com/v1/artists/04YRKZdOxqMgS1Z2CB86bR",
      "id" : "04YRKZdOxqMgS1Z2CB86bR",
      "images" : [ ],
      "name" : "Kompany Uk",
      "popularity" : 0,
      "type" : "artist",
      "uri" : "spotify:artist:04YRKZdOxqMgS1Z2CB86bR"
    }, {
      "external_urls" : {
        "spotify" : "https://open.spotify.com/artist/6j5141c1KCjjMjJNUAaWxp"
      },
      "followers" : {
        "href" : null,
        "total" : 2
      },
      "genres" : [ ],
      "href" : "https://api.spotify.com/v1/artists/6j5141c1KCjjMjJNUAaWxp",
      "id" : "6j5141c1KCjjMjJNUAaWxp",
      "images" : [ ],
      "name" : "N. Kompanyeisky",
      "popularity" : 0,
      "type" : "artist",
      "uri" : "spotify:artist:6j5141c1KCjjMjJNUAaWxp"
    }, {
      "external_urls" : {
        "spotify" : "https://open.spotify.com/artist/0tEIBqpIHq2UCHyCcGi4CR"
      },
      "followers" : {
        "href" : null,
        "total" : 6
      },
      "genres" : [ ],
      "href" : "https://api.spotify.com/v1/artists/0tEIBqpIHq2UCHyCcGi4CR",
      "id" : "0tEIBqpIHq2UCHyCcGi4CR",
      "images" : [ {
        "height" : 640,
        "url" : "https://i.scdn.co/image/ab6761610000e5eb2441da620b65a673178ceef8",
        "width" : 640
      }, {
        "height" : 320,
        "url" : "https://i.scdn.co/image/ab676161000051742441da620b65a673178ceef8",
        "width" : 320
      }, {
        "height" : 160,
        "url" : "https://i.scdn.co/image/ab6761610000f1782441da620b65a673178ceef8",
        "width" : 160
      } ],
      "name" : "Bad Kompany",
      "popularity" : 0,
      "type" : "artist",
      "uri" : "spotify:artist:0tEIBqpIHq2UCHyCcGi4CR"
    }, {
      "external_urls" : {
        "spotify" : "https://open.spotify.com/artist/1AJoDMkfTLuxdGcdP4Hu02"
      },
      "followers" : {
        "href" : null,
        "total" : 12
      },
      "genres" : [ ],
      "href" : "https://api.spotify.com/v1/artists/1AJoDMkfTLuxdGcdP4Hu02",
      "id" : "1AJoDMkfTLuxdGcdP4Hu02",
      "images" : [ {
        "height" : 640,
        "url" : "https://i.scdn.co/image/ab67616d0000b27359d462b01bf9781e6db12d88",
        "width" : 640
      }, {
        "height" : 300,
        "url" : "https://i.scdn.co/image/ab67616d00001e0259d462b01bf9781e6db12d88",
        "width" : 300
      }, {
        "height" : 64,
        "url" : "https://i.scdn.co/image/ab67616d0000485159d462b01bf9781e6db12d88",
        "width" : 64
      } ],
      "name" : "Vokab Kompany, JPOD",
      "popularity" : 0,
      "type" : "artist",
      "uri" : "spotify:artist:1AJoDMkfTLuxdGcdP4Hu02"
    }, {
      "external_urls" : {
        "spotify" : "https://open.spotify.com/artist/2cWYgogCpviZwaHZiCi71a"
      },
      "followers" : {
        "href" : null,
        "total" : 0
      },
      "genres" : [ ],
      "href" : "https://api.spotify.com/v1/artists/2cWYgogCpviZwaHZiCi71a",
      "id" : "2cWYgogCpviZwaHZiCi71a",
      "images" : [ ],
      "name" : "Vokab Kompany",
      "popularity" : 0,
      "type" : "artist",
      "uri" : "spotify:artist:2cWYgogCpviZwaHZiCi71a"
    }, {
      "external_urls" : {
        "spotify" : "https://open.spotify.com/artist/0LmgCb9GDONh4eFlyzIhUE"
      },
      "followers" : {
        "href" : null,
        "total" : 1171
      },
      "genres" : [ ],
      "href" : "https://api.spotify.com/v1/artists/0LmgCb9GDONh4eFlyzIhUE",
      "id" : "0LmgCb9GDONh4eFlyzIhUE",
      "images" : [ {
        "height" : 640,
        "url" : "https://i.scdn.co/image/ab67616d0000b27379d41459281ee4db94923c46",
        "width" : 640
      }, {
        "height" : 300,
        "url" : "https://i.scdn.co/image/ab67616d00001e0279d41459281ee4db94923c46",
        "width" : 300
      }, {
        "height" : 64,
        "url" : "https://i.scdn.co/image/ab67616d0000485179d41459281ee4db94923c46",
        "width" : 64
      } ],
      "name" : "Johnny Young & Kompany",
      "popularity" : 10,
      "type" : "artist",
      "uri" : "spotify:artist:0LmgCb9GDONh4eFlyzIhUE"
    }, {
      "external_urls" : {
        "spotify" : "https://open.spotify.com/artist/0zMxS0Y0mebRpEAaknkWm6"
      },
      "followers" : {
        "href" : null,
        "total" : 0
      },
      "genres" : [ ],
      "href" : "https://api.spotify.com/v1/artists/0zMxS0Y0mebRpEAaknkWm6",
      "id" : "0zMxS0Y0mebRpEAaknkWm6",
      "images" : [ ],
      "name" : "Electric Kompany",
      "popularity" : 0,
      "type" : "artist",
      "uri" : "spotify:artist:0zMxS0Y0mebRpEAaknkWm6"
    }, {
      "external_urls" : {
        "spotify" : "https://open.spotify.com/artist/7ySayLA4EbCB3TKvkCRcIK"
      },
      "followers" : {
        "href" : null,
        "total" : 43
      },
      "genres" : [ ],
      "href" : "https://api.spotify.com/v1/artists/7ySayLA4EbCB3TKvkCRcIK",
      "id" : "7ySayLA4EbCB3TKvkCRcIK",
      "images" : [ {
        "height" : 640,
        "url" : "https://i.scdn.co/image/ab67616d0000b27392cd7869d8f373f8bf55d16e",
        "width" : 640
      }, {
        "height" : 300,
        "url" : "https://i.scdn.co/image/ab67616d00001e0292cd7869d8f373f8bf55d16e",
        "width" : 300
      }, {
        "height" : 64,
        "url" : "https://i.scdn.co/image/ab67616d0000485192cd7869d8f373f8bf55d16e",
        "width" : 64
      } ],
      "name" : "Roberto Delira & Kompany",
      "popularity" : 0,
      "type" : "artist",
      "uri" : "spotify:artist:7ySayLA4EbCB3TKvkCRcIK"
    }, {
      "external_urls" : {
        "spotify" : "https://open.spotify.com/artist/0pUe7c4wir5Nmvzh3FfWuQ"
      },
      "followers" : {
        "href" : null,
        "total" : 3
      },
      "genres" : [ ],
      "href" : "https://api.spotify.com/v1/artists/0pUe7c4wir5Nmvzh3FfWuQ",
      "id" : "0pUe7c4wir5Nmvzh3FfWuQ",
      "images" : [ {
        "height" : 640,
        "url" : "https://i.scdn.co/image/ab67616d0000b27342ab05cbae930274c315c520",
        "width" : 640
      }, {
        "height" : 300,
        "url" : "https://i.scdn.co/image/ab67616d00001e0242ab05cbae930274c315c520",
        "width" : 300
      }, {
        "height" : 64,
        "url" : "https://i.scdn.co/image/ab67616d0000485142ab05cbae930274c315c520",
        "width" : 64
      } ],
      "name" : "KIDO & KOMPANY",
      "popularity" : 0,
      "type" : "artist",
      "uri" : "spotify:artist:0pUe7c4wir5Nmvzh3FfWuQ"
    }, {
      "external_urls" : {
        "spotify" : "https://open.spotify.com/artist/1AdKjM9CunooozAGnCuemH"
      },
      "followers" : {
        "href" : null,
        "total" : 4
      },
      "genres" : [ ],
      "href" : "https://api.spotify.com/v1/artists/1AdKjM9CunooozAGnCuemH",
      "id" : "1AdKjM9CunooozAGnCuemH",
      "images" : [ {
        "height" : 640,
        "url" : "https://i.scdn.co/image/ab67616d0000b2737a4ea7057e218ae34d2f8b9a",
        "width" : 640
      }, {
        "height" : 300,
        "url" : "https://i.scdn.co/image/ab67616d00001e027a4ea7057e218ae34d2f8b9a",
        "width" : 300
      }, {
        "height" : 64,
        "url" : "https://i.scdn.co/image/ab67616d000048517a4ea7057e218ae34d2f8b9a",
        "width" : 64
      } ],
      "name" : "Karmann and Kompany",
      "popularity" : 0,
      "type" : "artist",
      "uri" : "spotify:artist:1AdKjM9CunooozAGnCuemH"
    } ],
    "limit" : 20,
    "next" : "https://api.spotify.com/v1/search?query=Kompany&type=artist&market=US&offset=20&limit=20",
    "offset" : 0,
    "previous" : null,
    "total" : 28
  }
}