{
  "artists" : {
    "href" : "https://api.spotify.com/v1/search?query=Kreation&type=artist&market=US&offset=0&limit=20",
    "items" : [ {
      "external_urls" : {
        "spotify" : "https://open.spotify.com/artist/3xDNY0vcZ7JBBX5fhdbT83"
      },
      "followers" : {
        "href" : null,
        "total" : 78
      },
      "genres" : [ ],
      "href" : "https://api.spotify.com/v1/artists/3xDNY0vcZ7JBBX5fhdbT83",
      "id" : "3xDNY0vcZ7JBBX5fhdbT83",
      "images" : [ {
        "height" : 640,
        "url" : "https://i.scdn.co/image/ab6761610000e5ebdbe57be7dcbdc2171a4f5971",
        "width" : 640
      }, {
        "height" : 320,
        "url" : "https://i.scdn.co/image/ab67616100005174dbe57be7dcbdc2171a4f5971",
        "width" : 320
      }, {
        "height" : 160,
        "url" : "https://i.scdn.co/image/ab6761610000f178dbe57be7dcbdc2171a4f5971",
        "width" : 160
      } ],
      "name" : "Kreation",
      "popularity" : 19,
      "type" : "artist",
      "uri" : "spotify:artist:3xDNY0vcZ7JBBX5fhdbT83"
    }, {
      "external_urls" : {
        "spotify" : "https://open.spotify.com/artist/3WFZoL1mEmH2cQXKhlWiXC"
      },
      "followers" : {
        "href" : null,
        "total" : 896
      },
      "genres" : [ ],
      "href" : "https://api.spotify.com/v1/artists/3WFZoL1mEmH2cQXKhlWiXC",
      "id" : "3WFZoL1mEmH2cQXKhlWiXC",
      "images" : [ {
        "height" : 640,
        "url" : "https://i.scdn.co/image/ab67616d0000b273b3ab6dcb69223e5dda565112",
        "width" : 640
      }, {
        "height" : 300,
        "url" : "https://i.scdn.co/image/ab67616d00001e02b3ab6dcb69223e5dda565112",
        "width" : 300
      }, {
        "height" : 64,
        "url" : "https://i.scdn.co/image/ab67616d00004851b3ab6dcb69223e5dda565112",
        "width" : 64
      } ],
      "name" : "Nu Kreation",
      "popularity" : 16,
      "type" : "artist",
      "uri" : "spotify:artist:3WFZoL1mEmH2cQXKhlWiXC"
    }, {
      "external_urls" : {
        "spotify" : "https://open.spotify.com/artist/4IYFbeBFGUkStYXlqfE25g"
      },
      "followers" : {
        "href" : null,
        "total" : 1
      },
      "genres" : [ ],
      "href" : "https://api.spotify.com/v1/artists/4IYFbeBFGUkStYXlqfE25g",
      "id" : "4IYFbeBFGUkStYXlqfE25g",
      "images" : [ {
        "height" : 640,
        "url" : "https://i.scdn.co/image/ab67616d0000b273f369ed5e71ce6e663abaca63",
        "width" : 640
      }, {
        "height" : 300,
        "url" : "https://i.scdn.co/image/ab67616d00001e02f369ed5e71ce6e663abaca63",
        "width" : 300
      }, {
        "height" : 64,
        "url" : "https://i.scdn.co/image/ab67616d00004851f369ed5e71ce6e663abaca63",
        "width" : 64
      } ],
      "name" : "Kreation2020",
      "popularity" : 0,
      "type" : "artist",
      "uri" : "spotify:artist:4IYFbeBFGUkStYXlqfE25g"
    }, {
      "external_urls" : {
        "spotify" : "https://open.spotify.com/artist/7sk0W8XjVmyJjdFOXVRkfM"
      },
      "followers" : {
        "href" : null,
        "total" : 5
      },
      "genres" : [ ],
      "href" : "https://api.spotify.com/v1/artists/7sk0W8XjVmyJjdFOXVRkfM",
      "id" : "7sk0W8XjVmyJjdFOXVRkfM",
      "images" : [ {
        "height" : 640,
        "url" : "https://i.scdn.co/image/ab6761610000e5eb14dc4426ac4b7df235530cac",
        "width" : 640
      }, {
        "height" : 320,
        "url" : "https://i.scdn.co/image/ab6761610000517414dc4426ac4b7df235530cac",
        "width" : 320
      }, {
        "height" : 160,
        "url" : "https://i.scdn.co/image/ab6761610000f17814dc4426ac4b7df235530cac",
        "width" : 160
      } ],
      "name" : "Kreation",
      "popularity" : 0,
      "type" : "artist",
      "uri" : "spotify:artist:7sk0W8XjVmyJjdFOXVRkfM"
    }, {
      "external_urls" : {
        "spotify" : "https://open.spotify.com/artist/7nogaznK0hkBdtr4iI9iiR"
      },
      "followers" : {
        "href" : null,
        "total" : 76
      },
      "genres" : [ ],
      "href" : "https://api.spotify.com/v1/artists/7nogaznK0hkBdtr4iI9iiR",
      "id" : "7nogaznK0hkBdtr4iI9iiR",
      "images" : [ {
        "height" : 640,
        "url" : "https://i.scdn.co/image/ab67616d0000b273e1126cb3675c1d8b311053c1",
        "width" : 640
      }, {
        "height" : 300,
        "url" : "https://i.scdn.co/image/ab67616d00001e02e1126cb3675c1d8b311053c1",
        "width" : 300
      }, {
        "height" : 64,
        "url" : "https://i.scdn.co/image/ab67616d00004851e1126cb3675c1d8b311053c1",
        "width" : 64
      } ],
      "name" : "Kreationist",
      "popularity" : 2,
      "type" : "artist",
      "uri" : "spotify:artist:7nogaznK0hkBdtr4iI9iiR"
    }, {
      "external_urls" : {
        "spotify" : "https://open.spotify.com/artist/0mKvecCJwri0SUnXqA1xkP"
      },
      "followers" : {
        "href" : null,
        "total" : 8
      },
      "genres" : [ ],
      "href" : "https://api.spotify.com/v1/artists/0mKvecCJwri0SUnXqA1xkP",
      "id" : "0mKvecCJwri0SUnXqA1xkP",
      "images" : [ {
        "height" : 640,
        "url" : "https://i.scdn.co/image/ab67616d0000b2737dde883b08598baaf6528475",
        "width" : 640
      }, {
        "height" : 300,
        "url" : "https://i.scdn.co/image/ab67616d00001e027dde883b08598baaf6528475",
        "width" : 300
      }, {
        "height" : 64,
        "url" : "https://i.scdn.co/image/ab67616d000048517dde883b08598baaf6528475",
        "width" : 64
      } ],
      "name" : "Kreationn",
      "popularity" : 0,
      "type" : "artist",
      "uri" : "spotify:artist:0mKvecCJwri0SUnXqA1xkP"
    }, {
      "external_urls" : {
        "spotify" : "https://open.spotify.com/artist/4l849alc25aIQ2E4DAUnnW"
      },
      "followers" : {
        "href" : null,
        "total" : 2
      },
      "genres" : [ ],
      "href" : "https://api.spotify.com/v1/artists/4l849alc25aIQ2E4DAUnnW",
      "id" : "4l849alc25aIQ2E4DAUnnW",
      "images" : [ {
        "height" : 640,
        "url" : "https://i.scdn.co/image/ab67616d0000b273f7bff269c3b13bd31b27c413",
        "width" : 640
      }, {
        "height" : 300,
        "url" : "https://i.scdn.co/image/ab67616d00001e02f7bff269c3b13bd31b27c413",
        "width" : 300
      }, {
        "height" : 64,
        "url" : "https://i.scdn.co/image/ab67616d00004851f7bff269c3b13bd31b27c413",
        "width" : 64
      } ],
      "name" : "Kreation",
      "popularity" : 0,
      "type" : "artist",
      "uri" : "spotify:artist:4l849alc25aIQ2E4DAUnnW"
    }, {
      "external_urls" : {
        "spotify" : "https://open.spotify.com/artist/6XRUp63Tqw71aIjkF3ujUN"
      },
      "followers" : {
        "href" : null,
        "total" : 6
      },
      "genres" : [ ],
      "href" : "https://api.spotify.com/v1/artists/6XRUp63Tqw71aIjkF3ujUN",
      "id" : "6XRUp63Tqw71aIjkF3ujUN",
      "images" : [ {
        "height" : 640,
        "url" : "https://i.scdn.co/image/ab6761610000e5eb9155c727bd046774de27cb7c",
        "width" : 640
      }, {
        "height" : 320,
        "url" : "https://i.scdn.co/image/ab676161000051749155c727bd046774de27cb7c",
        "width" : 320
      }, {
        "height" : 160,
        "url" : "https://i.scdn.co/image/ab6761610000f1789155c727bd046774de27cb7c",
        "width" : 160
      } ],
      "name" : "Kreation2020",
      "popularity" : 0,
      "type" : "artist",
      "uri" : "spotify:artist:6XRUp63Tqw71aIjkF3ujUN"
    }, {
      "external_urls" : {
        "spotify" : "https://open.spotify.com/artist/5j9MwFfGlM1MtjDQsD0pHK"
      },
      "followers" : {
        "href" : null,
        "total" : 1
      },
      "genres" : [ ],
      "href" : "https://api.spotify.com/v1/artists/5j9MwFfGlM1MtjDQsD0pHK",
      "id" : "5j9MwFfGlM1MtjDQsD0pHK",
      "images" : [ {
        "height" : 640,
        "url" : "https://i.scdn.co/image/ab67616d0000b273c9fb0a9d16bc34b5367207a5",
        "width" : 640
      }, {
        "height" : 300,
        "url" : "https://i.scdn.co/image/ab67616d00001e02c9fb0a9d16bc34b5367207a5",
        "width" : 300
      }, {
        "height" : 64,
        "url" : "https://i.scdn.co/image/ab67616d00004851c9fb0a9d16bc34b5367207a5",
        "width" : 64
      } ],
      "name" : "Kreation",
      "popularity" : 0,
      "type" : "artist",
      "uri" : "spotify:artist:5j9MwFfGlM1MtjDQsD0pHK"
    }, {
      "external_urls" : {
        "spotify" : "https://open.spotify.com/artist/1BwI5iinOcuZmBia69nD3T"
      },
      "followers" : {
        "href" : null,
        "total" : 1
      },
      "genres" : [ ],
      "href" : "https://api.spotify.com/v1/artists/1BwI5iinOcuZmBia69nD3T",
      "id" : "1BwI5iinOcuZmBia69nD3T",
      "images" : [ {
        "height" : 640,
        "url" : "https://i.scdn.co/image/ab67616d0000b273841297282f9ba7e14476e82c",
        "width" : 640
      }, {
        "height" : 300,
        "url" : "https://i.scdn.co/image/ab67616d00001e02841297282f9ba7e14476e82c",
        "width" : 300
      }, {
        "height" : 64,
        "url" : "https://i.scdn.co/image/ab67616d00004851841297282f9ba7e14476e82c",
        "width" : 64
      } ],
      "name" : "Kreationsministern",
      "popularity" : 0,
      "type" : "artist",
      "uri" : "spotify:artist:1BwI5iinOcuZmBia69nD3T"
    }, {
      "external_urls" : {
        "spotify" : "https://open.spotify.com/artist/52BNCrBgAq2DIFC27nzXzi"
      },
      "followers" : {
        "href" : null,
        "total" : 0
      },
      "genres" : [ ],
      "href" : "https://api.spotify.com/v1/artists/52BNCrBgAq2DIFC27nzXzi",
      "id" : "52BNCrBgAq2DIFC27nzXzi",
      "images" : [ ],
      "name" : "Driven Kreation",
      "popularity" : 0,
      "type" : "artist",
      "uri" : "spotify:artist:52BNCrBgAq2DIFC27nzXzi"
    }, {
      "external_urls" : {
        "spotify" : "https://open.spotify.com/artist/5EwQzTis3JFPZ1t9ourTUR"
      },
      "followers" : {
        "href" : null,
        "total" : 6
      },
      "genres" : [ ],
      "href" : "https://api.spotify.com/v1/artists/5EwQzTis3JFPZ1t9ourTUR",
      "id" : "5EwQzTis3JFPZ1t9ourTUR",
      "images" : [ {
        "height" : 640,
        "url" : "https://i.scdn.co/image/ab6761610000e5eb3779a5a3da58c89ffd5d1fc3",
        "width" : 640
      }, {
        "height" : 320,
        "url" : "https://i.scdn.co/image/ab676161000051743779a5a3da58c89ffd5d1fc3",
        "width" : 320
      }, {
        "height" : 160,
        "url" : "https://i.scdn.co/image/ab6761610000f1783779a5a3da58c89ffd5d1fc3",
        "width" : 160
      } ],
      "name" : "Horrifik Kreationz",
      "popularity" : 0,
      "type" : "artist",
      "uri" : "spotify:artist:5EwQzTis3JFPZ1t9ourTUR"
    }, {
      "external_urls" : {
        "spotify" : "https://open.spotify.com/artist/6UhUhnVRaHEeRtBaIoFjfW"
      },
      "followers" : {
        "href" : null,
        "total" : 5
      },
      "genres" : [ ],
      "href" : "https://api.spotify.com/v1/artists/6UhUhnVRaHEeRtBaIoFjfW",
      "id" : "6UhUhnVRaHEeRtBaIoFjfW",
      "images" : [ ],
      "name" : "Khaos Kreation",
      "popularity" : 5,
      "type" : "artist",
      "uri" : "spotify:artist:6UhUhnVRaHEeRtBaIoFjfW"
    }, {
      "external_urls" : {
        "spotify" : "https://open.spotify.com/artist/7BgLy8Wfv9Rn95uNvSqZCW"
      },
      "followers" : {
        "href" : null,
        "total" : 6
      },
      "genres" : [ ],
      "href" : "https://api.spotify.com/v1/artists/7BgLy8Wfv9Rn95uNvSqZCW",
      "id" : "7BgLy8Wfv9Rn95uNvSqZCW",
      "images" : [ {
        "height" : 640,
        "url" : "https://i.scdn.co/image/ab6761610000e5eb7f14be682a0295c99627080a",
        "width" : 640
      }, {
        "height" : 320,
        "url" : "https://i.scdn.co/image/ab676161000051747f14be682a0295c99627080a",
        "width" : 320
      }, {
        "height" : 160,
        "url" : "https://i.scdn.co/image/ab6761610000f1787f14be682a0295c99627080a",
        "width" : 160
      } ],
      "name" : "New Kreation",
      "popularity" : 0,
      "type" : "artist",
      "uri" : "spotify:artist:7BgLy8Wfv9Rn95uNvSqZCW"
    }, {
      "external_urls" : {
        "spotify" : "https://open.spotify.com/artist/43IyjWuyeWVdlXsaOs7HIo"
      },
      "followers" : {
        "href" : null,
        "total" : 1
      },
      "genres" : [ ],
      "href" : "https://api.spotify.com/v1/artists/43IyjWuyeWVdlXsaOs7HIo",
      "id" : "43IyjWuyeWVdlXsaOs7HIo",
      "images" : [ ],
      "name" : "Kiwi kreation",
      "popularity" : 0,
      "type" : "artist",
      "uri" : "spotify:artist:43IyjWuyeWVdlXsaOs7HIo"
    }, {
      "external_urls" : {
        "spotify" : "https://open.spotify.com/artist/5ACb6b8SqOnZQD4ADdOeJR"
      },
      "followers" : {
        "href" : null,
        "total" : 1
      },
      "genres" : [ ],
      "href" : "https://api.spotify.com/v1/artists/5ACb6b8SqOnZQD4ADdOeJR",
      "id" : "5ACb6b8SqOnZQD4ADdOeJR",
      "images" : [ {
        "height" : 640,
        "url" : "https://i.scdn.co/image/ab67616d0000b27306b86e27d44cfc08aa5e2b62",
        "width" : 640
      }, {
        "height" : 300,
        "url" : "https://i.scdn.co/image/ab67616d00001e0206b86e27d44cfc08aa5e2b62",
        "width" : 300
      }, {
        "height" : 64,
        "url" : "https://i.scdn.co/image/ab67616d0000485106b86e27d44cfc08aa5e2b62",
        "width" : 64
      } ],
      "name" : "Kenfolk Kreationz",
      "popularity" : 0,
      "type" : "artist",
      "uri" : "spotify:artist:5ACb6b8SqOnZQD4ADdOeJR"
    }, {
      "external_urls" : {
        "spotify" : "https://open.spotify.com/artist/0t4a2RCLBZ7oFbL0FGJyaU"
      },
      "followers" : {
        "href" : null,
        "total" : 1
      },
      "genres" : [ ],
      "href" : "https://api.spotify.com/v1/artists/0t4a2RCLBZ7oFbL0FGJyaU",
      "id" : "0t4a2RCLBZ7oFbL0FGJyaU",
      "images" : [ {
        "height" : 640,
        "url" : "https://i.scdn.co/image/ab67616d0000b27365104dae9156d2e8838bbf5a",
        "width" : 640
      }, {
        "height" : 300,
        "url" : "https://i.scdn.co/image/ab67616d00001e0265104dae9156d2e8838bbf5a",
        "width" : 300
      }, {
        "height" : 64,
        "url" : "https://i.scdn.co/image/ab67616d0000485165104dae9156d2e8838bbf5a",
        "width" : 64
      } ],
      "name" : "Lady Kreation",
      "popularity" : 0,
      "type" : "artist",
      "uri" : "spotify:artist:0t4a2RCLBZ7oFbL0FGJyaU"
    }, {
      "external_urls" : {
        "spotify" : "https://open.spotify.com/artist/1xC7xxdISSNHKjwaIPmNFB"
      },
      "followers" : {
        "href" : null,
        "total" : 4
      },
      "genres" : [ ],
      "href" : "https://api.spotify.com/v1/artists/1xC7xxdISSNHKjwaIPmNFB",
      "id" : "1xC7xxdISSNHKjwaIPmNFB",
      "images" : [ {
        "height" : 640,
        "url" : "https://i.scdn.co/image/ab67616d0000b2732f0f32ab9113ba128bbcb365",
        "width" : 640
      }, {
        "height" : 300,
        "url" : "https://i.scdn.co/image/ab67616d00001e022f0f32ab9113ba128bbcb365",
        "width" : 300
      }, {
        "height" : 64,
        "url" : "https://i.scdn.co/image/ab67616d000048512f0f32ab9113ba128bbcb365",
        "width" : 64
      } ],
      "name" : "Kreation DNA",
      "popularity" : 0,
      "type" : "artist",
      "uri" : "spotify:artist:1xC7xxdISSNHKjwaIPmNFB"
    }, {
      "external_urls" : {
        "spotify" : "https://open.spotify.com/artist/61dym8KTMSOZb6gqvXicjr"
      },
      "followers" : {
        "href" : null,
        "total" : 0
      },
      "genres" : [ ],
      "href" : "https://api.spotify.com/v1/artists/61dym8KTMSOZb6gqvXicjr",
      "id" : "61dym8KTMSOZb6gqvXicjr",
      "images" : [ {
        "height" : 640,
        "url" : "https://i.scdn.co/image/ab67616d0000b273064a7916e174bbe8e4bd9b1e",
        "width" : 640
      }, {
        "height" : 300,
        "url" : "https://i.scdn.co/image/ab67616d00001e02064a7916e174bbe8e4bd9b1e",
        "width" : 300
      }, {
        "height" : 64,
        "url" : "https://i.scdn.co/image/ab67616d00004851064a7916e174bbe8e4bd9b1e",
        "width" : 64
      } ],
      "name" : "Angelic Kreations",
      "popularity" : 0,
      "type" : "artist",
      "uri" : "spotify:artist:61dym8KTMSOZb6gqvXicjr"
    }, {
      "external_urls" : {
        "spotify" : "https://open.spotify.com/artist/5hVKxX8fjExXEbuoc2q6VJ"
      },
      "followers" : {
        "href" : null,
        "total" : 0
      },
      "genres" : [ ],
      "href" : "https://api.spotify.com/v1/artists/5hVKxX8fjExXEbuoc2q6VJ",
      "id" : "5hVKxX8fjExXEbuoc2q6VJ",
      "images" : [ ],
      "name" : "Darc Kreation",
      "popularity" : 0,
      "type" : "artist",
      "uri" : "spotify:artist:5hVKxX8fjExXEbuoc2q6VJ"
    } ],
    "limit" : 20,
    "next" : "https://api.spotify.com/v1/search?query=Kreation&type=artist&market=US&offset=20&limit=20",
    "offset" : 0,
    "previous" : null,
    "total" : 44
  }
}