{
  "artists" : {
    "href" : "https://api.spotify.com/v1/search?query=LINK&type=artist&market=US&offset=0&limit=20",
    "items" : [ {
      "external_urls" : {
        "spotify" : "https://open.spotify.com/artist/6XyY86QOPPrYVGvF9ch6wz"
      },
      "followers" : {
        "href" : null,
        "total" : 21488424
      },
      "genres" : [ "alternative metal", "nu metal", "post-grunge", "rap metal" ],
      "href" : "https://api.spotify.com/v1/artists/6XyY86QOPPrYVGvF9ch6wz",
      "id" : "6XyY86QOPPrYVGvF9ch6wz",
      "images" : [ {
        "height" : 640,
        "url" : "https://i.scdn.co/image/ab6761610000e5eb34e5aa6afc1ba147bfbb0677",
        "width" : 640
      }, {
        "height" : 320,
        "url" : "https://i.scdn.co/image/ab6761610000517434e5aa6afc1ba147bfbb0677",
        "width" : 320
      }, {
        "height" : 160,
        "url" : "https://i.scdn.co/image/ab6761610000f17834e5aa6afc1ba147bfbb0677",
        "width" : 160
      } ],
      "name" : "Linkin Park",
      "popularity" : 87,
      "type" : "artist",
      "uri" : "spotify:artist:6XyY86QOPPrYVGvF9ch6wz"
    }, {
      "external_urls" : {
        "spotify" : "https://open.spotify.com/artist/20kaxHgwoxhckhw90pyRbb"
      },
      "followers" : {
        "href" : null,
        "total" : 7295
      },
      "genres" : [ ],
      "href" : "https://api.spotify.com/v1/artists/20kaxHgwoxhckhw90pyRbb",
      "id" : "20kaxHgwoxhckhw90pyRbb",
      "images" : [ {
        "height" : 640,
        "url" : "https://i.scdn.co/image/ab6761610000e5eb15d06626a8c2afd7d54f4322",
        "width" : 640
      }, {
        "height" : 320,
        "url" : "https://i.scdn.co/image/ab6761610000517415d06626a8c2afd7d54f4322",
        "width" : 320
      }, {
        "height" : 160,
        "url" : "https://i.scdn.co/image/ab6761610000f17815d06626a8c2afd7d54f4322",
        "width" : 160
      } ],
      "name" : "LINK",
      "popularity" : 26,
      "type" : "artist",
      "uri" : "spotify:artist:20kaxHgwoxhckhw90pyRbb"
    }, {
      "external_urls" : {
        "spotify" : "https://open.spotify.com/artist/3eNYrVLcWfjJ9JdH9kiPJO"
      },
      "followers" : {
        "href" : null,
        "total" : 263876
      },
      "genres" : [ "anime", "otacore" ],
      "href" : "https://api.spotify.com/v1/artists/3eNYrVLcWfjJ9JdH9kiPJO",
      "id" : "3eNYrVLcWfjJ9JdH9kiPJO",
      "images" : [ {
        "height" : 640,
        "url" : "https://i.scdn.co/image/ab6761610000e5ebeebd78fc6c2228e779fa55f9",
        "width" : 640
      }, {
        "height" : 320,
        "url" : "https://i.scdn.co/image/ab67616100005174eebd78fc6c2228e779fa55f9",
        "width" : 320
      }, {
        "height" : 160,
        "url" : "https://i.scdn.co/image/ab6761610000f178eebd78fc6c2228e779fa55f9",
        "width" : 160
      } ],
      "name" : "Linked Horizon",
      "popularity" : 68,
      "type" : "artist",
      "uri" : "spotify:artist:3eNYrVLcWfjJ9JdH9kiPJO"
    }, {
      "external_urls" : {
        "spotify" : "https://open.spotify.com/artist/6mCm6qDCacuFgoItpiW9sa"
      },
      "followers" : {
        "href" : null,
        "total" : 44
      },
      "genres" : [ ],
      "href" : "https://api.spotify.com/v1/artists/6mCm6qDCacuFgoItpiW9sa",
      "id" : "6mCm6qDCacuFgoItpiW9sa",
      "images" : [ {
        "height" : 640,
        "url" : "https://i.scdn.co/image/ab6761610000e5eb14e3d20065a454d1137dd775",
        "width" : 640
      }, {
        "height" : 320,
        "url" : "https://i.scdn.co/image/ab6761610000517414e3d20065a454d1137dd775",
        "width" : 320
      }, {
        "height" : 160,
        "url" : "https://i.scdn.co/image/ab6761610000f17814e3d20065a454d1137dd775",
        "width" : 160
      } ],
      "name" : "LINKS",
      "popularity" : 2,
      "type" : "artist",
      "uri" : "spotify:artist:6mCm6qDCacuFgoItpiW9sa"
    }, {
      "external_urls" : {
        "spotify" : "https://open.spotify.com/artist/2vQavlZtDA660mnZotYIto"
      },
      "followers" : {
        "href" : null,
        "total" : 81833
      },
      "genres" : [ "cosmic american", "native american", "punk blues", "rock-and-roll", "rockabilly", "surf music" ],
      "href" : "https://api.spotify.com/v1/artists/2vQavlZtDA660mnZotYIto",
      "id" : "2vQavlZtDA660mnZotYIto",
      "images" : [ {
        "height" : 1018,
        "url" : "https://i.scdn.co/image/93609213bc0adbeecab83f8ab4731adbddab5d1c",
        "width" : 1000
      }, {
        "height" : 652,
        "url" : "https://i.scdn.co/image/6201965c2bf0ca6b3c7de5e89849dbbd777a4f24",
        "width" : 640
      }, {
        "height" : 204,
        "url" : "https://i.scdn.co/image/17bff5b10f0189bd13e5503f1ec7ed0722c37f1c",
        "width" : 200
      }, {
        "height" : 65,
        "url" : "https://i.scdn.co/image/77963079759bd119e2fd9f88254631c3b06f8e94",
        "width" : 64
      } ],
      "name" : "Link Wray",
      "popularity" : 49,
      "type" : "artist",
      "uri" : "spotify:artist:2vQavlZtDA660mnZotYIto"
    }, {
      "external_urls" : {
        "spotify" : "https://open.spotify.com/artist/3XKtycltpy1gaeny0Bdzcs"
      },
      "followers" : {
        "href" : null,
        "total" : 99149
      },
      "genres" : [ "antiviral pop", "comic" ],
      "href" : "https://api.spotify.com/v1/artists/3XKtycltpy1gaeny0Bdzcs",
      "id" : "3XKtycltpy1gaeny0Bdzcs",
      "images" : [ {
        "height" : 640,
        "url" : "https://i.scdn.co/image/ab6761610000e5eb1895e0c1cbd6e5598da05376",
        "width" : 640
      }, {
        "height" : 320,
        "url" : "https://i.scdn.co/image/ab676161000051741895e0c1cbd6e5598da05376",
        "width" : 320
      }, {
        "height" : 160,
        "url" : "https://i.scdn.co/image/ab6761610000f1781895e0c1cbd6e5598da05376",
        "width" : 160
      } ],
      "name" : "Rhett and Link",
      "popularity" : 44,
      "type" : "artist",
      "uri" : "spotify:artist:3XKtycltpy1gaeny0Bdzcs"
    }, {
      "external_urls" : {
        "spotify" : "https://open.spotify.com/artist/6Y4FzcgKGBbclquvLrMB4O"
      },
      "followers" : {
        "href" : null,
        "total" : 92
      },
      "genres" : [ ],
      "href" : "https://api.spotify.com/v1/artists/6Y4FzcgKGBbclquvLrMB4O",
      "id" : "6Y4FzcgKGBbclquvLrMB4O",
      "images" : [ {
        "height" : 640,
        "url" : "https://i.scdn.co/image/ab6761610000e5eb54053aaadba4f8997039d3f2",
        "width" : 640
      }, {
        "height" : 320,
        "url" : "https://i.scdn.co/image/ab6761610000517454053aaadba4f8997039d3f2",
        "width" : 320
      }, {
        "height" : 160,
        "url" : "https://i.scdn.co/image/ab6761610000f17854053aaadba4f8997039d3f2",
        "width" : 160
      } ],
      "name" : "Links",
      "popularity" : 6,
      "type" : "artist",
      "uri" : "spotify:artist:6Y4FzcgKGBbclquvLrMB4O"
    }, {
      "external_urls" : {
        "spotify" : "https://open.spotify.com/artist/6PnWx4EpoWejrFQfrg06hU"
      },
      "followers" : {
        "href" : null,
        "total" : 8090
      },
      "genres" : [ "surf music" ],
      "href" : "https://api.spotify.com/v1/artists/6PnWx4EpoWejrFQfrg06hU",
      "id" : "6PnWx4EpoWejrFQfrg06hU",
      "images" : [ {
        "height" : 640,
        "url" : "https://i.scdn.co/image/ab67616d0000b273d2c5081a88e69dd5d21337bd",
        "width" : 640
      }, {
        "height" : 300,
        "url" : "https://i.scdn.co/image/ab67616d00001e02d2c5081a88e69dd5d21337bd",
        "width" : 300
      }, {
        "height" : 64,
        "url" : "https://i.scdn.co/image/ab67616d00004851d2c5081a88e69dd5d21337bd",
        "width" : 64
      } ],
      "name" : "Link Wray & The Wraymen",
      "popularity" : 37,
      "type" : "artist",
      "uri" : "spotify:artist:6PnWx4EpoWejrFQfrg06hU"
    }, {
      "external_urls" : {
        "spotify" : "https://open.spotify.com/artist/34gJOUTurjXaj8z3E9fDaV"
      },
      "followers" : {
        "href" : null,
        "total" : 4743
      },
      "genres" : [ "contemporary r&b" ],
      "href" : "https://api.spotify.com/v1/artists/34gJOUTurjXaj8z3E9fDaV",
      "id" : "34gJOUTurjXaj8z3E9fDaV",
      "images" : [ {
        "height" : 640,
        "url" : "https://i.scdn.co/image/ab67616d0000b27337e9751a21e67ca39fda58dd",
        "width" : 640
      }, {
        "height" : 300,
        "url" : "https://i.scdn.co/image/ab67616d00001e0237e9751a21e67ca39fda58dd",
        "width" : 300
      }, {
        "height" : 64,
        "url" : "https://i.scdn.co/image/ab67616d0000485137e9751a21e67ca39fda58dd",
        "width" : 64
      } ],
      "name" : "Link",
      "popularity" : 29,
      "type" : "artist",
      "uri" : "spotify:artist:34gJOUTurjXaj8z3E9fDaV"
    }, {
      "external_urls" : {
        "spotify" : "https://open.spotify.com/artist/1ZAujONMGo6GGiHxDQCGeA"
      },
      "followers" : {
        "href" : null,
        "total" : 17614
      },
      "genres" : [ "bronx hip hop", "hip hop cubano" ],
      "href" : "https://api.spotify.com/v1/artists/1ZAujONMGo6GGiHxDQCGeA",
      "id" : "1ZAujONMGo6GGiHxDQCGeA",
      "images" : [ {
        "height" : 640,
        "url" : "https://i.scdn.co/image/ab67616d0000b273a54031a6c15a702403bbf417",
        "width" : 640
      }, {
        "height" : 300,
        "url" : "https://i.scdn.co/image/ab67616d00001e02a54031a6c15a702403bbf417",
        "width" : 300
      }, {
        "height" : 64,
        "url" : "https://i.scdn.co/image/ab67616d00004851a54031a6c15a702403bbf417",
        "width" : 64
      } ],
      "name" : "Cuban Link",
      "popularity" : 46,
      "type" : "artist",
      "uri" : "spotify:artist:1ZAujONMGo6GGiHxDQCGeA"
    }, {
      "external_urls" : {
        "spotify" : "https://open.spotify.com/artist/6zN8SfYK7CaitT1XrHOhIN"
      },
      "followers" : {
        "href" : null,
        "total" : 2214
      },
      "genres" : [ ],
      "href" : "https://api.spotify.com/v1/artists/6zN8SfYK7CaitT1XrHOhIN",
      "id" : "6zN8SfYK7CaitT1XrHOhIN",
      "images" : [ {
        "height" : 640,
        "url" : "https://i.scdn.co/image/ab6761610000e5eb98435581434e034a09e07626",
        "width" : 640
      }, {
        "height" : 320,
        "url" : "https://i.scdn.co/image/ab6761610000517498435581434e034a09e07626",
        "width" : 320
      }, {
        "height" : 160,
        "url" : "https://i.scdn.co/image/ab6761610000f17898435581434e034a09e07626",
        "width" : 160
      } ],
      "name" : "Link Lauren",
      "popularity" : 33,
      "type" : "artist",
      "uri" : "spotify:artist:6zN8SfYK7CaitT1XrHOhIN"
    }, {
      "external_urls" : {
        "spotify" : "https://open.spotify.com/artist/2aBpZ2C5sQ8eZuHG7xLEAt"
      },
      "followers" : {
        "href" : null,
        "total" : 1441
      },
      "genres" : [ "british soul" ],
      "href" : "https://api.spotify.com/v1/artists/2aBpZ2C5sQ8eZuHG7xLEAt",
      "id" : "2aBpZ2C5sQ8eZuHG7xLEAt",
      "images" : [ {
        "height" : 640,
        "url" : "https://i.scdn.co/image/ab6761610000e5eb75693432b593a4f47d24ea85",
        "width" : 640
      }, {
        "height" : 320,
        "url" : "https://i.scdn.co/image/ab6761610000517475693432b593a4f47d24ea85",
        "width" : 320
      }, {
        "height" : 160,
        "url" : "https://i.scdn.co/image/ab6761610000f17875693432b593a4f47d24ea85",
        "width" : 160
      } ],
      "name" : "Link Lewis",
      "popularity" : 43,
      "type" : "artist",
      "uri" : "spotify:artist:2aBpZ2C5sQ8eZuHG7xLEAt"
    }, {
      "external_urls" : {
        "spotify" : "https://open.spotify.com/artist/7Ln3gaFhj7V95vXvKH0wXq"
      },
      "followers" : {
        "href" : null,
        "total" : 4180
      },
      "genres" : [ ],
      "href" : "https://api.spotify.com/v1/artists/7Ln3gaFhj7V95vXvKH0wXq",
      "id" : "7Ln3gaFhj7V95vXvKH0wXq",
      "images" : [ {
        "height" : 640,
        "url" : "https://i.scdn.co/image/ab6761610000e5eb2ce32d2574a550222b8c4582",
        "width" : 640
      }, {
        "height" : 320,
        "url" : "https://i.scdn.co/image/ab676161000051742ce32d2574a550222b8c4582",
        "width" : 320
      }, {
        "height" : 160,
        "url" : "https://i.scdn.co/image/ab6761610000f1782ce32d2574a550222b8c4582",
        "width" : 160
      } ],
      "name" : "Jontha Links",
      "popularity" : 43,
      "type" : "artist",
      "uri" : "spotify:artist:7Ln3gaFhj7V95vXvKH0wXq"
    }, {
      "external_urls" : {
        "spotify" : "https://open.spotify.com/artist/10030NW7sOhQsEVpHxS2ce"
      },
      "followers" : {
        "href" : null,
        "total" : 158
      },
      "genres" : [ ],
      "href" : "https://api.spotify.com/v1/artists/10030NW7sOhQsEVpHxS2ce",
      "id" : "10030NW7sOhQsEVpHxS2ce",
      "images" : [ {
        "height" : 640,
        "url" : "https://i.scdn.co/image/ab6761610000e5eb9e4380c23ff5da3b2ba936ba",
        "width" : 640
      }, {
        "height" : 320,
        "url" : "https://i.scdn.co/image/ab676161000051749e4380c23ff5da3b2ba936ba",
        "width" : 320
      }, {
        "height" : 160,
        "url" : "https://i.scdn.co/image/ab6761610000f1789e4380c23ff5da3b2ba936ba",
        "width" : 160
      } ],
      "name" : "LINK",
      "popularity" : 3,
      "type" : "artist",
      "uri" : "spotify:artist:10030NW7sOhQsEVpHxS2ce"
    }, {
      "external_urls" : {
        "spotify" : "https://open.spotify.com/artist/7A2TFN73Go9zmu3ymtCWps"
      },
      "followers" : {
        "href" : null,
        "total" : 4357
      },
      "genres" : [ "soca" ],
      "href" : "https://api.spotify.com/v1/artists/7A2TFN73Go9zmu3ymtCWps",
      "id" : "7A2TFN73Go9zmu3ymtCWps",
      "images" : [ {
        "height" : 640,
        "url" : "https://i.scdn.co/image/ab67616d0000b27339400f263078f15fa4f0fe58",
        "width" : 640
      }, {
        "height" : 300,
        "url" : "https://i.scdn.co/image/ab67616d00001e0239400f263078f15fa4f0fe58",
        "width" : 300
      }, {
        "height" : 64,
        "url" : "https://i.scdn.co/image/ab67616d0000485139400f263078f15fa4f0fe58",
        "width" : 64
      } ],
      "name" : "Linky First",
      "popularity" : 32,
      "type" : "artist",
      "uri" : "spotify:artist:7A2TFN73Go9zmu3ymtCWps"
    }, {
      "external_urls" : {
        "spotify" : "https://open.spotify.com/artist/7A4ESAV4ApIPjQRLJcm3ZJ"
      },
      "followers" : {
        "href" : null,
        "total" : 643
      },
      "genres" : [ ],
      "href" : "https://api.spotify.com/v1/artists/7A4ESAV4ApIPjQRLJcm3ZJ",
      "id" : "7A4ESAV4ApIPjQRLJcm3ZJ",
      "images" : [ ],
      "name" : "Greta Link",
      "popularity" : 37,
      "type" : "artist",
      "uri" : "spotify:artist:7A4ESAV4ApIPjQRLJcm3ZJ"
    }, {
      "external_urls" : {
        "spotify" : "https://open.spotify.com/artist/6w09JsWtQvsYFTGs17qTqn"
      },
      "followers" : {
        "href" : null,
        "total" : 5
      },
      "genres" : [ ],
      "href" : "https://api.spotify.com/v1/artists/6w09JsWtQvsYFTGs17qTqn",
      "id" : "6w09JsWtQvsYFTGs17qTqn",
      "images" : [ ],
      "name" : "LINK",
      "popularity" : 0,
      "type" : "artist",
      "uri" : "spotify:artist:6w09JsWtQvsYFTGs17qTqn"
    }, {
      "external_urls" : {
        "spotify" : "https://open.spotify.com/artist/7kob2Jo9yuEEhQlnPx2KT7"
      },
      "followers" : {
        "href" : null,
        "total" : 5235
      },
      "genres" : [ ],
      "href" : "https://api.spotify.com/v1/artists/7kob2Jo9yuEEhQlnPx2KT7",
      "id" : "7kob2Jo9yuEEhQlnPx2KT7",
      "images" : [ {
        "height" : 640,
        "url" : "https://i.scdn.co/image/ab6761610000e5ebc0fd2543f57fb7e645297915",
        "width" : 640
      }, {
        "height" : 320,
        "url" : "https://i.scdn.co/image/ab67616100005174c0fd2543f57fb7e645297915",
        "width" : 320
      }, {
        "height" : 160,
        "url" : "https://i.scdn.co/image/ab6761610000f178c0fd2543f57fb7e645297915",
        "width" : 160
      } ],
      "name" : "Linko",
      "popularity" : 37,
      "type" : "artist",
      "uri" : "spotify:artist:7kob2Jo9yuEEhQlnPx2KT7"
    }, {
      "external_urls" : {
        "spotify" : "https://open.spotify.com/artist/0eQf6edcsN28huWNJsOTm0"
      },
      "followers" : {
        "href" : null,
        "total" : 1605
      },
      "genres" : [ ],
      "href" : "https://api.spotify.com/v1/artists/0eQf6edcsN28huWNJsOTm0",
      "id" : "0eQf6edcsN28huWNJsOTm0",
      "images" : [ {
        "height" : 640,
        "url" : "https://i.scdn.co/image/ab6761610000e5eb86917d2de10966de5cb039ec",
        "width" : 640
      }, {
        "height" : 320,
        "url" : "https://i.scdn.co/image/ab6761610000517486917d2de10966de5cb039ec",
        "width" : 320
      }, {
        "height" : 160,
        "url" : "https://i.scdn.co/image/ab6761610000f17886917d2de10966de5cb039ec",
        "width" : 160
      } ],
      "name" : "Raven Link",
      "popularity" : 36,
      "type" : "artist",
      "uri" : "spotify:artist:0eQf6edcsN28huWNJsOTm0"
    }, {
      "external_urls" : {
        "spotify" : "https://open.spotify.com/artist/4YumJYOHBQwLa49IN4JlcK"
      },
      "followers" : {
        "href" : null,
        "total" : 23
      },
      "genres" : [ ],
      "href" : "https://api.spotify.com/v1/artists/4YumJYOHBQwLa49IN4JlcK",
      "id" : "4YumJYOHBQwLa49IN4JlcK",
      "images" : [ {
        "height" : 640,
        "url" : "https://i.scdn.co/image/ab67616d0000b2730e0f69621185cd7083267c75",
        "width" : 640
      }, {
        "height" : 300,
        "url" : "https://i.scdn.co/image/ab67616d00001e020e0f69621185cd7083267c75",
        "width" : 300
      }, {
        "height" : 64,
        "url" : "https://i.scdn.co/image/ab67616d000048510e0f69621185cd7083267c75",
        "width" : 64
      } ],
      "name" : "LINK",
      "popularity" : 0,
      "type" : "artist",
      "uri" : "spotify:artist:4YumJYOHBQwLa49IN4JlcK"
    } ],
    "limit" : 20,
    "next" : "https://api.spotify.com/v1/search?query=LINK&type=artist&market=US&offset=20&limit=20",
    "offset" : 0,
    "previous" : null,
    "total" : 1514
  }
}