{
  "artists" : {
    "href" : "https://api.spotify.com/v1/search?query=Nero&type=artist&market=US&offset=0&limit=20",
    "items" : [ {
      "external_urls" : {
        "spotify" : "https://open.spotify.com/artist/4uRYpUQZrNrY5t8tAv3XrD"
      },
      "followers" : {
        "href" : null,
        "total" : 815464
      },
      "genres" : [ "drum and bass", "edm", "electro house", "melodic dubstep" ],
      "href" : "https://api.spotify.com/v1/artists/4uRYpUQZrNrY5t8tAv3XrD",
      "id" : "4uRYpUQZrNrY5t8tAv3XrD",
      "images" : [ {
        "height" : 640,
        "url" : "https://i.scdn.co/image/ab6761610000e5eb2ab90dd305592df399ac066a",
        "width" : 640
      }, {
        "height" : 320,
        "url" : "https://i.scdn.co/image/ab676161000051742ab90dd305592df399ac066a",
        "width" : 320
      }, {
        "height" : 160,
        "url" : "https://i.scdn.co/image/ab6761610000f1782ab90dd305592df399ac066a",
        "width" : 160
      } ],
      "name" : "NERO",
      "popularity" : 60,
      "type" : "artist",
      "uri" : "spotify:artist:4uRYpUQZrNrY5t8tAv3XrD"
    }, {
      "external_urls" : {
        "spotify" : "https://open.spotify.com/artist/5h5JRVK3PqFl90cnvdMxRX"
      },
      "followers" : {
        "href" : null,
        "total" : 716
      },
      "genres" : [ ],
      "href" : "https://api.spotify.com/v1/artists/5h5JRVK3PqFl90cnvdMxRX",
      "id" : "5h5JRVK3PqFl90cnvdMxRX",
      "images" : [ {
        "height" : 640,
        "url" : "https://i.scdn.co/image/ab6761610000e5ebe29666eaa81c2512f80817af",
        "width" : 640
      }, {
        "height" : 320,
        "url" : "https://i.scdn.co/image/ab67616100005174e29666eaa81c2512f80817af",
        "width" : 320
      }, {
        "height" : 160,
        "url" : "https://i.scdn.co/image/ab6761610000f178e29666eaa81c2512f80817af",
        "width" : 160
      } ],
      "name" : "Neros",
      "popularity" : 37,
      "type" : "artist",
      "uri" : "spotify:artist:5h5JRVK3PqFl90cnvdMxRX"
    }, {
      "external_urls" : {
        "spotify" : "https://open.spotify.com/artist/2KHIH3mfq3nZ6LccJ0mfei"
      },
      "followers" : {
        "href" : null,
        "total" : 53152
      },
      "genres" : [ "breakcore", "drill and bass", "weirdcore" ],
      "href" : "https://api.spotify.com/v1/artists/2KHIH3mfq3nZ6LccJ0mfei",
      "id" : "2KHIH3mfq3nZ6LccJ0mfei",
      "images" : [ {
        "height" : 640,
        "url" : "https://i.scdn.co/image/ab67616d0000b273d7687db640b24454c8c01dc2",
        "width" : 640
      }, {
        "height" : 300,
        "url" : "https://i.scdn.co/image/ab67616d00001e02d7687db640b24454c8c01dc2",
        "width" : 300
      }, {
        "height" : 64,
        "url" : "https://i.scdn.co/image/ab67616d00004851d7687db640b24454c8c01dc2",
        "width" : 64
      } ],
      "name" : "Nero's Day At Disneyland",
      "popularity" : 47,
      "type" : "artist",
      "uri" : "spotify:artist:2KHIH3mfq3nZ6LccJ0mfei"
    }, {
      "external_urls" : {
        "spotify" : "https://open.spotify.com/artist/2dKtmC24pk8u4kU3PhbBVS"
      },
      "followers" : {
        "href" : null,
        "total" : 415
      },
      "genres" : [ ],
      "href" : "https://api.spotify.com/v1/artists/2dKtmC24pk8u4kU3PhbBVS",
      "id" : "2dKtmC24pk8u4kU3PhbBVS",
      "images" : [ {
        "height" : 640,
        "url" : "https://i.scdn.co/image/ab6761610000e5ebfff92cb977a9ee3d92d49e99",
        "width" : 640
      }, {
        "height" : 320,
        "url" : "https://i.scdn.co/image/ab67616100005174fff92cb977a9ee3d92d49e99",
        "width" : 320
      }, {
        "height" : 160,
        "url" : "https://i.scdn.co/image/ab6761610000f178fff92cb977a9ee3d92d49e99",
        "width" : 160
      } ],
      "name" : "Nero Dubb",
      "popularity" : 42,
      "type" : "artist",
      "uri" : "spotify:artist:2dKtmC24pk8u4kU3PhbBVS"
    }, {
      "external_urls" : {
        "spotify" : "https://open.spotify.com/artist/7rnzdGq1qPizursGNI1P0V"
      },
      "followers" : {
        "href" : null,
        "total" : 5149
      },
      "genres" : [ ],
      "href" : "https://api.spotify.com/v1/artists/7rnzdGq1qPizursGNI1P0V",
      "id" : "7rnzdGq1qPizursGNI1P0V",
      "images" : [ {
        "height" : 640,
        "url" : "https://i.scdn.co/image/ab6761610000e5eb578487c182230b5736b96f35",
        "width" : 640
      }, {
        "height" : 320,
        "url" : "https://i.scdn.co/image/ab67616100005174578487c182230b5736b96f35",
        "width" : 320
      }, {
        "height" : 160,
        "url" : "https://i.scdn.co/image/ab6761610000f178578487c182230b5736b96f35",
        "width" : 160
      } ],
      "name" : "Bok Nero",
      "popularity" : 48,
      "type" : "artist",
      "uri" : "spotify:artist:7rnzdGq1qPizursGNI1P0V"
    }, {
      "external_urls" : {
        "spotify" : "https://open.spotify.com/artist/1ELi0AzjhCOn9DxBAYbyTO"
      },
      "followers" : {
        "href" : null,
        "total" : 5514
      },
      "genres" : [ ],
      "href" : "https://api.spotify.com/v1/artists/1ELi0AzjhCOn9DxBAYbyTO",
      "id" : "1ELi0AzjhCOn9DxBAYbyTO",
      "images" : [ {
        "height" : 640,
        "url" : "https://i.scdn.co/image/ab6761610000e5eb1ac61b45b9d737e4dda2d8f8",
        "width" : 640
      }, {
        "height" : 320,
        "url" : "https://i.scdn.co/image/ab676161000051741ac61b45b9d737e4dda2d8f8",
        "width" : 320
      }, {
        "height" : 160,
        "url" : "https://i.scdn.co/image/ab6761610000f1781ac61b45b9d737e4dda2d8f8",
        "width" : 160
      } ],
      "name" : "Neron Delta",
      "popularity" : 36,
      "type" : "artist",
      "uri" : "spotify:artist:1ELi0AzjhCOn9DxBAYbyTO"
    }, {
      "external_urls" : {
        "spotify" : "https://open.spotify.com/artist/5DbkWSJrLOMPUnRvA1VfAO"
      },
      "followers" : {
        "href" : null,
        "total" : 0
      },
      "genres" : [ ],
      "href" : "https://api.spotify.com/v1/artists/5DbkWSJrLOMPUnRvA1VfAO",
      "id" : "5DbkWSJrLOMPUnRvA1VfAO",
      "images" : [ {
        "height" : 640,
        "url" : "https://i.scdn.co/image/ab67616d0000b27377458d90b4cefcb30673988c",
        "width" : 640
      }, {
        "height" : 300,
        "url" : "https://i.scdn.co/image/ab67616d00001e0277458d90b4cefcb30673988c",
        "width" : 300
      }, {
        "height" : 64,
        "url" : "https://i.scdn.co/image/ab67616d0000485177458d90b4cefcb30673988c",
        "width" : 64
      } ],
      "name" : "Neros",
      "popularity" : 0,
      "type" : "artist",
      "uri" : "spotify:artist:5DbkWSJrLOMPUnRvA1VfAO"
    }, {
      "external_urls" : {
        "spotify" : "https://open.spotify.com/artist/6YU46EAAs1wUPfSPVXu5ZA"
      },
      "followers" : {
        "href" : null,
        "total" : 704
      },
      "genres" : [ ],
      "href" : "https://api.spotify.com/v1/artists/6YU46EAAs1wUPfSPVXu5ZA",
      "id" : "6YU46EAAs1wUPfSPVXu5ZA",
      "images" : [ {
        "height" : 640,
        "url" : "https://i.scdn.co/image/ab67616d0000b2731ae44ea4e1ad822bb864e5e3",
        "width" : 640
      }, {
        "height" : 300,
        "url" : "https://i.scdn.co/image/ab67616d00001e021ae44ea4e1ad822bb864e5e3",
        "width" : 300
      }, {
        "height" : 64,
        "url" : "https://i.scdn.co/image/ab67616d000048511ae44ea4e1ad822bb864e5e3",
        "width" : 64
      } ],
      "name" : "Nero",
      "popularity" : 33,
      "type" : "artist",
      "uri" : "spotify:artist:6YU46EAAs1wUPfSPVXu5ZA"
    }, {
      "external_urls" : {
        "spotify" : "https://open.spotify.com/artist/2gDeY5oG7BcmCI0LkggFXC"
      },
      "followers" : {
        "href" : null,
        "total" : 19744
      },
      "genres" : [ "christian afrobeat" ],
      "href" : "https://api.spotify.com/v1/artists/2gDeY5oG7BcmCI0LkggFXC",
      "id" : "2gDeY5oG7BcmCI0LkggFXC",
      "images" : [ {
        "height" : 640,
        "url" : "https://i.scdn.co/image/ab6761610000e5ebb45a3eadf23f7e41a4550fee",
        "width" : 640
      }, {
        "height" : 320,
        "url" : "https://i.scdn.co/image/ab67616100005174b45a3eadf23f7e41a4550fee",
        "width" : 320
      }, {
        "height" : 160,
        "url" : "https://i.scdn.co/image/ab6761610000f178b45a3eadf23f7e41a4550fee",
        "width" : 160
      } ],
      "name" : "Nero X",
      "popularity" : 31,
      "type" : "artist",
      "uri" : "spotify:artist:2gDeY5oG7BcmCI0LkggFXC"
    }, {
      "external_urls" : {
        "spotify" : "https://open.spotify.com/artist/2J5FeaNi5K4F9xml5lWD0L"
      },
      "followers" : {
        "href" : null,
        "total" : 1244
      },
      "genres" : [ "drift phonk" ],
      "href" : "https://api.spotify.com/v1/artists/2J5FeaNi5K4F9xml5lWD0L",
      "id" : "2J5FeaNi5K4F9xml5lWD0L",
      "images" : [ {
        "height" : 640,
        "url" : "https://i.scdn.co/image/ab6761610000e5eb74a88a32b0d46d8bcb089812",
        "width" : 640
      }, {
        "height" : 320,
        "url" : "https://i.scdn.co/image/ab6761610000517474a88a32b0d46d8bcb089812",
        "width" : 320
      }, {
        "height" : 160,
        "url" : "https://i.scdn.co/image/ab6761610000f17874a88a32b0d46d8bcb089812",
        "width" : 160
      } ],
      "name" : "NERONUS",
      "popularity" : 44,
      "type" : "artist",
      "uri" : "spotify:artist:2J5FeaNi5K4F9xml5lWD0L"
    }, {
      "external_urls" : {
        "spotify" : "https://open.spotify.com/artist/1oXIIFriuwBzQOqQW3Znhd"
      },
      "followers" : {
        "href" : null,
        "total" : 966
      },
      "genres" : [ "pinoy hip hop" ],
      "href" : "https://api.spotify.com/v1/artists/1oXIIFriuwBzQOqQW3Znhd",
      "id" : "1oXIIFriuwBzQOqQW3Znhd",
      "images" : [ {
        "height" : 640,
        "url" : "https://i.scdn.co/image/ab6761610000e5eb9f7840eada6d98b8ea876747",
        "width" : 640
      }, {
        "height" : 320,
        "url" : "https://i.scdn.co/image/ab676161000051749f7840eada6d98b8ea876747",
        "width" : 320
      }, {
        "height" : 160,
        "url" : "https://i.scdn.co/image/ab6761610000f1789f7840eada6d98b8ea876747",
        "width" : 160
      } ],
      "name" : "Nero",
      "popularity" : 19,
      "type" : "artist",
      "uri" : "spotify:artist:1oXIIFriuwBzQOqQW3Znhd"
    }, {
      "external_urls" : {
        "spotify" : "https://open.spotify.com/artist/03AX6dvpSC9dXCbetfERDp"
      },
      "followers" : {
        "href" : null,
        "total" : 3
      },
      "genres" : [ ],
      "href" : "https://api.spotify.com/v1/artists/03AX6dvpSC9dXCbetfERDp",
      "id" : "03AX6dvpSC9dXCbetfERDp",
      "images" : [ ],
      "name" : "Neron Delta",
      "popularity" : 28,
      "type" : "artist",
      "uri" : "spotify:artist:03AX6dvpSC9dXCbetfERDp"
    }, {
      "external_urls" : {
        "spotify" : "https://open.spotify.com/artist/59oizpzCeWRwITlH1f6XOB"
      },
      "followers" : {
        "href" : null,
        "total" : 2
      },
      "genres" : [ ],
      "href" : "https://api.spotify.com/v1/artists/59oizpzCeWRwITlH1f6XOB",
      "id" : "59oizpzCeWRwITlH1f6XOB",
      "images" : [ {
        "height" : 640,
        "url" : "https://i.scdn.co/image/ab67616d0000b2733ff1891e4c53a05d15566563",
        "width" : 640
      }, {
        "height" : 300,
        "url" : "https://i.scdn.co/image/ab67616d00001e023ff1891e4c53a05d15566563",
        "width" : 300
      }, {
        "height" : 64,
        "url" : "https://i.scdn.co/image/ab67616d000048513ff1891e4c53a05d15566563",
        "width" : 64
      } ],
      "name" : "Peter Ibsen",
      "popularity" : 0,
      "type" : "artist",
      "uri" : "spotify:artist:59oizpzCeWRwITlH1f6XOB"
    }, {
      "external_urls" : {
        "spotify" : "https://open.spotify.com/artist/4LRsjW7ygBG4oiTRn08gEx"
      },
      "followers" : {
        "href" : null,
        "total" : 9888
      },
      "genres" : [ "easy listening", "lounge" ],
      "href" : "https://api.spotify.com/v1/artists/4LRsjW7ygBG4oiTRn08gEx",
      "id" : "4LRsjW7ygBG4oiTRn08gEx",
      "images" : [ {
        "height" : 640,
        "url" : "https://i.scdn.co/image/ab67616d0000b273a4cce271cb8c8c6d8a59129b",
        "width" : 640
      }, {
        "height" : 300,
        "url" : "https://i.scdn.co/image/ab67616d00001e02a4cce271cb8c8c6d8a59129b",
        "width" : 300
      }, {
        "height" : 64,
        "url" : "https://i.scdn.co/image/ab67616d00004851a4cce271cb8c8c6d8a59129b",
        "width" : 64
      } ],
      "name" : "Peter Nero",
      "popularity" : 38,
      "type" : "artist",
      "uri" : "spotify:artist:4LRsjW7ygBG4oiTRn08gEx"
    }, {
      "external_urls" : {
        "spotify" : "https://open.spotify.com/artist/6QKXpRoHzASRPcty2agScr"
      },
      "followers" : {
        "href" : null,
        "total" : 17085
      },
      "genres" : [ ],
      "href" : "https://api.spotify.com/v1/artists/6QKXpRoHzASRPcty2agScr",
      "id" : "6QKXpRoHzASRPcty2agScr",
      "images" : [ {
        "height" : 640,
        "url" : "https://i.scdn.co/image/ab6761610000e5eb57aebdb228ea672d52bd20bd",
        "width" : 640
      }, {
        "height" : 320,
        "url" : "https://i.scdn.co/image/ab6761610000517457aebdb228ea672d52bd20bd",
        "width" : 320
      }, {
        "height" : 160,
        "url" : "https://i.scdn.co/image/ab6761610000f17857aebdb228ea672d52bd20bd",
        "width" : 160
      } ],
      "name" : "Neroche",
      "popularity" : 29,
      "type" : "artist",
      "uri" : "spotify:artist:6QKXpRoHzASRPcty2agScr"
    }, {
      "external_urls" : {
        "spotify" : "https://open.spotify.com/artist/6m5zniBrq74kJJy9SlCvA1"
      },
      "followers" : {
        "href" : null,
        "total" : 380
      },
      "genres" : [ ],
      "href" : "https://api.spotify.com/v1/artists/6m5zniBrq74kJJy9SlCvA1",
      "id" : "6m5zniBrq74kJJy9SlCvA1",
      "images" : [ {
        "height" : 640,
        "url" : "https://i.scdn.co/image/ab6761610000e5ebf7b79864c5b177530e537130",
        "width" : 640
      }, {
        "height" : 320,
        "url" : "https://i.scdn.co/image/ab67616100005174f7b79864c5b177530e537130",
        "width" : 320
      }, {
        "height" : 160,
        "url" : "https://i.scdn.co/image/ab6761610000f178f7b79864c5b177530e537130",
        "width" : 160
      } ],
      "name" : "Nerok",
      "popularity" : 33,
      "type" : "artist",
      "uri" : "spotify:artist:6m5zniBrq74kJJy9SlCvA1"
    }, {
      "external_urls" : {
        "spotify" : "https://open.spotify.com/artist/7yeI1sqUsL51r00yDZcmuS"
      },
      "followers" : {
        "href" : null,
        "total" : 4
      },
      "genres" : [ ],
      "href" : "https://api.spotify.com/v1/artists/7yeI1sqUsL51r00yDZcmuS",
      "id" : "7yeI1sqUsL51r00yDZcmuS",
      "images" : [ {
        "height" : 640,
        "url" : "https://i.scdn.co/image/ab6761610000e5eb492926b8abf16d2f097545b3",
        "width" : 640
      }, {
        "height" : 320,
        "url" : "https://i.scdn.co/image/ab67616100005174492926b8abf16d2f097545b3",
        "width" : 320
      }, {
        "height" : 160,
        "url" : "https://i.scdn.co/image/ab6761610000f178492926b8abf16d2f097545b3",
        "width" : 160
      } ],
      "name" : "Nero Project",
      "popularity" : 24,
      "type" : "artist",
      "uri" : "spotify:artist:7yeI1sqUsL51r00yDZcmuS"
    }, {
      "external_urls" : {
        "spotify" : "https://open.spotify.com/artist/1Yb7YqnqVLit46ghlFVLYw"
      },
      "followers" : {
        "href" : null,
        "total" : 4
      },
      "genres" : [ ],
      "href" : "https://api.spotify.com/v1/artists/1Yb7YqnqVLit46ghlFVLYw",
      "id" : "1Yb7YqnqVLit46ghlFVLYw",
      "images" : [ {
        "height" : 640,
        "url" : "https://i.scdn.co/image/ab6761610000e5ebf108acdec0c22c3d15f6233a",
        "width" : 640
      }, {
        "height" : 320,
        "url" : "https://i.scdn.co/image/ab67616100005174f108acdec0c22c3d15f6233a",
        "width" : 320
      }, {
        "height" : 160,
        "url" : "https://i.scdn.co/image/ab6761610000f178f108acdec0c22c3d15f6233a",
        "width" : 160
      } ],
      "name" : "Nero",
      "popularity" : 14,
      "type" : "artist",
      "uri" : "spotify:artist:1Yb7YqnqVLit46ghlFVLYw"
    }, {
      "external_urls" : {
        "spotify" : "https://open.spotify.com/artist/5dYz058YaL1MC4GxoYlNGa"
      },
      "followers" : {
        "href" : null,
        "total" : 1247
      },
      "genres" : [ "sad rap" ],
      "href" : "https://api.spotify.com/v1/artists/5dYz058YaL1MC4GxoYlNGa",
      "id" : "5dYz058YaL1MC4GxoYlNGa",
      "images" : [ {
        "height" : 640,
        "url" : "https://i.scdn.co/image/ab6761610000e5ebff5ed046e3b2e8985985d76e",
        "width" : 640
      }, {
        "height" : 320,
        "url" : "https://i.scdn.co/image/ab67616100005174ff5ed046e3b2e8985985d76e",
        "width" : 320
      }, {
        "height" : 160,
        "url" : "https://i.scdn.co/image/ab6761610000f178ff5ed046e3b2e8985985d76e",
        "width" : 160
      } ],
      "name" : "NERONOIR",
      "popularity" : 32,
      "type" : "artist",
      "uri" : "spotify:artist:5dYz058YaL1MC4GxoYlNGa"
    }, {
      "external_urls" : {
        "spotify" : "https://open.spotify.com/artist/4KggKI2drVc4UIotyrOcvQ"
      },
      "followers" : {
        "href" : null,
        "total" : 327
      },
      "genres" : [ ],
      "href" : "https://api.spotify.com/v1/artists/4KggKI2drVc4UIotyrOcvQ",
      "id" : "4KggKI2drVc4UIotyrOcvQ",
      "images" : [ {
        "height" : 640,
        "url" : "https://i.scdn.co/image/ab67616d0000b273ccaa2ea58b52f6e1ad3ef164",
        "width" : 640
      }, {
        "height" : 300,
        "url" : "https://i.scdn.co/image/ab67616d00001e02ccaa2ea58b52f6e1ad3ef164",
        "width" : 300
      }, {
        "height" : 64,
        "url" : "https://i.scdn.co/image/ab67616d00004851ccaa2ea58b52f6e1ad3ef164",
        "width" : 64
      } ],
      "name" : "JT Nero",
      "popularity" : 32,
      "type" : "artist",
      "uri" : "spotify:artist:4KggKI2drVc4UIotyrOcvQ"
    } ],
    "limit" : 20,
    "next" : "https://api.spotify.com/v1/search?query=Nero&type=artist&market=US&offset=20&limit=20",
    "offset" : 0,
    "previous" : null,
    "total" : 1248
  }
}