{
  "artists" : {
    "href" : "https://api.spotify.com/v1/search?query=REAPER&type=artist&market=US&offset=0&limit=20",
    "items" : [ {
      "external_urls" : {
        "spotify" : "https://open.spotify.com/artist/24kY0bUku58QhWv5WFFXaf"
      },
      "followers" : {
        "href" : null,
        "total" : 18804
      },
      "genres" : [ "electro house", "gaming edm" ],
      "href" : "https://api.spotify.com/v1/artists/24kY0bUku58QhWv5WFFXaf",
      "id" : "24kY0bUku58QhWv5WFFXaf",
      "images" : [ {
        "height" : 640,
        "url" : "https://i.scdn.co/image/ab6761610000e5eb3c668845efce6f8e0d49a671",
        "width" : 640
      }, {
        "height" : 320,
        "url" : "https://i.scdn.co/image/ab676161000051743c668845efce6f8e0d49a671",
        "width" : 320
      }, {
        "height" : 160,
        "url" : "https://i.scdn.co/image/ab6761610000f1783c668845efce6f8e0d49a671",
        "width" : 160
      } ],
      "name" : "REAPER",
      "popularity" : 52,
      "type" : "artist",
      "uri" : "spotify:artist:24kY0bUku58QhWv5WFFXaf"
    }, {
      "external_urls" : {
        "spotify" : "https://open.spotify.com/artist/4fI7yJY5l10toISt13hVbS"
      },
      "followers" : {
        "href" : null,
        "total" : 23
      },
      "genres" : [ ],
      "href" : "https://api.spotify.com/v1/artists/4fI7yJY5l10toISt13hVbS",
      "id" : "4fI7yJY5l10toISt13hVbS",
      "images" : [ {
        "height" : 640,
        "url" : "https://i.scdn.co/image/ab6761610000e5ebe880a1e2386db410eaf79533",
        "width" : 640
      }, {
        "height" : 320,
        "url" : "https://i.scdn.co/image/ab67616100005174e880a1e2386db410eaf79533",
        "width" : 320
      }, {
        "height" : 160,
        "url" : "https://i.scdn.co/image/ab6761610000f178e880a1e2386db410eaf79533",
        "width" : 160
      } ],
      "name" : "REAPER",
      "popularity" : 0,
      "type" : "artist",
      "uri" : "spotify:artist:4fI7yJY5l10toISt13hVbS"
    }, {
      "external_urls" : {
        "spotify" : "https://open.spotify.com/artist/2NsqUvmzQwpQZDgtGZjEqx"
      },
      "followers" : {
        "href" : null,
        "total" : 54
      },
      "genres" : [ ],
      "href" : "https://api.spotify.com/v1/artists/2NsqUvmzQwpQZDgtGZjEqx",
      "id" : "2NsqUvmzQwpQZDgtGZjEqx",
      "images" : [ ],
      "name" : "Reaper",
      "popularity" : 43,
      "type" : "artist",
      "uri" : "spotify:artist:2NsqUvmzQwpQZDgtGZjEqx"
    }, {
      "external_urls" : {
        "spotify" : "https://open.spotify.com/artist/75klPfIVnyYcyEGaicRUSF"
      },
      "followers" : {
        "href" : null,
        "total" : 64680
      },
      "genres" : [ "indie garage rock", "indie punk", "louisville indie", "modern power pop" ],
      "href" : "https://api.spotify.com/v1/artists/75klPfIVnyYcyEGaicRUSF",
      "id" : "75klPfIVnyYcyEGaicRUSF",
      "images" : [ {
        "height" : 640,
        "url" : "https://i.scdn.co/image/ab6761610000e5eb72d84f98707da5e7d668e939",
        "width" : 640
      }, {
        "height" : 320,
        "url" : "https://i.scdn.co/image/ab6761610000517472d84f98707da5e7d668e939",
        "width" : 320
      }, {
        "height" : 160,
        "url" : "https://i.scdn.co/image/ab6761610000f17872d84f98707da5e7d668e939",
        "width" : 160
      } ],
      "name" : "White Reaper",
      "popularity" : 46,
      "type" : "artist",
      "uri" : "spotify:artist:75klPfIVnyYcyEGaicRUSF"
    }, {
      "external_urls" : {
        "spotify" : "https://open.spotify.com/artist/7IOX7wJArTLixrUwlh5IJ4"
      },
      "followers" : {
        "href" : null,
        "total" : 202
      },
      "genres" : [ ],
      "href" : "https://api.spotify.com/v1/artists/7IOX7wJArTLixrUwlh5IJ4",
      "id" : "7IOX7wJArTLixrUwlh5IJ4",
      "images" : [ {
        "height" : 640,
        "url" : "https://i.scdn.co/image/ab67616d0000b27335f52d3c8921e80fbfef5161",
        "width" : 640
      }, {
        "height" : 300,
        "url" : "https://i.scdn.co/image/ab67616d00001e0235f52d3c8921e80fbfef5161",
        "width" : 300
      }, {
        "height" : 64,
        "url" : "https://i.scdn.co/image/ab67616d0000485135f52d3c8921e80fbfef5161",
        "width" : 64
      } ],
      "name" : "Reaper",
      "popularity" : 35,
      "type" : "artist",
      "uri" : "spotify:artist:7IOX7wJArTLixrUwlh5IJ4"
    }, {
      "external_urls" : {
        "spotify" : "https://open.spotify.com/artist/3PdBsLYaG9gmMmUinmosNZ"
      },
      "followers" : {
        "href" : null,
        "total" : 4
      },
      "genres" : [ ],
      "href" : "https://api.spotify.com/v1/artists/3PdBsLYaG9gmMmUinmosNZ",
      "id" : "3PdBsLYaG9gmMmUinmosNZ",
      "images" : [ {
        "height" : 640,
        "url" : "https://i.scdn.co/image/ab67616d0000b2730b2cc8ae1ecc689b985c1701",
        "width" : 640
      }, {
        "height" : 300,
        "url" : "https://i.scdn.co/image/ab67616d00001e020b2cc8ae1ecc689b985c1701",
        "width" : 300
      }, {
        "height" : 64,
        "url" : "https://i.scdn.co/image/ab67616d000048510b2cc8ae1ecc689b985c1701",
        "width" : 64
      } ],
      "name" : "REAPER",
      "popularity" : 1,
      "type" : "artist",
      "uri" : "spotify:artist:3PdBsLYaG9gmMmUinmosNZ"
    }, {
      "external_urls" : {
        "spotify" : "https://open.spotify.com/artist/1CgKVDrKIbptbeLH4a8N26"
      },
      "followers" : {
        "href" : null,
        "total" : 318
      },
      "genres" : [ ],
      "href" : "https://api.spotify.com/v1/artists/1CgKVDrKIbptbeLH4a8N26",
      "id" : "1CgKVDrKIbptbeLH4a8N26",
      "images" : [ {
        "height" : 640,
        "url" : "https://i.scdn.co/image/ab6761610000e5ebf94a91a380603066a1b019d7",
        "width" : 640
      }, {
        "height" : 320,
        "url" : "https://i.scdn.co/image/ab67616100005174f94a91a380603066a1b019d7",
        "width" : 320
      }, {
        "height" : 160,
        "url" : "https://i.scdn.co/image/ab6761610000f178f94a91a380603066a1b019d7",
        "width" : 160
      } ],
      "name" : "Reapers Team",
      "popularity" : 46,
      "type" : "artist",
      "uri" : "spotify:artist:1CgKVDrKIbptbeLH4a8N26"
    }, {
      "external_urls" : {
        "spotify" : "https://open.spotify.com/artist/47qrgNNbZRRCAK0ZrKcuZV"
      },
      "followers" : {
        "href" : null,
        "total" : 21075
      },
      "genres" : [ ],
      "href" : "https://api.spotify.com/v1/artists/47qrgNNbZRRCAK0ZrKcuZV",
      "id" : "47qrgNNbZRRCAK0ZrKcuZV",
      "images" : [ {
        "height" : 640,
        "url" : "https://i.scdn.co/image/ab6761610000e5ebdeffda873089f6c9466d32a9",
        "width" : 640
      }, {
        "height" : 320,
        "url" : "https://i.scdn.co/image/ab67616100005174deffda873089f6c9466d32a9",
        "width" : 320
      }, {
        "height" : 160,
        "url" : "https://i.scdn.co/image/ab6761610000f178deffda873089f6c9466d32a9",
        "width" : 160
      } ],
      "name" : "Reaper",
      "popularity" : 18,
      "type" : "artist",
      "uri" : "spotify:artist:47qrgNNbZRRCAK0ZrKcuZV"
    }, {
      "external_urls" : {
        "spotify" : "https://open.spotify.com/artist/6wnCo5cN40ZNtSamihDLDh"
      },
      "followers" : {
        "href" : null,
        "total" : 24
      },
      "genres" : [ ],
      "href" : "https://api.spotify.com/v1/artists/6wnCo5cN40ZNtSamihDLDh",
      "id" : "6wnCo5cN40ZNtSamihDLDh",
      "images" : [ ],
      "name" : "Reapers Studios",
      "popularity" : 46,
      "type" : "artist",
      "uri" : "spotify:artist:6wnCo5cN40ZNtSamihDLDh"
    }, {
      "external_urls" : {
        "spotify" : "https://open.spotify.com/artist/5RfBPFjY4Fhgilc3C8cAAg"
      },
      "followers" : {
        "href" : null,
        "total" : 20825
      },
      "genres" : [ ],
      "href" : "https://api.spotify.com/v1/artists/5RfBPFjY4Fhgilc3C8cAAg",
      "id" : "5RfBPFjY4Fhgilc3C8cAAg",
      "images" : [ {
        "height" : 640,
        "url" : "https://i.scdn.co/image/ab6761610000e5eb91b56707358166e5cc892366",
        "width" : 640
      }, {
        "height" : 320,
        "url" : "https://i.scdn.co/image/ab6761610000517491b56707358166e5cc892366",
        "width" : 320
      }, {
        "height" : 160,
        "url" : "https://i.scdn.co/image/ab6761610000f17891b56707358166e5cc892366",
        "width" : 160
      } ],
      "name" : "Suave Lee",
      "popularity" : 57,
      "type" : "artist",
      "uri" : "spotify:artist:5RfBPFjY4Fhgilc3C8cAAg"
    }, {
      "external_urls" : {
        "spotify" : "https://open.spotify.com/artist/3YLKa9xaJmBKXU7YEbRnJZ"
      },
      "followers" : {
        "href" : null,
        "total" : 14
      },
      "genres" : [ ],
      "href" : "https://api.spotify.com/v1/artists/3YLKa9xaJmBKXU7YEbRnJZ",
      "id" : "3YLKa9xaJmBKXU7YEbRnJZ",
      "images" : [ ],
      "name" : "Reapers Studios (Copyright Control)",
      "popularity" : 46,
      "type" : "artist",
      "uri" : "spotify:artist:3YLKa9xaJmBKXU7YEbRnJZ"
    }, {
      "external_urls" : {
        "spotify" : "https://open.spotify.com/artist/2ZxCpSYvQCHvYSxwr5mMUm"
      },
      "followers" : {
        "href" : null,
        "total" : 49563
      },
      "genres" : [ "dark trap", "north carolina hip hop", "underground hip hop" ],
      "href" : "https://api.spotify.com/v1/artists/2ZxCpSYvQCHvYSxwr5mMUm",
      "id" : "2ZxCpSYvQCHvYSxwr5mMUm",
      "images" : [ {
        "height" : 640,
        "url" : "https://i.scdn.co/image/ab6761610000e5ebdbce39f5b5c25e67a1122525",
        "width" : 640
      }, {
        "height" : 320,
        "url" : "https://i.scdn.co/image/ab67616100005174dbce39f5b5c25e67a1122525",
        "width" : 320
      }, {
        "height" : 160,
        "url" : "https://i.scdn.co/image/ab6761610000f178dbce39f5b5c25e67a1122525",
        "width" : 160
      } ],
      "name" : "J.K. The Reaper",
      "popularity" : 38,
      "type" : "artist",
      "uri" : "spotify:artist:2ZxCpSYvQCHvYSxwr5mMUm"
    }, {
      "external_urls" : {
        "spotify" : "https://open.spotify.com/artist/39aHfpm3ax0xHfg41pXwPT"
      },
      "followers" : {
        "href" : null,
        "total" : 9
      },
      "genres" : [ ],
      "href" : "https://api.spotify.com/v1/artists/39aHfpm3ax0xHfg41pXwPT",
      "id" : "39aHfpm3ax0xHfg41pXwPT",
      "images" : [ {
        "height" : 640,
        "url" : "https://i.scdn.co/image/ab67616d0000b2733367a940880519a2c962df24",
        "width" : 640
      }, {
        "height" : 300,
        "url" : "https://i.scdn.co/image/ab67616d00001e023367a940880519a2c962df24",
        "width" : 300
      }, {
        "height" : 64,
        "url" : "https://i.scdn.co/image/ab67616d000048513367a940880519a2c962df24",
        "width" : 64
      } ],
      "name" : "REAPER",
      "popularity" : 0,
      "type" : "artist",
      "uri" : "spotify:artist:39aHfpm3ax0xHfg41pXwPT"
    }, {
      "external_urls" : {
        "spotify" : "https://open.spotify.com/artist/5EEw5ABtKN2jJWKvoe7NYU"
      },
      "followers" : {
        "href" : null,
        "total" : 7017
      },
      "genres" : [ "aggrotech", "ebm", "electro-industrial", "futurepop" ],
      "href" : "https://api.spotify.com/v1/artists/5EEw5ABtKN2jJWKvoe7NYU",
      "id" : "5EEw5ABtKN2jJWKvoe7NYU",
      "images" : [ {
        "height" : 640,
        "url" : "https://i.scdn.co/image/ab67616d0000b2737b48dfd351595fe72f50027e",
        "width" : 640
      }, {
        "height" : 300,
        "url" : "https://i.scdn.co/image/ab67616d00001e027b48dfd351595fe72f50027e",
        "width" : 300
      }, {
        "height" : 64,
        "url" : "https://i.scdn.co/image/ab67616d000048517b48dfd351595fe72f50027e",
        "width" : 64
      } ],
      "name" : "Reaper",
      "popularity" : 26,
      "type" : "artist",
      "uri" : "spotify:artist:5EEw5ABtKN2jJWKvoe7NYU"
    }, {
      "external_urls" : {
        "spotify" : "https://open.spotify.com/artist/5cesE4z0waVhbG3eaJ2AFe"
      },
      "followers" : {
        "href" : null,
        "total" : 1
      },
      "genres" : [ ],
      "href" : "https://api.spotify.com/v1/artists/5cesE4z0waVhbG3eaJ2AFe",
      "id" : "5cesE4z0waVhbG3eaJ2AFe",
      "images" : [ {
        "height" : 640,
        "url" : "https://i.scdn.co/image/ab67616d0000b2738c06c26545240cd9a83cd9ec",
        "width" : 640
      }, {
        "height" : 300,
        "url" : "https://i.scdn.co/image/ab67616d00001e028c06c26545240cd9a83cd9ec",
        "width" : 300
      }, {
        "height" : 64,
        "url" : "https://i.scdn.co/image/ab67616d000048518c06c26545240cd9a83cd9ec",
        "width" : 64
      } ],
      "name" : "REAPER",
      "popularity" : 0,
      "type" : "artist",
      "uri" : "spotify:artist:5cesE4z0waVhbG3eaJ2AFe"
    }, {
      "external_urls" : {
        "spotify" : "https://open.spotify.com/artist/3CSQtK60sg2jNNxnpThSN1"
      },
      "followers" : {
        "href" : null,
        "total" : 64757
      },
      "genres" : [ "hard rock", "metal", "nwobhm", "nwothm", "speed metal" ],
      "href" : "https://api.spotify.com/v1/artists/3CSQtK60sg2jNNxnpThSN1",
      "id" : "3CSQtK60sg2jNNxnpThSN1",
      "images" : [ {
        "height" : 644,
        "url" : "https://i.scdn.co/image/3079e0ca518bf33c5ca512c7ff31c9b2bd9bb3cc",
        "width" : 598
      }, {
        "height" : 215,
        "url" : "https://i.scdn.co/image/99959a92859d388be807c6302466fa81eda2102f",
        "width" : 200
      }, {
        "height" : 69,
        "url" : "https://i.scdn.co/image/40a16a8c3793fab705fffd1889ce98e46533f698",
        "width" : 64
      } ],
      "name" : "Grim Reaper",
      "popularity" : 36,
      "type" : "artist",
      "uri" : "spotify:artist:3CSQtK60sg2jNNxnpThSN1"
    }, {
      "external_urls" : {
        "spotify" : "https://open.spotify.com/artist/13nouyZGGri8WhTsA7PLp9"
      },
      "followers" : {
        "href" : null,
        "total" : 0
      },
      "genres" : [ ],
      "href" : "https://api.spotify.com/v1/artists/13nouyZGGri8WhTsA7PLp9",
      "id" : "13nouyZGGri8WhTsA7PLp9",
      "images" : [ ],
      "name" : "REAPER",
      "popularity" : 0,
      "type" : "artist",
      "uri" : "spotify:artist:13nouyZGGri8WhTsA7PLp9"
    }, {
      "external_urls" : {
        "spotify" : "https://open.spotify.com/artist/1v5mFaBga84l2SzddZmP8D"
      },
      "followers" : {
        "href" : null,
        "total" : 192
      },
      "genres" : [ ],
      "href" : "https://api.spotify.com/v1/artists/1v5mFaBga84l2SzddZmP8D",
      "id" : "1v5mFaBga84l2SzddZmP8D",
      "images" : [ {
        "height" : 640,
        "url" : "https://i.scdn.co/image/ab6761610000e5eb11181d4c4b59eed72f8a8d93",
        "width" : 640
      }, {
        "height" : 320,
        "url" : "https://i.scdn.co/image/ab6761610000517411181d4c4b59eed72f8a8d93",
        "width" : 320
      }, {
        "height" : 160,
        "url" : "https://i.scdn.co/image/ab6761610000f17811181d4c4b59eed72f8a8d93",
        "width" : 160
      } ],
      "name" : "Reaper Mook",
      "popularity" : 14,
      "type" : "artist",
      "uri" : "spotify:artist:1v5mFaBga84l2SzddZmP8D"
    }, {
      "external_urls" : {
        "spotify" : "https://open.spotify.com/artist/2hYeIfiicBcRLXz2VNkhB6"
      },
      "followers" : {
        "href" : null,
        "total" : 35300
      },
      "genres" : [ ],
      "href" : "https://api.spotify.com/v1/artists/2hYeIfiicBcRLXz2VNkhB6",
      "id" : "2hYeIfiicBcRLXz2VNkhB6",
      "images" : [ {
        "height" : 640,
        "url" : "https://i.scdn.co/image/ab6761610000e5eb930e3a2489374172f78dbbad",
        "width" : 640
      }, {
        "height" : 320,
        "url" : "https://i.scdn.co/image/ab67616100005174930e3a2489374172f78dbbad",
        "width" : 320
      }, {
        "height" : 160,
        "url" : "https://i.scdn.co/image/ab6761610000f178930e3a2489374172f78dbbad",
        "width" : 160
      } ],
      "name" : "Mr.Reaper",
      "popularity" : 31,
      "type" : "artist",
      "uri" : "spotify:artist:2hYeIfiicBcRLXz2VNkhB6"
    }, {
      "external_urls" : {
        "spotify" : "https://open.spotify.com/artist/3XII8bmRdfOOxnOePBiAjk"
      },
      "followers" : {
        "href" : null,
        "total" : 77
      },
      "genres" : [ ],
      "href" : "https://api.spotify.com/v1/artists/3XII8bmRdfOOxnOePBiAjk",
      "id" : "3XII8bmRdfOOxnOePBiAjk",
      "images" : [ ],
      "name" : "Gold Reaper",
      "popularity" : 31,
      "type" : "artist",
      "uri" : "spotify:artist:3XII8bmRdfOOxnOePBiAjk"
    } ],
    "limit" : 20,
    "next" : "https://api.spotify.com/v1/search?query=REAPER&type=artist&market=US&offset=20&limit=20",
    "offset" : 0,
    "previous" : null,
    "total" : 764
  }
}