{
  "artists" : {
    "href" : "https://api.spotify.com/v1/search?query=Steller&type=artist&market=US&offset=0&limit=20",
    "items" : [ {
      "external_urls" : {
        "spotify" : "https://open.spotify.com/artist/5yw4tA8D5uG7tT3NaDvq10"
      },
      "followers" : {
        "href" : null,
        "total" : 151501
      },
      "genres" : [ "social media pop" ],
      "href" : "https://api.spotify.com/v1/artists/5yw4tA8D5uG7tT3NaDvq10",
      "id" : "5yw4tA8D5uG7tT3NaDvq10",
      "images" : [ {
        "height" : 640,
        "url" : "https://i.scdn.co/image/ab6761610000e5eb90a575a136e8527c16b9bf58",
        "width" : 640
      }, {
        "height" : 320,
        "url" : "https://i.scdn.co/image/ab6761610000517490a575a136e8527c16b9bf58",
        "width" : 320
      }, {
        "height" : 160,
        "url" : "https://i.scdn.co/image/ab6761610000f17890a575a136e8527c16b9bf58",
        "width" : 160
      } ],
      "name" : "Stellar",
      "popularity" : 68,
      "type" : "artist",
      "uri" : "spotify:artist:5yw4tA8D5uG7tT3NaDvq10"
    }, {
      "external_urls" : {
        "spotify" : "https://open.spotify.com/artist/7fNu9x4iV166BQmQQKOmXl"
      },
      "followers" : {
        "href" : null,
        "total" : 3140
      },
      "genres" : [ ],
      "href" : "https://api.spotify.com/v1/artists/7fNu9x4iV166BQmQQKOmXl",
      "id" : "7fNu9x4iV166BQmQQKOmXl",
      "images" : [ {
        "height" : 640,
        "url" : "https://i.scdn.co/image/ab6761610000e5eb88454f4d84713ac7c905e862",
        "width" : 640
      }, {
        "height" : 320,
        "url" : "https://i.scdn.co/image/ab6761610000517488454f4d84713ac7c905e862",
        "width" : 320
      }, {
        "height" : 160,
        "url" : "https://i.scdn.co/image/ab6761610000f17888454f4d84713ac7c905e862",
        "width" : 160
      } ],
      "name" : "Steller",
      "popularity" : 21,
      "type" : "artist",
      "uri" : "spotify:artist:7fNu9x4iV166BQmQQKOmXl"
    }, {
      "external_urls" : {
        "spotify" : "https://open.spotify.com/artist/0YULp7xJXp6xrKHVrEmsKw"
      },
      "followers" : {
        "href" : null,
        "total" : 40
      },
      "genres" : [ ],
      "href" : "https://api.spotify.com/v1/artists/0YULp7xJXp6xrKHVrEmsKw",
      "id" : "0YULp7xJXp6xrKHVrEmsKw",
      "images" : [ {
        "height" : 640,
        "url" : "https://i.scdn.co/image/ab6761610000e5ebee32840520ac2c099aebaa64",
        "width" : 640
      }, {
        "height" : 320,
        "url" : "https://i.scdn.co/image/ab67616100005174ee32840520ac2c099aebaa64",
        "width" : 320
      }, {
        "height" : 160,
        "url" : "https://i.scdn.co/image/ab6761610000f178ee32840520ac2c099aebaa64",
        "width" : 160
      } ],
      "name" : "StellerJay",
      "popularity" : 3,
      "type" : "artist",
      "uri" : "spotify:artist:0YULp7xJXp6xrKHVrEmsKw"
    }, {
      "external_urls" : {
        "spotify" : "https://open.spotify.com/artist/4vs2GbPZgkMn7FkM694Lav"
      },
      "followers" : {
        "href" : null,
        "total" : 1
      },
      "genres" : [ ],
      "href" : "https://api.spotify.com/v1/artists/4vs2GbPZgkMn7FkM694Lav",
      "id" : "4vs2GbPZgkMn7FkM694Lav",
      "images" : [ {
        "height" : 640,
        "url" : "https://i.scdn.co/image/ab67616d0000b27333c18f07b9a1c474c9273121",
        "width" : 640
      }, {
        "height" : 300,
        "url" : "https://i.scdn.co/image/ab67616d00001e0233c18f07b9a1c474c9273121",
        "width" : 300
      }, {
        "height" : 64,
        "url" : "https://i.scdn.co/image/ab67616d0000485133c18f07b9a1c474c9273121",
        "width" : 64
      } ],
      "name" : "STELLER",
      "popularity" : 0,
      "type" : "artist",
      "uri" : "spotify:artist:4vs2GbPZgkMn7FkM694Lav"
    }, {
      "external_urls" : {
        "spotify" : "https://open.spotify.com/artist/5WM2QZxPsbSfFrt4ibSDBi"
      },
      "followers" : {
        "href" : null,
        "total" : 44926
      },
      "genres" : [ "ccm", "christian alternative rock", "christian music", "christian punk", "christian rock" ],
      "href" : "https://api.spotify.com/v1/artists/5WM2QZxPsbSfFrt4ibSDBi",
      "id" : "5WM2QZxPsbSfFrt4ibSDBi",
      "images" : [ {
        "height" : 600,
        "url" : "https://i.scdn.co/image/ae2d369d6cf66a24a8bd448d6b7309df6e77495d",
        "width" : 900
      }, {
        "height" : 427,
        "url" : "https://i.scdn.co/image/3c660518f5017f5eb32c53487625a752ee611f87",
        "width" : 640
      }, {
        "height" : 133,
        "url" : "https://i.scdn.co/image/c56ae6ef16ca64ab9ebe0d53b419adbbad88d469",
        "width" : 200
      }, {
        "height" : 43,
        "url" : "https://i.scdn.co/image/b85deaeeba8144f7f85808156ad12c0fd822a275",
        "width" : 64
      } ],
      "name" : "Stellar Kart",
      "popularity" : 40,
      "type" : "artist",
      "uri" : "spotify:artist:5WM2QZxPsbSfFrt4ibSDBi"
    }, {
      "external_urls" : {
        "spotify" : "https://open.spotify.com/artist/4ab29rmxU3ksJt9dZbpcUX"
      },
      "followers" : {
        "href" : null,
        "total" : 1
      },
      "genres" : [ ],
      "href" : "https://api.spotify.com/v1/artists/4ab29rmxU3ksJt9dZbpcUX",
      "id" : "4ab29rmxU3ksJt9dZbpcUX",
      "images" : [ ],
      "name" : "Stellers Jay",
      "popularity" : 0,
      "type" : "artist",
      "uri" : "spotify:artist:4ab29rmxU3ksJt9dZbpcUX"
    }, {
      "external_urls" : {
        "spotify" : "https://open.spotify.com/artist/0BYReYxanzbTZFMe1myJMB"
      },
      "followers" : {
        "href" : null,
        "total" : 4
      },
      "genres" : [ ],
      "href" : "https://api.spotify.com/v1/artists/0BYReYxanzbTZFMe1myJMB",
      "id" : "0BYReYxanzbTZFMe1myJMB",
      "images" : [ {
        "height" : 640,
        "url" : "https://i.scdn.co/image/ab6761610000e5eb19f1757cc6ccfc1d9422054a",
        "width" : 640
      }, {
        "height" : 320,
        "url" : "https://i.scdn.co/image/ab6761610000517419f1757cc6ccfc1d9422054a",
        "width" : 320
      }, {
        "height" : 160,
        "url" : "https://i.scdn.co/image/ab6761610000f17819f1757cc6ccfc1d9422054a",
        "width" : 160
      } ],
      "name" : "Steller",
      "popularity" : 0,
      "type" : "artist",
      "uri" : "spotify:artist:0BYReYxanzbTZFMe1myJMB"
    }, {
      "external_urls" : {
        "spotify" : "https://open.spotify.com/artist/2xShvE3PKCbxt2NxCwVj8N"
      },
      "followers" : {
        "href" : null,
        "total" : 0
      },
      "genres" : [ ],
      "href" : "https://api.spotify.com/v1/artists/2xShvE3PKCbxt2NxCwVj8N",
      "id" : "2xShvE3PKCbxt2NxCwVj8N",
      "images" : [ {
        "height" : 640,
        "url" : "https://i.scdn.co/image/ab67616d0000b2734728c51fd99e16cf0214c745",
        "width" : 640
      }, {
        "height" : 300,
        "url" : "https://i.scdn.co/image/ab67616d00001e024728c51fd99e16cf0214c745",
        "width" : 300
      }, {
        "height" : 64,
        "url" : "https://i.scdn.co/image/ab67616d000048514728c51fd99e16cf0214c745",
        "width" : 64
      } ],
      "name" : "Steller",
      "popularity" : 0,
      "type" : "artist",
      "uri" : "spotify:artist:2xShvE3PKCbxt2NxCwVj8N"
    }, {
      "external_urls" : {
        "spotify" : "https://open.spotify.com/artist/5iSkcF3fm0a4i6BuVb2G3H"
      },
      "followers" : {
        "href" : null,
        "total" : 11
      },
      "genres" : [ ],
      "href" : "https://api.spotify.com/v1/artists/5iSkcF3fm0a4i6BuVb2G3H",
      "id" : "5iSkcF3fm0a4i6BuVb2G3H",
      "images" : [ {
        "height" : 640,
        "url" : "https://i.scdn.co/image/ab67616d0000b273aa53544d4be2a4f22627d3a9",
        "width" : 640
      }, {
        "height" : 300,
        "url" : "https://i.scdn.co/image/ab67616d00001e02aa53544d4be2a4f22627d3a9",
        "width" : 300
      }, {
        "height" : 64,
        "url" : "https://i.scdn.co/image/ab67616d00004851aa53544d4be2a4f22627d3a9",
        "width" : 64
      } ],
      "name" : "Steller",
      "popularity" : 0,
      "type" : "artist",
      "uri" : "spotify:artist:5iSkcF3fm0a4i6BuVb2G3H"
    }, {
      "external_urls" : {
        "spotify" : "https://open.spotify.com/artist/47GYQVbuhJ6QC4LjAomeZF"
      },
      "followers" : {
        "href" : null,
        "total" : 0
      },
      "genres" : [ ],
      "href" : "https://api.spotify.com/v1/artists/47GYQVbuhJ6QC4LjAomeZF",
      "id" : "47GYQVbuhJ6QC4LjAomeZF",
      "images" : [ ],
      "name" : "Steller",
      "popularity" : 0,
      "type" : "artist",
      "uri" : "spotify:artist:47GYQVbuhJ6QC4LjAomeZF"
    }, {
      "external_urls" : {
        "spotify" : "https://open.spotify.com/artist/78QM43VK3klH4Y41bUmMJV"
      },
      "followers" : {
        "href" : null,
        "total" : 21
      },
      "genres" : [ ],
      "href" : "https://api.spotify.com/v1/artists/78QM43VK3klH4Y41bUmMJV",
      "id" : "78QM43VK3klH4Y41bUmMJV",
      "images" : [ {
        "height" : 640,
        "url" : "https://i.scdn.co/image/ab67616d0000b2738f969a0d7138ce56daca8cad",
        "width" : 640
      }, {
        "height" : 300,
        "url" : "https://i.scdn.co/image/ab67616d00001e028f969a0d7138ce56daca8cad",
        "width" : 300
      }, {
        "height" : 64,
        "url" : "https://i.scdn.co/image/ab67616d000048518f969a0d7138ce56daca8cad",
        "width" : 64
      } ],
      "name" : "Steller",
      "popularity" : 0,
      "type" : "artist",
      "uri" : "spotify:artist:78QM43VK3klH4Y41bUmMJV"
    }, {
      "external_urls" : {
        "spotify" : "https://open.spotify.com/artist/3OqZhITKtph391Hi8DiT2l"
      },
      "followers" : {
        "href" : null,
        "total" : 20
      },
      "genres" : [ ],
      "href" : "https://api.spotify.com/v1/artists/3OqZhITKtph391Hi8DiT2l",
      "id" : "3OqZhITKtph391Hi8DiT2l",
      "images" : [ {
        "height" : 640,
        "url" : "https://i.scdn.co/image/ab6761610000e5ebd3938af29c56fac55c3e4ff8",
        "width" : 640
      }, {
        "height" : 320,
        "url" : "https://i.scdn.co/image/ab67616100005174d3938af29c56fac55c3e4ff8",
        "width" : 320
      }, {
        "height" : 160,
        "url" : "https://i.scdn.co/image/ab6761610000f178d3938af29c56fac55c3e4ff8",
        "width" : 160
      } ],
      "name" : "Steller Ousi",
      "popularity" : 0,
      "type" : "artist",
      "uri" : "spotify:artist:3OqZhITKtph391Hi8DiT2l"
    }, {
      "external_urls" : {
        "spotify" : "https://open.spotify.com/artist/3zUaKNGRdEPcQJIqDGmrPt"
      },
      "followers" : {
        "href" : null,
        "total" : 1
      },
      "genres" : [ ],
      "href" : "https://api.spotify.com/v1/artists/3zUaKNGRdEPcQJIqDGmrPt",
      "id" : "3zUaKNGRdEPcQJIqDGmrPt",
      "images" : [ ],
      "name" : "Mario Steller",
      "popularity" : 1,
      "type" : "artist",
      "uri" : "spotify:artist:3zUaKNGRdEPcQJIqDGmrPt"
    }, {
      "external_urls" : {
        "spotify" : "https://open.spotify.com/artist/305SPz5RmSLGsClkqHrQ6r"
      },
      "followers" : {
        "href" : null,
        "total" : 2
      },
      "genres" : [ ],
      "href" : "https://api.spotify.com/v1/artists/305SPz5RmSLGsClkqHrQ6r",
      "id" : "305SPz5RmSLGsClkqHrQ6r",
      "images" : [ ],
      "name" : "Stellerby",
      "popularity" : 0,
      "type" : "artist",
      "uri" : "spotify:artist:305SPz5RmSLGsClkqHrQ6r"
    }, {
      "external_urls" : {
        "spotify" : "https://open.spotify.com/artist/0nsVGcUsSySA5yOTk3lEol"
      },
      "followers" : {
        "href" : null,
        "total" : 7
      },
      "genres" : [ ],
      "href" : "https://api.spotify.com/v1/artists/0nsVGcUsSySA5yOTk3lEol",
      "id" : "0nsVGcUsSySA5yOTk3lEol",
      "images" : [ {
        "height" : 640,
        "url" : "https://i.scdn.co/image/ab6761610000e5ebf367080a9ff248b544a74bb3",
        "width" : 640
      }, {
        "height" : 320,
        "url" : "https://i.scdn.co/image/ab67616100005174f367080a9ff248b544a74bb3",
        "width" : 320
      }, {
        "height" : 160,
        "url" : "https://i.scdn.co/image/ab6761610000f178f367080a9ff248b544a74bb3",
        "width" : 160
      } ],
      "name" : "Steller",
      "popularity" : 0,
      "type" : "artist",
      "uri" : "spotify:artist:0nsVGcUsSySA5yOTk3lEol"
    }, {
      "external_urls" : {
        "spotify" : "https://open.spotify.com/artist/1cXlaCub5vfdxlabRcj0J6"
      },
      "followers" : {
        "href" : null,
        "total" : 23
      },
      "genres" : [ ],
      "href" : "https://api.spotify.com/v1/artists/1cXlaCub5vfdxlabRcj0J6",
      "id" : "1cXlaCub5vfdxlabRcj0J6",
      "images" : [ {
        "height" : 640,
        "url" : "https://i.scdn.co/image/ab6761610000e5eb58dc5bd3ca4a3f013bd8fcf1",
        "width" : 640
      }, {
        "height" : 320,
        "url" : "https://i.scdn.co/image/ab6761610000517458dc5bd3ca4a3f013bd8fcf1",
        "width" : 320
      }, {
        "height" : 160,
        "url" : "https://i.scdn.co/image/ab6761610000f17858dc5bd3ca4a3f013bd8fcf1",
        "width" : 160
      } ],
      "name" : "Anthony Steller",
      "popularity" : 0,
      "type" : "artist",
      "uri" : "spotify:artist:1cXlaCub5vfdxlabRcj0J6"
    }, {
      "external_urls" : {
        "spotify" : "https://open.spotify.com/artist/2RpoH4uDytociIbgjKJLnB"
      },
      "followers" : {
        "href" : null,
        "total" : 133
      },
      "genres" : [ ],
      "href" : "https://api.spotify.com/v1/artists/2RpoH4uDytociIbgjKJLnB",
      "id" : "2RpoH4uDytociIbgjKJLnB",
      "images" : [ {
        "height" : 640,
        "url" : "https://i.scdn.co/image/ab6761610000e5eb9ff227af3b5f7f74adf74900",
        "width" : 640
      }, {
        "height" : 320,
        "url" : "https://i.scdn.co/image/ab676161000051749ff227af3b5f7f74adf74900",
        "width" : 320
      }, {
        "height" : 160,
        "url" : "https://i.scdn.co/image/ab6761610000f1789ff227af3b5f7f74adf74900",
        "width" : 160
      } ],
      "name" : "Stem Steller",
      "popularity" : 2,
      "type" : "artist",
      "uri" : "spotify:artist:2RpoH4uDytociIbgjKJLnB"
    }, {
      "external_urls" : {
        "spotify" : "https://open.spotify.com/artist/52Ie3JOaNFA4WzxCmj3fj2"
      },
      "followers" : {
        "href" : null,
        "total" : 0
      },
      "genres" : [ ],
      "href" : "https://api.spotify.com/v1/artists/52Ie3JOaNFA4WzxCmj3fj2",
      "id" : "52Ie3JOaNFA4WzxCmj3fj2",
      "images" : [ ],
      "name" : "Steller's Eider",
      "popularity" : 0,
      "type" : "artist",
      "uri" : "spotify:artist:52Ie3JOaNFA4WzxCmj3fj2"
    }, {
      "external_urls" : {
        "spotify" : "https://open.spotify.com/artist/2RwbyVTLcgm62aoUBRwUfa"
      },
      "followers" : {
        "href" : null,
        "total" : 1
      },
      "genres" : [ ],
      "href" : "https://api.spotify.com/v1/artists/2RwbyVTLcgm62aoUBRwUfa",
      "id" : "2RwbyVTLcgm62aoUBRwUfa",
      "images" : [ ],
      "name" : "Maud Steller",
      "popularity" : 0,
      "type" : "artist",
      "uri" : "spotify:artist:2RwbyVTLcgm62aoUBRwUfa"
    }, {
      "external_urls" : {
        "spotify" : "https://open.spotify.com/artist/18EHqKdkIKx3XkSb2gc6FP"
      },
      "followers" : {
        "href" : null,
        "total" : 0
      },
      "genres" : [ ],
      "href" : "https://api.spotify.com/v1/artists/18EHqKdkIKx3XkSb2gc6FP",
      "id" : "18EHqKdkIKx3XkSb2gc6FP",
      "images" : [ ],
      "name" : "Yung Steller",
      "popularity" : 0,
      "type" : "artist",
      "uri" : "spotify:artist:18EHqKdkIKx3XkSb2gc6FP"
    } ],
    "limit" : 20,
    "next" : "https://api.spotify.com/v1/search?query=Steller&type=artist&market=US&offset=20&limit=20",
    "offset" : 0,
    "previous" : null,
    "total" : 32
  }
}