{
  "artists" : {
    "href" : "https://api.spotify.com/v1/search?query=Talon&type=artist&market=US&offset=0&limit=20",
    "items" : [ {
      "external_urls" : {
        "spotify" : "https://open.spotify.com/artist/4rVWk1fEcvDeMjlj7T60Bx"
      },
      "followers" : {
        "href" : null,
        "total" : 852
      },
      "genres" : [ ],
      "href" : "https://api.spotify.com/v1/artists/4rVWk1fEcvDeMjlj7T60Bx",
      "id" : "4rVWk1fEcvDeMjlj7T60Bx",
      "images" : [ {
        "height" : 640,
        "url" : "https://i.scdn.co/image/ab6761610000e5eb63f6566623f2bdd451b6b98c",
        "width" : 640
      }, {
        "height" : 320,
        "url" : "https://i.scdn.co/image/ab6761610000517463f6566623f2bdd451b6b98c",
        "width" : 320
      }, {
        "height" : 160,
        "url" : "https://i.scdn.co/image/ab6761610000f17863f6566623f2bdd451b6b98c",
        "width" : 160
      } ],
      "name" : "Talon David",
      "popularity" : 23,
      "type" : "artist",
      "uri" : "spotify:artist:4rVWk1fEcvDeMjlj7T60Bx"
    }, {
      "external_urls" : {
        "spotify" : "https://open.spotify.com/artist/7o7Uf1xRSsnRnfz3qWZJSW"
      },
      "followers" : {
        "href" : null,
        "total" : 708
      },
      "genres" : [ ],
      "href" : "https://api.spotify.com/v1/artists/7o7Uf1xRSsnRnfz3qWZJSW",
      "id" : "7o7Uf1xRSsnRnfz3qWZJSW",
      "images" : [ {
        "height" : 640,
        "url" : "https://i.scdn.co/image/ab67616d0000b2739a59c11a1fdfe252ae236585",
        "width" : 640
      }, {
        "height" : 300,
        "url" : "https://i.scdn.co/image/ab67616d00001e029a59c11a1fdfe252ae236585",
        "width" : 300
      }, {
        "height" : 64,
        "url" : "https://i.scdn.co/image/ab67616d000048519a59c11a1fdfe252ae236585",
        "width" : 64
      } ],
      "name" : "Talon",
      "popularity" : 15,
      "type" : "artist",
      "uri" : "spotify:artist:7o7Uf1xRSsnRnfz3qWZJSW"
    }, {
      "external_urls" : {
        "spotify" : "https://open.spotify.com/artist/0OG12Q6f2nnOvaSuFwa0iH"
      },
      "followers" : {
        "href" : null,
        "total" : 1631
      },
      "genres" : [ ],
      "href" : "https://api.spotify.com/v1/artists/0OG12Q6f2nnOvaSuFwa0iH",
      "id" : "0OG12Q6f2nnOvaSuFwa0iH",
      "images" : [ {
        "height" : 640,
        "url" : "https://i.scdn.co/image/ab6761610000e5ebc41cd551e0f1fdf6d38e14a9",
        "width" : 640
      }, {
        "height" : 320,
        "url" : "https://i.scdn.co/image/ab67616100005174c41cd551e0f1fdf6d38e14a9",
        "width" : 320
      }, {
        "height" : 160,
        "url" : "https://i.scdn.co/image/ab6761610000f178c41cd551e0f1fdf6d38e14a9",
        "width" : 160
      } ],
      "name" : "TALONS",
      "popularity" : 25,
      "type" : "artist",
      "uri" : "spotify:artist:0OG12Q6f2nnOvaSuFwa0iH"
    }, {
      "external_urls" : {
        "spotify" : "https://open.spotify.com/artist/2FaBKc5uSzWRIzI5nePTFs"
      },
      "followers" : {
        "href" : null,
        "total" : 122
      },
      "genres" : [ ],
      "href" : "https://api.spotify.com/v1/artists/2FaBKc5uSzWRIzI5nePTFs",
      "id" : "2FaBKc5uSzWRIzI5nePTFs",
      "images" : [ {
        "height" : 640,
        "url" : "https://i.scdn.co/image/ab6761610000e5eb7fe8bfc09d9225b967f83d66",
        "width" : 640
      }, {
        "height" : 320,
        "url" : "https://i.scdn.co/image/ab676161000051747fe8bfc09d9225b967f83d66",
        "width" : 320
      }, {
        "height" : 160,
        "url" : "https://i.scdn.co/image/ab6761610000f1787fe8bfc09d9225b967f83d66",
        "width" : 160
      } ],
      "name" : "Talon",
      "popularity" : 9,
      "type" : "artist",
      "uri" : "spotify:artist:2FaBKc5uSzWRIzI5nePTFs"
    }, {
      "external_urls" : {
        "spotify" : "https://open.spotify.com/artist/2Rjc6yThK4bYey9m7PaPFs"
      },
      "followers" : {
        "href" : null,
        "total" : 1041
      },
      "genres" : [ ],
      "href" : "https://api.spotify.com/v1/artists/2Rjc6yThK4bYey9m7PaPFs",
      "id" : "2Rjc6yThK4bYey9m7PaPFs",
      "images" : [ {
        "height" : 640,
        "url" : "https://i.scdn.co/image/ab6761610000e5ebabaab7086f2119ca3d81ec44",
        "width" : 640
      }, {
        "height" : 320,
        "url" : "https://i.scdn.co/image/ab67616100005174abaab7086f2119ca3d81ec44",
        "width" : 320
      }, {
        "height" : 160,
        "url" : "https://i.scdn.co/image/ab6761610000f178abaab7086f2119ca3d81ec44",
        "width" : 160
      } ],
      "name" : "Talons'",
      "popularity" : 17,
      "type" : "artist",
      "uri" : "spotify:artist:2Rjc6yThK4bYey9m7PaPFs"
    }, {
      "external_urls" : {
        "spotify" : "https://open.spotify.com/artist/3Kx2w5wlr9fcsGAgfotrgM"
      },
      "followers" : {
        "href" : null,
        "total" : 18
      },
      "genres" : [ ],
      "href" : "https://api.spotify.com/v1/artists/3Kx2w5wlr9fcsGAgfotrgM",
      "id" : "3Kx2w5wlr9fcsGAgfotrgM",
      "images" : [ {
        "height" : 640,
        "url" : "https://i.scdn.co/image/ab6761610000e5eb8774929e224de9cca182d32e",
        "width" : 640
      }, {
        "height" : 320,
        "url" : "https://i.scdn.co/image/ab676161000051748774929e224de9cca182d32e",
        "width" : 320
      }, {
        "height" : 160,
        "url" : "https://i.scdn.co/image/ab6761610000f1788774929e224de9cca182d32e",
        "width" : 160
      } ],
      "name" : "Talon Zealjoy",
      "popularity" : 0,
      "type" : "artist",
      "uri" : "spotify:artist:3Kx2w5wlr9fcsGAgfotrgM"
    }, {
      "external_urls" : {
        "spotify" : "https://open.spotify.com/artist/24uHiwLTTs916kQsoEXcMv"
      },
      "followers" : {
        "href" : null,
        "total" : 671
      },
      "genres" : [ ],
      "href" : "https://api.spotify.com/v1/artists/24uHiwLTTs916kQsoEXcMv",
      "id" : "24uHiwLTTs916kQsoEXcMv",
      "images" : [ {
        "height" : 640,
        "url" : "https://i.scdn.co/image/ab6761610000e5eb8ca018dca806348f1cc45299",
        "width" : 640
      }, {
        "height" : 320,
        "url" : "https://i.scdn.co/image/ab676161000051748ca018dca806348f1cc45299",
        "width" : 320
      }, {
        "height" : 160,
        "url" : "https://i.scdn.co/image/ab6761610000f1788ca018dca806348f1cc45299",
        "width" : 160
      } ],
      "name" : "TALON",
      "popularity" : 19,
      "type" : "artist",
      "uri" : "spotify:artist:24uHiwLTTs916kQsoEXcMv"
    }, {
      "external_urls" : {
        "spotify" : "https://open.spotify.com/artist/2xzmBFPxodSCBLlq5d8Cax"
      },
      "followers" : {
        "href" : null,
        "total" : 3523
      },
      "genres" : [ "us power metal" ],
      "href" : "https://api.spotify.com/v1/artists/2xzmBFPxodSCBLlq5d8Cax",
      "id" : "2xzmBFPxodSCBLlq5d8Cax",
      "images" : [ {
        "height" : 640,
        "url" : "https://i.scdn.co/image/ab6761610000e5eb8a6dfe3888916b3b3a1b5d8d",
        "width" : 640
      }, {
        "height" : 320,
        "url" : "https://i.scdn.co/image/ab676161000051748a6dfe3888916b3b3a1b5d8d",
        "width" : 320
      }, {
        "height" : 160,
        "url" : "https://i.scdn.co/image/ab6761610000f1788a6dfe3888916b3b3a1b5d8d",
        "width" : 160
      } ],
      "name" : "Silver Talon",
      "popularity" : 18,
      "type" : "artist",
      "uri" : "spotify:artist:2xzmBFPxodSCBLlq5d8Cax"
    }, {
      "external_urls" : {
        "spotify" : "https://open.spotify.com/artist/0rwnYwutmFoe1HqFmvEubO"
      },
      "followers" : {
        "href" : null,
        "total" : 361
      },
      "genres" : [ ],
      "href" : "https://api.spotify.com/v1/artists/0rwnYwutmFoe1HqFmvEubO",
      "id" : "0rwnYwutmFoe1HqFmvEubO",
      "images" : [ {
        "height" : 640,
        "url" : "https://i.scdn.co/image/ab6761610000e5ebb8b9ac8899c6ceb22ff350d2",
        "width" : 640
      }, {
        "height" : 320,
        "url" : "https://i.scdn.co/image/ab67616100005174b8b9ac8899c6ceb22ff350d2",
        "width" : 320
      }, {
        "height" : 160,
        "url" : "https://i.scdn.co/image/ab6761610000f178b8b9ac8899c6ceb22ff350d2",
        "width" : 160
      } ],
      "name" : "Talone",
      "popularity" : 3,
      "type" : "artist",
      "uri" : "spotify:artist:0rwnYwutmFoe1HqFmvEubO"
    }, {
      "external_urls" : {
        "spotify" : "https://open.spotify.com/artist/2RBIA415UZH2QCcpoqDn0O"
      },
      "followers" : {
        "href" : null,
        "total" : 15
      },
      "genres" : [ ],
      "href" : "https://api.spotify.com/v1/artists/2RBIA415UZH2QCcpoqDn0O",
      "id" : "2RBIA415UZH2QCcpoqDn0O",
      "images" : [ {
        "height" : 640,
        "url" : "https://i.scdn.co/image/ab6761610000e5eb832b01fc1ce1f5535034dd4f",
        "width" : 640
      }, {
        "height" : 320,
        "url" : "https://i.scdn.co/image/ab67616100005174832b01fc1ce1f5535034dd4f",
        "width" : 320
      }, {
        "height" : 160,
        "url" : "https://i.scdn.co/image/ab6761610000f178832b01fc1ce1f5535034dd4f",
        "width" : 160
      } ],
      "name" : "Tom Talon",
      "popularity" : 18,
      "type" : "artist",
      "uri" : "spotify:artist:2RBIA415UZH2QCcpoqDn0O"
    }, {
      "external_urls" : {
        "spotify" : "https://open.spotify.com/artist/7dYmPqRjUWP21xj3b7EQPp"
      },
      "followers" : {
        "href" : null,
        "total" : 19664
      },
      "genres" : [ ],
      "href" : "https://api.spotify.com/v1/artists/7dYmPqRjUWP21xj3b7EQPp",
      "id" : "7dYmPqRjUWP21xj3b7EQPp",
      "images" : [ {
        "height" : 640,
        "url" : "https://i.scdn.co/image/ab6761610000e5eb79b5e25fcbeb20235ba15b33",
        "width" : 640
      }, {
        "height" : 320,
        "url" : "https://i.scdn.co/image/ab6761610000517479b5e25fcbeb20235ba15b33",
        "width" : 320
      }, {
        "height" : 160,
        "url" : "https://i.scdn.co/image/ab6761610000f17879b5e25fcbeb20235ba15b33",
        "width" : 160
      } ],
      "name" : "Talon Majors",
      "popularity" : 17,
      "type" : "artist",
      "uri" : "spotify:artist:7dYmPqRjUWP21xj3b7EQPp"
    }, {
      "external_urls" : {
        "spotify" : "https://open.spotify.com/artist/2LiwrVBfwtu7WVu4S5TGzV"
      },
      "followers" : {
        "href" : null,
        "total" : 167
      },
      "genres" : [ ],
      "href" : "https://api.spotify.com/v1/artists/2LiwrVBfwtu7WVu4S5TGzV",
      "id" : "2LiwrVBfwtu7WVu4S5TGzV",
      "images" : [ {
        "height" : 640,
        "url" : "https://i.scdn.co/image/ab6761610000e5eb82295c7ffee8da6ff5025b45",
        "width" : 640
      }, {
        "height" : 320,
        "url" : "https://i.scdn.co/image/ab6761610000517482295c7ffee8da6ff5025b45",
        "width" : 320
      }, {
        "height" : 160,
        "url" : "https://i.scdn.co/image/ab6761610000f17882295c7ffee8da6ff5025b45",
        "width" : 160
      } ],
      "name" : "Talon",
      "popularity" : 0,
      "type" : "artist",
      "uri" : "spotify:artist:2LiwrVBfwtu7WVu4S5TGzV"
    }, {
      "external_urls" : {
        "spotify" : "https://open.spotify.com/artist/2HxgWpXkqsVkBJ6IKhQwvI"
      },
      "followers" : {
        "href" : null,
        "total" : 42
      },
      "genres" : [ ],
      "href" : "https://api.spotify.com/v1/artists/2HxgWpXkqsVkBJ6IKhQwvI",
      "id" : "2HxgWpXkqsVkBJ6IKhQwvI",
      "images" : [ {
        "height" : 640,
        "url" : "https://i.scdn.co/image/ab6761610000e5ebff2754f5614afeea963d5653",
        "width" : 640
      }, {
        "height" : 320,
        "url" : "https://i.scdn.co/image/ab67616100005174ff2754f5614afeea963d5653",
        "width" : 320
      }, {
        "height" : 160,
        "url" : "https://i.scdn.co/image/ab6761610000f178ff2754f5614afeea963d5653",
        "width" : 160
      } ],
      "name" : "Talon",
      "popularity" : 3,
      "type" : "artist",
      "uri" : "spotify:artist:2HxgWpXkqsVkBJ6IKhQwvI"
    }, {
      "external_urls" : {
        "spotify" : "https://open.spotify.com/artist/48jIqFIYQOKbzJieXtX9gq"
      },
      "followers" : {
        "href" : null,
        "total" : 0
      },
      "genres" : [ ],
      "href" : "https://api.spotify.com/v1/artists/48jIqFIYQOKbzJieXtX9gq",
      "id" : "48jIqFIYQOKbzJieXtX9gq",
      "images" : [ {
        "height" : 640,
        "url" : "https://i.scdn.co/image/ab67616d0000b273072d8b2c6c9078d97a2a7748",
        "width" : 640
      }, {
        "height" : 300,
        "url" : "https://i.scdn.co/image/ab67616d00001e02072d8b2c6c9078d97a2a7748",
        "width" : 300
      }, {
        "height" : 64,
        "url" : "https://i.scdn.co/image/ab67616d00004851072d8b2c6c9078d97a2a7748",
        "width" : 64
      } ],
      "name" : "Talon Mcbride",
      "popularity" : 2,
      "type" : "artist",
      "uri" : "spotify:artist:48jIqFIYQOKbzJieXtX9gq"
    }, {
      "external_urls" : {
        "spotify" : "https://open.spotify.com/artist/2P1DAJisNoBFdO1PXD6zLM"
      },
      "followers" : {
        "href" : null,
        "total" : 45
      },
      "genres" : [ ],
      "href" : "https://api.spotify.com/v1/artists/2P1DAJisNoBFdO1PXD6zLM",
      "id" : "2P1DAJisNoBFdO1PXD6zLM",
      "images" : [ {
        "height" : 640,
        "url" : "https://i.scdn.co/image/ab6761610000e5eb10928d3c960d0de16bbf41c5",
        "width" : 640
      }, {
        "height" : 320,
        "url" : "https://i.scdn.co/image/ab6761610000517410928d3c960d0de16bbf41c5",
        "width" : 320
      }, {
        "height" : 160,
        "url" : "https://i.scdn.co/image/ab6761610000f17810928d3c960d0de16bbf41c5",
        "width" : 160
      } ],
      "name" : "Talon",
      "popularity" : 0,
      "type" : "artist",
      "uri" : "spotify:artist:2P1DAJisNoBFdO1PXD6zLM"
    }, {
      "external_urls" : {
        "spotify" : "https://open.spotify.com/artist/0Ji5AUYHZf05ycq9j95liM"
      },
      "followers" : {
        "href" : null,
        "total" : 3177
      },
      "genres" : [ "british post-rock", "math pop" ],
      "href" : "https://api.spotify.com/v1/artists/0Ji5AUYHZf05ycq9j95liM",
      "id" : "0Ji5AUYHZf05ycq9j95liM",
      "images" : [ {
        "height" : 640,
        "url" : "https://i.scdn.co/image/ab6761610000e5ebf6c6bd8782095e3c9abcf00f",
        "width" : 640
      }, {
        "height" : 320,
        "url" : "https://i.scdn.co/image/ab67616100005174f6c6bd8782095e3c9abcf00f",
        "width" : 320
      }, {
        "height" : 160,
        "url" : "https://i.scdn.co/image/ab6761610000f178f6c6bd8782095e3c9abcf00f",
        "width" : 160
      } ],
      "name" : "Talons",
      "popularity" : 8,
      "type" : "artist",
      "uri" : "spotify:artist:0Ji5AUYHZf05ycq9j95liM"
    }, {
      "external_urls" : {
        "spotify" : "https://open.spotify.com/artist/08ZEZOGchx5Cif6N38lLFx"
      },
      "followers" : {
        "href" : null,
        "total" : 54
      },
      "genres" : [ ],
      "href" : "https://api.spotify.com/v1/artists/08ZEZOGchx5Cif6N38lLFx",
      "id" : "08ZEZOGchx5Cif6N38lLFx",
      "images" : [ {
        "height" : 640,
        "url" : "https://i.scdn.co/image/ab6761610000e5eb0635c1a4f4690d140495887a",
        "width" : 640
      }, {
        "height" : 320,
        "url" : "https://i.scdn.co/image/ab676161000051740635c1a4f4690d140495887a",
        "width" : 320
      }, {
        "height" : 160,
        "url" : "https://i.scdn.co/image/ab6761610000f1780635c1a4f4690d140495887a",
        "width" : 160
      } ],
      "name" : "Talon",
      "popularity" : 0,
      "type" : "artist",
      "uri" : "spotify:artist:08ZEZOGchx5Cif6N38lLFx"
    }, {
      "external_urls" : {
        "spotify" : "https://open.spotify.com/artist/7F4BflS6V9E7Ey4G1XqGuL"
      },
      "followers" : {
        "href" : null,
        "total" : 222
      },
      "genres" : [ ],
      "href" : "https://api.spotify.com/v1/artists/7F4BflS6V9E7Ey4G1XqGuL",
      "id" : "7F4BflS6V9E7Ey4G1XqGuL",
      "images" : [ ],
      "name" : "Talon Bourne",
      "popularity" : 5,
      "type" : "artist",
      "uri" : "spotify:artist:7F4BflS6V9E7Ey4G1XqGuL"
    }, {
      "external_urls" : {
        "spotify" : "https://open.spotify.com/artist/1pbUdj3PtVLMkHyLeWl520"
      },
      "followers" : {
        "href" : null,
        "total" : 13
      },
      "genres" : [ ],
      "href" : "https://api.spotify.com/v1/artists/1pbUdj3PtVLMkHyLeWl520",
      "id" : "1pbUdj3PtVLMkHyLeWl520",
      "images" : [ {
        "height" : 640,
        "url" : "https://i.scdn.co/image/ab6761610000e5ebac854fb303d2b5ddb6559bbd",
        "width" : 640
      }, {
        "height" : 320,
        "url" : "https://i.scdn.co/image/ab67616100005174ac854fb303d2b5ddb6559bbd",
        "width" : 320
      }, {
        "height" : 160,
        "url" : "https://i.scdn.co/image/ab6761610000f178ac854fb303d2b5ddb6559bbd",
        "width" : 160
      } ],
      "name" : "Talon",
      "popularity" : 1,
      "type" : "artist",
      "uri" : "spotify:artist:1pbUdj3PtVLMkHyLeWl520"
    }, {
      "external_urls" : {
        "spotify" : "https://open.spotify.com/artist/0UMGymu3fhHkW7shvNvYqK"
      },
      "followers" : {
        "href" : null,
        "total" : 89
      },
      "genres" : [ ],
      "href" : "https://api.spotify.com/v1/artists/0UMGymu3fhHkW7shvNvYqK",
      "id" : "0UMGymu3fhHkW7shvNvYqK",
      "images" : [ {
        "height" : 640,
        "url" : "https://i.scdn.co/image/ab6761610000e5eba1104db369fe85b8e4d69969",
        "width" : 640
      }, {
        "height" : 320,
        "url" : "https://i.scdn.co/image/ab67616100005174a1104db369fe85b8e4d69969",
        "width" : 320
      }, {
        "height" : 160,
        "url" : "https://i.scdn.co/image/ab6761610000f178a1104db369fe85b8e4d69969",
        "width" : 160
      } ],
      "name" : "Talon Cardon",
      "popularity" : 1,
      "type" : "artist",
      "uri" : "spotify:artist:0UMGymu3fhHkW7shvNvYqK"
    } ],
    "limit" : 20,
    "next" : "https://api.spotify.com/v1/search?query=Talon&type=artist&market=US&offset=20&limit=20",
    "offset" : 0,
    "previous" : null,
    "total" : 180
  }
}