{
  "artists" : {
    "href" : "https://api.spotify.com/v1/search?query=The+Prophet&type=artist&market=US&offset=0&limit=20",
    "items" : [ {
      "external_urls" : {
        "spotify" : "https://open.spotify.com/artist/2iRqqPkOyIvvb7qFZN1Onz"
      },
      "followers" : {
        "href" : null,
        "total" : 83017
      },
      "genres" : [ "classic hardstyle", "euphoric hardstyle", "happy hardcore", "rawstyle" ],
      "href" : "https://api.spotify.com/v1/artists/2iRqqPkOyIvvb7qFZN1Onz",
      "id" : "2iRqqPkOyIvvb7qFZN1Onz",
      "images" : [ {
        "height" : 640,
        "url" : "https://i.scdn.co/image/ab6761610000e5ebceac4e99c3541f49a2321001",
        "width" : 640
      }, {
        "height" : 320,
        "url" : "https://i.scdn.co/image/ab67616100005174ceac4e99c3541f49a2321001",
        "width" : 320
      }, {
        "height" : 160,
        "url" : "https://i.scdn.co/image/ab6761610000f178ceac4e99c3541f49a2321001",
        "width" : 160
      } ],
      "name" : "The Prophet",
      "popularity" : 59,
      "type" : "artist",
      "uri" : "spotify:artist:2iRqqPkOyIvvb7qFZN1Onz"
    }, {
      "external_urls" : {
        "spotify" : "https://open.spotify.com/artist/7zyObVag8rUjItn71SkIrh"
      },
      "followers" : {
        "href" : null,
        "total" : 165864
      },
      "genres" : [ "j-poprock", "japanese alternative rock" ],
      "href" : "https://api.spotify.com/v1/artists/7zyObVag8rUjItn71SkIrh",
      "id" : "7zyObVag8rUjItn71SkIrh",
      "images" : [ {
        "height" : 640,
        "url" : "https://i.scdn.co/image/ab6761610000e5eb7af2342c3727df965d27da94",
        "width" : 640
      }, {
        "height" : 320,
        "url" : "https://i.scdn.co/image/ab676161000051747af2342c3727df965d27da94",
        "width" : 320
      }, {
        "height" : 160,
        "url" : "https://i.scdn.co/image/ab6761610000f1787af2342c3727df965d27da94",
        "width" : 160
      } ],
      "name" : "Survive Said The Prophet",
      "popularity" : 58,
      "type" : "artist",
      "uri" : "spotify:artist:7zyObVag8rUjItn71SkIrh"
    }, {
      "external_urls" : {
        "spotify" : "https://open.spotify.com/artist/5XQvq5BrnDH1WHhYXXrZTd"
      },
      "followers" : {
        "href" : null,
        "total" : 8
      },
      "genres" : [ ],
      "href" : "https://api.spotify.com/v1/artists/5XQvq5BrnDH1WHhYXXrZTd",
      "id" : "5XQvq5BrnDH1WHhYXXrZTd",
      "images" : [ {
        "height" : 640,
        "url" : "https://i.scdn.co/image/ab6761610000e5eb82ebc91ace4900b719a2c406",
        "width" : 640
      }, {
        "height" : 320,
        "url" : "https://i.scdn.co/image/ab6761610000517482ebc91ace4900b719a2c406",
        "width" : 320
      }, {
        "height" : 160,
        "url" : "https://i.scdn.co/image/ab6761610000f17882ebc91ace4900b719a2c406",
        "width" : 160
      } ],
      "name" : "The Prophets",
      "popularity" : 2,
      "type" : "artist",
      "uri" : "spotify:artist:5XQvq5BrnDH1WHhYXXrZTd"
    }, {
      "external_urls" : {
        "spotify" : "https://open.spotify.com/artist/3con20lDxCrLO6Ee3pj7j7"
      },
      "followers" : {
        "href" : null,
        "total" : 330
      },
      "genres" : [ ],
      "href" : "https://api.spotify.com/v1/artists/3con20lDxCrLO6Ee3pj7j7",
      "id" : "3con20lDxCrLO6Ee3pj7j7",
      "images" : [ {
        "height" : 640,
        "url" : "https://i.scdn.co/image/ab6761610000e5eb17dde2f250906d4962b6b13b",
        "width" : 640
      }, {
        "height" : 320,
        "url" : "https://i.scdn.co/image/ab6761610000517417dde2f250906d4962b6b13b",
        "width" : 320
      }, {
        "height" : 160,
        "url" : "https://i.scdn.co/image/ab6761610000f17817dde2f250906d4962b6b13b",
        "width" : 160
      } ],
      "name" : "The Prophet Malik",
      "popularity" : 26,
      "type" : "artist",
      "uri" : "spotify:artist:3con20lDxCrLO6Ee3pj7j7"
    }, {
      "external_urls" : {
        "spotify" : "https://open.spotify.com/artist/0vXtpskNA5slWYQBsjlaJU"
      },
      "followers" : {
        "href" : null,
        "total" : 6595
      },
      "genres" : [ "new jersey underground rap" ],
      "href" : "https://api.spotify.com/v1/artists/0vXtpskNA5slWYQBsjlaJU",
      "id" : "0vXtpskNA5slWYQBsjlaJU",
      "images" : [ {
        "height" : 640,
        "url" : "https://i.scdn.co/image/ab6761610000e5eb44ad377010dfee1196c2faa3",
        "width" : 640
      }, {
        "height" : 320,
        "url" : "https://i.scdn.co/image/ab6761610000517444ad377010dfee1196c2faa3",
        "width" : 320
      }, {
        "height" : 160,
        "url" : "https://i.scdn.co/image/ab6761610000f17844ad377010dfee1196c2faa3",
        "width" : 160
      } ],
      "name" : "Prophet the Artist",
      "popularity" : 42,
      "type" : "artist",
      "uri" : "spotify:artist:0vXtpskNA5slWYQBsjlaJU"
    }, {
      "external_urls" : {
        "spotify" : "https://open.spotify.com/artist/0q2REqMoWLDvuD0iR9Nxw6"
      },
      "followers" : {
        "href" : null,
        "total" : 437
      },
      "genres" : [ ],
      "href" : "https://api.spotify.com/v1/artists/0q2REqMoWLDvuD0iR9Nxw6",
      "id" : "0q2REqMoWLDvuD0iR9Nxw6",
      "images" : [ {
        "height" : 640,
        "url" : "https://i.scdn.co/image/ab67616d0000b273b68f2c92d8218b4697fb30b9",
        "width" : 640
      }, {
        "height" : 300,
        "url" : "https://i.scdn.co/image/ab67616d00001e02b68f2c92d8218b4697fb30b9",
        "width" : 300
      }, {
        "height" : 64,
        "url" : "https://i.scdn.co/image/ab67616d00004851b68f2c92d8218b4697fb30b9",
        "width" : 64
      } ],
      "name" : "The Prophets",
      "popularity" : 27,
      "type" : "artist",
      "uri" : "spotify:artist:0q2REqMoWLDvuD0iR9Nxw6"
    }, {
      "external_urls" : {
        "spotify" : "https://open.spotify.com/artist/2mhbxtUJffNsLv4cjlenRv"
      },
      "followers" : {
        "href" : null,
        "total" : 190
      },
      "genres" : [ ],
      "href" : "https://api.spotify.com/v1/artists/2mhbxtUJffNsLv4cjlenRv",
      "id" : "2mhbxtUJffNsLv4cjlenRv",
      "images" : [ {
        "height" : 640,
        "url" : "https://i.scdn.co/image/ab6761610000e5ebd8bd180914392b4479e10781",
        "width" : 640
      }, {
        "height" : 320,
        "url" : "https://i.scdn.co/image/ab67616100005174d8bd180914392b4479e10781",
        "width" : 320
      }, {
        "height" : 160,
        "url" : "https://i.scdn.co/image/ab6761610000f178d8bd180914392b4479e10781",
        "width" : 160
      } ],
      "name" : "The Prophet X",
      "popularity" : 18,
      "type" : "artist",
      "uri" : "spotify:artist:2mhbxtUJffNsLv4cjlenRv"
    }, {
      "external_urls" : {
        "spotify" : "https://open.spotify.com/artist/4HWtPkLYzL2fvWSuS1IHFp"
      },
      "followers" : {
        "href" : null,
        "total" : 3356
      },
      "genres" : [ ],
      "href" : "https://api.spotify.com/v1/artists/4HWtPkLYzL2fvWSuS1IHFp",
      "id" : "4HWtPkLYzL2fvWSuS1IHFp",
      "images" : [ {
        "height" : 640,
        "url" : "https://i.scdn.co/image/ab67616d0000b273414fd85961fc6c1f4587d505",
        "width" : 640
      }, {
        "height" : 300,
        "url" : "https://i.scdn.co/image/ab67616d00001e02414fd85961fc6c1f4587d505",
        "width" : 300
      }, {
        "height" : 64,
        "url" : "https://i.scdn.co/image/ab67616d00004851414fd85961fc6c1f4587d505",
        "width" : 64
      } ],
      "name" : "The Friday Prophets",
      "popularity" : 33,
      "type" : "artist",
      "uri" : "spotify:artist:4HWtPkLYzL2fvWSuS1IHFp"
    }, {
      "external_urls" : {
        "spotify" : "https://open.spotify.com/artist/2mhMtL2klntUcqDrc5X6Bv"
      },
      "followers" : {
        "href" : null,
        "total" : 19
      },
      "genres" : [ ],
      "href" : "https://api.spotify.com/v1/artists/2mhMtL2klntUcqDrc5X6Bv",
      "id" : "2mhMtL2klntUcqDrc5X6Bv",
      "images" : [ {
        "height" : 640,
        "url" : "https://i.scdn.co/image/ab6761610000e5eb82125ee66b0757c94b8baf6b",
        "width" : 640
      }, {
        "height" : 320,
        "url" : "https://i.scdn.co/image/ab6761610000517482125ee66b0757c94b8baf6b",
        "width" : 320
      }, {
        "height" : 160,
        "url" : "https://i.scdn.co/image/ab6761610000f17882125ee66b0757c94b8baf6b",
        "width" : 160
      } ],
      "name" : "The Prophet",
      "popularity" : 9,
      "type" : "artist",
      "uri" : "spotify:artist:2mhMtL2klntUcqDrc5X6Bv"
    }, {
      "external_urls" : {
        "spotify" : "https://open.spotify.com/artist/3orf8fIyCMlFkLUeYK0DCi"
      },
      "followers" : {
        "href" : null,
        "total" : 2516
      },
      "genres" : [ "jazz boom bap" ],
      "href" : "https://api.spotify.com/v1/artists/3orf8fIyCMlFkLUeYK0DCi",
      "id" : "3orf8fIyCMlFkLUeYK0DCi",
      "images" : [ {
        "height" : 640,
        "url" : "https://i.scdn.co/image/ab67616d0000b273fca6430363664c6c5c1bbd42",
        "width" : 640
      }, {
        "height" : 300,
        "url" : "https://i.scdn.co/image/ab67616d00001e02fca6430363664c6c5c1bbd42",
        "width" : 300
      }, {
        "height" : 64,
        "url" : "https://i.scdn.co/image/ab67616d00004851fca6430363664c6c5c1bbd42",
        "width" : 64
      } ],
      "name" : "Peebs The Prophet",
      "popularity" : 34,
      "type" : "artist",
      "uri" : "spotify:artist:3orf8fIyCMlFkLUeYK0DCi"
    }, {
      "external_urls" : {
        "spotify" : "https://open.spotify.com/artist/0w890d0mv5lIPTjkPQGiKC"
      },
      "followers" : {
        "href" : null,
        "total" : 135
      },
      "genres" : [ ],
      "href" : "https://api.spotify.com/v1/artists/0w890d0mv5lIPTjkPQGiKC",
      "id" : "0w890d0mv5lIPTjkPQGiKC",
      "images" : [ {
        "height" : 640,
        "url" : "https://i.scdn.co/image/ab6761610000e5eb5252a7ec20d1d58f8a379e2c",
        "width" : 640
      }, {
        "height" : 320,
        "url" : "https://i.scdn.co/image/ab676161000051745252a7ec20d1d58f8a379e2c",
        "width" : 320
      }, {
        "height" : 160,
        "url" : "https://i.scdn.co/image/ab6761610000f1785252a7ec20d1d58f8a379e2c",
        "width" : 160
      } ],
      "name" : "Young Prophet",
      "popularity" : 23,
      "type" : "artist",
      "uri" : "spotify:artist:0w890d0mv5lIPTjkPQGiKC"
    }, {
      "external_urls" : {
        "spotify" : "https://open.spotify.com/artist/3LIT0Zw40IrwOCQc4uAIFI"
      },
      "followers" : {
        "href" : null,
        "total" : 84
      },
      "genres" : [ ],
      "href" : "https://api.spotify.com/v1/artists/3LIT0Zw40IrwOCQc4uAIFI",
      "id" : "3LIT0Zw40IrwOCQc4uAIFI",
      "images" : [ {
        "height" : 640,
        "url" : "https://i.scdn.co/image/ab6761610000e5eb6e1bd0918a40c56a58403d9d",
        "width" : 640
      }, {
        "height" : 320,
        "url" : "https://i.scdn.co/image/ab676161000051746e1bd0918a40c56a58403d9d",
        "width" : 320
      }, {
        "height" : 160,
        "url" : "https://i.scdn.co/image/ab6761610000f1786e1bd0918a40c56a58403d9d",
        "width" : 160
      } ],
      "name" : "The Prophet Najee",
      "popularity" : 4,
      "type" : "artist",
      "uri" : "spotify:artist:3LIT0Zw40IrwOCQc4uAIFI"
    }, {
      "external_urls" : {
        "spotify" : "https://open.spotify.com/artist/4IubSbyVoBSx8OKuCC4Bf5"
      },
      "followers" : {
        "href" : null,
        "total" : 56
      },
      "genres" : [ ],
      "href" : "https://api.spotify.com/v1/artists/4IubSbyVoBSx8OKuCC4Bf5",
      "id" : "4IubSbyVoBSx8OKuCC4Bf5",
      "images" : [ {
        "height" : 640,
        "url" : "https://i.scdn.co/image/ab67616d0000b2733e534a8916613bde81f63e25",
        "width" : 640
      }, {
        "height" : 300,
        "url" : "https://i.scdn.co/image/ab67616d00001e023e534a8916613bde81f63e25",
        "width" : 300
      }, {
        "height" : 64,
        "url" : "https://i.scdn.co/image/ab67616d000048513e534a8916613bde81f63e25",
        "width" : 64
      } ],
      "name" : "The Prophet GT",
      "popularity" : 3,
      "type" : "artist",
      "uri" : "spotify:artist:4IubSbyVoBSx8OKuCC4Bf5"
    }, {
      "external_urls" : {
        "spotify" : "https://open.spotify.com/artist/41DzyKLnlevHyO5HkKtZBc"
      },
      "followers" : {
        "href" : null,
        "total" : 103
      },
      "genres" : [ ],
      "href" : "https://api.spotify.com/v1/artists/41DzyKLnlevHyO5HkKtZBc",
      "id" : "41DzyKLnlevHyO5HkKtZBc",
      "images" : [ {
        "height" : 640,
        "url" : "https://i.scdn.co/image/ab6761610000e5ebdfd5c1c40da5cd40a4ded1c1",
        "width" : 640
      }, {
        "height" : 320,
        "url" : "https://i.scdn.co/image/ab67616100005174dfd5c1c40da5cd40a4ded1c1",
        "width" : 320
      }, {
        "height" : 160,
        "url" : "https://i.scdn.co/image/ab6761610000f178dfd5c1c40da5cd40a4ded1c1",
        "width" : 160
      } ],
      "name" : "Dji The Prophet",
      "popularity" : 15,
      "type" : "artist",
      "uri" : "spotify:artist:41DzyKLnlevHyO5HkKtZBc"
    }, {
      "external_urls" : {
        "spotify" : "https://open.spotify.com/artist/4ZMiYFRqH15ZhyxV5VeuyP"
      },
      "followers" : {
        "href" : null,
        "total" : 28
      },
      "genres" : [ ],
      "href" : "https://api.spotify.com/v1/artists/4ZMiYFRqH15ZhyxV5VeuyP",
      "id" : "4ZMiYFRqH15ZhyxV5VeuyP",
      "images" : [ {
        "height" : 640,
        "url" : "https://i.scdn.co/image/ab67616d0000b273b3e2f06027c48f4dfaf583e1",
        "width" : 640
      }, {
        "height" : 300,
        "url" : "https://i.scdn.co/image/ab67616d00001e02b3e2f06027c48f4dfaf583e1",
        "width" : 300
      }, {
        "height" : 64,
        "url" : "https://i.scdn.co/image/ab67616d00004851b3e2f06027c48f4dfaf583e1",
        "width" : 64
      } ],
      "name" : "The Prophet",
      "popularity" : 6,
      "type" : "artist",
      "uri" : "spotify:artist:4ZMiYFRqH15ZhyxV5VeuyP"
    }, {
      "external_urls" : {
        "spotify" : "https://open.spotify.com/artist/72uobMfIUyURubWPlBh8q7"
      },
      "followers" : {
        "href" : null,
        "total" : 4943
      },
      "genres" : [ ],
      "href" : "https://api.spotify.com/v1/artists/72uobMfIUyURubWPlBh8q7",
      "id" : "72uobMfIUyURubWPlBh8q7",
      "images" : [ {
        "height" : 640,
        "url" : "https://i.scdn.co/image/ab6761610000e5ebbb3c84d220f3100bde80d4bd",
        "width" : 640
      }, {
        "height" : 320,
        "url" : "https://i.scdn.co/image/ab67616100005174bb3c84d220f3100bde80d4bd",
        "width" : 320
      }, {
        "height" : 160,
        "url" : "https://i.scdn.co/image/ab6761610000f178bb3c84d220f3100bde80d4bd",
        "width" : 160
      } ],
      "name" : "James The Prophet",
      "popularity" : 37,
      "type" : "artist",
      "uri" : "spotify:artist:72uobMfIUyURubWPlBh8q7"
    }, {
      "external_urls" : {
        "spotify" : "https://open.spotify.com/artist/6ln9DoHjEnE5hh7S3UeED8"
      },
      "followers" : {
        "href" : null,
        "total" : 29
      },
      "genres" : [ ],
      "href" : "https://api.spotify.com/v1/artists/6ln9DoHjEnE5hh7S3UeED8",
      "id" : "6ln9DoHjEnE5hh7S3UeED8",
      "images" : [ ],
      "name" : "The Prophets All Stars",
      "popularity" : 3,
      "type" : "artist",
      "uri" : "spotify:artist:6ln9DoHjEnE5hh7S3UeED8"
    }, {
      "external_urls" : {
        "spotify" : "https://open.spotify.com/artist/5ZW7xLlj4bsIfjvUpNGEcs"
      },
      "followers" : {
        "href" : null,
        "total" : 1102
      },
      "genres" : [ "melodic deathcore", "south african metal" ],
      "href" : "https://api.spotify.com/v1/artists/5ZW7xLlj4bsIfjvUpNGEcs",
      "id" : "5ZW7xLlj4bsIfjvUpNGEcs",
      "images" : [ {
        "height" : 640,
        "url" : "https://i.scdn.co/image/ab6761610000e5eb33326d09c208a3d06bca26cc",
        "width" : 640
      }, {
        "height" : 320,
        "url" : "https://i.scdn.co/image/ab6761610000517433326d09c208a3d06bca26cc",
        "width" : 320
      }, {
        "height" : 160,
        "url" : "https://i.scdn.co/image/ab6761610000f17833326d09c208a3d06bca26cc",
        "width" : 160
      } ],
      "name" : "The Fallen Prophets",
      "popularity" : 19,
      "type" : "artist",
      "uri" : "spotify:artist:5ZW7xLlj4bsIfjvUpNGEcs"
    }, {
      "external_urls" : {
        "spotify" : "https://open.spotify.com/artist/39GIKfh4LOXbwjybumUZyJ"
      },
      "followers" : {
        "href" : null,
        "total" : 21
      },
      "genres" : [ ],
      "href" : "https://api.spotify.com/v1/artists/39GIKfh4LOXbwjybumUZyJ",
      "id" : "39GIKfh4LOXbwjybumUZyJ",
      "images" : [ {
        "height" : 640,
        "url" : "https://i.scdn.co/image/ab67616d0000b2736d537655f9ac1e94514b3fdf",
        "width" : 640
      }, {
        "height" : 300,
        "url" : "https://i.scdn.co/image/ab67616d00001e026d537655f9ac1e94514b3fdf",
        "width" : 300
      }, {
        "height" : 64,
        "url" : "https://i.scdn.co/image/ab67616d000048516d537655f9ac1e94514b3fdf",
        "width" : 64
      } ],
      "name" : "The Prophet",
      "popularity" : 4,
      "type" : "artist",
      "uri" : "spotify:artist:39GIKfh4LOXbwjybumUZyJ"
    }, {
      "external_urls" : {
        "spotify" : "https://open.spotify.com/artist/1f8MsZrELvQ107TMryfgSr"
      },
      "followers" : {
        "href" : null,
        "total" : 965
      },
      "genres" : [ ],
      "href" : "https://api.spotify.com/v1/artists/1f8MsZrELvQ107TMryfgSr",
      "id" : "1f8MsZrELvQ107TMryfgSr",
      "images" : [ {
        "height" : 640,
        "url" : "https://i.scdn.co/image/ab67616d0000b27370ccae0267349f2a4f89f6aa",
        "width" : 640
      }, {
        "height" : 300,
        "url" : "https://i.scdn.co/image/ab67616d00001e0270ccae0267349f2a4f89f6aa",
        "width" : 300
      }, {
        "height" : 64,
        "url" : "https://i.scdn.co/image/ab67616d0000485170ccae0267349f2a4f89f6aa",
        "width" : 64
      } ],
      "name" : "Damion Suomi & The Minor Prophets",
      "popularity" : 12,
      "type" : "artist",
      "uri" : "spotify:artist:1f8MsZrELvQ107TMryfgSr"
    } ],
    "limit" : 20,
    "next" : "https://api.spotify.com/v1/search?query=The+Prophet&type=artist&market=US&offset=20&limit=20",
    "offset" : 0,
    "previous" : null,
    "total" : 575
  }
}