{
  "artists" : {
    "href" : "https://api.spotify.com/v1/search?query=Versa&type=artist&market=US&offset=0&limit=20",
    "items" : [ {
      "external_urls" : {
        "spotify" : "https://open.spotify.com/artist/7lm6PfYsdEvxXIqA5LaCA3"
      },
      "followers" : {
        "href" : null,
        "total" : 4636
      },
      "genres" : [ "dubstep", "gaming dubstep", "riddim dubstep" ],
      "href" : "https://api.spotify.com/v1/artists/7lm6PfYsdEvxXIqA5LaCA3",
      "id" : "7lm6PfYsdEvxXIqA5LaCA3",
      "images" : [ {
        "height" : 640,
        "url" : "https://i.scdn.co/image/ab6761610000e5eb00dc63356abe2097de88658b",
        "width" : 640
      }, {
        "height" : 320,
        "url" : "https://i.scdn.co/image/ab6761610000517400dc63356abe2097de88658b",
        "width" : 320
      }, {
        "height" : 160,
        "url" : "https://i.scdn.co/image/ab6761610000f17800dc63356abe2097de88658b",
        "width" : 160
      } ],
      "name" : "Versa",
      "popularity" : 33,
      "type" : "artist",
      "uri" : "spotify:artist:7lm6PfYsdEvxXIqA5LaCA3"
    }, {
      "external_urls" : {
        "spotify" : "https://open.spotify.com/artist/5ffsditgrQbLttc8l17vF5"
      },
      "followers" : {
        "href" : null,
        "total" : 271
      },
      "genres" : [ ],
      "href" : "https://api.spotify.com/v1/artists/5ffsditgrQbLttc8l17vF5",
      "id" : "5ffsditgrQbLttc8l17vF5",
      "images" : [ {
        "height" : 640,
        "url" : "https://i.scdn.co/image/ab6761610000e5eb8c857194a58b33abba8e7c12",
        "width" : 640
      }, {
        "height" : 320,
        "url" : "https://i.scdn.co/image/ab676161000051748c857194a58b33abba8e7c12",
        "width" : 320
      }, {
        "height" : 160,
        "url" : "https://i.scdn.co/image/ab6761610000f1788c857194a58b33abba8e7c12",
        "width" : 160
      } ],
      "name" : "Joah Versacci",
      "popularity" : 40,
      "type" : "artist",
      "uri" : "spotify:artist:5ffsditgrQbLttc8l17vF5"
    }, {
      "external_urls" : {
        "spotify" : "https://open.spotify.com/artist/429v4ypVJLyIyC4hKea0KN"
      },
      "followers" : {
        "href" : null,
        "total" : 46766
      },
      "genres" : [ "candy pop", "neon pop punk", "pixie", "pop emo" ],
      "href" : "https://api.spotify.com/v1/artists/429v4ypVJLyIyC4hKea0KN",
      "id" : "429v4ypVJLyIyC4hKea0KN",
      "images" : [ {
        "height" : 640,
        "url" : "https://i.scdn.co/image/ab67616d0000b27384da5749315cee76486cc119",
        "width" : 640
      }, {
        "height" : 300,
        "url" : "https://i.scdn.co/image/ab67616d00001e0284da5749315cee76486cc119",
        "width" : 300
      }, {
        "height" : 64,
        "url" : "https://i.scdn.co/image/ab67616d0000485184da5749315cee76486cc119",
        "width" : 64
      } ],
      "name" : "VersaEmerge",
      "popularity" : 36,
      "type" : "artist",
      "uri" : "spotify:artist:429v4ypVJLyIyC4hKea0KN"
    }, {
      "external_urls" : {
        "spotify" : "https://open.spotify.com/artist/3suWpKrodV4J0ozhubrmir"
      },
      "followers" : {
        "href" : null,
        "total" : 66193
      },
      "genres" : [ "j-metal", "japanese power metal", "oshare kei", "visual kei" ],
      "href" : "https://api.spotify.com/v1/artists/3suWpKrodV4J0ozhubrmir",
      "id" : "3suWpKrodV4J0ozhubrmir",
      "images" : [ {
        "height" : 640,
        "url" : "https://i.scdn.co/image/ab67616d0000b273ff8351800b39315096d7901a",
        "width" : 640
      }, {
        "height" : 300,
        "url" : "https://i.scdn.co/image/ab67616d00001e02ff8351800b39315096d7901a",
        "width" : 300
      }, {
        "height" : 64,
        "url" : "https://i.scdn.co/image/ab67616d00004851ff8351800b39315096d7901a",
        "width" : 64
      } ],
      "name" : "Versailles",
      "popularity" : 38,
      "type" : "artist",
      "uri" : "spotify:artist:3suWpKrodV4J0ozhubrmir"
    }, {
      "external_urls" : {
        "spotify" : "https://open.spotify.com/artist/70pPPOjY69Z4dmK5pbyWP5"
      },
      "followers" : {
        "href" : null,
        "total" : 133
      },
      "genres" : [ ],
      "href" : "https://api.spotify.com/v1/artists/70pPPOjY69Z4dmK5pbyWP5",
      "id" : "70pPPOjY69Z4dmK5pbyWP5",
      "images" : [ {
        "height" : 640,
        "url" : "https://i.scdn.co/image/ab6761610000e5ebd623e8d0079c8c6aad44712e",
        "width" : 640
      }, {
        "height" : 320,
        "url" : "https://i.scdn.co/image/ab67616100005174d623e8d0079c8c6aad44712e",
        "width" : 320
      }, {
        "height" : 160,
        "url" : "https://i.scdn.co/image/ab6761610000f178d623e8d0079c8c6aad44712e",
        "width" : 160
      } ],
      "name" : "Versa",
      "popularity" : 9,
      "type" : "artist",
      "uri" : "spotify:artist:70pPPOjY69Z4dmK5pbyWP5"
    }, {
      "external_urls" : {
        "spotify" : "https://open.spotify.com/artist/15BT3qYpb4FEcWQHRZwTIu"
      },
      "followers" : {
        "href" : null,
        "total" : 2100
      },
      "genres" : [ "future funk" ],
      "href" : "https://api.spotify.com/v1/artists/15BT3qYpb4FEcWQHRZwTIu",
      "id" : "15BT3qYpb4FEcWQHRZwTIu",
      "images" : [ {
        "height" : 640,
        "url" : "https://i.scdn.co/image/ab6761610000e5eb6bac4634f678bfd3056eb30c",
        "width" : 640
      }, {
        "height" : 320,
        "url" : "https://i.scdn.co/image/ab676161000051746bac4634f678bfd3056eb30c",
        "width" : 320
      }, {
        "height" : 160,
        "url" : "https://i.scdn.co/image/ab6761610000f1786bac4634f678bfd3056eb30c",
        "width" : 160
      } ],
      "name" : "Versake",
      "popularity" : 32,
      "type" : "artist",
      "uri" : "spotify:artist:15BT3qYpb4FEcWQHRZwTIu"
    }, {
      "external_urls" : {
        "spotify" : "https://open.spotify.com/artist/5VptPtXbT0T4imW6GcobiW"
      },
      "followers" : {
        "href" : null,
        "total" : 18836
      },
      "genres" : [ ],
      "href" : "https://api.spotify.com/v1/artists/5VptPtXbT0T4imW6GcobiW",
      "id" : "5VptPtXbT0T4imW6GcobiW",
      "images" : [ {
        "height" : 640,
        "url" : "https://i.scdn.co/image/ab6761610000e5eb43e318e0f47a020e29295c40",
        "width" : 640
      }, {
        "height" : 320,
        "url" : "https://i.scdn.co/image/ab6761610000517443e318e0f47a020e29295c40",
        "width" : 320
      }, {
        "height" : 160,
        "url" : "https://i.scdn.co/image/ab6761610000f17843e318e0f47a020e29295c40",
        "width" : 160
      } ],
      "name" : "Paco Versailles",
      "popularity" : 38,
      "type" : "artist",
      "uri" : "spotify:artist:5VptPtXbT0T4imW6GcobiW"
    }, {
      "external_urls" : {
        "spotify" : "https://open.spotify.com/artist/67imuUXDxRK3um7NYO4HnG"
      },
      "followers" : {
        "href" : null,
        "total" : 557
      },
      "genres" : [ ],
      "href" : "https://api.spotify.com/v1/artists/67imuUXDxRK3um7NYO4HnG",
      "id" : "67imuUXDxRK3um7NYO4HnG",
      "images" : [ {
        "height" : 640,
        "url" : "https://i.scdn.co/image/ab67616d0000b273ac50805221d08ac597f4f002",
        "width" : 640
      }, {
        "height" : 300,
        "url" : "https://i.scdn.co/image/ab67616d00001e02ac50805221d08ac597f4f002",
        "width" : 300
      }, {
        "height" : 64,
        "url" : "https://i.scdn.co/image/ab67616d00004851ac50805221d08ac597f4f002",
        "width" : 64
      } ],
      "name" : "Versailles The Everything",
      "popularity" : 20,
      "type" : "artist",
      "uri" : "spotify:artist:67imuUXDxRK3um7NYO4HnG"
    }, {
      "external_urls" : {
        "spotify" : "https://open.spotify.com/artist/4PUBnfKhaqD68JLy0Y0M67"
      },
      "followers" : {
        "href" : null,
        "total" : 16683
      },
      "genres" : [ ],
      "href" : "https://api.spotify.com/v1/artists/4PUBnfKhaqD68JLy0Y0M67",
      "id" : "4PUBnfKhaqD68JLy0Y0M67",
      "images" : [ {
        "height" : 640,
        "url" : "https://i.scdn.co/image/ab6761610000e5eb6f0d9aebea9835ce81d4cb85",
        "width" : 640
      }, {
        "height" : 320,
        "url" : "https://i.scdn.co/image/ab676161000051746f0d9aebea9835ce81d4cb85",
        "width" : 320
      }, {
        "height" : 160,
        "url" : "https://i.scdn.co/image/ab6761610000f1786f0d9aebea9835ce81d4cb85",
        "width" : 160
      } ],
      "name" : "Fredo Versatil",
      "popularity" : 28,
      "type" : "artist",
      "uri" : "spotify:artist:4PUBnfKhaqD68JLy0Y0M67"
    }, {
      "external_urls" : {
        "spotify" : "https://open.spotify.com/artist/3ubaezAMZtGzahKMquoQOY"
      },
      "followers" : {
        "href" : null,
        "total" : 27
      },
      "genres" : [ ],
      "href" : "https://api.spotify.com/v1/artists/3ubaezAMZtGzahKMquoQOY",
      "id" : "3ubaezAMZtGzahKMquoQOY",
      "images" : [ {
        "height" : 640,
        "url" : "https://i.scdn.co/image/ab67616d0000b27362788bddc799a0f350601e64",
        "width" : 640
      }, {
        "height" : 300,
        "url" : "https://i.scdn.co/image/ab67616d00001e0262788bddc799a0f350601e64",
        "width" : 300
      }, {
        "height" : 64,
        "url" : "https://i.scdn.co/image/ab67616d0000485162788bddc799a0f350601e64",
        "width" : 64
      } ],
      "name" : "Versal",
      "popularity" : 2,
      "type" : "artist",
      "uri" : "spotify:artist:3ubaezAMZtGzahKMquoQOY"
    }, {
      "external_urls" : {
        "spotify" : "https://open.spotify.com/artist/6K0yc6ZGiwc7sSwrWra0UT"
      },
      "followers" : {
        "href" : null,
        "total" : 58655
      },
      "genres" : [ "irish hip hop" ],
      "href" : "https://api.spotify.com/v1/artists/6K0yc6ZGiwc7sSwrWra0UT",
      "id" : "6K0yc6ZGiwc7sSwrWra0UT",
      "images" : [ {
        "height" : 640,
        "url" : "https://i.scdn.co/image/ab6761610000e5eb08f749d88733ea26cfcd7fae",
        "width" : 640
      }, {
        "height" : 320,
        "url" : "https://i.scdn.co/image/ab6761610000517408f749d88733ea26cfcd7fae",
        "width" : 320
      }, {
        "height" : 160,
        "url" : "https://i.scdn.co/image/ab6761610000f17808f749d88733ea26cfcd7fae",
        "width" : 160
      } ],
      "name" : "Versatile",
      "popularity" : 43,
      "type" : "artist",
      "uri" : "spotify:artist:6K0yc6ZGiwc7sSwrWra0UT"
    }, {
      "external_urls" : {
        "spotify" : "https://open.spotify.com/artist/4mE3GT37jJuoqPqZonFQ43"
      },
      "followers" : {
        "href" : null,
        "total" : 14
      },
      "genres" : [ ],
      "href" : "https://api.spotify.com/v1/artists/4mE3GT37jJuoqPqZonFQ43",
      "id" : "4mE3GT37jJuoqPqZonFQ43",
      "images" : [ {
        "height" : 640,
        "url" : "https://i.scdn.co/image/ab6761610000e5ebb87780afe4606ffff3e7fafe",
        "width" : 640
      }, {
        "height" : 320,
        "url" : "https://i.scdn.co/image/ab67616100005174b87780afe4606ffff3e7fafe",
        "width" : 320
      }, {
        "height" : 160,
        "url" : "https://i.scdn.co/image/ab6761610000f178b87780afe4606ffff3e7fafe",
        "width" : 160
      } ],
      "name" : "Versatility",
      "popularity" : 1,
      "type" : "artist",
      "uri" : "spotify:artist:4mE3GT37jJuoqPqZonFQ43"
    }, {
      "external_urls" : {
        "spotify" : "https://open.spotify.com/artist/5GiLcdT0YmDchcxHPGGIyY"
      },
      "followers" : {
        "href" : null,
        "total" : 429
      },
      "genres" : [ "accordeon", "ballroom" ],
      "href" : "https://api.spotify.com/v1/artists/5GiLcdT0YmDchcxHPGGIyY",
      "id" : "5GiLcdT0YmDchcxHPGGIyY",
      "images" : [ {
        "height" : 640,
        "url" : "https://i.scdn.co/image/ab67616d0000b273dd882c450e22e69dbad6496b",
        "width" : 640
      }, {
        "height" : 300,
        "url" : "https://i.scdn.co/image/ab67616d00001e02dd882c450e22e69dbad6496b",
        "width" : 300
      }, {
        "height" : 64,
        "url" : "https://i.scdn.co/image/ab67616d00004851dd882c450e22e69dbad6496b",
        "width" : 64
      } ],
      "name" : "Versaillesstation",
      "popularity" : 31,
      "type" : "artist",
      "uri" : "spotify:artist:5GiLcdT0YmDchcxHPGGIyY"
    }, {
      "external_urls" : {
        "spotify" : "https://open.spotify.com/artist/4eKPRVGa84xWm2baiQUiu9"
      },
      "followers" : {
        "href" : null,
        "total" : 282
      },
      "genres" : [ ],
      "href" : "https://api.spotify.com/v1/artists/4eKPRVGa84xWm2baiQUiu9",
      "id" : "4eKPRVGa84xWm2baiQUiu9",
      "images" : [ {
        "height" : 640,
        "url" : "https://i.scdn.co/image/ab67616d0000b27331717c1231e5dcb2cadbac69",
        "width" : 640
      }, {
        "height" : 300,
        "url" : "https://i.scdn.co/image/ab67616d00001e0231717c1231e5dcb2cadbac69",
        "width" : 300
      }, {
        "height" : 64,
        "url" : "https://i.scdn.co/image/ab67616d0000485131717c1231e5dcb2cadbac69",
        "width" : 64
      } ],
      "name" : "Versa",
      "popularity" : 19,
      "type" : "artist",
      "uri" : "spotify:artist:4eKPRVGa84xWm2baiQUiu9"
    }, {
      "external_urls" : {
        "spotify" : "https://open.spotify.com/artist/2iw3duHiN2YGJfiLUJkIO3"
      },
      "followers" : {
        "href" : null,
        "total" : 2683
      },
      "genres" : [ "dutch moombahton" ],
      "href" : "https://api.spotify.com/v1/artists/2iw3duHiN2YGJfiLUJkIO3",
      "id" : "2iw3duHiN2YGJfiLUJkIO3",
      "images" : [ {
        "height" : 640,
        "url" : "https://i.scdn.co/image/ab6761610000e5eb52bcc50a24cf99fd4f7a30d9",
        "width" : 640
      }, {
        "height" : 320,
        "url" : "https://i.scdn.co/image/ab6761610000517452bcc50a24cf99fd4f7a30d9",
        "width" : 320
      }, {
        "height" : 160,
        "url" : "https://i.scdn.co/image/ab6761610000f17852bcc50a24cf99fd4f7a30d9",
        "width" : 160
      } ],
      "name" : "VERSANO",
      "popularity" : 35,
      "type" : "artist",
      "uri" : "spotify:artist:2iw3duHiN2YGJfiLUJkIO3"
    }, {
      "external_urls" : {
        "spotify" : "https://open.spotify.com/artist/4dtFbcNdOWtrkG46IOEjKk"
      },
      "followers" : {
        "href" : null,
        "total" : 1090
      },
      "genres" : [ ],
      "href" : "https://api.spotify.com/v1/artists/4dtFbcNdOWtrkG46IOEjKk",
      "id" : "4dtFbcNdOWtrkG46IOEjKk",
      "images" : [ {
        "height" : 640,
        "url" : "https://i.scdn.co/image/ab6761610000e5eba17c35dfc0a26fb3f950027c",
        "width" : 640
      }, {
        "height" : 320,
        "url" : "https://i.scdn.co/image/ab67616100005174a17c35dfc0a26fb3f950027c",
        "width" : 320
      }, {
        "height" : 160,
        "url" : "https://i.scdn.co/image/ab6761610000f178a17c35dfc0a26fb3f950027c",
        "width" : 160
      } ],
      "name" : "Grupo Versax",
      "popularity" : 37,
      "type" : "artist",
      "uri" : "spotify:artist:4dtFbcNdOWtrkG46IOEjKk"
    }, {
      "external_urls" : {
        "spotify" : "https://open.spotify.com/artist/2bABiyFV37tLtue3WAXkHB"
      },
      "followers" : {
        "href" : null,
        "total" : 16
      },
      "genres" : [ ],
      "href" : "https://api.spotify.com/v1/artists/2bABiyFV37tLtue3WAXkHB",
      "id" : "2bABiyFV37tLtue3WAXkHB",
      "images" : [ ],
      "name" : "Versa",
      "popularity" : 12,
      "type" : "artist",
      "uri" : "spotify:artist:2bABiyFV37tLtue3WAXkHB"
    }, {
      "external_urls" : {
        "spotify" : "https://open.spotify.com/artist/45iS6AN4G4ETTCjL8rh1Pe"
      },
      "followers" : {
        "href" : null,
        "total" : 4
      },
      "genres" : [ ],
      "href" : "https://api.spotify.com/v1/artists/45iS6AN4G4ETTCjL8rh1Pe",
      "id" : "45iS6AN4G4ETTCjL8rh1Pe",
      "images" : [ ],
      "name" : "Versai Sain",
      "popularity" : 15,
      "type" : "artist",
      "uri" : "spotify:artist:45iS6AN4G4ETTCjL8rh1Pe"
    }, {
      "external_urls" : {
        "spotify" : "https://open.spotify.com/artist/5Hz6fzI2FByee2sJcd06hv"
      },
      "followers" : {
        "href" : null,
        "total" : 15
      },
      "genres" : [ ],
      "href" : "https://api.spotify.com/v1/artists/5Hz6fzI2FByee2sJcd06hv",
      "id" : "5Hz6fzI2FByee2sJcd06hv",
      "images" : [ {
        "height" : 640,
        "url" : "https://i.scdn.co/image/ab6761610000e5eb501afca36184708cb68cfa87",
        "width" : 640
      }, {
        "height" : 320,
        "url" : "https://i.scdn.co/image/ab67616100005174501afca36184708cb68cfa87",
        "width" : 320
      }, {
        "height" : 160,
        "url" : "https://i.scdn.co/image/ab6761610000f178501afca36184708cb68cfa87",
        "width" : 160
      } ],
      "name" : "Kevin Versace",
      "popularity" : 23,
      "type" : "artist",
      "uri" : "spotify:artist:5Hz6fzI2FByee2sJcd06hv"
    }, {
      "external_urls" : {
        "spotify" : "https://open.spotify.com/artist/0FMVRZoqFz1qAEvdJiEh7A"
      },
      "followers" : {
        "href" : null,
        "total" : 878
      },
      "genres" : [ "bristol electronic" ],
      "href" : "https://api.spotify.com/v1/artists/0FMVRZoqFz1qAEvdJiEh7A",
      "id" : "0FMVRZoqFz1qAEvdJiEh7A",
      "images" : [ {
        "height" : 640,
        "url" : "https://i.scdn.co/image/ab6761610000e5eb4e32ac8f6ae9962d7072a0b7",
        "width" : 640
      }, {
        "height" : 320,
        "url" : "https://i.scdn.co/image/ab676161000051744e32ac8f6ae9962d7072a0b7",
        "width" : 320
      }, {
        "height" : 160,
        "url" : "https://i.scdn.co/image/ab6761610000f1784e32ac8f6ae9962d7072a0b7",
        "width" : 160
      } ],
      "name" : "Versa",
      "popularity" : 16,
      "type" : "artist",
      "uri" : "spotify:artist:0FMVRZoqFz1qAEvdJiEh7A"
    } ],
    "limit" : 20,
    "next" : "https://api.spotify.com/v1/search?query=Versa&type=artist&market=US&offset=20&limit=20",
    "offset" : 0,
    "previous" : null,
    "total" : 1343
  }
}