{
  "artists" : {
    "href" : "https://api.spotify.com/v1/search?query=Wraith&type=artist&market=US&offset=0&limit=20",
    "items" : [ {
      "external_urls" : {
        "spotify" : "https://open.spotify.com/artist/2PoKRqTdpPPNoeuLudp0yS"
      },
      "followers" : {
        "href" : null,
        "total" : 6959
      },
      "genres" : [ "black speed metal", "new wave of speed metal", "new wave of thrash metal" ],
      "href" : "https://api.spotify.com/v1/artists/2PoKRqTdpPPNoeuLudp0yS",
      "id" : "2PoKRqTdpPPNoeuLudp0yS",
      "images" : [ {
        "height" : 640,
        "url" : "https://i.scdn.co/image/ab6761610000e5eb6b10105e59f35b3f90d00ac6",
        "width" : 640
      }, {
        "height" : 320,
        "url" : "https://i.scdn.co/image/ab676161000051746b10105e59f35b3f90d00ac6",
        "width" : 320
      }, {
        "height" : 160,
        "url" : "https://i.scdn.co/image/ab6761610000f1786b10105e59f35b3f90d00ac6",
        "width" : 160
      } ],
      "name" : "Wraith",
      "popularity" : 30,
      "type" : "artist",
      "uri" : "spotify:artist:2PoKRqTdpPPNoeuLudp0yS"
    }, {
      "external_urls" : {
        "spotify" : "https://open.spotify.com/artist/3LYyk2fBTwdAw3aN6hrrY2"
      },
      "followers" : {
        "href" : null,
        "total" : 41844
      },
      "genres" : [ "uk hip hop", "uk melodic rap" ],
      "href" : "https://api.spotify.com/v1/artists/3LYyk2fBTwdAw3aN6hrrY2",
      "id" : "3LYyk2fBTwdAw3aN6hrrY2",
      "images" : [ {
        "height" : 640,
        "url" : "https://i.scdn.co/image/ab6761610000e5ebe1583cf6bdc7d83f6a60f410",
        "width" : 640
      }, {
        "height" : 320,
        "url" : "https://i.scdn.co/image/ab67616100005174e1583cf6bdc7d83f6a60f410",
        "width" : 320
      }, {
        "height" : 160,
        "url" : "https://i.scdn.co/image/ab6761610000f178e1583cf6bdc7d83f6a60f410",
        "width" : 160
      } ],
      "name" : "wewantwraiths",
      "popularity" : 61,
      "type" : "artist",
      "uri" : "spotify:artist:3LYyk2fBTwdAw3aN6hrrY2"
    }, {
      "external_urls" : {
        "spotify" : "https://open.spotify.com/artist/09gDICDXvMZPl4056TBKfl"
      },
      "followers" : {
        "href" : null,
        "total" : 714
      },
      "genres" : [ "blackened deathcore" ],
      "href" : "https://api.spotify.com/v1/artists/09gDICDXvMZPl4056TBKfl",
      "id" : "09gDICDXvMZPl4056TBKfl",
      "images" : [ {
        "height" : 640,
        "url" : "https://i.scdn.co/image/ab67616d0000b273ffec065e134eb6404ea1794b",
        "width" : 640
      }, {
        "height" : 300,
        "url" : "https://i.scdn.co/image/ab67616d00001e02ffec065e134eb6404ea1794b",
        "width" : 300
      }, {
        "height" : 64,
        "url" : "https://i.scdn.co/image/ab67616d00004851ffec065e134eb6404ea1794b",
        "width" : 64
      } ],
      "name" : "Wraiths",
      "popularity" : 2,
      "type" : "artist",
      "uri" : "spotify:artist:09gDICDXvMZPl4056TBKfl"
    }, {
      "external_urls" : {
        "spotify" : "https://open.spotify.com/artist/3VdhQeioxYemZUT0IRJwtA"
      },
      "followers" : {
        "href" : null,
        "total" : 18
      },
      "genres" : [ ],
      "href" : "https://api.spotify.com/v1/artists/3VdhQeioxYemZUT0IRJwtA",
      "id" : "3VdhQeioxYemZUT0IRJwtA",
      "images" : [ {
        "height" : 640,
        "url" : "https://i.scdn.co/image/ab6761610000e5eb11afddb6cc7420a9f98debcd",
        "width" : 640
      }, {
        "height" : 320,
        "url" : "https://i.scdn.co/image/ab6761610000517411afddb6cc7420a9f98debcd",
        "width" : 320
      }, {
        "height" : 160,
        "url" : "https://i.scdn.co/image/ab6761610000f17811afddb6cc7420a9f98debcd",
        "width" : 160
      } ],
      "name" : "wraith records",
      "popularity" : 15,
      "type" : "artist",
      "uri" : "spotify:artist:3VdhQeioxYemZUT0IRJwtA"
    }, {
      "external_urls" : {
        "spotify" : "https://open.spotify.com/artist/0PSy0pPGUcIn1zRZ9spkSn"
      },
      "followers" : {
        "href" : null,
        "total" : 393
      },
      "genres" : [ ],
      "href" : "https://api.spotify.com/v1/artists/0PSy0pPGUcIn1zRZ9spkSn",
      "id" : "0PSy0pPGUcIn1zRZ9spkSn",
      "images" : [ {
        "height" : 640,
        "url" : "https://i.scdn.co/image/ab67616d0000b273dbc6ed1dd16f911f687d3f98",
        "width" : 640
      }, {
        "height" : 300,
        "url" : "https://i.scdn.co/image/ab67616d00001e02dbc6ed1dd16f911f687d3f98",
        "width" : 300
      }, {
        "height" : 64,
        "url" : "https://i.scdn.co/image/ab67616d00004851dbc6ed1dd16f911f687d3f98",
        "width" : 64
      } ],
      "name" : "WRAITH",
      "popularity" : 9,
      "type" : "artist",
      "uri" : "spotify:artist:0PSy0pPGUcIn1zRZ9spkSn"
    }, {
      "external_urls" : {
        "spotify" : "https://open.spotify.com/artist/7GZmwPyRcrSHUUCPriYvQ9"
      },
      "followers" : {
        "href" : null,
        "total" : 3335
      },
      "genres" : [ "deathrock" ],
      "href" : "https://api.spotify.com/v1/artists/7GZmwPyRcrSHUUCPriYvQ9",
      "id" : "7GZmwPyRcrSHUUCPriYvQ9",
      "images" : [ {
        "height" : 640,
        "url" : "https://i.scdn.co/image/ab6761610000e5eb894bf13db15a717b98be9558",
        "width" : 640
      }, {
        "height" : 320,
        "url" : "https://i.scdn.co/image/ab67616100005174894bf13db15a717b98be9558",
        "width" : 320
      }, {
        "height" : 160,
        "url" : "https://i.scdn.co/image/ab6761610000f178894bf13db15a717b98be9558",
        "width" : 160
      } ],
      "name" : "The Wraith",
      "popularity" : 16,
      "type" : "artist",
      "uri" : "spotify:artist:7GZmwPyRcrSHUUCPriYvQ9"
    }, {
      "external_urls" : {
        "spotify" : "https://open.spotify.com/artist/0HCN57jYsKqTauVLCJGQmA"
      },
      "followers" : {
        "href" : null,
        "total" : 1062
      },
      "genres" : [ "australian metalcore" ],
      "href" : "https://api.spotify.com/v1/artists/0HCN57jYsKqTauVLCJGQmA",
      "id" : "0HCN57jYsKqTauVLCJGQmA",
      "images" : [ {
        "height" : 640,
        "url" : "https://i.scdn.co/image/ab6761610000e5eba238faed99252643692cd5d5",
        "width" : 640
      }, {
        "height" : 320,
        "url" : "https://i.scdn.co/image/ab67616100005174a238faed99252643692cd5d5",
        "width" : 320
      }, {
        "height" : 160,
        "url" : "https://i.scdn.co/image/ab6761610000f178a238faed99252643692cd5d5",
        "width" : 160
      } ],
      "name" : "Wraith",
      "popularity" : 4,
      "type" : "artist",
      "uri" : "spotify:artist:0HCN57jYsKqTauVLCJGQmA"
    }, {
      "external_urls" : {
        "spotify" : "https://open.spotify.com/artist/6XG835OVg7vvNp2K2zokMS"
      },
      "followers" : {
        "href" : null,
        "total" : 84
      },
      "genres" : [ ],
      "href" : "https://api.spotify.com/v1/artists/6XG835OVg7vvNp2K2zokMS",
      "id" : "6XG835OVg7vvNp2K2zokMS",
      "images" : [ {
        "height" : 640,
        "url" : "https://i.scdn.co/image/ab6761610000e5eb7a00d82b4bb06bb727339f53",
        "width" : 640
      }, {
        "height" : 320,
        "url" : "https://i.scdn.co/image/ab676161000051747a00d82b4bb06bb727339f53",
        "width" : 320
      }, {
        "height" : 160,
        "url" : "https://i.scdn.co/image/ab6761610000f1787a00d82b4bb06bb727339f53",
        "width" : 160
      } ],
      "name" : "Wraith",
      "popularity" : 5,
      "type" : "artist",
      "uri" : "spotify:artist:6XG835OVg7vvNp2K2zokMS"
    }, {
      "external_urls" : {
        "spotify" : "https://open.spotify.com/artist/0Iy6tH8tNHU0eFHstFjo7m"
      },
      "followers" : {
        "href" : null,
        "total" : 4770
      },
      "genres" : [ "old school thrash" ],
      "href" : "https://api.spotify.com/v1/artists/0Iy6tH8tNHU0eFHstFjo7m",
      "id" : "0Iy6tH8tNHU0eFHstFjo7m",
      "images" : [ {
        "height" : 640,
        "url" : "https://i.scdn.co/image/ab67616d0000b273163b2e9e9739c879519b2732",
        "width" : 640
      }, {
        "height" : 300,
        "url" : "https://i.scdn.co/image/ab67616d00001e02163b2e9e9739c879519b2732",
        "width" : 300
      }, {
        "height" : 64,
        "url" : "https://i.scdn.co/image/ab67616d00004851163b2e9e9739c879519b2732",
        "width" : 64
      } ],
      "name" : "Wrathchild America",
      "popularity" : 17,
      "type" : "artist",
      "uri" : "spotify:artist:0Iy6tH8tNHU0eFHstFjo7m"
    }, {
      "external_urls" : {
        "spotify" : "https://open.spotify.com/artist/33jVxVfajgTdLYRVuX4eQm"
      },
      "followers" : {
        "href" : null,
        "total" : 817
      },
      "genres" : [ ],
      "href" : "https://api.spotify.com/v1/artists/33jVxVfajgTdLYRVuX4eQm",
      "id" : "33jVxVfajgTdLYRVuX4eQm",
      "images" : [ {
        "height" : 640,
        "url" : "https://i.scdn.co/image/ab6761610000e5eb38a50c397d423b62cde242c9",
        "width" : 640
      }, {
        "height" : 320,
        "url" : "https://i.scdn.co/image/ab6761610000517438a50c397d423b62cde242c9",
        "width" : 320
      }, {
        "height" : 160,
        "url" : "https://i.scdn.co/image/ab6761610000f17838a50c397d423b62cde242c9",
        "width" : 160
      } ],
      "name" : "Wraiths",
      "popularity" : 13,
      "type" : "artist",
      "uri" : "spotify:artist:33jVxVfajgTdLYRVuX4eQm"
    }, {
      "external_urls" : {
        "spotify" : "https://open.spotify.com/artist/0dlDsD7y6ccmDm8tuWCU6F"
      },
      "followers" : {
        "href" : null,
        "total" : 881403
      },
      "genres" : [ "aesthetic rap", "phonk" ],
      "href" : "https://api.spotify.com/v1/artists/0dlDsD7y6ccmDm8tuWCU6F",
      "id" : "0dlDsD7y6ccmDm8tuWCU6F",
      "images" : [ {
        "height" : 640,
        "url" : "https://i.scdn.co/image/ab6761610000e5eb9d100e5a9cf34beab8e75750",
        "width" : 640
      }, {
        "height" : 320,
        "url" : "https://i.scdn.co/image/ab676161000051749d100e5a9cf34beab8e75750",
        "width" : 320
      }, {
        "height" : 160,
        "url" : "https://i.scdn.co/image/ab6761610000f1789d100e5a9cf34beab8e75750",
        "width" : 160
      } ],
      "name" : "Freddie Dredd",
      "popularity" : 75,
      "type" : "artist",
      "uri" : "spotify:artist:0dlDsD7y6ccmDm8tuWCU6F"
    }, {
      "external_urls" : {
        "spotify" : "https://open.spotify.com/artist/0k7tzKK9dSyKSIK95Uf2V3"
      },
      "followers" : {
        "href" : null,
        "total" : 2351
      },
      "genres" : [ "blackened deathcore", "progressive deathcore" ],
      "href" : "https://api.spotify.com/v1/artists/0k7tzKK9dSyKSIK95Uf2V3",
      "id" : "0k7tzKK9dSyKSIK95Uf2V3",
      "images" : [ {
        "height" : 640,
        "url" : "https://i.scdn.co/image/ab6761610000e5eba22ecc55e34d1f5e901716e9",
        "width" : 640
      }, {
        "height" : 320,
        "url" : "https://i.scdn.co/image/ab67616100005174a22ecc55e34d1f5e901716e9",
        "width" : 320
      }, {
        "height" : 160,
        "url" : "https://i.scdn.co/image/ab6761610000f178a22ecc55e34d1f5e901716e9",
        "width" : 160
      } ],
      "name" : "Bog Wraith",
      "popularity" : 10,
      "type" : "artist",
      "uri" : "spotify:artist:0k7tzKK9dSyKSIK95Uf2V3"
    }, {
      "external_urls" : {
        "spotify" : "https://open.spotify.com/artist/3jCaxDDk5tcGOHsX4x0HxE"
      },
      "followers" : {
        "href" : null,
        "total" : 223
      },
      "genres" : [ ],
      "href" : "https://api.spotify.com/v1/artists/3jCaxDDk5tcGOHsX4x0HxE",
      "id" : "3jCaxDDk5tcGOHsX4x0HxE",
      "images" : [ {
        "height" : 640,
        "url" : "https://i.scdn.co/image/ab6761610000e5eb058829485093ca2ebb2e1ac7",
        "width" : 640
      }, {
        "height" : 320,
        "url" : "https://i.scdn.co/image/ab67616100005174058829485093ca2ebb2e1ac7",
        "width" : 320
      }, {
        "height" : 160,
        "url" : "https://i.scdn.co/image/ab6761610000f178058829485093ca2ebb2e1ac7",
        "width" : 160
      } ],
      "name" : "Wraithwalker",
      "popularity" : 8,
      "type" : "artist",
      "uri" : "spotify:artist:3jCaxDDk5tcGOHsX4x0HxE"
    }, {
      "external_urls" : {
        "spotify" : "https://open.spotify.com/artist/0fjXLiHSz8cRMgdDX0u4z5"
      },
      "followers" : {
        "href" : null,
        "total" : 65
      },
      "genres" : [ ],
      "href" : "https://api.spotify.com/v1/artists/0fjXLiHSz8cRMgdDX0u4z5",
      "id" : "0fjXLiHSz8cRMgdDX0u4z5",
      "images" : [ {
        "height" : 640,
        "url" : "https://i.scdn.co/image/ab6761610000e5eb05daf2f53e9ac3970f5157a4",
        "width" : 640
      }, {
        "height" : 320,
        "url" : "https://i.scdn.co/image/ab6761610000517405daf2f53e9ac3970f5157a4",
        "width" : 320
      }, {
        "height" : 160,
        "url" : "https://i.scdn.co/image/ab6761610000f17805daf2f53e9ac3970f5157a4",
        "width" : 160
      } ],
      "name" : "Wraith",
      "popularity" : 3,
      "type" : "artist",
      "uri" : "spotify:artist:0fjXLiHSz8cRMgdDX0u4z5"
    }, {
      "external_urls" : {
        "spotify" : "https://open.spotify.com/artist/3XkQtBcE87u4laEF7tprUi"
      },
      "followers" : {
        "href" : null,
        "total" : 40
      },
      "genres" : [ ],
      "href" : "https://api.spotify.com/v1/artists/3XkQtBcE87u4laEF7tprUi",
      "id" : "3XkQtBcE87u4laEF7tprUi",
      "images" : [ {
        "height" : 640,
        "url" : "https://i.scdn.co/image/ab67616d0000b273780bffe2b192c56ddc978129",
        "width" : 640
      }, {
        "height" : 300,
        "url" : "https://i.scdn.co/image/ab67616d00001e02780bffe2b192c56ddc978129",
        "width" : 300
      }, {
        "height" : 64,
        "url" : "https://i.scdn.co/image/ab67616d00004851780bffe2b192c56ddc978129",
        "width" : 64
      } ],
      "name" : "wraithsfire",
      "popularity" : 4,
      "type" : "artist",
      "uri" : "spotify:artist:3XkQtBcE87u4laEF7tprUi"
    }, {
      "external_urls" : {
        "spotify" : "https://open.spotify.com/artist/4Vpq7WfAizQjLBUUVgZVjX"
      },
      "followers" : {
        "href" : null,
        "total" : 548
      },
      "genres" : [ ],
      "href" : "https://api.spotify.com/v1/artists/4Vpq7WfAizQjLBUUVgZVjX",
      "id" : "4Vpq7WfAizQjLBUUVgZVjX",
      "images" : [ {
        "height" : 640,
        "url" : "https://i.scdn.co/image/ab6761610000e5ebf7f77a23e5473173412ad0ea",
        "width" : 640
      }, {
        "height" : 320,
        "url" : "https://i.scdn.co/image/ab67616100005174f7f77a23e5473173412ad0ea",
        "width" : 320
      }, {
        "height" : 160,
        "url" : "https://i.scdn.co/image/ab6761610000f178f7f77a23e5473173412ad0ea",
        "width" : 160
      } ],
      "name" : "Wraith",
      "popularity" : 6,
      "type" : "artist",
      "uri" : "spotify:artist:4Vpq7WfAizQjLBUUVgZVjX"
    }, {
      "external_urls" : {
        "spotify" : "https://open.spotify.com/artist/25PvlDJglp0IjqLJ6ZAL46"
      },
      "followers" : {
        "href" : null,
        "total" : 153
      },
      "genres" : [ ],
      "href" : "https://api.spotify.com/v1/artists/25PvlDJglp0IjqLJ6ZAL46",
      "id" : "25PvlDJglp0IjqLJ6ZAL46",
      "images" : [ {
        "height" : 640,
        "url" : "https://i.scdn.co/image/ab6761610000e5ebbfd319ff4247a7a570af9d22",
        "width" : 640
      }, {
        "height" : 320,
        "url" : "https://i.scdn.co/image/ab67616100005174bfd319ff4247a7a570af9d22",
        "width" : 320
      }, {
        "height" : 160,
        "url" : "https://i.scdn.co/image/ab6761610000f178bfd319ff4247a7a570af9d22",
        "width" : 160
      } ],
      "name" : "Wraith",
      "popularity" : 1,
      "type" : "artist",
      "uri" : "spotify:artist:25PvlDJglp0IjqLJ6ZAL46"
    }, {
      "external_urls" : {
        "spotify" : "https://open.spotify.com/artist/4BOMjhDXc0Aet35ZlLZNgZ"
      },
      "followers" : {
        "href" : null,
        "total" : 160
      },
      "genres" : [ ],
      "href" : "https://api.spotify.com/v1/artists/4BOMjhDXc0Aet35ZlLZNgZ",
      "id" : "4BOMjhDXc0Aet35ZlLZNgZ",
      "images" : [ {
        "height" : 640,
        "url" : "https://i.scdn.co/image/ab6761610000e5eb1dacfe7810b3ef6fef6a3cb3",
        "width" : 640
      }, {
        "height" : 320,
        "url" : "https://i.scdn.co/image/ab676161000051741dacfe7810b3ef6fef6a3cb3",
        "width" : 320
      }, {
        "height" : 160,
        "url" : "https://i.scdn.co/image/ab6761610000f1781dacfe7810b3ef6fef6a3cb3",
        "width" : 160
      } ],
      "name" : "Wraith V",
      "popularity" : 23,
      "type" : "artist",
      "uri" : "spotify:artist:4BOMjhDXc0Aet35ZlLZNgZ"
    }, {
      "external_urls" : {
        "spotify" : "https://open.spotify.com/artist/4dEW0AQvbuLqJDfeaMtmCo"
      },
      "followers" : {
        "href" : null,
        "total" : 204
      },
      "genres" : [ "swedish metalcore" ],
      "href" : "https://api.spotify.com/v1/artists/4dEW0AQvbuLqJDfeaMtmCo",
      "id" : "4dEW0AQvbuLqJDfeaMtmCo",
      "images" : [ {
        "height" : 640,
        "url" : "https://i.scdn.co/image/ab6761610000e5eb1d37f9dc9c74b06ff5be282a",
        "width" : 640
      }, {
        "height" : 320,
        "url" : "https://i.scdn.co/image/ab676161000051741d37f9dc9c74b06ff5be282a",
        "width" : 320
      }, {
        "height" : 160,
        "url" : "https://i.scdn.co/image/ab6761610000f1781d37f9dc9c74b06ff5be282a",
        "width" : 160
      } ],
      "name" : "The Wraith Path",
      "popularity" : 7,
      "type" : "artist",
      "uri" : "spotify:artist:4dEW0AQvbuLqJDfeaMtmCo"
    }, {
      "external_urls" : {
        "spotify" : "https://open.spotify.com/artist/297HrwgGwXZc4FPlfhDlD6"
      },
      "followers" : {
        "href" : null,
        "total" : 13
      },
      "genres" : [ ],
      "href" : "https://api.spotify.com/v1/artists/297HrwgGwXZc4FPlfhDlD6",
      "id" : "297HrwgGwXZc4FPlfhDlD6",
      "images" : [ {
        "height" : 640,
        "url" : "https://i.scdn.co/image/ab6761610000e5eb1dc111866b0588b830a90f1e",
        "width" : 640
      }, {
        "height" : 320,
        "url" : "https://i.scdn.co/image/ab676161000051741dc111866b0588b830a90f1e",
        "width" : 320
      }, {
        "height" : 160,
        "url" : "https://i.scdn.co/image/ab6761610000f1781dc111866b0588b830a90f1e",
        "width" : 160
      } ],
      "name" : "Wraith",
      "popularity" : 0,
      "type" : "artist",
      "uri" : "spotify:artist:297HrwgGwXZc4FPlfhDlD6"
    } ],
    "limit" : 20,
    "next" : "https://api.spotify.com/v1/search?query=Wraith&type=artist&market=US&offset=20&limit=20",
    "offset" : 0,
    "previous" : null,
    "total" : 165
  }
}