{
  "artists" : {
    "href" : "https://api.spotify.com/v1/search?query=+Daphni&type=artist&market=US&offset=0&limit=20",
    "items" : [ {
      "external_urls" : {
        "spotify" : "https://open.spotify.com/artist/4nhvb6x9ZhPiYCzrHDNia9"
      },
      "followers" : {
        "href" : null,
        "total" : 76145
      },
      "genres" : [ "canadian house", "deep house", "electronica", "float house", "future garage", "microhouse", "uk bass" ],
      "href" : "https://api.spotify.com/v1/artists/4nhvb6x9ZhPiYCzrHDNia9",
      "id" : "4nhvb6x9ZhPiYCzrHDNia9",
      "images" : [ {
        "height" : 750,
        "url" : "https://i.scdn.co/image/2ceae7fcb1293c9edab4f6bffbd8e8eea9e51a01",
        "width" : 1000
      }, {
        "height" : 480,
        "url" : "https://i.scdn.co/image/5895bee200793723e472d408baab9235dd0ce16d",
        "width" : 640
      }, {
        "height" : 150,
        "url" : "https://i.scdn.co/image/da5f01f19a56556bc9db2573c5bc91d2ed793ea5",
        "width" : 200
      }, {
        "height" : 48,
        "url" : "https://i.scdn.co/image/9dd90e8e7b5158e4d38b531fb8fc0b019f377560",
        "width" : 64
      } ],
      "name" : "Daphni",
      "popularity" : 43,
      "type" : "artist",
      "uri" : "spotify:artist:4nhvb6x9ZhPiYCzrHDNia9"
    }, {
      "external_urls" : {
        "spotify" : "https://open.spotify.com/artist/3jcJNIWXWGF68CeXff8MQe"
      },
      "followers" : {
        "href" : null,
        "total" : 33
      },
      "genres" : [ ],
      "href" : "https://api.spotify.com/v1/artists/3jcJNIWXWGF68CeXff8MQe",
      "id" : "3jcJNIWXWGF68CeXff8MQe",
      "images" : [ {
        "height" : 640,
        "url" : "https://i.scdn.co/image/ab6761610000e5ebf19e8a1736129d4329251bc5",
        "width" : 640
      }, {
        "height" : 320,
        "url" : "https://i.scdn.co/image/ab67616100005174f19e8a1736129d4329251bc5",
        "width" : 320
      }, {
        "height" : 160,
        "url" : "https://i.scdn.co/image/ab6761610000f178f19e8a1736129d4329251bc5",
        "width" : 160
      } ],
      "name" : "daphnie",
      "popularity" : 19,
      "type" : "artist",
      "uri" : "spotify:artist:3jcJNIWXWGF68CeXff8MQe"
    }, {
      "external_urls" : {
        "spotify" : "https://open.spotify.com/artist/76tFNGXIWQ4rBxumetLCko"
      },
      "followers" : {
        "href" : null,
        "total" : 269
      },
      "genres" : [ ],
      "href" : "https://api.spotify.com/v1/artists/76tFNGXIWQ4rBxumetLCko",
      "id" : "76tFNGXIWQ4rBxumetLCko",
      "images" : [ {
        "height" : 640,
        "url" : "https://i.scdn.co/image/ab67616d0000b27381207d7eed662d8e184c6988",
        "width" : 640
      }, {
        "height" : 300,
        "url" : "https://i.scdn.co/image/ab67616d00001e0281207d7eed662d8e184c6988",
        "width" : 300
      }, {
        "height" : 64,
        "url" : "https://i.scdn.co/image/ab67616d0000485181207d7eed662d8e184c6988",
        "width" : 64
      } ],
      "name" : "Daphni",
      "popularity" : 10,
      "type" : "artist",
      "uri" : "spotify:artist:76tFNGXIWQ4rBxumetLCko"
    }, {
      "external_urls" : {
        "spotify" : "https://open.spotify.com/artist/0O9Ex5abRjNS9g8AhXv48u"
      },
      "followers" : {
        "href" : null,
        "total" : 17
      },
      "genres" : [ ],
      "href" : "https://api.spotify.com/v1/artists/0O9Ex5abRjNS9g8AhXv48u",
      "id" : "0O9Ex5abRjNS9g8AhXv48u",
      "images" : [ ],
      "name" : "Daphni",
      "popularity" : 2,
      "type" : "artist",
      "uri" : "spotify:artist:0O9Ex5abRjNS9g8AhXv48u"
    }, {
      "external_urls" : {
        "spotify" : "https://open.spotify.com/artist/1zPaGBbvvvYSCdr8OulVun"
      },
      "followers" : {
        "href" : null,
        "total" : 4
      },
      "genres" : [ ],
      "href" : "https://api.spotify.com/v1/artists/1zPaGBbvvvYSCdr8OulVun",
      "id" : "1zPaGBbvvvYSCdr8OulVun",
      "images" : [ {
        "height" : 640,
        "url" : "https://i.scdn.co/image/ab67616d0000b273d6a9d9b99c5b507ab44b3410",
        "width" : 640
      }, {
        "height" : 300,
        "url" : "https://i.scdn.co/image/ab67616d00001e02d6a9d9b99c5b507ab44b3410",
        "width" : 300
      }, {
        "height" : 64,
        "url" : "https://i.scdn.co/image/ab67616d00004851d6a9d9b99c5b507ab44b3410",
        "width" : 64
      } ],
      "name" : "Daphnia",
      "popularity" : 0,
      "type" : "artist",
      "uri" : "spotify:artist:1zPaGBbvvvYSCdr8OulVun"
    }, {
      "external_urls" : {
        "spotify" : "https://open.spotify.com/artist/2ZK5UgKpdTdFTvCpNZ8c6A"
      },
      "followers" : {
        "href" : null,
        "total" : 2
      },
      "genres" : [ ],
      "href" : "https://api.spotify.com/v1/artists/2ZK5UgKpdTdFTvCpNZ8c6A",
      "id" : "2ZK5UgKpdTdFTvCpNZ8c6A",
      "images" : [ {
        "height" : 640,
        "url" : "https://i.scdn.co/image/ab67616d0000b2731ff1fa996a4864911d289e5b",
        "width" : 640
      }, {
        "height" : 300,
        "url" : "https://i.scdn.co/image/ab67616d00001e021ff1fa996a4864911d289e5b",
        "width" : 300
      }, {
        "height" : 64,
        "url" : "https://i.scdn.co/image/ab67616d000048511ff1fa996a4864911d289e5b",
        "width" : 64
      } ],
      "name" : "Daphni Kokkoni",
      "popularity" : 4,
      "type" : "artist",
      "uri" : "spotify:artist:2ZK5UgKpdTdFTvCpNZ8c6A"
    }, {
      "external_urls" : {
        "spotify" : "https://open.spotify.com/artist/6D9GlxnEhUbz5Eh2kqQo5D"
      },
      "followers" : {
        "href" : null,
        "total" : 14
      },
      "genres" : [ ],
      "href" : "https://api.spotify.com/v1/artists/6D9GlxnEhUbz5Eh2kqQo5D",
      "id" : "6D9GlxnEhUbz5Eh2kqQo5D",
      "images" : [ {
        "height" : 640,
        "url" : "https://i.scdn.co/image/ab6761610000e5eb073988e65a039f1173bd620e",
        "width" : 640
      }, {
        "height" : 320,
        "url" : "https://i.scdn.co/image/ab67616100005174073988e65a039f1173bd620e",
        "width" : 320
      }, {
        "height" : 160,
        "url" : "https://i.scdn.co/image/ab6761610000f178073988e65a039f1173bd620e",
        "width" : 160
      } ],
      "name" : "Daphnis",
      "popularity" : 0,
      "type" : "artist",
      "uri" : "spotify:artist:6D9GlxnEhUbz5Eh2kqQo5D"
    }, {
      "external_urls" : {
        "spotify" : "https://open.spotify.com/artist/0mW3SrYjP7UzlDv1ZmzJKx"
      },
      "followers" : {
        "href" : null,
        "total" : 1
      },
      "genres" : [ ],
      "href" : "https://api.spotify.com/v1/artists/0mW3SrYjP7UzlDv1ZmzJKx",
      "id" : "0mW3SrYjP7UzlDv1ZmzJKx",
      "images" : [ ],
      "name" : "Daphnie Wright",
      "popularity" : 0,
      "type" : "artist",
      "uri" : "spotify:artist:0mW3SrYjP7UzlDv1ZmzJKx"
    }, {
      "external_urls" : {
        "spotify" : "https://open.spotify.com/artist/0MDsaOeAbahNlocFrgbOc2"
      },
      "followers" : {
        "href" : null,
        "total" : 0
      },
      "genres" : [ ],
      "href" : "https://api.spotify.com/v1/artists/0MDsaOeAbahNlocFrgbOc2",
      "id" : "0MDsaOeAbahNlocFrgbOc2",
      "images" : [ {
        "height" : 640,
        "url" : "https://i.scdn.co/image/ab6761610000e5ebf0bd0176fb5166e1427d658d",
        "width" : 640
      }, {
        "height" : 320,
        "url" : "https://i.scdn.co/image/ab67616100005174f0bd0176fb5166e1427d658d",
        "width" : 320
      }, {
        "height" : 160,
        "url" : "https://i.scdn.co/image/ab6761610000f178f0bd0176fb5166e1427d658d",
        "width" : 160
      } ],
      "name" : "Daphnis",
      "popularity" : 0,
      "type" : "artist",
      "uri" : "spotify:artist:0MDsaOeAbahNlocFrgbOc2"
    }, {
      "external_urls" : {
        "spotify" : "https://open.spotify.com/artist/3jJase9Ezu13tpDKWcWMV0"
      },
      "followers" : {
        "href" : null,
        "total" : 65
      },
      "genres" : [ ],
      "href" : "https://api.spotify.com/v1/artists/3jJase9Ezu13tpDKWcWMV0",
      "id" : "3jJase9Ezu13tpDKWcWMV0",
      "images" : [ {
        "height" : 640,
        "url" : "https://i.scdn.co/image/ab67616d0000b273d1144e2212f7c44b6d6384b9",
        "width" : 640
      }, {
        "height" : 300,
        "url" : "https://i.scdn.co/image/ab67616d00001e02d1144e2212f7c44b6d6384b9",
        "width" : 300
      }, {
        "height" : 64,
        "url" : "https://i.scdn.co/image/ab67616d00004851d1144e2212f7c44b6d6384b9",
        "width" : 64
      } ],
      "name" : "Daphnique Springs",
      "popularity" : 0,
      "type" : "artist",
      "uri" : "spotify:artist:3jJase9Ezu13tpDKWcWMV0"
    }, {
      "external_urls" : {
        "spotify" : "https://open.spotify.com/artist/5Na86ISO3LTLfhHV9Yjlg9"
      },
      "followers" : {
        "href" : null,
        "total" : 42
      },
      "genres" : [ ],
      "href" : "https://api.spotify.com/v1/artists/5Na86ISO3LTLfhHV9Yjlg9",
      "id" : "5Na86ISO3LTLfhHV9Yjlg9",
      "images" : [ {
        "height" : 640,
        "url" : "https://i.scdn.co/image/ab67616d0000b273f9a1b99bffa24ac0ee8d3273",
        "width" : 640
      }, {
        "height" : 300,
        "url" : "https://i.scdn.co/image/ab67616d00001e02f9a1b99bffa24ac0ee8d3273",
        "width" : 300
      }, {
        "height" : 64,
        "url" : "https://i.scdn.co/image/ab67616d00004851f9a1b99bffa24ac0ee8d3273",
        "width" : 64
      } ],
      "name" : "Daphnia",
      "popularity" : 1,
      "type" : "artist",
      "uri" : "spotify:artist:5Na86ISO3LTLfhHV9Yjlg9"
    }, {
      "external_urls" : {
        "spotify" : "https://open.spotify.com/artist/5noFX1Qf9NQwtkA8lPa64e"
      },
      "followers" : {
        "href" : null,
        "total" : 0
      },
      "genres" : [ ],
      "href" : "https://api.spotify.com/v1/artists/5noFX1Qf9NQwtkA8lPa64e",
      "id" : "5noFX1Qf9NQwtkA8lPa64e",
      "images" : [ {
        "height" : 640,
        "url" : "https://i.scdn.co/image/ab67616d0000b27323fe26762fe7d12fcd5b190f",
        "width" : 640
      }, {
        "height" : 300,
        "url" : "https://i.scdn.co/image/ab67616d00001e0223fe26762fe7d12fcd5b190f",
        "width" : 300
      }, {
        "height" : 64,
        "url" : "https://i.scdn.co/image/ab67616d0000485123fe26762fe7d12fcd5b190f",
        "width" : 64
      } ],
      "name" : "Daphnis et Chloe",
      "popularity" : 0,
      "type" : "artist",
      "uri" : "spotify:artist:5noFX1Qf9NQwtkA8lPa64e"
    }, {
      "external_urls" : {
        "spotify" : "https://open.spotify.com/artist/4w0aWUG0ZUdacKz0uSMbZJ"
      },
      "followers" : {
        "href" : null,
        "total" : 0
      },
      "genres" : [ ],
      "href" : "https://api.spotify.com/v1/artists/4w0aWUG0ZUdacKz0uSMbZJ",
      "id" : "4w0aWUG0ZUdacKz0uSMbZJ",
      "images" : [ ],
      "name" : "Daphnis",
      "popularity" : 0,
      "type" : "artist",
      "uri" : "spotify:artist:4w0aWUG0ZUdacKz0uSMbZJ"
    }, {
      "external_urls" : {
        "spotify" : "https://open.spotify.com/artist/7xf9uvAsZWBzM0aY9RyEu4"
      },
      "followers" : {
        "href" : null,
        "total" : 1
      },
      "genres" : [ ],
      "href" : "https://api.spotify.com/v1/artists/7xf9uvAsZWBzM0aY9RyEu4",
      "id" : "7xf9uvAsZWBzM0aY9RyEu4",
      "images" : [ {
        "height" : 640,
        "url" : "https://i.scdn.co/image/ab67616d0000b273e4a6c88a71e9123862613790",
        "width" : 640
      }, {
        "height" : 300,
        "url" : "https://i.scdn.co/image/ab67616d00001e02e4a6c88a71e9123862613790",
        "width" : 300
      }, {
        "height" : 64,
        "url" : "https://i.scdn.co/image/ab67616d00004851e4a6c88a71e9123862613790",
        "width" : 64
      } ],
      "name" : "Daphni Nikolaou",
      "popularity" : 0,
      "type" : "artist",
      "uri" : "spotify:artist:7xf9uvAsZWBzM0aY9RyEu4"
    }, {
      "external_urls" : {
        "spotify" : "https://open.spotify.com/artist/44hNmRdKz8w8bYl2dEDYeh"
      },
      "followers" : {
        "href" : null,
        "total" : 0
      },
      "genres" : [ ],
      "href" : "https://api.spotify.com/v1/artists/44hNmRdKz8w8bYl2dEDYeh",
      "id" : "44hNmRdKz8w8bYl2dEDYeh",
      "images" : [ ],
      "name" : "Daphnia",
      "popularity" : 0,
      "type" : "artist",
      "uri" : "spotify:artist:44hNmRdKz8w8bYl2dEDYeh"
    }, {
      "external_urls" : {
        "spotify" : "https://open.spotify.com/artist/4J9lBp0znrTgkS1pF36NWG"
      },
      "followers" : {
        "href" : null,
        "total" : 3
      },
      "genres" : [ ],
      "href" : "https://api.spotify.com/v1/artists/4J9lBp0znrTgkS1pF36NWG",
      "id" : "4J9lBp0znrTgkS1pF36NWG",
      "images" : [ ],
      "name" : "Daphnie Kalli",
      "popularity" : 0,
      "type" : "artist",
      "uri" : "spotify:artist:4J9lBp0znrTgkS1pF36NWG"
    }, {
      "external_urls" : {
        "spotify" : "https://open.spotify.com/artist/0lmDf8NEpPOueb50iEUGLV"
      },
      "followers" : {
        "href" : null,
        "total" : 5
      },
      "genres" : [ ],
      "href" : "https://api.spotify.com/v1/artists/0lmDf8NEpPOueb50iEUGLV",
      "id" : "0lmDf8NEpPOueb50iEUGLV",
      "images" : [ {
        "height" : 640,
        "url" : "https://i.scdn.co/image/ab67616d0000b2735d6d79de4c73d81b9dceb75c",
        "width" : 640
      }, {
        "height" : 300,
        "url" : "https://i.scdn.co/image/ab67616d00001e025d6d79de4c73d81b9dceb75c",
        "width" : 300
      }, {
        "height" : 64,
        "url" : "https://i.scdn.co/image/ab67616d000048515d6d79de4c73d81b9dceb75c",
        "width" : 64
      } ],
      "name" : "Daphnie CHARLES",
      "popularity" : 0,
      "type" : "artist",
      "uri" : "spotify:artist:0lmDf8NEpPOueb50iEUGLV"
    }, {
      "external_urls" : {
        "spotify" : "https://open.spotify.com/artist/0RMfZ2fbjVTy0Ddc3hkXKv"
      },
      "followers" : {
        "href" : null,
        "total" : 49
      },
      "genres" : [ ],
      "href" : "https://api.spotify.com/v1/artists/0RMfZ2fbjVTy0Ddc3hkXKv",
      "id" : "0RMfZ2fbjVTy0Ddc3hkXKv",
      "images" : [ {
        "height" : 640,
        "url" : "https://i.scdn.co/image/ab67616d0000b273e68d34347b0cc937f4bfc863",
        "width" : 640
      }, {
        "height" : 300,
        "url" : "https://i.scdn.co/image/ab67616d00001e02777c90855a76df5f4401757f",
        "width" : 300
      }, {
        "height" : 64,
        "url" : "https://i.scdn.co/image/ab67616d00004851e68d34347b0cc937f4bfc863",
        "width" : 64
      } ],
      "name" : "Daphnis et Chloé",
      "popularity" : 0,
      "type" : "artist",
      "uri" : "spotify:artist:0RMfZ2fbjVTy0Ddc3hkXKv"
    }, {
      "external_urls" : {
        "spotify" : "https://open.spotify.com/artist/7hPQJ6tBoMFsjn5E4HHCj7"
      },
      "followers" : {
        "href" : null,
        "total" : 0
      },
      "genres" : [ ],
      "href" : "https://api.spotify.com/v1/artists/7hPQJ6tBoMFsjn5E4HHCj7",
      "id" : "7hPQJ6tBoMFsjn5E4HHCj7",
      "images" : [ ],
      "name" : "Daphnie D.",
      "popularity" : 0,
      "type" : "artist",
      "uri" : "spotify:artist:7hPQJ6tBoMFsjn5E4HHCj7"
    }, {
      "external_urls" : {
        "spotify" : "https://open.spotify.com/artist/4yYAQhO2hXORqc2h9jIKD9"
      },
      "followers" : {
        "href" : null,
        "total" : 0
      },
      "genres" : [ ],
      "href" : "https://api.spotify.com/v1/artists/4yYAQhO2hXORqc2h9jIKD9",
      "id" : "4yYAQhO2hXORqc2h9jIKD9",
      "images" : [ {
        "height" : 640,
        "url" : "https://i.scdn.co/image/ab67616d0000b2737ae89cec0e8f25beac35d14f",
        "width" : 640
      }, {
        "height" : 300,
        "url" : "https://i.scdn.co/image/ab67616d00001e027ae89cec0e8f25beac35d14f",
        "width" : 300
      }, {
        "height" : 64,
        "url" : "https://i.scdn.co/image/ab67616d000048517ae89cec0e8f25beac35d14f",
        "width" : 64
      } ],
      "name" : "Habitual Daphnia",
      "popularity" : 0,
      "type" : "artist",
      "uri" : "spotify:artist:4yYAQhO2hXORqc2h9jIKD9"
    } ],
    "limit" : 20,
    "next" : "https://api.spotify.com/v1/search?query=+Daphni&type=artist&market=US&offset=20&limit=20",
    "offset" : 0,
    "previous" : null,
    "total" : 29
  }
}