{
  "artists" : {
    "href" : "https://api.spotify.com/v1/search?query=+Lawrence&type=artist&market=US&offset=0&limit=20",
    "items" : [ {
      "external_urls" : {
        "spotify" : "https://open.spotify.com/artist/5rwUYLyUq8gBsVaOUcUxpE"
      },
      "followers" : {
        "href" : null,
        "total" : 157199
      },
      "genres" : [ "nyc pop", "retro soul" ],
      "href" : "https://api.spotify.com/v1/artists/5rwUYLyUq8gBsVaOUcUxpE",
      "id" : "5rwUYLyUq8gBsVaOUcUxpE",
      "images" : [ {
        "height" : 640,
        "url" : "https://i.scdn.co/image/ab6761610000e5ebdf1ea4e99183b6c35c127ed7",
        "width" : 640
      }, {
        "height" : 320,
        "url" : "https://i.scdn.co/image/ab67616100005174df1ea4e99183b6c35c127ed7",
        "width" : 320
      }, {
        "height" : 160,
        "url" : "https://i.scdn.co/image/ab6761610000f178df1ea4e99183b6c35c127ed7",
        "width" : 160
      } ],
      "name" : "Lawrence",
      "popularity" : 60,
      "type" : "artist",
      "uri" : "spotify:artist:5rwUYLyUq8gBsVaOUcUxpE"
    }, {
      "external_urls" : {
        "spotify" : "https://open.spotify.com/artist/2BQVRw9md4UKcGUrDXABCD"
      },
      "followers" : {
        "href" : null,
        "total" : 813939
      },
      "genres" : [ "arkansas country", "contemporary country", "country", "country road", "country rock" ],
      "href" : "https://api.spotify.com/v1/artists/2BQVRw9md4UKcGUrDXABCD",
      "id" : "2BQVRw9md4UKcGUrDXABCD",
      "images" : [ {
        "height" : 640,
        "url" : "https://i.scdn.co/image/ab6761610000e5eb00eff7817501deabdcf2eb31",
        "width" : 640
      }, {
        "height" : 320,
        "url" : "https://i.scdn.co/image/ab6761610000517400eff7817501deabdcf2eb31",
        "width" : 320
      }, {
        "height" : 160,
        "url" : "https://i.scdn.co/image/ab6761610000f17800eff7817501deabdcf2eb31",
        "width" : 160
      } ],
      "name" : "Tracy Lawrence",
      "popularity" : 63,
      "type" : "artist",
      "uri" : "spotify:artist:2BQVRw9md4UKcGUrDXABCD"
    }, {
      "external_urls" : {
        "spotify" : "https://open.spotify.com/artist/40GMyQ5sv1bfiui9CrEPME"
      },
      "followers" : {
        "href" : null,
        "total" : 795
      },
      "genres" : [ ],
      "href" : "https://api.spotify.com/v1/artists/40GMyQ5sv1bfiui9CrEPME",
      "id" : "40GMyQ5sv1bfiui9CrEPME",
      "images" : [ {
        "height" : 640,
        "url" : "https://i.scdn.co/image/ab6761610000e5ebc13e3ad1776664aedc0b23b6",
        "width" : 640
      }, {
        "height" : 320,
        "url" : "https://i.scdn.co/image/ab67616100005174c13e3ad1776664aedc0b23b6",
        "width" : 320
      }, {
        "height" : 160,
        "url" : "https://i.scdn.co/image/ab6761610000f178c13e3ad1776664aedc0b23b6",
        "width" : 160
      } ],
      "name" : "Lawrence Walther",
      "popularity" : 60,
      "type" : "artist",
      "uri" : "spotify:artist:40GMyQ5sv1bfiui9CrEPME"
    }, {
      "external_urls" : {
        "spotify" : "https://open.spotify.com/artist/0k8Ugg3yjlhOAEikLmXyUx"
      },
      "followers" : {
        "href" : null,
        "total" : 625
      },
      "genres" : [ "orchestral performance" ],
      "href" : "https://api.spotify.com/v1/artists/0k8Ugg3yjlhOAEikLmXyUx",
      "id" : "0k8Ugg3yjlhOAEikLmXyUx",
      "images" : [ {
        "height" : 1503,
        "url" : "https://i.scdn.co/image/9e7e8d644e889e74e2978cfd104e422e8cf45496",
        "width" : 1000
      }, {
        "height" : 962,
        "url" : "https://i.scdn.co/image/bca42e7981218b5b96e1c124a667794d347b2ab8",
        "width" : 640
      }, {
        "height" : 301,
        "url" : "https://i.scdn.co/image/c347b700bbb9575463d217a4774f5a2f80dde25d",
        "width" : 200
      }, {
        "height" : 96,
        "url" : "https://i.scdn.co/image/84156d4253d836a91a29e7296cfd85febe4cad7a",
        "width" : 64
      } ],
      "name" : "Lawrence Foster",
      "popularity" : 45,
      "type" : "artist",
      "uri" : "spotify:artist:0k8Ugg3yjlhOAEikLmXyUx"
    }, {
      "external_urls" : {
        "spotify" : "https://open.spotify.com/artist/7LImGq5KnzQobZciDJpeJb"
      },
      "followers" : {
        "href" : null,
        "total" : 911494
      },
      "genres" : [ "alt z", "dance pop", "electropop", "indie poptimism", "pop", "post-teen pop", "social media pop" ],
      "href" : "https://api.spotify.com/v1/artists/7LImGq5KnzQobZciDJpeJb",
      "id" : "7LImGq5KnzQobZciDJpeJb",
      "images" : [ {
        "height" : 640,
        "url" : "https://i.scdn.co/image/ab6761610000e5eb2a710c30cccde80369773cfe",
        "width" : 640
      }, {
        "height" : 320,
        "url" : "https://i.scdn.co/image/ab676161000051742a710c30cccde80369773cfe",
        "width" : 320
      }, {
        "height" : 160,
        "url" : "https://i.scdn.co/image/ab6761610000f1782a710c30cccde80369773cfe",
        "width" : 160
      } ],
      "name" : "Charlotte Lawrence",
      "popularity" : 66,
      "type" : "artist",
      "uri" : "spotify:artist:7LImGq5KnzQobZciDJpeJb"
    }, {
      "external_urls" : {
        "spotify" : "https://open.spotify.com/artist/2pQj31A8LgfwBTGmhHdRXa"
      },
      "followers" : {
        "href" : null,
        "total" : 3529
      },
      "genres" : [ ],
      "href" : "https://api.spotify.com/v1/artists/2pQj31A8LgfwBTGmhHdRXa",
      "id" : "2pQj31A8LgfwBTGmhHdRXa",
      "images" : [ {
        "height" : 640,
        "url" : "https://i.scdn.co/image/ab6761610000e5ebbdc37cf3ac29f1cd84b1d169",
        "width" : 640
      }, {
        "height" : 320,
        "url" : "https://i.scdn.co/image/ab67616100005174bdc37cf3ac29f1cd84b1d169",
        "width" : 320
      }, {
        "height" : 160,
        "url" : "https://i.scdn.co/image/ab6761610000f178bdc37cf3ac29f1cd84b1d169",
        "width" : 160
      } ],
      "name" : "Lawrence Hart",
      "popularity" : 45,
      "type" : "artist",
      "uri" : "spotify:artist:2pQj31A8LgfwBTGmhHdRXa"
    }, {
      "external_urls" : {
        "spotify" : "https://open.spotify.com/artist/0hIG9FXgjQxT8fKaYceFbA"
      },
      "followers" : {
        "href" : null,
        "total" : 119962
      },
      "genres" : [ "classical performance", "violin" ],
      "href" : "https://api.spotify.com/v1/artists/0hIG9FXgjQxT8fKaYceFbA",
      "id" : "0hIG9FXgjQxT8fKaYceFbA",
      "images" : [ {
        "height" : 778,
        "url" : "https://i.scdn.co/image/f1658bc66d1f99ab6d118f26a2abaf7dc33a272f",
        "width" : 1000
      }, {
        "height" : 498,
        "url" : "https://i.scdn.co/image/341886e46580d1c306ea0c3d7ffd42b9dd020966",
        "width" : 640
      }, {
        "height" : 156,
        "url" : "https://i.scdn.co/image/0fea673bbca479c27d1cd94c382588df200ca86e",
        "width" : 200
      }, {
        "height" : 50,
        "url" : "https://i.scdn.co/image/b77cff56418d1c305a6d0b577940045b61329fac",
        "width" : 64
      } ],
      "name" : "Itzhak Perlman",
      "popularity" : 64,
      "type" : "artist",
      "uri" : "spotify:artist:0hIG9FXgjQxT8fKaYceFbA"
    }, {
      "external_urls" : {
        "spotify" : "https://open.spotify.com/artist/2Jn2Lx4gkmqFZN1t90Vp5N"
      },
      "followers" : {
        "href" : null,
        "total" : 7525
      },
      "genres" : [ "la pop", "transpop" ],
      "href" : "https://api.spotify.com/v1/artists/2Jn2Lx4gkmqFZN1t90Vp5N",
      "id" : "2Jn2Lx4gkmqFZN1t90Vp5N",
      "images" : [ {
        "height" : 640,
        "url" : "https://i.scdn.co/image/ab6761610000e5ebd85b17887166a52aa3cb7298",
        "width" : 640
      }, {
        "height" : 320,
        "url" : "https://i.scdn.co/image/ab67616100005174d85b17887166a52aa3cb7298",
        "width" : 320
      }, {
        "height" : 160,
        "url" : "https://i.scdn.co/image/ab6761610000f178d85b17887166a52aa3cb7298",
        "width" : 160
      } ],
      "name" : "Lawrence Rothman",
      "popularity" : 39,
      "type" : "artist",
      "uri" : "spotify:artist:2Jn2Lx4gkmqFZN1t90Vp5N"
    }, {
      "external_urls" : {
        "spotify" : "https://open.spotify.com/artist/40tzRHO6w4wROAdb6Sr21l"
      },
      "followers" : {
        "href" : null,
        "total" : 159360
      },
      "genres" : [ "contemporary gospel", "gospel" ],
      "href" : "https://api.spotify.com/v1/artists/40tzRHO6w4wROAdb6Sr21l",
      "id" : "40tzRHO6w4wROAdb6Sr21l",
      "images" : [ {
        "height" : 640,
        "url" : "https://i.scdn.co/image/ab6761610000e5eb52d83fdd3d9ef6e9285a115f",
        "width" : 640
      }, {
        "height" : 320,
        "url" : "https://i.scdn.co/image/ab6761610000517452d83fdd3d9ef6e9285a115f",
        "width" : 320
      }, {
        "height" : 160,
        "url" : "https://i.scdn.co/image/ab6761610000f17852d83fdd3d9ef6e9285a115f",
        "width" : 160
      } ],
      "name" : "Donald Lawrence",
      "popularity" : 45,
      "type" : "artist",
      "uri" : "spotify:artist:40tzRHO6w4wROAdb6Sr21l"
    }, {
      "external_urls" : {
        "spotify" : "https://open.spotify.com/artist/0aQ8Ow9YAkGxr5bbehjkcS"
      },
      "followers" : {
        "href" : null,
        "total" : 59920
      },
      "genres" : [ "alternative emo", "chicago punk", "emo", "folk punk", "indie punk", "melodic hardcore", "orgcore", "power-pop punk", "punk", "ska punk", "skate punk" ],
      "href" : "https://api.spotify.com/v1/artists/0aQ8Ow9YAkGxr5bbehjkcS",
      "id" : "0aQ8Ow9YAkGxr5bbehjkcS",
      "images" : [ {
        "height" : 640,
        "url" : "https://i.scdn.co/image/ab6761610000e5eb86b1baca12f262fb3b60f132",
        "width" : 640
      }, {
        "height" : 320,
        "url" : "https://i.scdn.co/image/ab6761610000517486b1baca12f262fb3b60f132",
        "width" : 320
      }, {
        "height" : 160,
        "url" : "https://i.scdn.co/image/ab6761610000f17886b1baca12f262fb3b60f132",
        "width" : 160
      } ],
      "name" : "The Lawrence Arms",
      "popularity" : 46,
      "type" : "artist",
      "uri" : "spotify:artist:0aQ8Ow9YAkGxr5bbehjkcS"
    }, {
      "external_urls" : {
        "spotify" : "https://open.spotify.com/artist/0LcYBwBCEx7HtiwI1UJnqA"
      },
      "followers" : {
        "href" : null,
        "total" : 15
      },
      "genres" : [ ],
      "href" : "https://api.spotify.com/v1/artists/0LcYBwBCEx7HtiwI1UJnqA",
      "id" : "0LcYBwBCEx7HtiwI1UJnqA",
      "images" : [ ],
      "name" : "Lawrence Stallings",
      "popularity" : 37,
      "type" : "artist",
      "uri" : "spotify:artist:0LcYBwBCEx7HtiwI1UJnqA"
    }, {
      "external_urls" : {
        "spotify" : "https://open.spotify.com/artist/3oCIYpmkFw8KGWwMNPKgXh"
      },
      "followers" : {
        "href" : null,
        "total" : 22057
      },
      "genres" : [ ],
      "href" : "https://api.spotify.com/v1/artists/3oCIYpmkFw8KGWwMNPKgXh",
      "id" : "3oCIYpmkFw8KGWwMNPKgXh",
      "images" : [ {
        "height" : 998,
        "url" : "https://i.scdn.co/image/c30d05a567fa50ac180b920fc6fd6e06b9eac877",
        "width" : 1000
      }, {
        "height" : 639,
        "url" : "https://i.scdn.co/image/e25be28423b633fda57d4af4b5be6b5fb6faf737",
        "width" : 640
      }, {
        "height" : 200,
        "url" : "https://i.scdn.co/image/46ddbbe02bc8e7ff661ca6fa3793b0c4f867f056",
        "width" : 200
      }, {
        "height" : 64,
        "url" : "https://i.scdn.co/image/f26c3ec935693339c4b63b210febb68e65e0a62c",
        "width" : 64
      } ],
      "name" : "Jennifer Lawrence",
      "popularity" : 51,
      "type" : "artist",
      "uri" : "spotify:artist:3oCIYpmkFw8KGWwMNPKgXh"
    }, {
      "external_urls" : {
        "spotify" : "https://open.spotify.com/artist/2GMH35k5oLCjzYpn5HbaD8"
      },
      "followers" : {
        "href" : null,
        "total" : 15112
      },
      "genres" : [ "easy listening", "lounge", "polka" ],
      "href" : "https://api.spotify.com/v1/artists/2GMH35k5oLCjzYpn5HbaD8",
      "id" : "2GMH35k5oLCjzYpn5HbaD8",
      "images" : [ {
        "height" : 640,
        "url" : "https://i.scdn.co/image/ab67616d0000b273ea9bec50092d737636d05545",
        "width" : 640
      }, {
        "height" : 300,
        "url" : "https://i.scdn.co/image/ab67616d00001e02ea9bec50092d737636d05545",
        "width" : 300
      }, {
        "height" : 64,
        "url" : "https://i.scdn.co/image/ab67616d00004851ea9bec50092d737636d05545",
        "width" : 64
      } ],
      "name" : "Lawrence Welk",
      "popularity" : 36,
      "type" : "artist",
      "uri" : "spotify:artist:2GMH35k5oLCjzYpn5HbaD8"
    }, {
      "external_urls" : {
        "spotify" : "https://open.spotify.com/artist/38ZFGQidKbRMrPPA2sqE8n"
      },
      "followers" : {
        "href" : null,
        "total" : 2520
      },
      "genres" : [ "classical tenor" ],
      "href" : "https://api.spotify.com/v1/artists/38ZFGQidKbRMrPPA2sqE8n",
      "id" : "38ZFGQidKbRMrPPA2sqE8n",
      "images" : [ {
        "height" : 640,
        "url" : "https://i.scdn.co/image/ab6761610000e5ebe415fbccf295c9953efaf525",
        "width" : 640
      }, {
        "height" : 320,
        "url" : "https://i.scdn.co/image/ab67616100005174e415fbccf295c9953efaf525",
        "width" : 320
      }, {
        "height" : 160,
        "url" : "https://i.scdn.co/image/ab6761610000f178e415fbccf295c9953efaf525",
        "width" : 160
      } ],
      "name" : "Lawrence Brownlee",
      "popularity" : 32,
      "type" : "artist",
      "uri" : "spotify:artist:38ZFGQidKbRMrPPA2sqE8n"
    }, {
      "external_urls" : {
        "spotify" : "https://open.spotify.com/artist/57d6a3ex4tB3hO0WE1hC1V"
      },
      "followers" : {
        "href" : null,
        "total" : 105314
      },
      "genres" : [ "gospel" ],
      "href" : "https://api.spotify.com/v1/artists/57d6a3ex4tB3hO0WE1hC1V",
      "id" : "57d6a3ex4tB3hO0WE1hC1V",
      "images" : [ {
        "height" : 1000,
        "url" : "https://i.scdn.co/image/f796722d51ecb9f07aad0bb66f5d1003bdae1795",
        "width" : 1000
      }, {
        "height" : 640,
        "url" : "https://i.scdn.co/image/2b7d06f7f91d36f501d30937b343c7b77a12bccf",
        "width" : 640
      }, {
        "height" : 200,
        "url" : "https://i.scdn.co/image/240e88be05469005652b390444dd70ab2fb6c919",
        "width" : 200
      }, {
        "height" : 64,
        "url" : "https://i.scdn.co/image/934e96f705c291a632ea55f33e5ea8e491ba75b6",
        "width" : 64
      } ],
      "name" : "Donald Lawrence & The Tri-City Singers",
      "popularity" : 40,
      "type" : "artist",
      "uri" : "spotify:artist:57d6a3ex4tB3hO0WE1hC1V"
    }, {
      "external_urls" : {
        "spotify" : "https://open.spotify.com/artist/271pvVqDFiREx6PqzwOX8p"
      },
      "followers" : {
        "href" : null,
        "total" : 44349
      },
      "genres" : [ "adult standards", "brill building pop", "deep adult standards", "easy listening", "lounge" ],
      "href" : "https://api.spotify.com/v1/artists/271pvVqDFiREx6PqzwOX8p",
      "id" : "271pvVqDFiREx6PqzwOX8p",
      "images" : [ {
        "height" : 400,
        "url" : "https://i.scdn.co/image/3243b8adc66c3fcdbf6007a3151a6e63c8dd41f8",
        "width" : 346
      }, {
        "height" : 231,
        "url" : "https://i.scdn.co/image/48c6bbc640ed3e5da6ad7387cb3c217441598c9d",
        "width" : 200
      }, {
        "height" : 74,
        "url" : "https://i.scdn.co/image/196daabe3d449ec4739f3bc62266b09d81f88f8f",
        "width" : 64
      } ],
      "name" : "Steve Lawrence",
      "popularity" : 44,
      "type" : "artist",
      "uri" : "spotify:artist:271pvVqDFiREx6PqzwOX8p"
    }, {
      "external_urls" : {
        "spotify" : "https://open.spotify.com/artist/48iJCUj0CYA37eYXHiQG0K"
      },
      "followers" : {
        "href" : null,
        "total" : 14988
      },
      "genres" : [ "praise" ],
      "href" : "https://api.spotify.com/v1/artists/48iJCUj0CYA37eYXHiQG0K",
      "id" : "48iJCUj0CYA37eYXHiQG0K",
      "images" : [ {
        "height" : 640,
        "url" : "https://i.scdn.co/image/ab6761610000e5eb3ee3ff02f4f0cc4b14141dc5",
        "width" : 640
      }, {
        "height" : 320,
        "url" : "https://i.scdn.co/image/ab676161000051743ee3ff02f4f0cc4b14141dc5",
        "width" : 320
      }, {
        "height" : 160,
        "url" : "https://i.scdn.co/image/ab6761610000f1783ee3ff02f4f0cc4b14141dc5",
        "width" : 160
      } ],
      "name" : "Lawrence Flowers & Intercession",
      "popularity" : 31,
      "type" : "artist",
      "uri" : "spotify:artist:48iJCUj0CYA37eYXHiQG0K"
    }, {
      "external_urls" : {
        "spotify" : "https://open.spotify.com/artist/1haevnXTeIhKJSc04ly4as"
      },
      "followers" : {
        "href" : null,
        "total" : 60114
      },
      "genres" : [ "gospel", "praise" ],
      "href" : "https://api.spotify.com/v1/artists/1haevnXTeIhKJSc04ly4as",
      "id" : "1haevnXTeIhKJSc04ly4as",
      "images" : [ {
        "height" : 640,
        "url" : "https://i.scdn.co/image/ab67616d0000b273ec8fc005040e9c9a2d4646c1",
        "width" : 640
      }, {
        "height" : 300,
        "url" : "https://i.scdn.co/image/ab67616d00001e02ec8fc005040e9c9a2d4646c1",
        "width" : 300
      }, {
        "height" : 64,
        "url" : "https://i.scdn.co/image/ab67616d00004851ec8fc005040e9c9a2d4646c1",
        "width" : 64
      } ],
      "name" : "Donald Lawrence & Company",
      "popularity" : 39,
      "type" : "artist",
      "uri" : "spotify:artist:1haevnXTeIhKJSc04ly4as"
    }, {
      "external_urls" : {
        "spotify" : "https://open.spotify.com/artist/2EQwysDW4VsyWBK7kWb7Sc"
      },
      "followers" : {
        "href" : null,
        "total" : 17
      },
      "genres" : [ ],
      "href" : "https://api.spotify.com/v1/artists/2EQwysDW4VsyWBK7kWb7Sc",
      "id" : "2EQwysDW4VsyWBK7kWb7Sc",
      "images" : [ ],
      "name" : "Lawrence Street",
      "popularity" : 30,
      "type" : "artist",
      "uri" : "spotify:artist:2EQwysDW4VsyWBK7kWb7Sc"
    }, {
      "external_urls" : {
        "spotify" : "https://open.spotify.com/artist/0V1EXFlRy3LeOKB07YJucI"
      },
      "followers" : {
        "href" : null,
        "total" : 13875
      },
      "genres" : [ "ambient", "australian ambient", "australian experimental", "drift", "drone", "field recording", "fourth world", "new isolationism", "nu age", "sound art" ],
      "href" : "https://api.spotify.com/v1/artists/0V1EXFlRy3LeOKB07YJucI",
      "id" : "0V1EXFlRy3LeOKB07YJucI",
      "images" : [ {
        "height" : 640,
        "url" : "https://i.scdn.co/image/ab6761610000e5eb8076543d46aa7aa68420a6a0",
        "width" : 640
      }, {
        "height" : 320,
        "url" : "https://i.scdn.co/image/ab676161000051748076543d46aa7aa68420a6a0",
        "width" : 320
      }, {
        "height" : 160,
        "url" : "https://i.scdn.co/image/ab6761610000f1788076543d46aa7aa68420a6a0",
        "width" : 160
      } ],
      "name" : "Lawrence English",
      "popularity" : 34,
      "type" : "artist",
      "uri" : "spotify:artist:0V1EXFlRy3LeOKB07YJucI"
    } ],
    "limit" : 20,
    "next" : "https://api.spotify.com/v1/search?query=+Lawrence&type=artist&market=US&offset=20&limit=20",
    "offset" : 0,
    "previous" : null,
    "total" : 2112
  }
}