{
  "artists" : {
    "href" : "https://api.spotify.com/v1/search?query=+Lil+Baby&type=artist&market=US&offset=0&limit=20",
    "items" : [ {
      "external_urls" : {
        "spotify" : "https://open.spotify.com/artist/5f7VJjfbwm532GiveGC0ZK"
      },
      "followers" : {
        "href" : null,
        "total" : 9973411
      },
      "genres" : [ "atl hip hop", "atl trap", "rap", "trap" ],
      "href" : "https://api.spotify.com/v1/artists/5f7VJjfbwm532GiveGC0ZK",
      "id" : "5f7VJjfbwm532GiveGC0ZK",
      "images" : [ {
        "height" : 640,
        "url" : "https://i.scdn.co/image/ab6761610000e5eb2161ef3bab0e5e922a1c297d",
        "width" : 640
      }, {
        "height" : 320,
        "url" : "https://i.scdn.co/image/ab676161000051742161ef3bab0e5e922a1c297d",
        "width" : 320
      }, {
        "height" : 160,
        "url" : "https://i.scdn.co/image/ab6761610000f1782161ef3bab0e5e922a1c297d",
        "width" : 160
      } ],
      "name" : "Lil Baby",
      "popularity" : 92,
      "type" : "artist",
      "uri" : "spotify:artist:5f7VJjfbwm532GiveGC0ZK"
    }, {
      "external_urls" : {
        "spotify" : "https://open.spotify.com/artist/2JlWlbyRMBWYHVVYYE7o5z"
      },
      "followers" : {
        "href" : null,
        "total" : 66
      },
      "genres" : [ ],
      "href" : "https://api.spotify.com/v1/artists/2JlWlbyRMBWYHVVYYE7o5z",
      "id" : "2JlWlbyRMBWYHVVYYE7o5z",
      "images" : [ ],
      "name" : "Lil Baby",
      "popularity" : 31,
      "type" : "artist",
      "uri" : "spotify:artist:2JlWlbyRMBWYHVVYYE7o5z"
    }, {
      "external_urls" : {
        "spotify" : "https://open.spotify.com/artist/3FS1key8UDgSlIDGYmLROZ"
      },
      "followers" : {
        "href" : null,
        "total" : 8257
      },
      "genres" : [ ],
      "href" : "https://api.spotify.com/v1/artists/3FS1key8UDgSlIDGYmLROZ",
      "id" : "3FS1key8UDgSlIDGYmLROZ",
      "images" : [ {
        "height" : 640,
        "url" : "https://i.scdn.co/image/ab67616d0000b273ded717f0d82138ab4f6f13eb",
        "width" : 640
      }, {
        "height" : 300,
        "url" : "https://i.scdn.co/image/ab67616d00001e02ded717f0d82138ab4f6f13eb",
        "width" : 300
      }, {
        "height" : 64,
        "url" : "https://i.scdn.co/image/ab67616d00004851ded717f0d82138ab4f6f13eb",
        "width" : 64
      } ],
      "name" : "Lil Baby",
      "popularity" : 29,
      "type" : "artist",
      "uri" : "spotify:artist:3FS1key8UDgSlIDGYmLROZ"
    }, {
      "external_urls" : {
        "spotify" : "https://open.spotify.com/artist/4GaFjQuDkAraRvE4YPCIdZ"
      },
      "followers" : {
        "href" : null,
        "total" : 2
      },
      "genres" : [ ],
      "href" : "https://api.spotify.com/v1/artists/4GaFjQuDkAraRvE4YPCIdZ",
      "id" : "4GaFjQuDkAraRvE4YPCIdZ",
      "images" : [ {
        "height" : 640,
        "url" : "https://i.scdn.co/image/ab67616d0000b273fa0ef7de4e9800b488d831e5",
        "width" : 640
      }, {
        "height" : 300,
        "url" : "https://i.scdn.co/image/ab67616d00001e02fa0ef7de4e9800b488d831e5",
        "width" : 300
      }, {
        "height" : 64,
        "url" : "https://i.scdn.co/image/ab67616d00004851fa0ef7de4e9800b488d831e5",
        "width" : 64
      } ],
      "name" : "lil' baby james",
      "popularity" : 17,
      "type" : "artist",
      "uri" : "spotify:artist:4GaFjQuDkAraRvE4YPCIdZ"
    }, {
      "external_urls" : {
        "spotify" : "https://open.spotify.com/artist/18Cgc3wh2bCEW8HzEz3db3"
      },
      "followers" : {
        "href" : null,
        "total" : 1800
      },
      "genres" : [ ],
      "href" : "https://api.spotify.com/v1/artists/18Cgc3wh2bCEW8HzEz3db3",
      "id" : "18Cgc3wh2bCEW8HzEz3db3",
      "images" : [ {
        "height" : 640,
        "url" : "https://i.scdn.co/image/ab67616d0000b27311703b59e38ce54a10fa8dfc",
        "width" : 640
      }, {
        "height" : 300,
        "url" : "https://i.scdn.co/image/ab67616d00001e0211703b59e38ce54a10fa8dfc",
        "width" : 300
      }, {
        "height" : 64,
        "url" : "https://i.scdn.co/image/ab67616d0000485111703b59e38ce54a10fa8dfc",
        "width" : 64
      } ],
      "name" : "Lil Baby Grand",
      "popularity" : 13,
      "type" : "artist",
      "uri" : "spotify:artist:18Cgc3wh2bCEW8HzEz3db3"
    }, {
      "external_urls" : {
        "spotify" : "https://open.spotify.com/artist/3pVKvq3OxBnJU4oEDk1F3w"
      },
      "followers" : {
        "href" : null,
        "total" : 1211
      },
      "genres" : [ ],
      "href" : "https://api.spotify.com/v1/artists/3pVKvq3OxBnJU4oEDk1F3w",
      "id" : "3pVKvq3OxBnJU4oEDk1F3w",
      "images" : [ {
        "height" : 640,
        "url" : "https://i.scdn.co/image/ab67616d0000b27326756b7caf26f8367817cfe1",
        "width" : 640
      }, {
        "height" : 300,
        "url" : "https://i.scdn.co/image/ab67616d00001e0226756b7caf26f8367817cfe1",
        "width" : 300
      }, {
        "height" : 64,
        "url" : "https://i.scdn.co/image/ab67616d0000485126756b7caf26f8367817cfe1",
        "width" : 64
      } ],
      "name" : "Lil Baby Drake",
      "popularity" : 9,
      "type" : "artist",
      "uri" : "spotify:artist:3pVKvq3OxBnJU4oEDk1F3w"
    }, {
      "external_urls" : {
        "spotify" : "https://open.spotify.com/artist/2Y7fROKTFbODGy7GhXgMxW"
      },
      "followers" : {
        "href" : null,
        "total" : 49
      },
      "genres" : [ ],
      "href" : "https://api.spotify.com/v1/artists/2Y7fROKTFbODGy7GhXgMxW",
      "id" : "2Y7fROKTFbODGy7GhXgMxW",
      "images" : [ {
        "height" : 640,
        "url" : "https://i.scdn.co/image/ab67616d0000b273a8a3d332ab21501d37b3ff1f",
        "width" : 640
      }, {
        "height" : 300,
        "url" : "https://i.scdn.co/image/ab67616d00001e02a8a3d332ab21501d37b3ff1f",
        "width" : 300
      }, {
        "height" : 64,
        "url" : "https://i.scdn.co/image/ab67616d00004851a8a3d332ab21501d37b3ff1f",
        "width" : 64
      } ],
      "name" : "Khao feat. Gucci Mane, Lil Baby, YBN Nahmir & Tabius Tate",
      "popularity" : 12,
      "type" : "artist",
      "uri" : "spotify:artist:2Y7fROKTFbODGy7GhXgMxW"
    }, {
      "external_urls" : {
        "spotify" : "https://open.spotify.com/artist/3vijyMzQVa1MTmDfCts2QQ"
      },
      "followers" : {
        "href" : null,
        "total" : 5
      },
      "genres" : [ ],
      "href" : "https://api.spotify.com/v1/artists/3vijyMzQVa1MTmDfCts2QQ",
      "id" : "3vijyMzQVa1MTmDfCts2QQ",
      "images" : [ ],
      "name" : "Lil Baby Ass Baby Never Struggle Again",
      "popularity" : 6,
      "type" : "artist",
      "uri" : "spotify:artist:3vijyMzQVa1MTmDfCts2QQ"
    }, {
      "external_urls" : {
        "spotify" : "https://open.spotify.com/artist/5oAOKJSFGYy1zVDQ3GzJMB"
      },
      "followers" : {
        "href" : null,
        "total" : 118
      },
      "genres" : [ ],
      "href" : "https://api.spotify.com/v1/artists/5oAOKJSFGYy1zVDQ3GzJMB",
      "id" : "5oAOKJSFGYy1zVDQ3GzJMB",
      "images" : [ {
        "height" : 640,
        "url" : "https://i.scdn.co/image/ab67616d0000b2734dd9a459fe7204328e8b4c6c",
        "width" : 640
      }, {
        "height" : 300,
        "url" : "https://i.scdn.co/image/ab67616d00001e024dd9a459fe7204328e8b4c6c",
        "width" : 300
      }, {
        "height" : 64,
        "url" : "https://i.scdn.co/image/ab67616d000048514dd9a459fe7204328e8b4c6c",
        "width" : 64
      } ],
      "name" : "Lil' Baby Suplex",
      "popularity" : 5,
      "type" : "artist",
      "uri" : "spotify:artist:5oAOKJSFGYy1zVDQ3GzJMB"
    }, {
      "external_urls" : {
        "spotify" : "https://open.spotify.com/artist/43dlqhgfkB3i0mn2XJdPqp"
      },
      "followers" : {
        "href" : null,
        "total" : 113
      },
      "genres" : [ ],
      "href" : "https://api.spotify.com/v1/artists/43dlqhgfkB3i0mn2XJdPqp",
      "id" : "43dlqhgfkB3i0mn2XJdPqp",
      "images" : [ {
        "height" : 640,
        "url" : "https://i.scdn.co/image/ab6761610000e5ebd6ac7ffdd7d7484970dc0cd6",
        "width" : 640
      }, {
        "height" : 320,
        "url" : "https://i.scdn.co/image/ab67616100005174d6ac7ffdd7d7484970dc0cd6",
        "width" : 320
      }, {
        "height" : 160,
        "url" : "https://i.scdn.co/image/ab6761610000f178d6ac7ffdd7d7484970dc0cd6",
        "width" : 160
      } ],
      "name" : "Lil Baby Jay",
      "popularity" : 2,
      "type" : "artist",
      "uri" : "spotify:artist:43dlqhgfkB3i0mn2XJdPqp"
    }, {
      "external_urls" : {
        "spotify" : "https://open.spotify.com/artist/3A810cx9bPWC0ICs2Zzlss"
      },
      "followers" : {
        "href" : null,
        "total" : 4509
      },
      "genres" : [ ],
      "href" : "https://api.spotify.com/v1/artists/3A810cx9bPWC0ICs2Zzlss",
      "id" : "3A810cx9bPWC0ICs2Zzlss",
      "images" : [ {
        "height" : 640,
        "url" : "https://i.scdn.co/image/ab6761610000e5eb75c504495fb2db7812f3a38c",
        "width" : 640
      }, {
        "height" : 320,
        "url" : "https://i.scdn.co/image/ab6761610000517475c504495fb2db7812f3a38c",
        "width" : 320
      }, {
        "height" : 160,
        "url" : "https://i.scdn.co/image/ab6761610000f17875c504495fb2db7812f3a38c",
        "width" : 160
      } ],
      "name" : "Lil Nemo",
      "popularity" : 9,
      "type" : "artist",
      "uri" : "spotify:artist:3A810cx9bPWC0ICs2Zzlss"
    }, {
      "external_urls" : {
        "spotify" : "https://open.spotify.com/artist/6gJF6cOoEGl6Uivu2AM2Ie"
      },
      "followers" : {
        "href" : null,
        "total" : 16
      },
      "genres" : [ ],
      "href" : "https://api.spotify.com/v1/artists/6gJF6cOoEGl6Uivu2AM2Ie",
      "id" : "6gJF6cOoEGl6Uivu2AM2Ie",
      "images" : [ {
        "height" : 640,
        "url" : "https://i.scdn.co/image/ab67616d0000b2734c493299bc5c0c8c2280a0c9",
        "width" : 640
      }, {
        "height" : 300,
        "url" : "https://i.scdn.co/image/ab67616d00001e024c493299bc5c0c8c2280a0c9",
        "width" : 300
      }, {
        "height" : 64,
        "url" : "https://i.scdn.co/image/ab67616d000048514c493299bc5c0c8c2280a0c9",
        "width" : 64
      } ],
      "name" : "Lil Baby Six",
      "popularity" : 1,
      "type" : "artist",
      "uri" : "spotify:artist:6gJF6cOoEGl6Uivu2AM2Ie"
    }, {
      "external_urls" : {
        "spotify" : "https://open.spotify.com/artist/5C4J7zQQEv5NkDX4GuSwGm"
      },
      "followers" : {
        "href" : null,
        "total" : 290
      },
      "genres" : [ ],
      "href" : "https://api.spotify.com/v1/artists/5C4J7zQQEv5NkDX4GuSwGm",
      "id" : "5C4J7zQQEv5NkDX4GuSwGm",
      "images" : [ ],
      "name" : "Lil Rob and Baby Bash",
      "popularity" : 6,
      "type" : "artist",
      "uri" : "spotify:artist:5C4J7zQQEv5NkDX4GuSwGm"
    }, {
      "external_urls" : {
        "spotify" : "https://open.spotify.com/artist/7kQZQcpnHJLBjMqiBMvEma"
      },
      "followers" : {
        "href" : null,
        "total" : 92
      },
      "genres" : [ ],
      "href" : "https://api.spotify.com/v1/artists/7kQZQcpnHJLBjMqiBMvEma",
      "id" : "7kQZQcpnHJLBjMqiBMvEma",
      "images" : [ ],
      "name" : "Lil-Baby",
      "popularity" : 1,
      "type" : "artist",
      "uri" : "spotify:artist:7kQZQcpnHJLBjMqiBMvEma"
    }, {
      "external_urls" : {
        "spotify" : "https://open.spotify.com/artist/6lCqfpluh2kas9RNhy42GO"
      },
      "followers" : {
        "href" : null,
        "total" : 50
      },
      "genres" : [ ],
      "href" : "https://api.spotify.com/v1/artists/6lCqfpluh2kas9RNhy42GO",
      "id" : "6lCqfpluh2kas9RNhy42GO",
      "images" : [ {
        "height" : 640,
        "url" : "https://i.scdn.co/image/ab67616d0000b2730d325532a5da831142b08907",
        "width" : 640
      }, {
        "height" : 300,
        "url" : "https://i.scdn.co/image/ab67616d00001e020d325532a5da831142b08907",
        "width" : 300
      }, {
        "height" : 64,
        "url" : "https://i.scdn.co/image/ab67616d000048510d325532a5da831142b08907",
        "width" : 64
      } ],
      "name" : "Lil Baby Cold",
      "popularity" : 1,
      "type" : "artist",
      "uri" : "spotify:artist:6lCqfpluh2kas9RNhy42GO"
    }, {
      "external_urls" : {
        "spotify" : "https://open.spotify.com/artist/6H5xaiH5Pop42LtkUa3QOT"
      },
      "followers" : {
        "href" : null,
        "total" : 6
      },
      "genres" : [ ],
      "href" : "https://api.spotify.com/v1/artists/6H5xaiH5Pop42LtkUa3QOT",
      "id" : "6H5xaiH5Pop42LtkUa3QOT",
      "images" : [ {
        "height" : 640,
        "url" : "https://i.scdn.co/image/ab6761610000e5ebacb3ca9ad1d0a8f11f5b6212",
        "width" : 640
      }, {
        "height" : 320,
        "url" : "https://i.scdn.co/image/ab67616100005174acb3ca9ad1d0a8f11f5b6212",
        "width" : 320
      }, {
        "height" : 160,
        "url" : "https://i.scdn.co/image/ab6761610000f178acb3ca9ad1d0a8f11f5b6212",
        "width" : 160
      } ],
      "name" : "JBEEZY LIL HAITI BABY",
      "popularity" : 2,
      "type" : "artist",
      "uri" : "spotify:artist:6H5xaiH5Pop42LtkUa3QOT"
    }, {
      "external_urls" : {
        "spotify" : "https://open.spotify.com/artist/4ykeD8kE7hEIilpL39kwWI"
      },
      "followers" : {
        "href" : null,
        "total" : 19
      },
      "genres" : [ ],
      "href" : "https://api.spotify.com/v1/artists/4ykeD8kE7hEIilpL39kwWI",
      "id" : "4ykeD8kE7hEIilpL39kwWI",
      "images" : [ {
        "height" : 640,
        "url" : "https://i.scdn.co/image/ab67616d0000b273dca65f8cc1484fa5587899b1",
        "width" : 640
      }, {
        "height" : 300,
        "url" : "https://i.scdn.co/image/ab67616d00001e02dca65f8cc1484fa5587899b1",
        "width" : 300
      }, {
        "height" : 64,
        "url" : "https://i.scdn.co/image/ab67616d00004851dca65f8cc1484fa5587899b1",
        "width" : 64
      } ],
      "name" : "LIL BABY MAC",
      "popularity" : 1,
      "type" : "artist",
      "uri" : "spotify:artist:4ykeD8kE7hEIilpL39kwWI"
    }, {
      "external_urls" : {
        "spotify" : "https://open.spotify.com/artist/7t98RoWcf6CUFZrLExlXVw"
      },
      "followers" : {
        "href" : null,
        "total" : 0
      },
      "genres" : [ ],
      "href" : "https://api.spotify.com/v1/artists/7t98RoWcf6CUFZrLExlXVw",
      "id" : "7t98RoWcf6CUFZrLExlXVw",
      "images" : [ ],
      "name" : "BabyGlock LilRed",
      "popularity" : 0,
      "type" : "artist",
      "uri" : "spotify:artist:7t98RoWcf6CUFZrLExlXVw"
    }, {
      "external_urls" : {
        "spotify" : "https://open.spotify.com/artist/2HTAuvUt9qKZ0vDA1atVi3"
      },
      "followers" : {
        "href" : null,
        "total" : 359
      },
      "genres" : [ ],
      "href" : "https://api.spotify.com/v1/artists/2HTAuvUt9qKZ0vDA1atVi3",
      "id" : "2HTAuvUt9qKZ0vDA1atVi3",
      "images" : [ {
        "height" : 640,
        "url" : "https://i.scdn.co/image/ab67616d0000b273e105c79013631477f2c4949d",
        "width" : 640
      }, {
        "height" : 300,
        "url" : "https://i.scdn.co/image/ab67616d00001e02e105c79013631477f2c4949d",
        "width" : 300
      }, {
        "height" : 64,
        "url" : "https://i.scdn.co/image/ab67616d00004851e105c79013631477f2c4949d",
        "width" : 64
      } ],
      "name" : "Lil Baby, Future & Yung Tripp",
      "popularity" : 0,
      "type" : "artist",
      "uri" : "spotify:artist:2HTAuvUt9qKZ0vDA1atVi3"
    }, {
      "external_urls" : {
        "spotify" : "https://open.spotify.com/artist/76iYPUkRMTwtgsYtRmxNZk"
      },
      "followers" : {
        "href" : null,
        "total" : 1
      },
      "genres" : [ ],
      "href" : "https://api.spotify.com/v1/artists/76iYPUkRMTwtgsYtRmxNZk",
      "id" : "76iYPUkRMTwtgsYtRmxNZk",
      "images" : [ ],
      "name" : "Lilbrinna Baby",
      "popularity" : 0,
      "type" : "artist",
      "uri" : "spotify:artist:76iYPUkRMTwtgsYtRmxNZk"
    } ],
    "limit" : 20,
    "next" : "https://api.spotify.com/v1/search?query=+Lil+Baby&type=artist&market=US&offset=20&limit=20",
    "offset" : 0,
    "previous" : null,
    "total" : 223
  }
}