{
  "artists" : {
    "href" : "https://api.spotify.com/v1/search?query=+NIKI&type=artist&market=US&offset=0&limit=20",
    "items" : [ {
      "external_urls" : {
        "spotify" : "https://open.spotify.com/artist/2kxP07DLgs4xlWz8YHlvfh"
      },
      "followers" : {
        "href" : null,
        "total" : 1362348
      },
      "genres" : [ "indonesian r&b", "pop" ],
      "href" : "https://api.spotify.com/v1/artists/2kxP07DLgs4xlWz8YHlvfh",
      "id" : "2kxP07DLgs4xlWz8YHlvfh",
      "images" : [ {
        "height" : 640,
        "url" : "https://i.scdn.co/image/ab6761610000e5ebd5a652e1daf030c49c401a87",
        "width" : 640
      }, {
        "height" : 320,
        "url" : "https://i.scdn.co/image/ab67616100005174d5a652e1daf030c49c401a87",
        "width" : 320
      }, {
        "height" : 160,
        "url" : "https://i.scdn.co/image/ab6761610000f178d5a652e1daf030c49c401a87",
        "width" : 160
      } ],
      "name" : "NIKI",
      "popularity" : 78,
      "type" : "artist",
      "uri" : "spotify:artist:2kxP07DLgs4xlWz8YHlvfh"
    }, {
      "external_urls" : {
        "spotify" : "https://open.spotify.com/artist/47zSdHUfF93kgKjOVGKxU3"
      },
      "followers" : {
        "href" : null,
        "total" : 1494
      },
      "genres" : [ ],
      "href" : "https://api.spotify.com/v1/artists/47zSdHUfF93kgKjOVGKxU3",
      "id" : "47zSdHUfF93kgKjOVGKxU3",
      "images" : [ {
        "height" : 640,
        "url" : "https://i.scdn.co/image/ab6761610000e5eb6f9e02616492b17c0e3baa76",
        "width" : 640
      }, {
        "height" : 320,
        "url" : "https://i.scdn.co/image/ab676161000051746f9e02616492b17c0e3baa76",
        "width" : 320
      }, {
        "height" : 160,
        "url" : "https://i.scdn.co/image/ab6761610000f1786f9e02616492b17c0e3baa76",
        "width" : 160
      } ],
      "name" : "Niki Randa",
      "popularity" : 42,
      "type" : "artist",
      "uri" : "spotify:artist:47zSdHUfF93kgKjOVGKxU3"
    }, {
      "external_urls" : {
        "spotify" : "https://open.spotify.com/artist/3tPQOjkxO3mrYrrgkTeXgH"
      },
      "followers" : {
        "href" : null,
        "total" : 63344
      },
      "genres" : [ "desi pop", "modern bollywood" ],
      "href" : "https://api.spotify.com/v1/artists/3tPQOjkxO3mrYrrgkTeXgH",
      "id" : "3tPQOjkxO3mrYrrgkTeXgH",
      "images" : [ {
        "height" : 640,
        "url" : "https://i.scdn.co/image/ab6761610000e5eb5328de055afe34eccf1faeba",
        "width" : 640
      }, {
        "height" : 320,
        "url" : "https://i.scdn.co/image/ab676161000051745328de055afe34eccf1faeba",
        "width" : 320
      }, {
        "height" : 160,
        "url" : "https://i.scdn.co/image/ab6761610000f1785328de055afe34eccf1faeba",
        "width" : 160
      } ],
      "name" : "Nikhita Gandhi",
      "popularity" : 73,
      "type" : "artist",
      "uri" : "spotify:artist:3tPQOjkxO3mrYrrgkTeXgH"
    }, {
      "external_urls" : {
        "spotify" : "https://open.spotify.com/artist/6w5qVRuob9t7rfBj9vQfJl"
      },
      "followers" : {
        "href" : null,
        "total" : 54007
      },
      "genres" : [ "russian alt pop", "russian hip hop" ],
      "href" : "https://api.spotify.com/v1/artists/6w5qVRuob9t7rfBj9vQfJl",
      "id" : "6w5qVRuob9t7rfBj9vQfJl",
      "images" : [ {
        "height" : 640,
        "url" : "https://i.scdn.co/image/ab6761610000e5eb96e609be226ca53e223bc943",
        "width" : 640
      }, {
        "height" : 320,
        "url" : "https://i.scdn.co/image/ab6761610000517496e609be226ca53e223bc943",
        "width" : 320
      }, {
        "height" : 160,
        "url" : "https://i.scdn.co/image/ab6761610000f17896e609be226ca53e223bc943",
        "width" : 160
      } ],
      "name" : "Nikitata",
      "popularity" : 62,
      "type" : "artist",
      "uri" : "spotify:artist:6w5qVRuob9t7rfBj9vQfJl"
    }, {
      "external_urls" : {
        "spotify" : "https://open.spotify.com/artist/3TyzFhjcE4DtMNc5edayQl"
      },
      "followers" : {
        "href" : null,
        "total" : 328
      },
      "genres" : [ ],
      "href" : "https://api.spotify.com/v1/artists/3TyzFhjcE4DtMNc5edayQl",
      "id" : "3TyzFhjcE4DtMNc5edayQl",
      "images" : [ ],
      "name" : "Nikisha Reyes-Pile",
      "popularity" : 51,
      "type" : "artist",
      "uri" : "spotify:artist:3TyzFhjcE4DtMNc5edayQl"
    }, {
      "external_urls" : {
        "spotify" : "https://open.spotify.com/artist/4dCWe2kVovhMtzhpKZAv0A"
      },
      "followers" : {
        "href" : null,
        "total" : 3651
      },
      "genres" : [ ],
      "href" : "https://api.spotify.com/v1/artists/4dCWe2kVovhMtzhpKZAv0A",
      "id" : "4dCWe2kVovhMtzhpKZAv0A",
      "images" : [ ],
      "name" : "Niki Yang",
      "popularity" : 41,
      "type" : "artist",
      "uri" : "spotify:artist:4dCWe2kVovhMtzhpKZAv0A"
    }, {
      "external_urls" : {
        "spotify" : "https://open.spotify.com/artist/4hiLNlqr4vQdiuo1aQKSXS"
      },
      "followers" : {
        "href" : null,
        "total" : 79674
      },
      "genres" : [ "art pop", "electropop", "indietronica", "metropopolis", "swedish electropop", "swedish indie pop", "swedish synthpop" ],
      "href" : "https://api.spotify.com/v1/artists/4hiLNlqr4vQdiuo1aQKSXS",
      "id" : "4hiLNlqr4vQdiuo1aQKSXS",
      "images" : [ {
        "height" : 1000,
        "url" : "https://i.scdn.co/image/bec2091e8189f1c64a357c3b36445d83547b74d6",
        "width" : 1000
      }, {
        "height" : 640,
        "url" : "https://i.scdn.co/image/ad6c7c714854a7bdb594b79b4ac1e10fcfd0a257",
        "width" : 640
      }, {
        "height" : 200,
        "url" : "https://i.scdn.co/image/36487bfd9bc4e83abc7d07068d422214a08da0f4",
        "width" : 200
      }, {
        "height" : 64,
        "url" : "https://i.scdn.co/image/8fd15811c6b39cc2520b8dfc734e6a5f5b8b2fa3",
        "width" : 64
      } ],
      "name" : "Niki & The Dove",
      "popularity" : 47,
      "type" : "artist",
      "uri" : "spotify:artist:4hiLNlqr4vQdiuo1aQKSXS"
    }, {
      "external_urls" : {
        "spotify" : "https://open.spotify.com/artist/6YsltkujF8WzkCRM9S5vy5"
      },
      "followers" : {
        "href" : null,
        "total" : 36654
      },
      "genres" : [ "social media pop" ],
      "href" : "https://api.spotify.com/v1/artists/6YsltkujF8WzkCRM9S5vy5",
      "id" : "6YsltkujF8WzkCRM9S5vy5",
      "images" : [ {
        "height" : 640,
        "url" : "https://i.scdn.co/image/ab6761610000e5eb74e407d7004e44e9e34c8a9c",
        "width" : 640
      }, {
        "height" : 320,
        "url" : "https://i.scdn.co/image/ab6761610000517474e407d7004e44e9e34c8a9c",
        "width" : 320
      }, {
        "height" : 160,
        "url" : "https://i.scdn.co/image/ab6761610000f17874e407d7004e44e9e34c8a9c",
        "width" : 160
      } ],
      "name" : "NIKI DEMAR",
      "popularity" : 43,
      "type" : "artist",
      "uri" : "spotify:artist:6YsltkujF8WzkCRM9S5vy5"
    }, {
      "external_urls" : {
        "spotify" : "https://open.spotify.com/artist/4nqXJm2HDxew6vauRbyUAM"
      },
      "followers" : {
        "href" : null,
        "total" : 7380
      },
      "genres" : [ "country pop" ],
      "href" : "https://api.spotify.com/v1/artists/4nqXJm2HDxew6vauRbyUAM",
      "id" : "4nqXJm2HDxew6vauRbyUAM",
      "images" : [ {
        "height" : 640,
        "url" : "https://i.scdn.co/image/ab6761610000e5eb71cbd126e3a5d908fcaf590e",
        "width" : 640
      }, {
        "height" : 320,
        "url" : "https://i.scdn.co/image/ab6761610000517471cbd126e3a5d908fcaf590e",
        "width" : 320
      }, {
        "height" : 160,
        "url" : "https://i.scdn.co/image/ab6761610000f17871cbd126e3a5d908fcaf590e",
        "width" : 160
      } ],
      "name" : "Nikita Karmen",
      "popularity" : 35,
      "type" : "artist",
      "uri" : "spotify:artist:4nqXJm2HDxew6vauRbyUAM"
    }, {
      "external_urls" : {
        "spotify" : "https://open.spotify.com/artist/26PbdWuDsJPMLPA4vTveNE"
      },
      "followers" : {
        "href" : null,
        "total" : 12539
      },
      "genres" : [ ],
      "href" : "https://api.spotify.com/v1/artists/26PbdWuDsJPMLPA4vTveNE",
      "id" : "26PbdWuDsJPMLPA4vTveNE",
      "images" : [ {
        "height" : 640,
        "url" : "https://i.scdn.co/image/ab6761610000e5ebf770569e4e561d2b09ca5636",
        "width" : 640
      }, {
        "height" : 320,
        "url" : "https://i.scdn.co/image/ab67616100005174f770569e4e561d2b09ca5636",
        "width" : 320
      }, {
        "height" : 160,
        "url" : "https://i.scdn.co/image/ab6761610000f178f770569e4e561d2b09ca5636",
        "width" : 160
      } ],
      "name" : "Nataliya Nikitenko",
      "popularity" : 36,
      "type" : "artist",
      "uri" : "spotify:artist:26PbdWuDsJPMLPA4vTveNE"
    }, {
      "external_urls" : {
        "spotify" : "https://open.spotify.com/artist/5F6RXixH6tg6wxOoZblmhS"
      },
      "followers" : {
        "href" : null,
        "total" : 2359
      },
      "genres" : [ "classical piano", "russian classical piano" ],
      "href" : "https://api.spotify.com/v1/artists/5F6RXixH6tg6wxOoZblmhS",
      "id" : "5F6RXixH6tg6wxOoZblmhS",
      "images" : [ {
        "height" : 1000,
        "url" : "https://i.scdn.co/image/3c574d8297c7dc63f1e302a0e3af6a8fd708d977",
        "width" : 1000
      }, {
        "height" : 640,
        "url" : "https://i.scdn.co/image/39a8bd8b07896db40747b7b1c6d8aca45b2a8a23",
        "width" : 640
      }, {
        "height" : 200,
        "url" : "https://i.scdn.co/image/42d669930bf0ab8ffc6a3a762d2150b5c7a0d6d6",
        "width" : 200
      }, {
        "height" : 64,
        "url" : "https://i.scdn.co/image/86233e2bca0e932b4425dde0f2efe8e6c93eb303",
        "width" : 64
      } ],
      "name" : "Nikita Magaloff",
      "popularity" : 40,
      "type" : "artist",
      "uri" : "spotify:artist:5F6RXixH6tg6wxOoZblmhS"
    }, {
      "external_urls" : {
        "spotify" : "https://open.spotify.com/artist/2C8TRvpR3834esUbCEHkqe"
      },
      "followers" : {
        "href" : null,
        "total" : 1712
      },
      "genres" : [ ],
      "href" : "https://api.spotify.com/v1/artists/2C8TRvpR3834esUbCEHkqe",
      "id" : "2C8TRvpR3834esUbCEHkqe",
      "images" : [ {
        "height" : 640,
        "url" : "https://i.scdn.co/image/ab6761610000e5ebd8caa2cf8df0eef4a78c18f2",
        "width" : 640
      }, {
        "height" : 320,
        "url" : "https://i.scdn.co/image/ab67616100005174d8caa2cf8df0eef4a78c18f2",
        "width" : 320
      }, {
        "height" : 160,
        "url" : "https://i.scdn.co/image/ab6761610000f178d8caa2cf8df0eef4a78c18f2",
        "width" : 160
      } ],
      "name" : "Nikita Afonso",
      "popularity" : 40,
      "type" : "artist",
      "uri" : "spotify:artist:2C8TRvpR3834esUbCEHkqe"
    }, {
      "external_urls" : {
        "spotify" : "https://open.spotify.com/artist/4ky35VlSWzD5iKz1eLFaUU"
      },
      "followers" : {
        "href" : null,
        "total" : 134207
      },
      "genres" : [ "social media pop", "teen pop" ],
      "href" : "https://api.spotify.com/v1/artists/4ky35VlSWzD5iKz1eLFaUU",
      "id" : "4ky35VlSWzD5iKz1eLFaUU",
      "images" : [ {
        "height" : 640,
        "url" : "https://i.scdn.co/image/ab6761610000e5eb59f86ec3ed8edade9f69a0b2",
        "width" : 640
      }, {
        "height" : 320,
        "url" : "https://i.scdn.co/image/ab6761610000517459f86ec3ed8edade9f69a0b2",
        "width" : 320
      }, {
        "height" : 160,
        "url" : "https://i.scdn.co/image/ab6761610000f17859f86ec3ed8edade9f69a0b2",
        "width" : 160
      } ],
      "name" : "Niki & Gabi",
      "popularity" : 36,
      "type" : "artist",
      "uri" : "spotify:artist:4ky35VlSWzD5iKz1eLFaUU"
    }, {
      "external_urls" : {
        "spotify" : "https://open.spotify.com/artist/4pSziqaMTlLTtXeOq0Wa2b"
      },
      "followers" : {
        "href" : null,
        "total" : 2097
      },
      "genres" : [ ],
      "href" : "https://api.spotify.com/v1/artists/4pSziqaMTlLTtXeOq0Wa2b",
      "id" : "4pSziqaMTlLTtXeOq0Wa2b",
      "images" : [ {
        "height" : 640,
        "url" : "https://i.scdn.co/image/ab6761610000e5eb994800afa8a84393faa43fa0",
        "width" : 640
      }, {
        "height" : 320,
        "url" : "https://i.scdn.co/image/ab67616100005174994800afa8a84393faa43fa0",
        "width" : 320
      }, {
        "height" : 160,
        "url" : "https://i.scdn.co/image/ab6761610000f178994800afa8a84393faa43fa0",
        "width" : 160
      } ],
      "name" : "Nikill",
      "popularity" : 30,
      "type" : "artist",
      "uri" : "spotify:artist:4pSziqaMTlLTtXeOq0Wa2b"
    }, {
      "external_urls" : {
        "spotify" : "https://open.spotify.com/artist/7H9Yrb2KoVErAUw0S0UVvv"
      },
      "followers" : {
        "href" : null,
        "total" : 3673
      },
      "genres" : [ ],
      "href" : "https://api.spotify.com/v1/artists/7H9Yrb2KoVErAUw0S0UVvv",
      "id" : "7H9Yrb2KoVErAUw0S0UVvv",
      "images" : [ {
        "height" : 640,
        "url" : "https://i.scdn.co/image/ab6761610000e5eb718f0c9162ad4dedac0dad8b",
        "width" : 640
      }, {
        "height" : 320,
        "url" : "https://i.scdn.co/image/ab67616100005174718f0c9162ad4dedac0dad8b",
        "width" : 320
      }, {
        "height" : 160,
        "url" : "https://i.scdn.co/image/ab6761610000f178718f0c9162ad4dedac0dad8b",
        "width" : 160
      } ],
      "name" : "Nikitch",
      "popularity" : 35,
      "type" : "artist",
      "uri" : "spotify:artist:7H9Yrb2KoVErAUw0S0UVvv"
    }, {
      "external_urls" : {
        "spotify" : "https://open.spotify.com/artist/2qRPglgHuD8IU7KVGfOYnT"
      },
      "followers" : {
        "href" : null,
        "total" : 479
      },
      "genres" : [ ],
      "href" : "https://api.spotify.com/v1/artists/2qRPglgHuD8IU7KVGfOYnT",
      "id" : "2qRPglgHuD8IU7KVGfOYnT",
      "images" : [ {
        "height" : 640,
        "url" : "https://i.scdn.co/image/ab67616d0000b273fc79c464f6797c91ec5c69b9",
        "width" : 640
      }, {
        "height" : 300,
        "url" : "https://i.scdn.co/image/ab67616d00001e02fc79c464f6797c91ec5c69b9",
        "width" : 300
      }, {
        "height" : 64,
        "url" : "https://i.scdn.co/image/ab67616d00004851fc79c464f6797c91ec5c69b9",
        "width" : 64
      } ],
      "name" : "Nikibi",
      "popularity" : 31,
      "type" : "artist",
      "uri" : "spotify:artist:2qRPglgHuD8IU7KVGfOYnT"
    }, {
      "external_urls" : {
        "spotify" : "https://open.spotify.com/artist/1yQKzWOHXJQSEnOXrHDl4X"
      },
      "followers" : {
        "href" : null,
        "total" : 16121
      },
      "genres" : [ "kenyan pop" ],
      "href" : "https://api.spotify.com/v1/artists/1yQKzWOHXJQSEnOXrHDl4X",
      "id" : "1yQKzWOHXJQSEnOXrHDl4X",
      "images" : [ {
        "height" : 640,
        "url" : "https://i.scdn.co/image/ab67616d0000b273441f1e6077c84dc2d8d382de",
        "width" : 640
      }, {
        "height" : 300,
        "url" : "https://i.scdn.co/image/ab67616d00001e02441f1e6077c84dc2d8d382de",
        "width" : 300
      }, {
        "height" : 64,
        "url" : "https://i.scdn.co/image/ab67616d00004851441f1e6077c84dc2d8d382de",
        "width" : 64
      } ],
      "name" : "Nikita Kering'",
      "popularity" : 38,
      "type" : "artist",
      "uri" : "spotify:artist:1yQKzWOHXJQSEnOXrHDl4X"
    }, {
      "external_urls" : {
        "spotify" : "https://open.spotify.com/artist/0Rx7qgEFYklSZgXkFgwLZL"
      },
      "followers" : {
        "href" : null,
        "total" : 15710
      },
      "genres" : [ "danish techno", "industrial techno" ],
      "href" : "https://api.spotify.com/v1/artists/0Rx7qgEFYklSZgXkFgwLZL",
      "id" : "0Rx7qgEFYklSZgXkFgwLZL",
      "images" : [ {
        "height" : 640,
        "url" : "https://i.scdn.co/image/ab6761610000e5eb2b7952000381cfec702f2fc6",
        "width" : 640
      }, {
        "height" : 320,
        "url" : "https://i.scdn.co/image/ab676161000051742b7952000381cfec702f2fc6",
        "width" : 320
      }, {
        "height" : 160,
        "url" : "https://i.scdn.co/image/ab6761610000f1782b7952000381cfec702f2fc6",
        "width" : 160
      } ],
      "name" : "Niki Istrefi",
      "popularity" : 40,
      "type" : "artist",
      "uri" : "spotify:artist:0Rx7qgEFYklSZgXkFgwLZL"
    }, {
      "external_urls" : {
        "spotify" : "https://open.spotify.com/artist/6islVw4ETwAZ7uYHD7aBxe"
      },
      "followers" : {
        "href" : null,
        "total" : 77
      },
      "genres" : [ ],
      "href" : "https://api.spotify.com/v1/artists/6islVw4ETwAZ7uYHD7aBxe",
      "id" : "6islVw4ETwAZ7uYHD7aBxe",
      "images" : [ ],
      "name" : "Nikita Hopkins",
      "popularity" : 25,
      "type" : "artist",
      "uri" : "spotify:artist:6islVw4ETwAZ7uYHD7aBxe"
    }, {
      "external_urls" : {
        "spotify" : "https://open.spotify.com/artist/7vH2y3wXXOnATvBI4ZmdVH"
      },
      "followers" : {
        "href" : null,
        "total" : 109
      },
      "genres" : [ ],
      "href" : "https://api.spotify.com/v1/artists/7vH2y3wXXOnATvBI4ZmdVH",
      "id" : "7vH2y3wXXOnATvBI4ZmdVH",
      "images" : [ ],
      "name" : "niki",
      "popularity" : 23,
      "type" : "artist",
      "uri" : "spotify:artist:7vH2y3wXXOnATvBI4ZmdVH"
    } ],
    "limit" : 20,
    "next" : "https://api.spotify.com/v1/search?query=+NIKI&type=artist&market=US&offset=20&limit=20",
    "offset" : 0,
    "previous" : null,
    "total" : 1877
  }
}