{
  "artists" : {
    "href" : "https://api.spotify.com/v1/search?query=+Bedouin&type=artist&market=US&offset=0&limit=20",
    "items" : [ {
      "external_urls" : {
        "spotify" : "https://open.spotify.com/artist/6IiZemRMna678qNhiRkYI5"
      },
      "followers" : {
        "href" : null,
        "total" : 69863
      },
      "genres" : [ "art pop", "chamber folk", "chamber pop", "folk", "indie folk", "indie pop" ],
      "href" : "https://api.spotify.com/v1/artists/6IiZemRMna678qNhiRkYI5",
      "id" : "6IiZemRMna678qNhiRkYI5",
      "images" : [ {
        "height" : 640,
        "url" : "https://i.scdn.co/image/ab6761610000e5eba726f685330009f17e10613d",
        "width" : 640
      }, {
        "height" : 320,
        "url" : "https://i.scdn.co/image/ab67616100005174a726f685330009f17e10613d",
        "width" : 320
      }, {
        "height" : 160,
        "url" : "https://i.scdn.co/image/ab6761610000f178a726f685330009f17e10613d",
        "width" : 160
      } ],
      "name" : "Bedouine",
      "popularity" : 51,
      "type" : "artist",
      "uri" : "spotify:artist:6IiZemRMna678qNhiRkYI5"
    }, {
      "external_urls" : {
        "spotify" : "https://open.spotify.com/artist/5bKdC6382t97Qnpvs81Rqx"
      },
      "followers" : {
        "href" : null,
        "total" : 69262
      },
      "genres" : [ "arab electronic", "ethnotronica", "organic electronic", "organic house" ],
      "href" : "https://api.spotify.com/v1/artists/5bKdC6382t97Qnpvs81Rqx",
      "id" : "5bKdC6382t97Qnpvs81Rqx",
      "images" : [ {
        "height" : 640,
        "url" : "https://i.scdn.co/image/ab6761610000e5ebc2eec8855322126525fce8af",
        "width" : 640
      }, {
        "height" : 320,
        "url" : "https://i.scdn.co/image/ab67616100005174c2eec8855322126525fce8af",
        "width" : 320
      }, {
        "height" : 160,
        "url" : "https://i.scdn.co/image/ab6761610000f178c2eec8855322126525fce8af",
        "width" : 160
      } ],
      "name" : "Bedouin",
      "popularity" : 47,
      "type" : "artist",
      "uri" : "spotify:artist:5bKdC6382t97Qnpvs81Rqx"
    }, {
      "external_urls" : {
        "spotify" : "https://open.spotify.com/artist/2Au2mS47rMRkqbU4XJqKMh"
      },
      "followers" : {
        "href" : null,
        "total" : 56627
      },
      "genres" : [ "canadian rock", "kingston on indie" ],
      "href" : "https://api.spotify.com/v1/artists/2Au2mS47rMRkqbU4XJqKMh",
      "id" : "2Au2mS47rMRkqbU4XJqKMh",
      "images" : [ {
        "height" : 640,
        "url" : "https://i.scdn.co/image/ab6761610000e5eb45c31ba029076b621b744ab3",
        "width" : 640
      }, {
        "height" : 320,
        "url" : "https://i.scdn.co/image/ab6761610000517445c31ba029076b621b744ab3",
        "width" : 320
      }, {
        "height" : 160,
        "url" : "https://i.scdn.co/image/ab6761610000f17845c31ba029076b621b744ab3",
        "width" : 160
      } ],
      "name" : "Bedouin Soundclash",
      "popularity" : 42,
      "type" : "artist",
      "uri" : "spotify:artist:2Au2mS47rMRkqbU4XJqKMh"
    }, {
      "external_urls" : {
        "spotify" : "https://open.spotify.com/artist/0dOAYwm9ZFUqHLczUorSxh"
      },
      "followers" : {
        "href" : null,
        "total" : 2841
      },
      "genres" : [ "lebanese indie" ],
      "href" : "https://api.spotify.com/v1/artists/0dOAYwm9ZFUqHLczUorSxh",
      "id" : "0dOAYwm9ZFUqHLczUorSxh",
      "images" : [ {
        "height" : 640,
        "url" : "https://i.scdn.co/image/ab67616d0000b2734bb958af17c988459acfe23b",
        "width" : 640
      }, {
        "height" : 300,
        "url" : "https://i.scdn.co/image/ab67616d00001e024bb958af17c988459acfe23b",
        "width" : 300
      }, {
        "height" : 64,
        "url" : "https://i.scdn.co/image/ab67616d000048514bb958af17c988459acfe23b",
        "width" : 64
      } ],
      "name" : "Bedouin Burger",
      "popularity" : 26,
      "type" : "artist",
      "uri" : "spotify:artist:0dOAYwm9ZFUqHLczUorSxh"
    }, {
      "external_urls" : {
        "spotify" : "https://open.spotify.com/artist/69rm1lAHokysa2NBh4ZwV0"
      },
      "followers" : {
        "href" : null,
        "total" : 342
      },
      "genres" : [ ],
      "href" : "https://api.spotify.com/v1/artists/69rm1lAHokysa2NBh4ZwV0",
      "id" : "69rm1lAHokysa2NBh4ZwV0",
      "images" : [ ],
      "name" : "Bedouin Ascent",
      "popularity" : 10,
      "type" : "artist",
      "uri" : "spotify:artist:69rm1lAHokysa2NBh4ZwV0"
    }, {
      "external_urls" : {
        "spotify" : "https://open.spotify.com/artist/5m2iS8f5GN0DXkEiLmPJwc"
      },
      "followers" : {
        "href" : null,
        "total" : 93
      },
      "genres" : [ ],
      "href" : "https://api.spotify.com/v1/artists/5m2iS8f5GN0DXkEiLmPJwc",
      "id" : "5m2iS8f5GN0DXkEiLmPJwc",
      "images" : [ {
        "height" : 640,
        "url" : "https://i.scdn.co/image/ab67616d0000b273c17850300d90c6ed8f1cd5da",
        "width" : 640
      }, {
        "height" : 300,
        "url" : "https://i.scdn.co/image/ab67616d00001e02c17850300d90c6ed8f1cd5da",
        "width" : 300
      }, {
        "height" : 64,
        "url" : "https://i.scdn.co/image/ab67616d00004851c17850300d90c6ed8f1cd5da",
        "width" : 64
      } ],
      "name" : "Bedouin",
      "popularity" : 1,
      "type" : "artist",
      "uri" : "spotify:artist:5m2iS8f5GN0DXkEiLmPJwc"
    }, {
      "external_urls" : {
        "spotify" : "https://open.spotify.com/artist/1Q3Xn7uQCnOM2RqaYYwWcf"
      },
      "followers" : {
        "href" : null,
        "total" : 299
      },
      "genres" : [ ],
      "href" : "https://api.spotify.com/v1/artists/1Q3Xn7uQCnOM2RqaYYwWcf",
      "id" : "1Q3Xn7uQCnOM2RqaYYwWcf",
      "images" : [ {
        "height" : 640,
        "url" : "https://i.scdn.co/image/ab67616d0000b2730f934f6fb350a5abdc5611ab",
        "width" : 640
      }, {
        "height" : 300,
        "url" : "https://i.scdn.co/image/ab67616d00001e020f934f6fb350a5abdc5611ab",
        "width" : 300
      }, {
        "height" : 64,
        "url" : "https://i.scdn.co/image/ab67616d000048510f934f6fb350a5abdc5611ab",
        "width" : 64
      } ],
      "name" : "Bedouin Jerry Can Band",
      "popularity" : 2,
      "type" : "artist",
      "uri" : "spotify:artist:1Q3Xn7uQCnOM2RqaYYwWcf"
    }, {
      "external_urls" : {
        "spotify" : "https://open.spotify.com/artist/36S1pP56LI1tLpsChbVBuE"
      },
      "followers" : {
        "href" : null,
        "total" : 12
      },
      "genres" : [ ],
      "href" : "https://api.spotify.com/v1/artists/36S1pP56LI1tLpsChbVBuE",
      "id" : "36S1pP56LI1tLpsChbVBuE",
      "images" : [ {
        "height" : 640,
        "url" : "https://i.scdn.co/image/ab67616d0000b2730e7df48b03747dc08b43b9a7",
        "width" : 640
      }, {
        "height" : 300,
        "url" : "https://i.scdn.co/image/ab67616d00001e020e7df48b03747dc08b43b9a7",
        "width" : 300
      }, {
        "height" : 64,
        "url" : "https://i.scdn.co/image/ab67616d000048510e7df48b03747dc08b43b9a7",
        "width" : 64
      } ],
      "name" : "Bedouin",
      "popularity" : 0,
      "type" : "artist",
      "uri" : "spotify:artist:36S1pP56LI1tLpsChbVBuE"
    }, {
      "external_urls" : {
        "spotify" : "https://open.spotify.com/artist/61pVATA8Px6mV3Fyb6ToED"
      },
      "followers" : {
        "href" : null,
        "total" : 202
      },
      "genres" : [ "egyptian traditional" ],
      "href" : "https://api.spotify.com/v1/artists/61pVATA8Px6mV3Fyb6ToED",
      "id" : "61pVATA8Px6mV3Fyb6ToED",
      "images" : [ {
        "height" : 640,
        "url" : "https://i.scdn.co/image/ab67616d0000b273b87958b63b989aa96999e903",
        "width" : 640
      }, {
        "height" : 300,
        "url" : "https://i.scdn.co/image/ab67616d00001e02b87958b63b989aa96999e903",
        "width" : 300
      }, {
        "height" : 64,
        "url" : "https://i.scdn.co/image/ab67616d00004851b87958b63b989aa96999e903",
        "width" : 64
      } ],
      "name" : "Bedouin Musicians",
      "popularity" : 2,
      "type" : "artist",
      "uri" : "spotify:artist:61pVATA8Px6mV3Fyb6ToED"
    }, {
      "external_urls" : {
        "spotify" : "https://open.spotify.com/artist/1pbjQKZ4tZCVdwW25eYd6r"
      },
      "followers" : {
        "href" : null,
        "total" : 11
      },
      "genres" : [ ],
      "href" : "https://api.spotify.com/v1/artists/1pbjQKZ4tZCVdwW25eYd6r",
      "id" : "1pbjQKZ4tZCVdwW25eYd6r",
      "images" : [ ],
      "name" : "Bedouin",
      "popularity" : 0,
      "type" : "artist",
      "uri" : "spotify:artist:1pbjQKZ4tZCVdwW25eYd6r"
    }, {
      "external_urls" : {
        "spotify" : "https://open.spotify.com/artist/38NbO8zCdrlFE0K6iV1kMK"
      },
      "followers" : {
        "href" : null,
        "total" : 28
      },
      "genres" : [ "deep chill-out" ],
      "href" : "https://api.spotify.com/v1/artists/38NbO8zCdrlFE0K6iV1kMK",
      "id" : "38NbO8zCdrlFE0K6iV1kMK",
      "images" : [ ],
      "name" : "Bedouin Spirit",
      "popularity" : 0,
      "type" : "artist",
      "uri" : "spotify:artist:38NbO8zCdrlFE0K6iV1kMK"
    }, {
      "external_urls" : {
        "spotify" : "https://open.spotify.com/artist/29T89ousjWUFi8ugdeMlS2"
      },
      "followers" : {
        "href" : null,
        "total" : 18
      },
      "genres" : [ ],
      "href" : "https://api.spotify.com/v1/artists/29T89ousjWUFi8ugdeMlS2",
      "id" : "29T89ousjWUFi8ugdeMlS2",
      "images" : [ {
        "height" : 640,
        "url" : "https://i.scdn.co/image/ab6761610000e5eb4f78c8b4697c60965dcbf142",
        "width" : 640
      }, {
        "height" : 320,
        "url" : "https://i.scdn.co/image/ab676161000051744f78c8b4697c60965dcbf142",
        "width" : 320
      }, {
        "height" : 160,
        "url" : "https://i.scdn.co/image/ab6761610000f1784f78c8b4697c60965dcbf142",
        "width" : 160
      } ],
      "name" : "BedouinBiscuit",
      "popularity" : 0,
      "type" : "artist",
      "uri" : "spotify:artist:29T89ousjWUFi8ugdeMlS2"
    }, {
      "external_urls" : {
        "spotify" : "https://open.spotify.com/artist/5wA02m919LvROmWwqLyYJx"
      },
      "followers" : {
        "href" : null,
        "total" : 5
      },
      "genres" : [ ],
      "href" : "https://api.spotify.com/v1/artists/5wA02m919LvROmWwqLyYJx",
      "id" : "5wA02m919LvROmWwqLyYJx",
      "images" : [ {
        "height" : 640,
        "url" : "https://i.scdn.co/image/ab67616d0000b273ba6cb2a5196c81d10d2a9e61",
        "width" : 640
      }, {
        "height" : 300,
        "url" : "https://i.scdn.co/image/ab67616d00001e02ba6cb2a5196c81d10d2a9e61",
        "width" : 300
      }, {
        "height" : 64,
        "url" : "https://i.scdn.co/image/ab67616d00004851ba6cb2a5196c81d10d2a9e61",
        "width" : 64
      } ],
      "name" : "American Bedouin",
      "popularity" : 0,
      "type" : "artist",
      "uri" : "spotify:artist:5wA02m919LvROmWwqLyYJx"
    }, {
      "external_urls" : {
        "spotify" : "https://open.spotify.com/artist/1ptaeBzKBKqw1MIMOzHBRo"
      },
      "followers" : {
        "href" : null,
        "total" : 34
      },
      "genres" : [ ],
      "href" : "https://api.spotify.com/v1/artists/1ptaeBzKBKqw1MIMOzHBRo",
      "id" : "1ptaeBzKBKqw1MIMOzHBRo",
      "images" : [ {
        "height" : 640,
        "url" : "https://i.scdn.co/image/ab67616d0000b273bc5a0a63d152646c8a52d544",
        "width" : 640
      }, {
        "height" : 300,
        "url" : "https://i.scdn.co/image/ab67616d00001e02bc5a0a63d152646c8a52d544",
        "width" : 300
      }, {
        "height" : 64,
        "url" : "https://i.scdn.co/image/ab67616d00004851bc5a0a63d152646c8a52d544",
        "width" : 64
      } ],
      "name" : "Bedouin DJ",
      "popularity" : 0,
      "type" : "artist",
      "uri" : "spotify:artist:1ptaeBzKBKqw1MIMOzHBRo"
    }, {
      "external_urls" : {
        "spotify" : "https://open.spotify.com/artist/6W0dBRjTNCfr7PpaR0Ou4h"
      },
      "followers" : {
        "href" : null,
        "total" : 5
      },
      "genres" : [ ],
      "href" : "https://api.spotify.com/v1/artists/6W0dBRjTNCfr7PpaR0Ou4h",
      "id" : "6W0dBRjTNCfr7PpaR0Ou4h",
      "images" : [ ],
      "name" : "Bedouin, The",
      "popularity" : 0,
      "type" : "artist",
      "uri" : "spotify:artist:6W0dBRjTNCfr7PpaR0Ou4h"
    }, {
      "external_urls" : {
        "spotify" : "https://open.spotify.com/artist/25PP9XgJRHziqTLKZ0fZcj"
      },
      "followers" : {
        "href" : null,
        "total" : 38
      },
      "genres" : [ ],
      "href" : "https://api.spotify.com/v1/artists/25PP9XgJRHziqTLKZ0fZcj",
      "id" : "25PP9XgJRHziqTLKZ0fZcj",
      "images" : [ {
        "height" : 640,
        "url" : "https://i.scdn.co/image/ab67616d0000b273740363877a316e0942467b03",
        "width" : 640
      }, {
        "height" : 300,
        "url" : "https://i.scdn.co/image/ab67616d00001e02740363877a316e0942467b03",
        "width" : 300
      }, {
        "height" : 64,
        "url" : "https://i.scdn.co/image/ab67616d00004851740363877a316e0942467b03",
        "width" : 64
      } ],
      "name" : "Bedouin Sea",
      "popularity" : 0,
      "type" : "artist",
      "uri" : "spotify:artist:25PP9XgJRHziqTLKZ0fZcj"
    }, {
      "external_urls" : {
        "spotify" : "https://open.spotify.com/artist/51luXW6NuiCxsqVGWCoyUm"
      },
      "followers" : {
        "href" : null,
        "total" : 321
      },
      "genres" : [ ],
      "href" : "https://api.spotify.com/v1/artists/51luXW6NuiCxsqVGWCoyUm",
      "id" : "51luXW6NuiCxsqVGWCoyUm",
      "images" : [ {
        "height" : 640,
        "url" : "https://i.scdn.co/image/ab67616d0000b2739099c1ccc564544bed9dfbaa",
        "width" : 640
      }, {
        "height" : 300,
        "url" : "https://i.scdn.co/image/ab67616d00001e029099c1ccc564544bed9dfbaa",
        "width" : 300
      }, {
        "height" : 64,
        "url" : "https://i.scdn.co/image/ab67616d000048519099c1ccc564544bed9dfbaa",
        "width" : 64
      } ],
      "name" : "Bedouin Soundclash",
      "popularity" : 28,
      "type" : "artist",
      "uri" : "spotify:artist:51luXW6NuiCxsqVGWCoyUm"
    }, {
      "external_urls" : {
        "spotify" : "https://open.spotify.com/artist/5ucxurft0w7rL6zecix9tD"
      },
      "followers" : {
        "href" : null,
        "total" : 12
      },
      "genres" : [ ],
      "href" : "https://api.spotify.com/v1/artists/5ucxurft0w7rL6zecix9tD",
      "id" : "5ucxurft0w7rL6zecix9tD",
      "images" : [ {
        "height" : 640,
        "url" : "https://i.scdn.co/image/ab67616d0000b273649e82b849450a1bab57847c",
        "width" : 640
      }, {
        "height" : 300,
        "url" : "https://i.scdn.co/image/ab67616d00001e02649e82b849450a1bab57847c",
        "width" : 300
      }, {
        "height" : 64,
        "url" : "https://i.scdn.co/image/ab67616d00004851649e82b849450a1bab57847c",
        "width" : 64
      } ],
      "name" : "Bedouin Traxx",
      "popularity" : 0,
      "type" : "artist",
      "uri" : "spotify:artist:5ucxurft0w7rL6zecix9tD"
    }, {
      "external_urls" : {
        "spotify" : "https://open.spotify.com/artist/1oGqt5mnVNSIh19iKIgrF6"
      },
      "followers" : {
        "href" : null,
        "total" : 2
      },
      "genres" : [ ],
      "href" : "https://api.spotify.com/v1/artists/1oGqt5mnVNSIh19iKIgrF6",
      "id" : "1oGqt5mnVNSIh19iKIgrF6",
      "images" : [ {
        "height" : 640,
        "url" : "https://i.scdn.co/image/ab67616d0000b2734c25b062470c0e06d4a58652",
        "width" : 640
      }, {
        "height" : 300,
        "url" : "https://i.scdn.co/image/ab67616d00001e024c25b062470c0e06d4a58652",
        "width" : 300
      }, {
        "height" : 64,
        "url" : "https://i.scdn.co/image/ab67616d000048514c25b062470c0e06d4a58652",
        "width" : 64
      } ],
      "name" : "Bedouin Dust",
      "popularity" : 0,
      "type" : "artist",
      "uri" : "spotify:artist:1oGqt5mnVNSIh19iKIgrF6"
    }, {
      "external_urls" : {
        "spotify" : "https://open.spotify.com/artist/62Wl53e3N4rG6TkvoltiXW"
      },
      "followers" : {
        "href" : null,
        "total" : 5
      },
      "genres" : [ ],
      "href" : "https://api.spotify.com/v1/artists/62Wl53e3N4rG6TkvoltiXW",
      "id" : "62Wl53e3N4rG6TkvoltiXW",
      "images" : [ {
        "height" : 640,
        "url" : "https://i.scdn.co/image/ab67616d0000b273e36e0d71c43b2a88e5886f8d",
        "width" : 640
      }, {
        "height" : 300,
        "url" : "https://i.scdn.co/image/ab67616d00001e02e36e0d71c43b2a88e5886f8d",
        "width" : 300
      }, {
        "height" : 64,
        "url" : "https://i.scdn.co/image/ab67616d00004851e36e0d71c43b2a88e5886f8d",
        "width" : 64
      } ],
      "name" : "The Bedouin",
      "popularity" : 0,
      "type" : "artist",
      "uri" : "spotify:artist:62Wl53e3N4rG6TkvoltiXW"
    } ],
    "limit" : 20,
    "next" : "https://api.spotify.com/v1/search?query=+Bedouin&type=artist&market=US&offset=20&limit=20",
    "offset" : 0,
    "previous" : null,
    "total" : 28
  }
}