{
  "artists" : {
    "href" : "https://api.spotify.com/v1/search?query=+Belly&type=artist&market=US&offset=0&limit=20",
    "items" : [ {
      "external_urls" : {
        "spotify" : "https://open.spotify.com/artist/0FOWNUFHPnMy0vOw1siGqi"
      },
      "followers" : {
        "href" : null,
        "total" : 221864
      },
      "genres" : [ "canadian hip hop", "canadian trap", "pop rap", "rap", "trap", "trap soul" ],
      "href" : "https://api.spotify.com/v1/artists/0FOWNUFHPnMy0vOw1siGqi",
      "id" : "0FOWNUFHPnMy0vOw1siGqi",
      "images" : [ {
        "height" : 640,
        "url" : "https://i.scdn.co/image/ab6761610000e5eb2357b798cc2ff630c6f2c898",
        "width" : 640
      }, {
        "height" : 320,
        "url" : "https://i.scdn.co/image/ab676161000051742357b798cc2ff630c6f2c898",
        "width" : 320
      }, {
        "height" : 160,
        "url" : "https://i.scdn.co/image/ab6761610000f1782357b798cc2ff630c6f2c898",
        "width" : 160
      } ],
      "name" : "Belly",
      "popularity" : 67,
      "type" : "artist",
      "uri" : "spotify:artist:0FOWNUFHPnMy0vOw1siGqi"
    }, {
      "external_urls" : {
        "spotify" : "https://open.spotify.com/artist/380Pjmxow58W6Cp6MmASIW"
      },
      "followers" : {
        "href" : null,
        "total" : 5488
      },
      "genres" : [ ],
      "href" : "https://api.spotify.com/v1/artists/380Pjmxow58W6Cp6MmASIW",
      "id" : "380Pjmxow58W6Cp6MmASIW",
      "images" : [ {
        "height" : 640,
        "url" : "https://i.scdn.co/image/ab67616d0000b27379905b1440b90db3c01e2e1c",
        "width" : 640
      }, {
        "height" : 300,
        "url" : "https://i.scdn.co/image/ab67616d00001e0279905b1440b90db3c01e2e1c",
        "width" : 300
      }, {
        "height" : 64,
        "url" : "https://i.scdn.co/image/ab67616d0000485179905b1440b90db3c01e2e1c",
        "width" : 64
      } ],
      "name" : "BellyDancer",
      "popularity" : 55,
      "type" : "artist",
      "uri" : "spotify:artist:380Pjmxow58W6Cp6MmASIW"
    }, {
      "external_urls" : {
        "spotify" : "https://open.spotify.com/artist/3h1HOgVmvPlhqjz8o3LglL"
      },
      "followers" : {
        "href" : null,
        "total" : 35427
      },
      "genres" : [ "alternative pop", "alternative rock", "boston rock", "lilith" ],
      "href" : "https://api.spotify.com/v1/artists/3h1HOgVmvPlhqjz8o3LglL",
      "id" : "3h1HOgVmvPlhqjz8o3LglL",
      "images" : [ {
        "height" : 640,
        "url" : "https://i.scdn.co/image/ab6761610000e5eb1fc7df53b7b93f938ca246bb",
        "width" : 640
      }, {
        "height" : 320,
        "url" : "https://i.scdn.co/image/ab676161000051741fc7df53b7b93f938ca246bb",
        "width" : 320
      }, {
        "height" : 160,
        "url" : "https://i.scdn.co/image/ab6761610000f1781fc7df53b7b93f938ca246bb",
        "width" : 160
      } ],
      "name" : "Belly",
      "popularity" : 39,
      "type" : "artist",
      "uri" : "spotify:artist:3h1HOgVmvPlhqjz8o3LglL"
    }, {
      "external_urls" : {
        "spotify" : "https://open.spotify.com/artist/3Ovf2lytXSXWFM2cwsJACC"
      },
      "followers" : {
        "href" : null,
        "total" : 159562
      },
      "genres" : [ "acoustic blues", "appalachian folk", "blues", "country blues", "delta blues", "folk", "texas blues", "traditional blues", "traditional folk" ],
      "href" : "https://api.spotify.com/v1/artists/3Ovf2lytXSXWFM2cwsJACC",
      "id" : "3Ovf2lytXSXWFM2cwsJACC",
      "images" : [ {
        "height" : 1175,
        "url" : "https://i.scdn.co/image/249a0102184b63169aa476d3df2125b197c3523f",
        "width" : 911
      }, {
        "height" : 825,
        "url" : "https://i.scdn.co/image/c2de68356371867b957930529d32c9cc2b9e1580",
        "width" : 640
      }, {
        "height" : 258,
        "url" : "https://i.scdn.co/image/bf8849b01ff2b15404f3ed434820572e1ee24288",
        "width" : 200
      }, {
        "height" : 83,
        "url" : "https://i.scdn.co/image/b1c14fd5d3a6945c2295c5ee556bee86341af282",
        "width" : 64
      } ],
      "name" : "Lead Belly",
      "popularity" : 45,
      "type" : "artist",
      "uri" : "spotify:artist:3Ovf2lytXSXWFM2cwsJACC"
    }, {
      "external_urls" : {
        "spotify" : "https://open.spotify.com/artist/1EWnP7piatUeXggTXofm5g"
      },
      "followers" : {
        "href" : null,
        "total" : 120553
      },
      "genres" : [ "afroswing", "uk hip hop" ],
      "href" : "https://api.spotify.com/v1/artists/1EWnP7piatUeXggTXofm5g",
      "id" : "1EWnP7piatUeXggTXofm5g",
      "images" : [ {
        "height" : 640,
        "url" : "https://i.scdn.co/image/ab6761610000e5ebf8bcef19493506c3b103466c",
        "width" : 640
      }, {
        "height" : 320,
        "url" : "https://i.scdn.co/image/ab67616100005174f8bcef19493506c3b103466c",
        "width" : 320
      }, {
        "height" : 160,
        "url" : "https://i.scdn.co/image/ab6761610000f178f8bcef19493506c3b103466c",
        "width" : 160
      } ],
      "name" : "Belly Squad",
      "popularity" : 47,
      "type" : "artist",
      "uri" : "spotify:artist:1EWnP7piatUeXggTXofm5g"
    }, {
      "external_urls" : {
        "spotify" : "https://open.spotify.com/artist/0rVFwtkcsz856Hi1zNwDgK"
      },
      "followers" : {
        "href" : null,
        "total" : 1179
      },
      "genres" : [ ],
      "href" : "https://api.spotify.com/v1/artists/0rVFwtkcsz856Hi1zNwDgK",
      "id" : "0rVFwtkcsz856Hi1zNwDgK",
      "images" : [ {
        "height" : 640,
        "url" : "https://i.scdn.co/image/ab67616d0000b2738c8cadb35f9a3cdc4d13d424",
        "width" : 640
      }, {
        "height" : 300,
        "url" : "https://i.scdn.co/image/ab67616d00001e028c8cadb35f9a3cdc4d13d424",
        "width" : 300
      }, {
        "height" : 64,
        "url" : "https://i.scdn.co/image/ab67616d000048518c8cadb35f9a3cdc4d13d424",
        "width" : 64
      } ],
      "name" : "Bellybuds",
      "popularity" : 25,
      "type" : "artist",
      "uri" : "spotify:artist:0rVFwtkcsz856Hi1zNwDgK"
    }, {
      "external_urls" : {
        "spotify" : "https://open.spotify.com/artist/04sc5FYh3O1PsCnwSadmE7"
      },
      "followers" : {
        "href" : null,
        "total" : 179
      },
      "genres" : [ ],
      "href" : "https://api.spotify.com/v1/artists/04sc5FYh3O1PsCnwSadmE7",
      "id" : "04sc5FYh3O1PsCnwSadmE7",
      "images" : [ {
        "height" : 640,
        "url" : "https://i.scdn.co/image/ab6761610000e5eb199ea05aef170134b0df4f65",
        "width" : 640
      }, {
        "height" : 320,
        "url" : "https://i.scdn.co/image/ab67616100005174199ea05aef170134b0df4f65",
        "width" : 320
      }, {
        "height" : 160,
        "url" : "https://i.scdn.co/image/ab6761610000f178199ea05aef170134b0df4f65",
        "width" : 160
      } ],
      "name" : "Yella Belly",
      "popularity" : 26,
      "type" : "artist",
      "uri" : "spotify:artist:04sc5FYh3O1PsCnwSadmE7"
    }, {
      "external_urls" : {
        "spotify" : "https://open.spotify.com/artist/5O51fXcyhWHvAVySWOdv0o"
      },
      "followers" : {
        "href" : null,
        "total" : 9791
      },
      "genres" : [ "african percussion", "belly dance" ],
      "href" : "https://api.spotify.com/v1/artists/5O51fXcyhWHvAVySWOdv0o",
      "id" : "5O51fXcyhWHvAVySWOdv0o",
      "images" : [ {
        "height" : 640,
        "url" : "https://i.scdn.co/image/ab67616d0000b273ced4cd5767060af5ec30f1a0",
        "width" : 640
      }, {
        "height" : 300,
        "url" : "https://i.scdn.co/image/ab67616d00001e02ced4cd5767060af5ec30f1a0",
        "width" : 300
      }, {
        "height" : 64,
        "url" : "https://i.scdn.co/image/ab67616d00004851ced4cd5767060af5ec30f1a0",
        "width" : 64
      } ],
      "name" : "Belly Dance",
      "popularity" : 17,
      "type" : "artist",
      "uri" : "spotify:artist:5O51fXcyhWHvAVySWOdv0o"
    }, {
      "external_urls" : {
        "spotify" : "https://open.spotify.com/artist/4578gOJB66pNtL4Oqi09uI"
      },
      "followers" : {
        "href" : null,
        "total" : 782
      },
      "genres" : [ ],
      "href" : "https://api.spotify.com/v1/artists/4578gOJB66pNtL4Oqi09uI",
      "id" : "4578gOJB66pNtL4Oqi09uI",
      "images" : [ ],
      "name" : "Bellie Raj",
      "popularity" : 46,
      "type" : "artist",
      "uri" : "spotify:artist:4578gOJB66pNtL4Oqi09uI"
    }, {
      "external_urls" : {
        "spotify" : "https://open.spotify.com/artist/5C4AGyualrRPWOpAtSKbBX"
      },
      "followers" : {
        "href" : null,
        "total" : 1607
      },
      "genres" : [ ],
      "href" : "https://api.spotify.com/v1/artists/5C4AGyualrRPWOpAtSKbBX",
      "id" : "5C4AGyualrRPWOpAtSKbBX",
      "images" : [ {
        "height" : 640,
        "url" : "https://i.scdn.co/image/ab6761610000e5ebbd4b4b48848a92b23b20de56",
        "width" : 640
      }, {
        "height" : 320,
        "url" : "https://i.scdn.co/image/ab67616100005174bd4b4b48848a92b23b20de56",
        "width" : 320
      }, {
        "height" : 160,
        "url" : "https://i.scdn.co/image/ab6761610000f178bd4b4b48848a92b23b20de56",
        "width" : 160
      } ],
      "name" : "Belly Dance Music Zone",
      "popularity" : 16,
      "type" : "artist",
      "uri" : "spotify:artist:5C4AGyualrRPWOpAtSKbBX"
    }, {
      "external_urls" : {
        "spotify" : "https://open.spotify.com/artist/5m1W3Gu8CY4B3PYTivmnOR"
      },
      "followers" : {
        "href" : null,
        "total" : 184
      },
      "genres" : [ ],
      "href" : "https://api.spotify.com/v1/artists/5m1W3Gu8CY4B3PYTivmnOR",
      "id" : "5m1W3Gu8CY4B3PYTivmnOR",
      "images" : [ {
        "height" : 640,
        "url" : "https://i.scdn.co/image/ab6761610000e5eb7354b788fe6208bfd890023e",
        "width" : 640
      }, {
        "height" : 320,
        "url" : "https://i.scdn.co/image/ab676161000051747354b788fe6208bfd890023e",
        "width" : 320
      }, {
        "height" : 160,
        "url" : "https://i.scdn.co/image/ab6761610000f1787354b788fe6208bfd890023e",
        "width" : 160
      } ],
      "name" : "Belly Up",
      "popularity" : 8,
      "type" : "artist",
      "uri" : "spotify:artist:5m1W3Gu8CY4B3PYTivmnOR"
    }, {
      "external_urls" : {
        "spotify" : "https://open.spotify.com/artist/2tQiQ5PgNk0yfBo7AtPNc7"
      },
      "followers" : {
        "href" : null,
        "total" : 1575
      },
      "genres" : [ "neo-traditional bluegrass" ],
      "href" : "https://api.spotify.com/v1/artists/2tQiQ5PgNk0yfBo7AtPNc7",
      "id" : "2tQiQ5PgNk0yfBo7AtPNc7",
      "images" : [ {
        "height" : 640,
        "url" : "https://i.scdn.co/image/ab6761610000e5ebef59e237f620b09c145e6663",
        "width" : 640
      }, {
        "height" : 320,
        "url" : "https://i.scdn.co/image/ab67616100005174ef59e237f620b09c145e6663",
        "width" : 320
      }, {
        "height" : 160,
        "url" : "https://i.scdn.co/image/ab6761610000f178ef59e237f620b09c145e6663",
        "width" : 160
      } ],
      "name" : "Wood Belly",
      "popularity" : 18,
      "type" : "artist",
      "uri" : "spotify:artist:2tQiQ5PgNk0yfBo7AtPNc7"
    }, {
      "external_urls" : {
        "spotify" : "https://open.spotify.com/artist/7A7ie6C0ZhqPQ4HNgYVLhB"
      },
      "followers" : {
        "href" : null,
        "total" : 1
      },
      "genres" : [ ],
      "href" : "https://api.spotify.com/v1/artists/7A7ie6C0ZhqPQ4HNgYVLhB",
      "id" : "7A7ie6C0ZhqPQ4HNgYVLhB",
      "images" : [ ],
      "name" : "Josh Ramsay, Belly",
      "popularity" : 17,
      "type" : "artist",
      "uri" : "spotify:artist:7A7ie6C0ZhqPQ4HNgYVLhB"
    }, {
      "external_urls" : {
        "spotify" : "https://open.spotify.com/artist/1FU9j2MyRtymczXxmAF9yH"
      },
      "followers" : {
        "href" : null,
        "total" : 59
      },
      "genres" : [ ],
      "href" : "https://api.spotify.com/v1/artists/1FU9j2MyRtymczXxmAF9yH",
      "id" : "1FU9j2MyRtymczXxmAF9yH",
      "images" : [ {
        "height" : 640,
        "url" : "https://i.scdn.co/image/ab6761610000e5eb851557ae4ab20f358aa9ca49",
        "width" : 640
      }, {
        "height" : 320,
        "url" : "https://i.scdn.co/image/ab67616100005174851557ae4ab20f358aa9ca49",
        "width" : 320
      }, {
        "height" : 160,
        "url" : "https://i.scdn.co/image/ab6761610000f178851557ae4ab20f358aa9ca49",
        "width" : 160
      } ],
      "name" : "Belly of the Heart",
      "popularity" : 4,
      "type" : "artist",
      "uri" : "spotify:artist:1FU9j2MyRtymczXxmAF9yH"
    }, {
      "external_urls" : {
        "spotify" : "https://open.spotify.com/artist/05TPhYdXSC0maoSwcuIRKM"
      },
      "followers" : {
        "href" : null,
        "total" : 937
      },
      "genres" : [ ],
      "href" : "https://api.spotify.com/v1/artists/05TPhYdXSC0maoSwcuIRKM",
      "id" : "05TPhYdXSC0maoSwcuIRKM",
      "images" : [ {
        "height" : 640,
        "url" : "https://i.scdn.co/image/ab67616d0000b273650b7256e90bb564e6f94b10",
        "width" : 640
      }, {
        "height" : 300,
        "url" : "https://i.scdn.co/image/ab67616d00001e02650b7256e90bb564e6f94b10",
        "width" : 300
      }, {
        "height" : 64,
        "url" : "https://i.scdn.co/image/ab67616d00004851650b7256e90bb564e6f94b10",
        "width" : 64
      } ],
      "name" : "Poncho Belly & Dizzle",
      "popularity" : 19,
      "type" : "artist",
      "uri" : "spotify:artist:05TPhYdXSC0maoSwcuIRKM"
    }, {
      "external_urls" : {
        "spotify" : "https://open.spotify.com/artist/0CWUjvq4DiAAIhfFQvA4wC"
      },
      "followers" : {
        "href" : null,
        "total" : 1264
      },
      "genres" : [ "belly dance", "darbuka" ],
      "href" : "https://api.spotify.com/v1/artists/0CWUjvq4DiAAIhfFQvA4wC",
      "id" : "0CWUjvq4DiAAIhfFQvA4wC",
      "images" : [ {
        "height" : 640,
        "url" : "https://i.scdn.co/image/ab67616d0000b273eb608cc0376ec406fa8a84bd",
        "width" : 640
      }, {
        "height" : 300,
        "url" : "https://i.scdn.co/image/ab67616d00001e02eb608cc0376ec406fa8a84bd",
        "width" : 300
      }, {
        "height" : 64,
        "url" : "https://i.scdn.co/image/ab67616d00004851eb608cc0376ec406fa8a84bd",
        "width" : 64
      } ],
      "name" : "Bellyhouse",
      "popularity" : 9,
      "type" : "artist",
      "uri" : "spotify:artist:0CWUjvq4DiAAIhfFQvA4wC"
    }, {
      "external_urls" : {
        "spotify" : "https://open.spotify.com/artist/6SYDP9grvJJgDVZnlKgNZi"
      },
      "followers" : {
        "href" : null,
        "total" : 27
      },
      "genres" : [ ],
      "href" : "https://api.spotify.com/v1/artists/6SYDP9grvJJgDVZnlKgNZi",
      "id" : "6SYDP9grvJJgDVZnlKgNZi",
      "images" : [ {
        "height" : 640,
        "url" : "https://i.scdn.co/image/ab6761610000e5ebe5d9614088d9b83d9ae147c9",
        "width" : 640
      }, {
        "height" : 320,
        "url" : "https://i.scdn.co/image/ab67616100005174e5d9614088d9b83d9ae147c9",
        "width" : 320
      }, {
        "height" : 160,
        "url" : "https://i.scdn.co/image/ab6761610000f178e5d9614088d9b83d9ae147c9",
        "width" : 160
      } ],
      "name" : "Machine Gun Belly",
      "popularity" : 10,
      "type" : "artist",
      "uri" : "spotify:artist:6SYDP9grvJJgDVZnlKgNZi"
    }, {
      "external_urls" : {
        "spotify" : "https://open.spotify.com/artist/5w3FJ8J7Lh7FfLGl8aUvbT"
      },
      "followers" : {
        "href" : null,
        "total" : 1546
      },
      "genres" : [ ],
      "href" : "https://api.spotify.com/v1/artists/5w3FJ8J7Lh7FfLGl8aUvbT",
      "id" : "5w3FJ8J7Lh7FfLGl8aUvbT",
      "images" : [ {
        "height" : 640,
        "url" : "https://i.scdn.co/image/ab67616d0000b27338d1177d796a8430d4142b15",
        "width" : 640
      }, {
        "height" : 300,
        "url" : "https://i.scdn.co/image/ab67616d00001e0238d1177d796a8430d4142b15",
        "width" : 300
      }, {
        "height" : 64,
        "url" : "https://i.scdn.co/image/ab67616d0000485138d1177d796a8430d4142b15",
        "width" : 64
      } ],
      "name" : "Belly Dance Rhythms",
      "popularity" : 13,
      "type" : "artist",
      "uri" : "spotify:artist:5w3FJ8J7Lh7FfLGl8aUvbT"
    }, {
      "external_urls" : {
        "spotify" : "https://open.spotify.com/artist/0uY6Kj6OYzjYq4HvF67uNu"
      },
      "followers" : {
        "href" : null,
        "total" : 100
      },
      "genres" : [ ],
      "href" : "https://api.spotify.com/v1/artists/0uY6Kj6OYzjYq4HvF67uNu",
      "id" : "0uY6Kj6OYzjYq4HvF67uNu",
      "images" : [ {
        "height" : 640,
        "url" : "https://i.scdn.co/image/ab6761610000e5eb622dd319f837bccdd883e5fc",
        "width" : 640
      }, {
        "height" : 320,
        "url" : "https://i.scdn.co/image/ab67616100005174622dd319f837bccdd883e5fc",
        "width" : 320
      }, {
        "height" : 160,
        "url" : "https://i.scdn.co/image/ab6761610000f178622dd319f837bccdd883e5fc",
        "width" : 160
      } ],
      "name" : "BellyFant",
      "popularity" : 6,
      "type" : "artist",
      "uri" : "spotify:artist:0uY6Kj6OYzjYq4HvF67uNu"
    }, {
      "external_urls" : {
        "spotify" : "https://open.spotify.com/artist/2GEinLPADI0FiSRG5dwEwk"
      },
      "followers" : {
        "href" : null,
        "total" : 40
      },
      "genres" : [ ],
      "href" : "https://api.spotify.com/v1/artists/2GEinLPADI0FiSRG5dwEwk",
      "id" : "2GEinLPADI0FiSRG5dwEwk",
      "images" : [ {
        "height" : 640,
        "url" : "https://i.scdn.co/image/ab6761610000e5eb667d440c9f24fc480a2cf901",
        "width" : 640
      }, {
        "height" : 320,
        "url" : "https://i.scdn.co/image/ab67616100005174667d440c9f24fc480a2cf901",
        "width" : 320
      }, {
        "height" : 160,
        "url" : "https://i.scdn.co/image/ab6761610000f178667d440c9f24fc480a2cf901",
        "width" : 160
      } ],
      "name" : "Ari Bellyboo",
      "popularity" : 7,
      "type" : "artist",
      "uri" : "spotify:artist:2GEinLPADI0FiSRG5dwEwk"
    } ],
    "limit" : 20,
    "next" : "https://api.spotify.com/v1/search?query=+Belly&type=artist&market=US&offset=20&limit=20",
    "offset" : 0,
    "previous" : null,
    "total" : 435
  }
}