{
  "artists" : {
    "href" : "https://api.spotify.com/v1/search?query=+Crumb&type=artist&market=US&offset=0&limit=20",
    "items" : [ {
      "external_urls" : {
        "spotify" : "https://open.spotify.com/artist/4kSGbjWGxTchKpIxXPJv0B"
      },
      "followers" : {
        "href" : null,
        "total" : 388290
      },
      "genres" : [ "indie garage rock", "neo-psychedelic" ],
      "href" : "https://api.spotify.com/v1/artists/4kSGbjWGxTchKpIxXPJv0B",
      "id" : "4kSGbjWGxTchKpIxXPJv0B",
      "images" : [ {
        "height" : 640,
        "url" : "https://i.scdn.co/image/ab6761610000e5ebc769a31c11e0977b87d812e9",
        "width" : 640
      }, {
        "height" : 320,
        "url" : "https://i.scdn.co/image/ab67616100005174c769a31c11e0977b87d812e9",
        "width" : 320
      }, {
        "height" : 160,
        "url" : "https://i.scdn.co/image/ab6761610000f178c769a31c11e0977b87d812e9",
        "width" : 160
      } ],
      "name" : "Crumb",
      "popularity" : 64,
      "type" : "artist",
      "uri" : "spotify:artist:4kSGbjWGxTchKpIxXPJv0B"
    }, {
      "external_urls" : {
        "spotify" : "https://open.spotify.com/artist/0urAT7hBcZ7407s9hD9bRg"
      },
      "followers" : {
        "href" : null,
        "total" : 9495
      },
      "genres" : [ "crossover thrash", "hardcore", "hardcore punk", "long island punk", "nyhc", "old school thrash" ],
      "href" : "https://api.spotify.com/v1/artists/0urAT7hBcZ7407s9hD9bRg",
      "id" : "0urAT7hBcZ7407s9hD9bRg",
      "images" : [ {
        "height" : 672,
        "url" : "https://i.scdn.co/image/588536a9eadfd3e06a6cbda79778aee6edea3ee0",
        "width" : 1000
      }, {
        "height" : 430,
        "url" : "https://i.scdn.co/image/2c88793cff4b414a66d30104f71966081829a2aa",
        "width" : 640
      }, {
        "height" : 134,
        "url" : "https://i.scdn.co/image/c698750a337e5f2ae0fce12a16a49df54e519d95",
        "width" : 199
      }, {
        "height" : 43,
        "url" : "https://i.scdn.co/image/75d5ec0ed0ab9b96c940fe83adbab9c0b5c30d16",
        "width" : 64
      } ],
      "name" : "Crumbsuckers",
      "popularity" : 23,
      "type" : "artist",
      "uri" : "spotify:artist:0urAT7hBcZ7407s9hD9bRg"
    }, {
      "external_urls" : {
        "spotify" : "https://open.spotify.com/artist/4TwUyusgsQc4Pfr6GlEd5V"
      },
      "followers" : {
        "href" : null,
        "total" : 402
      },
      "genres" : [ ],
      "href" : "https://api.spotify.com/v1/artists/4TwUyusgsQc4Pfr6GlEd5V",
      "id" : "4TwUyusgsQc4Pfr6GlEd5V",
      "images" : [ {
        "height" : 640,
        "url" : "https://i.scdn.co/image/ab6761610000e5ebc16b2942699d7299e14f0c0b",
        "width" : 640
      }, {
        "height" : 320,
        "url" : "https://i.scdn.co/image/ab67616100005174c16b2942699d7299e14f0c0b",
        "width" : 320
      }, {
        "height" : 160,
        "url" : "https://i.scdn.co/image/ab6761610000f178c16b2942699d7299e14f0c0b",
        "width" : 160
      } ],
      "name" : "Cookie Crumble",
      "popularity" : 53,
      "type" : "artist",
      "uri" : "spotify:artist:4TwUyusgsQc4Pfr6GlEd5V"
    }, {
      "external_urls" : {
        "spotify" : "https://open.spotify.com/artist/1WiHGZsRAJ4m0z3VcEAY0f"
      },
      "followers" : {
        "href" : null,
        "total" : 2682
      },
      "genres" : [ "deep christian rock" ],
      "href" : "https://api.spotify.com/v1/artists/1WiHGZsRAJ4m0z3VcEAY0f",
      "id" : "1WiHGZsRAJ4m0z3VcEAY0f",
      "images" : [ {
        "height" : 640,
        "url" : "https://i.scdn.co/image/ab67616d0000b2739730fa87e0b729dd6cb9496e",
        "width" : 640
      }, {
        "height" : 300,
        "url" : "https://i.scdn.co/image/ab67616d00001e029730fa87e0b729dd6cb9496e",
        "width" : 300
      }, {
        "height" : 64,
        "url" : "https://i.scdn.co/image/ab67616d000048519730fa87e0b729dd6cb9496e",
        "width" : 64
      } ],
      "name" : "Crumbacher",
      "popularity" : 14,
      "type" : "artist",
      "uri" : "spotify:artist:1WiHGZsRAJ4m0z3VcEAY0f"
    }, {
      "external_urls" : {
        "spotify" : "https://open.spotify.com/artist/0EyIzyLSylDC0h0y7JP7am"
      },
      "followers" : {
        "href" : null,
        "total" : 7956
      },
      "genres" : [ "american contemporary classical", "avant-garde", "contemporary classical" ],
      "href" : "https://api.spotify.com/v1/artists/0EyIzyLSylDC0h0y7JP7am",
      "id" : "0EyIzyLSylDC0h0y7JP7am",
      "images" : [ {
        "height" : 374,
        "url" : "https://i.scdn.co/image/6667b77c8aeb03065f678d7c1dd8db81d633e096",
        "width" : 261
      }, {
        "height" : 287,
        "url" : "https://i.scdn.co/image/f7fbc3462fef0b07fa35b95735bc61e948ffa345",
        "width" : 200
      }, {
        "height" : 92,
        "url" : "https://i.scdn.co/image/dfd6ebe968026599cda88ade9759ba2132c4a707",
        "width" : 64
      } ],
      "name" : "George Crumb",
      "popularity" : 25,
      "type" : "artist",
      "uri" : "spotify:artist:0EyIzyLSylDC0h0y7JP7am"
    }, {
      "external_urls" : {
        "spotify" : "https://open.spotify.com/artist/3dLJnCnQFqzMHerEUMpYH4"
      },
      "followers" : {
        "href" : null,
        "total" : 649
      },
      "genres" : [ "knoxville indie" ],
      "href" : "https://api.spotify.com/v1/artists/3dLJnCnQFqzMHerEUMpYH4",
      "id" : "3dLJnCnQFqzMHerEUMpYH4",
      "images" : [ {
        "height" : 640,
        "url" : "https://i.scdn.co/image/ab6761610000e5eba38dd70437a5e79f4ffdfdef",
        "width" : 640
      }, {
        "height" : 320,
        "url" : "https://i.scdn.co/image/ab67616100005174a38dd70437a5e79f4ffdfdef",
        "width" : 320
      }, {
        "height" : 160,
        "url" : "https://i.scdn.co/image/ab6761610000f178a38dd70437a5e79f4ffdfdef",
        "width" : 160
      } ],
      "name" : "Crumbsnatchers",
      "popularity" : 12,
      "type" : "artist",
      "uri" : "spotify:artist:3dLJnCnQFqzMHerEUMpYH4"
    }, {
      "external_urls" : {
        "spotify" : "https://open.spotify.com/artist/1X9hVjKIFXtl4ubuULQQWb"
      },
      "followers" : {
        "href" : null,
        "total" : 549
      },
      "genres" : [ ],
      "href" : "https://api.spotify.com/v1/artists/1X9hVjKIFXtl4ubuULQQWb",
      "id" : "1X9hVjKIFXtl4ubuULQQWb",
      "images" : [ {
        "height" : 689,
        "url" : "https://i.scdn.co/image/d5f75dbacc79a6bf727cc68b11f53d9d2ef86cb4",
        "width" : 1000
      }, {
        "height" : 441,
        "url" : "https://i.scdn.co/image/3d14776d7403c3fbf9f35009d671dc5e37389ddd",
        "width" : 640
      }, {
        "height" : 138,
        "url" : "https://i.scdn.co/image/cb2a498c733bf1556adcbaca7d6810a362c5659d",
        "width" : 200
      }, {
        "height" : 44,
        "url" : "https://i.scdn.co/image/8d6c840ac652c1b3b77c0689d14d80f58cf0f5c2",
        "width" : 64
      } ],
      "name" : "crumb",
      "popularity" : 7,
      "type" : "artist",
      "uri" : "spotify:artist:1X9hVjKIFXtl4ubuULQQWb"
    }, {
      "external_urls" : {
        "spotify" : "https://open.spotify.com/artist/3cdanUqp2TwQWwQPbCty7l"
      },
      "followers" : {
        "href" : null,
        "total" : 0
      },
      "genres" : [ ],
      "href" : "https://api.spotify.com/v1/artists/3cdanUqp2TwQWwQPbCty7l",
      "id" : "3cdanUqp2TwQWwQPbCty7l",
      "images" : [ {
        "height" : 640,
        "url" : "https://i.scdn.co/image/ab67616d0000b2738dc0e0f7111e4c80a520883f",
        "width" : 640
      }, {
        "height" : 300,
        "url" : "https://i.scdn.co/image/ab67616d00001e028dc0e0f7111e4c80a520883f",
        "width" : 300
      }, {
        "height" : 64,
        "url" : "https://i.scdn.co/image/ab67616d000048516190650369ac95c8d2e407cd",
        "width" : 64
      } ],
      "name" : "crumblegoofy",
      "popularity" : 3,
      "type" : "artist",
      "uri" : "spotify:artist:3cdanUqp2TwQWwQPbCty7l"
    }, {
      "external_urls" : {
        "spotify" : "https://open.spotify.com/artist/3EGDTGoU2VeW0s3io8IbhC"
      },
      "followers" : {
        "href" : null,
        "total" : 158
      },
      "genres" : [ ],
      "href" : "https://api.spotify.com/v1/artists/3EGDTGoU2VeW0s3io8IbhC",
      "id" : "3EGDTGoU2VeW0s3io8IbhC",
      "images" : [ {
        "height" : 540,
        "url" : "https://i.scdn.co/image/57ff801e605ce1345eb890de66c656d0379fd734",
        "width" : 350
      }, {
        "height" : 309,
        "url" : "https://i.scdn.co/image/c2e4cc5418ca5f00c7cb2d96074df5fc90c4403f",
        "width" : 200
      }, {
        "height" : 99,
        "url" : "https://i.scdn.co/image/77d01ab2b4f5936448454ed9f2d69664ef6a1fa2",
        "width" : 64
      } ],
      "name" : "Ann Crumb",
      "popularity" : 16,
      "type" : "artist",
      "uri" : "spotify:artist:3EGDTGoU2VeW0s3io8IbhC"
    }, {
      "external_urls" : {
        "spotify" : "https://open.spotify.com/artist/5sObBCEIKNFaOxpJxn4Un6"
      },
      "followers" : {
        "href" : null,
        "total" : 2637
      },
      "genres" : [ ],
      "href" : "https://api.spotify.com/v1/artists/5sObBCEIKNFaOxpJxn4Un6",
      "id" : "5sObBCEIKNFaOxpJxn4Un6",
      "images" : [ {
        "height" : 640,
        "url" : "https://i.scdn.co/image/ab67616d0000b273c987669cd967c05af91e928a",
        "width" : 640
      }, {
        "height" : 300,
        "url" : "https://i.scdn.co/image/ab67616d00001e02c987669cd967c05af91e928a",
        "width" : 300
      }, {
        "height" : 64,
        "url" : "https://i.scdn.co/image/ab67616d00004851c987669cd967c05af91e928a",
        "width" : 64
      } ],
      "name" : "R. Crumb And His Cheap Suit Serenaders",
      "popularity" : 15,
      "type" : "artist",
      "uri" : "spotify:artist:5sObBCEIKNFaOxpJxn4Un6"
    }, {
      "external_urls" : {
        "spotify" : "https://open.spotify.com/artist/2iMqjPyBh704rZc4R8bdMg"
      },
      "followers" : {
        "href" : null,
        "total" : 175
      },
      "genres" : [ "military rap" ],
      "href" : "https://api.spotify.com/v1/artists/2iMqjPyBh704rZc4R8bdMg",
      "id" : "2iMqjPyBh704rZc4R8bdMg",
      "images" : [ {
        "height" : 640,
        "url" : "https://i.scdn.co/image/ab67616d0000b2738cec99330d80b6c351790110",
        "width" : 640
      }, {
        "height" : 300,
        "url" : "https://i.scdn.co/image/ab67616d00001e028cec99330d80b6c351790110",
        "width" : 300
      }, {
        "height" : 64,
        "url" : "https://i.scdn.co/image/ab67616d000048518cec99330d80b6c351790110",
        "width" : 64
      } ],
      "name" : "Crumbzilla",
      "popularity" : 2,
      "type" : "artist",
      "uri" : "spotify:artist:2iMqjPyBh704rZc4R8bdMg"
    }, {
      "external_urls" : {
        "spotify" : "https://open.spotify.com/artist/4SSEcx8fIWKSSYSmvHJSC4"
      },
      "followers" : {
        "href" : null,
        "total" : 484
      },
      "genres" : [ ],
      "href" : "https://api.spotify.com/v1/artists/4SSEcx8fIWKSSYSmvHJSC4",
      "id" : "4SSEcx8fIWKSSYSmvHJSC4",
      "images" : [ {
        "height" : 640,
        "url" : "https://i.scdn.co/image/ab6761610000e5ebb19ca36589eacacec4f34f94",
        "width" : 640
      }, {
        "height" : 320,
        "url" : "https://i.scdn.co/image/ab67616100005174b19ca36589eacacec4f34f94",
        "width" : 320
      }, {
        "height" : 160,
        "url" : "https://i.scdn.co/image/ab6761610000f178b19ca36589eacacec4f34f94",
        "width" : 160
      } ],
      "name" : "Joshua Crumbly",
      "popularity" : 11,
      "type" : "artist",
      "uri" : "spotify:artist:4SSEcx8fIWKSSYSmvHJSC4"
    }, {
      "external_urls" : {
        "spotify" : "https://open.spotify.com/artist/7rCT5vKz3WrsgidcE8gf3o"
      },
      "followers" : {
        "href" : null,
        "total" : 0
      },
      "genres" : [ ],
      "href" : "https://api.spotify.com/v1/artists/7rCT5vKz3WrsgidcE8gf3o",
      "id" : "7rCT5vKz3WrsgidcE8gf3o",
      "images" : [ {
        "height" : 640,
        "url" : "https://i.scdn.co/image/ab67616d0000b2735594a91dc60087385dd7a208",
        "width" : 640
      }, {
        "height" : 300,
        "url" : "https://i.scdn.co/image/ab67616d00001e025be178b64d646b4c8aa0d8c6",
        "width" : 300
      }, {
        "height" : 64,
        "url" : "https://i.scdn.co/image/ab67616d000048515be178b64d646b4c8aa0d8c6",
        "width" : 64
      } ],
      "name" : "crumblelone",
      "popularity" : 1,
      "type" : "artist",
      "uri" : "spotify:artist:7rCT5vKz3WrsgidcE8gf3o"
    }, {
      "external_urls" : {
        "spotify" : "https://open.spotify.com/artist/0qJkV45TUug1NSN4zwpnY3"
      },
      "followers" : {
        "href" : null,
        "total" : 343
      },
      "genres" : [ ],
      "href" : "https://api.spotify.com/v1/artists/0qJkV45TUug1NSN4zwpnY3",
      "id" : "0qJkV45TUug1NSN4zwpnY3",
      "images" : [ {
        "height" : 640,
        "url" : "https://i.scdn.co/image/ab67616d0000b273f52f4fa232ac0e9ae211e9c2",
        "width" : 640
      }, {
        "height" : 300,
        "url" : "https://i.scdn.co/image/ab67616d00001e02f52f4fa232ac0e9ae211e9c2",
        "width" : 300
      }, {
        "height" : 64,
        "url" : "https://i.scdn.co/image/ab67616d00004851f52f4fa232ac0e9ae211e9c2",
        "width" : 64
      } ],
      "name" : "Crumbland",
      "popularity" : 6,
      "type" : "artist",
      "uri" : "spotify:artist:0qJkV45TUug1NSN4zwpnY3"
    }, {
      "external_urls" : {
        "spotify" : "https://open.spotify.com/artist/231oazklLH3LOXVbhtCdx5"
      },
      "followers" : {
        "href" : null,
        "total" : 1227
      },
      "genres" : [ ],
      "href" : "https://api.spotify.com/v1/artists/231oazklLH3LOXVbhtCdx5",
      "id" : "231oazklLH3LOXVbhtCdx5",
      "images" : [ {
        "height" : 640,
        "url" : "https://i.scdn.co/image/ab67616d0000b273c077b4051710d50b6c790cee",
        "width" : 640
      }, {
        "height" : 300,
        "url" : "https://i.scdn.co/image/ab67616d00001e02c077b4051710d50b6c790cee",
        "width" : 300
      }, {
        "height" : 64,
        "url" : "https://i.scdn.co/image/ab67616d00004851c077b4051710d50b6c790cee",
        "width" : 64
      } ],
      "name" : "Robert Crumb",
      "popularity" : 11,
      "type" : "artist",
      "uri" : "spotify:artist:231oazklLH3LOXVbhtCdx5"
    }, {
      "external_urls" : {
        "spotify" : "https://open.spotify.com/artist/3yUXulajPyCmXzplUfpiKG"
      },
      "followers" : {
        "href" : null,
        "total" : 58239
      },
      "genres" : [ ],
      "href" : "https://api.spotify.com/v1/artists/3yUXulajPyCmXzplUfpiKG",
      "id" : "3yUXulajPyCmXzplUfpiKG",
      "images" : [ {
        "height" : 640,
        "url" : "https://i.scdn.co/image/ab6761610000e5eb6930814b96231382d560516d",
        "width" : 640
      }, {
        "height" : 320,
        "url" : "https://i.scdn.co/image/ab676161000051746930814b96231382d560516d",
        "width" : 320
      }, {
        "height" : 160,
        "url" : "https://i.scdn.co/image/ab6761610000f1786930814b96231382d560516d",
        "width" : 160
      } ],
      "name" : "Cumbia Sonidera",
      "popularity" : 41,
      "type" : "artist",
      "uri" : "spotify:artist:3yUXulajPyCmXzplUfpiKG"
    }, {
      "external_urls" : {
        "spotify" : "https://open.spotify.com/artist/76D7KqhJfLKG78nAHL6RSp"
      },
      "followers" : {
        "href" : null,
        "total" : 0
      },
      "genres" : [ ],
      "href" : "https://api.spotify.com/v1/artists/76D7KqhJfLKG78nAHL6RSp",
      "id" : "76D7KqhJfLKG78nAHL6RSp",
      "images" : [ {
        "height" : 640,
        "url" : "https://i.scdn.co/image/ab6761610000e5eb50e96f6b2e1e3ae7a5ceb619",
        "width" : 640
      }, {
        "height" : 320,
        "url" : "https://i.scdn.co/image/ab6761610000517450e96f6b2e1e3ae7a5ceb619",
        "width" : 320
      }, {
        "height" : 160,
        "url" : "https://i.scdn.co/image/ab6761610000f17850e96f6b2e1e3ae7a5ceb619",
        "width" : 160
      } ],
      "name" : "Ac Crumbey",
      "popularity" : 6,
      "type" : "artist",
      "uri" : "spotify:artist:76D7KqhJfLKG78nAHL6RSp"
    }, {
      "external_urls" : {
        "spotify" : "https://open.spotify.com/artist/2ROuLTUiALo6qq7TFfozKk"
      },
      "followers" : {
        "href" : null,
        "total" : 53080
      },
      "genres" : [ "cumbia sonidera" ],
      "href" : "https://api.spotify.com/v1/artists/2ROuLTUiALo6qq7TFfozKk",
      "id" : "2ROuLTUiALo6qq7TFfozKk",
      "images" : [ {
        "height" : 640,
        "url" : "https://i.scdn.co/image/ab6761610000e5eb4d703e6c0681ffbaf39f7e67",
        "width" : 640
      }, {
        "height" : 320,
        "url" : "https://i.scdn.co/image/ab676161000051744d703e6c0681ffbaf39f7e67",
        "width" : 320
      }, {
        "height" : 160,
        "url" : "https://i.scdn.co/image/ab6761610000f1784d703e6c0681ffbaf39f7e67",
        "width" : 160
      } ],
      "name" : "Cumbias Sonideras",
      "popularity" : 41,
      "type" : "artist",
      "uri" : "spotify:artist:2ROuLTUiALo6qq7TFfozKk"
    }, {
      "external_urls" : {
        "spotify" : "https://open.spotify.com/artist/2XBo0fcHz6ZdUT7NWpnIUB"
      },
      "followers" : {
        "href" : null,
        "total" : 99
      },
      "genres" : [ "sesame street" ],
      "href" : "https://api.spotify.com/v1/artists/2XBo0fcHz6ZdUT7NWpnIUB",
      "id" : "2XBo0fcHz6ZdUT7NWpnIUB",
      "images" : [ ],
      "name" : "Sesame Street's Cookie Monster And Crumbs Unlimited",
      "popularity" : 8,
      "type" : "artist",
      "uri" : "spotify:artist:2XBo0fcHz6ZdUT7NWpnIUB"
    }, {
      "external_urls" : {
        "spotify" : "https://open.spotify.com/artist/6NH7q95yesNI0UZtAR8C8I"
      },
      "followers" : {
        "href" : null,
        "total" : 563
      },
      "genres" : [ ],
      "href" : "https://api.spotify.com/v1/artists/6NH7q95yesNI0UZtAR8C8I",
      "id" : "6NH7q95yesNI0UZtAR8C8I",
      "images" : [ {
        "height" : 640,
        "url" : "https://i.scdn.co/image/ab6761610000e5eb5e983737654ddd57daa72d8e",
        "width" : 640
      }, {
        "height" : 320,
        "url" : "https://i.scdn.co/image/ab676161000051745e983737654ddd57daa72d8e",
        "width" : 320
      }, {
        "height" : 160,
        "url" : "https://i.scdn.co/image/ab6761610000f1785e983737654ddd57daa72d8e",
        "width" : 160
      } ],
      "name" : "The Crumbs",
      "popularity" : 7,
      "type" : "artist",
      "uri" : "spotify:artist:6NH7q95yesNI0UZtAR8C8I"
    } ],
    "limit" : 20,
    "next" : "https://api.spotify.com/v1/search?query=+Crumb&type=artist&market=US&offset=20&limit=20",
    "offset" : 0,
    "previous" : null,
    "total" : 220
  }
}