{
  "artists" : {
    "href" : "https://api.spotify.com/v1/search?query=+Dave&type=artist&market=US&offset=0&limit=20",
    "items" : [ {
      "external_urls" : {
        "spotify" : "https://open.spotify.com/artist/3twuAojvYNrlWZpMkxLm3P"
      },
      "followers" : {
        "href" : null,
        "total" : 71236
      },
      "genres" : [ "alternative hip hop" ],
      "href" : "https://api.spotify.com/v1/artists/3twuAojvYNrlWZpMkxLm3P",
      "id" : "3twuAojvYNrlWZpMkxLm3P",
      "images" : [ {
        "height" : 640,
        "url" : "https://i.scdn.co/image/ab6761610000e5ebf638289c7621609519d8ad24",
        "width" : 640
      }, {
        "height" : 320,
        "url" : "https://i.scdn.co/image/ab67616100005174f638289c7621609519d8ad24",
        "width" : 320
      }, {
        "height" : 160,
        "url" : "https://i.scdn.co/image/ab6761610000f178f638289c7621609519d8ad24",
        "width" : 160
      } ],
      "name" : "Daveed Diggs",
      "popularity" : 71,
      "type" : "artist",
      "uri" : "spotify:artist:3twuAojvYNrlWZpMkxLm3P"
    }, {
      "external_urls" : {
        "spotify" : "https://open.spotify.com/artist/7e10JUMF7MJmmwYpnTSMI5"
      },
      "followers" : {
        "href" : null,
        "total" : 588297
      },
      "genres" : [ "gangster rap", "harlem hip hop", "hip hop", "nyc rap", "pop rap", "rap", "southern hip hop", "trap", "underground hip hop" ],
      "href" : "https://api.spotify.com/v1/artists/7e10JUMF7MJmmwYpnTSMI5",
      "id" : "7e10JUMF7MJmmwYpnTSMI5",
      "images" : [ {
        "height" : 640,
        "url" : "https://i.scdn.co/image/ab6761610000e5ebc3cba5c7281e3c3682f97ea4",
        "width" : 640
      }, {
        "height" : 320,
        "url" : "https://i.scdn.co/image/ab67616100005174c3cba5c7281e3c3682f97ea4",
        "width" : 320
      }, {
        "height" : 160,
        "url" : "https://i.scdn.co/image/ab6761610000f178c3cba5c7281e3c3682f97ea4",
        "width" : 160
      } ],
      "name" : "Dave East",
      "popularity" : 68,
      "type" : "artist",
      "uri" : "spotify:artist:7e10JUMF7MJmmwYpnTSMI5"
    }, {
      "external_urls" : {
        "spotify" : "https://open.spotify.com/artist/2TI7qyDE0QfyOlnbtfDo7L"
      },
      "followers" : {
        "href" : null,
        "total" : 1685334
      },
      "genres" : [ "jam band", "neo mellow", "pop rock" ],
      "href" : "https://api.spotify.com/v1/artists/2TI7qyDE0QfyOlnbtfDo7L",
      "id" : "2TI7qyDE0QfyOlnbtfDo7L",
      "images" : [ {
        "height" : 640,
        "url" : "https://i.scdn.co/image/ab6761610000e5ebc04724201a3cd1a81d7bba05",
        "width" : 640
      }, {
        "height" : 320,
        "url" : "https://i.scdn.co/image/ab67616100005174c04724201a3cd1a81d7bba05",
        "width" : 320
      }, {
        "height" : 160,
        "url" : "https://i.scdn.co/image/ab6761610000f178c04724201a3cd1a81d7bba05",
        "width" : 160
      } ],
      "name" : "Dave Matthews Band",
      "popularity" : 68,
      "type" : "artist",
      "uri" : "spotify:artist:2TI7qyDE0QfyOlnbtfDo7L"
    }, {
      "external_urls" : {
        "spotify" : "https://open.spotify.com/artist/6Ip8FS7vWT1uKkJSweANQK"
      },
      "followers" : {
        "href" : null,
        "total" : 1948482
      },
      "genres" : [ "uk hip hop" ],
      "href" : "https://api.spotify.com/v1/artists/6Ip8FS7vWT1uKkJSweANQK",
      "id" : "6Ip8FS7vWT1uKkJSweANQK",
      "images" : [ {
        "height" : 640,
        "url" : "https://i.scdn.co/image/ab6761610000e5eb76d47d16d18eb30413469512",
        "width" : 640
      }, {
        "height" : 320,
        "url" : "https://i.scdn.co/image/ab6761610000517476d47d16d18eb30413469512",
        "width" : 320
      }, {
        "height" : 160,
        "url" : "https://i.scdn.co/image/ab6761610000f17876d47d16d18eb30413469512",
        "width" : 160
      } ],
      "name" : "Dave",
      "popularity" : 83,
      "type" : "artist",
      "uri" : "spotify:artist:6Ip8FS7vWT1uKkJSweANQK"
    }, {
      "external_urls" : {
        "spotify" : "https://open.spotify.com/artist/7gcCQIlkkfbul5Mt0jBQkg"
      },
      "followers" : {
        "href" : null,
        "total" : 22379
      },
      "genres" : [ "new wave pop", "rock keyboard" ],
      "href" : "https://api.spotify.com/v1/artists/7gcCQIlkkfbul5Mt0jBQkg",
      "id" : "7gcCQIlkkfbul5Mt0jBQkg",
      "images" : [ {
        "height" : 640,
        "url" : "https://i.scdn.co/image/ab6761610000e5eb69f218e3cb145eacfb6c8476",
        "width" : 640
      }, {
        "height" : 320,
        "url" : "https://i.scdn.co/image/ab6761610000517469f218e3cb145eacfb6c8476",
        "width" : 320
      }, {
        "height" : 160,
        "url" : "https://i.scdn.co/image/ab6761610000f17869f218e3cb145eacfb6c8476",
        "width" : 160
      } ],
      "name" : "Dave Stewart",
      "popularity" : 71,
      "type" : "artist",
      "uri" : "spotify:artist:7gcCQIlkkfbul5Mt0jBQkg"
    }, {
      "external_urls" : {
        "spotify" : "https://open.spotify.com/artist/13vQloYd6mP7V1mVwKJwS2"
      },
      "followers" : {
        "href" : null,
        "total" : 321551
      },
      "genres" : [ "pop rock" ],
      "href" : "https://api.spotify.com/v1/artists/13vQloYd6mP7V1mVwKJwS2",
      "id" : "13vQloYd6mP7V1mVwKJwS2",
      "images" : [ {
        "height" : 1182,
        "url" : "https://i.scdn.co/image/0bacdd5eb38806862b5474ce8fa8ba9f88d598cc",
        "width" : 936
      }, {
        "height" : 808,
        "url" : "https://i.scdn.co/image/74633f8604f859f2ed77733eef2cdbcc3dfe75ac",
        "width" : 640
      }, {
        "height" : 253,
        "url" : "https://i.scdn.co/image/dc92eb69b254548b00e9820c43e8686b1026d3c5",
        "width" : 200
      }, {
        "height" : 81,
        "url" : "https://i.scdn.co/image/f25c475a1749a1d5e475f6837a242e2b137f461d",
        "width" : 64
      } ],
      "name" : "Dave Matthews",
      "popularity" : 55,
      "type" : "artist",
      "uri" : "spotify:artist:13vQloYd6mP7V1mVwKJwS2"
    }, {
      "external_urls" : {
        "spotify" : "https://open.spotify.com/artist/0ZcJXldoq09BRIMl0Qh1Vm"
      },
      "followers" : {
        "href" : null,
        "total" : 85403
      },
      "genres" : [ "jazz saxophone", "smooth jazz", "smooth saxophone" ],
      "href" : "https://api.spotify.com/v1/artists/0ZcJXldoq09BRIMl0Qh1Vm",
      "id" : "0ZcJXldoq09BRIMl0Qh1Vm",
      "images" : [ {
        "height" : 640,
        "url" : "https://i.scdn.co/image/ab6761610000e5eb2b6e05ff3c25279ed1ac7611",
        "width" : 640
      }, {
        "height" : 320,
        "url" : "https://i.scdn.co/image/ab676161000051742b6e05ff3c25279ed1ac7611",
        "width" : 320
      }, {
        "height" : 160,
        "url" : "https://i.scdn.co/image/ab6761610000f1782b6e05ff3c25279ed1ac7611",
        "width" : 160
      } ],
      "name" : "Dave Koz",
      "popularity" : 56,
      "type" : "artist",
      "uri" : "spotify:artist:0ZcJXldoq09BRIMl0Qh1Vm"
    }, {
      "external_urls" : {
        "spotify" : "https://open.spotify.com/artist/2BVYdY4PyfCF9z4NrkhEB2"
      },
      "followers" : {
        "href" : null,
        "total" : 270150
      },
      "genres" : [ "brill building pop", "classic soul", "funk", "memphis soul", "motown", "soul", "southern soul" ],
      "href" : "https://api.spotify.com/v1/artists/2BVYdY4PyfCF9z4NrkhEB2",
      "id" : "2BVYdY4PyfCF9z4NrkhEB2",
      "images" : [ {
        "height" : 1160,
        "url" : "https://i.scdn.co/image/b1f68bdefbe49b474c9aac457114aac70d06f880",
        "width" : 1000
      }, {
        "height" : 742,
        "url" : "https://i.scdn.co/image/a3cefb27c2aad573e4dae048effaa9cae6af7268",
        "width" : 640
      }, {
        "height" : 232,
        "url" : "https://i.scdn.co/image/4b3c227ca32325f7d12ef75db8f5a6e5222be441",
        "width" : 200
      }, {
        "height" : 74,
        "url" : "https://i.scdn.co/image/9728f51f16176cec402b5022073f5e120a9cd220",
        "width" : 64
      } ],
      "name" : "Sam & Dave",
      "popularity" : 61,
      "type" : "artist",
      "uri" : "spotify:artist:2BVYdY4PyfCF9z4NrkhEB2"
    }, {
      "external_urls" : {
        "spotify" : "https://open.spotify.com/artist/1vWImodgVqIgTUkekGEfR9"
      },
      "followers" : {
        "href" : null,
        "total" : 9618
      },
      "genres" : [ ],
      "href" : "https://api.spotify.com/v1/artists/1vWImodgVqIgTUkekGEfR9",
      "id" : "1vWImodgVqIgTUkekGEfR9",
      "images" : [ {
        "height" : 640,
        "url" : "https://i.scdn.co/image/ab6761610000e5eb36d4f8e9377f3fc478978380",
        "width" : 640
      }, {
        "height" : 320,
        "url" : "https://i.scdn.co/image/ab6761610000517436d4f8e9377f3fc478978380",
        "width" : 320
      }, {
        "height" : 160,
        "url" : "https://i.scdn.co/image/ab6761610000f17836d4f8e9377f3fc478978380",
        "width" : 160
      } ],
      "name" : "Dave Audé",
      "popularity" : 56,
      "type" : "artist",
      "uri" : "spotify:artist:1vWImodgVqIgTUkekGEfR9"
    }, {
      "external_urls" : {
        "spotify" : "https://open.spotify.com/artist/3kUKwTJdH8FuWzF8p6Dg9E"
      },
      "followers" : {
        "href" : null,
        "total" : 336960
      },
      "genres" : [ "american modern classical", "bebop", "cool jazz", "jazz", "jazz piano" ],
      "href" : "https://api.spotify.com/v1/artists/3kUKwTJdH8FuWzF8p6Dg9E",
      "id" : "3kUKwTJdH8FuWzF8p6Dg9E",
      "images" : [ {
        "height" : 989,
        "url" : "https://i.scdn.co/image/a6a0e86fd68166c7cd4425bc0eadab5131f4fbd1",
        "width" : 1000
      }, {
        "height" : 633,
        "url" : "https://i.scdn.co/image/0634b43c87b71297febbc7b9f9b0661779fa80e7",
        "width" : 640
      }, {
        "height" : 198,
        "url" : "https://i.scdn.co/image/9dd448f33ac7567874c8b303e6f81cb770c04ea1",
        "width" : 200
      }, {
        "height" : 63,
        "url" : "https://i.scdn.co/image/0b10d3b69a26503756fbb36ca5f73092f5e2ff94",
        "width" : 64
      } ],
      "name" : "Dave Brubeck",
      "popularity" : 56,
      "type" : "artist",
      "uri" : "spotify:artist:3kUKwTJdH8FuWzF8p6Dg9E"
    }, {
      "external_urls" : {
        "spotify" : "https://open.spotify.com/artist/4iRZAbYvBqnxrbs6K25aJ7"
      },
      "followers" : {
        "href" : null,
        "total" : 214432
      },
      "genres" : [ "bebop", "jazz", "jazz quartet" ],
      "href" : "https://api.spotify.com/v1/artists/4iRZAbYvBqnxrbs6K25aJ7",
      "id" : "4iRZAbYvBqnxrbs6K25aJ7",
      "images" : [ {
        "height" : 865,
        "url" : "https://i.scdn.co/image/b6f7dc3c16f95e6df120af205d4007f518b01e0e",
        "width" : 873
      }, {
        "height" : 634,
        "url" : "https://i.scdn.co/image/842f5ac6934f8c1bc783a3b344f008dfa919b692",
        "width" : 640
      }, {
        "height" : 198,
        "url" : "https://i.scdn.co/image/291e690bbe1ca00d9190d23d1c579a6e9c85ed60",
        "width" : 200
      }, {
        "height" : 63,
        "url" : "https://i.scdn.co/image/9aeee9c29f033e2e9a684e37816ddc3df2521692",
        "width" : 64
      } ],
      "name" : "The Dave Brubeck Quartet",
      "popularity" : 59,
      "type" : "artist",
      "uri" : "spotify:artist:4iRZAbYvBqnxrbs6K25aJ7"
    }, {
      "external_urls" : {
        "spotify" : "https://open.spotify.com/artist/6qGu24WJrspRNLeieoWQai"
      },
      "followers" : {
        "href" : null,
        "total" : 35493
      },
      "genres" : [ ],
      "href" : "https://api.spotify.com/v1/artists/6qGu24WJrspRNLeieoWQai",
      "id" : "6qGu24WJrspRNLeieoWQai",
      "images" : [ {
        "height" : 640,
        "url" : "https://i.scdn.co/image/ab6761610000e5ebaf9d64b7c6ee6257a5caac4f",
        "width" : 640
      }, {
        "height" : 320,
        "url" : "https://i.scdn.co/image/ab67616100005174af9d64b7c6ee6257a5caac4f",
        "width" : 320
      }, {
        "height" : 160,
        "url" : "https://i.scdn.co/image/ab6761610000f178af9d64b7c6ee6257a5caac4f",
        "width" : 160
      } ],
      "name" : "Dave Fenley",
      "popularity" : 53,
      "type" : "artist",
      "uri" : "spotify:artist:6qGu24WJrspRNLeieoWQai"
    }, {
      "external_urls" : {
        "spotify" : "https://open.spotify.com/artist/5bfqwcEcRrMhtY9smw3IeJ"
      },
      "followers" : {
        "href" : null,
        "total" : 74236
      },
      "genres" : [ "alternative r&b", "seattle hip hop", "underground hip hop" ],
      "href" : "https://api.spotify.com/v1/artists/5bfqwcEcRrMhtY9smw3IeJ",
      "id" : "5bfqwcEcRrMhtY9smw3IeJ",
      "images" : [ {
        "height" : 640,
        "url" : "https://i.scdn.co/image/ab6761610000e5eb97e0b5047c0a3dc439f2ac32",
        "width" : 640
      }, {
        "height" : 320,
        "url" : "https://i.scdn.co/image/ab6761610000517497e0b5047c0a3dc439f2ac32",
        "width" : 320
      }, {
        "height" : 160,
        "url" : "https://i.scdn.co/image/ab6761610000f17897e0b5047c0a3dc439f2ac32",
        "width" : 160
      } ],
      "name" : "Dave B.",
      "popularity" : 52,
      "type" : "artist",
      "uri" : "spotify:artist:5bfqwcEcRrMhtY9smw3IeJ"
    }, {
      "external_urls" : {
        "spotify" : "https://open.spotify.com/artist/7hbH1qupmU6HxVBjWJItlq"
      },
      "followers" : {
        "href" : null,
        "total" : 80101
      },
      "genres" : [ "acoustic pop", "christian music", "indiecoustica", "neo mellow", "pop rock" ],
      "href" : "https://api.spotify.com/v1/artists/7hbH1qupmU6HxVBjWJItlq",
      "id" : "7hbH1qupmU6HxVBjWJItlq",
      "images" : [ {
        "height" : 640,
        "url" : "https://i.scdn.co/image/ab6761610000e5eb8b07633faeea9b65cd607891",
        "width" : 640
      }, {
        "height" : 320,
        "url" : "https://i.scdn.co/image/ab676161000051748b07633faeea9b65cd607891",
        "width" : 320
      }, {
        "height" : 160,
        "url" : "https://i.scdn.co/image/ab6761610000f1788b07633faeea9b65cd607891",
        "width" : 160
      } ],
      "name" : "Dave Barnes",
      "popularity" : 51,
      "type" : "artist",
      "uri" : "spotify:artist:7hbH1qupmU6HxVBjWJItlq"
    }, {
      "external_urls" : {
        "spotify" : "https://open.spotify.com/artist/2DWQX92uew7DlsgN0yD775"
      },
      "followers" : {
        "href" : null,
        "total" : 138649
      },
      "genres" : [ "album rock", "blues rock", "classic rock", "country rock", "folk", "folk rock", "mellow gold", "roots rock", "singer-songwriter", "soft rock", "southern rock", "yacht rock" ],
      "href" : "https://api.spotify.com/v1/artists/2DWQX92uew7DlsgN0yD775",
      "id" : "2DWQX92uew7DlsgN0yD775",
      "images" : [ {
        "height" : 1068,
        "url" : "https://i.scdn.co/image/5bc730db2f1e28c5be0dd5a97e33eb74a802793c",
        "width" : 1000
      }, {
        "height" : 684,
        "url" : "https://i.scdn.co/image/12bb289439585710d9d3fec856d27bc76e6d2156",
        "width" : 640
      }, {
        "height" : 214,
        "url" : "https://i.scdn.co/image/46173708dafa19713cafdbbfca8df5ca30759d06",
        "width" : 200
      }, {
        "height" : 68,
        "url" : "https://i.scdn.co/image/285b5d0d7269c1d3b95a5c972392a9bf7069620c",
        "width" : 64
      } ],
      "name" : "Dave Mason",
      "popularity" : 49,
      "type" : "artist",
      "uri" : "spotify:artist:2DWQX92uew7DlsgN0yD775"
    }, {
      "external_urls" : {
        "spotify" : "https://open.spotify.com/artist/4bsWHdJkFtq1r3TcXtKGdv"
      },
      "followers" : {
        "href" : null,
        "total" : 27854
      },
      "genres" : [ "truck-driving country" ],
      "href" : "https://api.spotify.com/v1/artists/4bsWHdJkFtq1r3TcXtKGdv",
      "id" : "4bsWHdJkFtq1r3TcXtKGdv",
      "images" : [ {
        "height" : 640,
        "url" : "https://i.scdn.co/image/ab67616d0000b273f30e3b0a815a2a6285da0fd0",
        "width" : 640
      }, {
        "height" : 300,
        "url" : "https://i.scdn.co/image/ab67616d00001e02f30e3b0a815a2a6285da0fd0",
        "width" : 300
      }, {
        "height" : 64,
        "url" : "https://i.scdn.co/image/ab67616d00004851f30e3b0a815a2a6285da0fd0",
        "width" : 64
      } ],
      "name" : "Dave Dudley",
      "popularity" : 48,
      "type" : "artist",
      "uri" : "spotify:artist:4bsWHdJkFtq1r3TcXtKGdv"
    }, {
      "external_urls" : {
        "spotify" : "https://open.spotify.com/artist/3pAVaThptde5bneOqDfY1I"
      },
      "followers" : {
        "href" : null,
        "total" : 219
      },
      "genres" : [ ],
      "href" : "https://api.spotify.com/v1/artists/3pAVaThptde5bneOqDfY1I",
      "id" : "3pAVaThptde5bneOqDfY1I",
      "images" : [ {
        "height" : 640,
        "url" : "https://i.scdn.co/image/ab67616d0000b27323de2ad9cff271f395646e99",
        "width" : 640
      }, {
        "height" : 300,
        "url" : "https://i.scdn.co/image/ab67616d00001e0223de2ad9cff271f395646e99",
        "width" : 300
      }, {
        "height" : 64,
        "url" : "https://i.scdn.co/image/ab67616d0000485123de2ad9cff271f395646e99",
        "width" : 64
      } ],
      "name" : "Dave Bascombe",
      "popularity" : 52,
      "type" : "artist",
      "uri" : "spotify:artist:3pAVaThptde5bneOqDfY1I"
    }, {
      "external_urls" : {
        "spotify" : "https://open.spotify.com/artist/5Z1reBuaReg2pg72I2mnMm"
      },
      "followers" : {
        "href" : null,
        "total" : 381791
      },
      "genres" : [ "contemporary r&b", "neo soul", "new jack swing", "quiet storm", "r&b", "urban contemporary" ],
      "href" : "https://api.spotify.com/v1/artists/5Z1reBuaReg2pg72I2mnMm",
      "id" : "5Z1reBuaReg2pg72I2mnMm",
      "images" : [ {
        "height" : 689,
        "url" : "https://i.scdn.co/image/666fd526b51f4b656282305716b759840ac852f4",
        "width" : 1000
      }, {
        "height" : 441,
        "url" : "https://i.scdn.co/image/c5a60a55f7e40610c01373e684bafd1258bf132c",
        "width" : 640
      }, {
        "height" : 138,
        "url" : "https://i.scdn.co/image/c00786e8eab8eb6a6623d5ab394ffad08994dfd7",
        "width" : 200
      }, {
        "height" : 44,
        "url" : "https://i.scdn.co/image/af920d4641fe0a3b32f734c51bb6066ef92c2a36",
        "width" : 64
      } ],
      "name" : "Dave Hollister",
      "popularity" : 45,
      "type" : "artist",
      "uri" : "spotify:artist:5Z1reBuaReg2pg72I2mnMm"
    }, {
      "external_urls" : {
        "spotify" : "https://open.spotify.com/artist/1uXrhF4cZsmDQZDueF9uJT"
      },
      "followers" : {
        "href" : null,
        "total" : 21320
      },
      "genres" : [ "super eurobeat" ],
      "href" : "https://api.spotify.com/v1/artists/1uXrhF4cZsmDQZDueF9uJT",
      "id" : "1uXrhF4cZsmDQZDueF9uJT",
      "images" : [ {
        "height" : 640,
        "url" : "https://i.scdn.co/image/ab6761610000e5eb96cc2c2a0c8fd0c15a6f1b60",
        "width" : 640
      }, {
        "height" : 320,
        "url" : "https://i.scdn.co/image/ab6761610000517496cc2c2a0c8fd0c15a6f1b60",
        "width" : 320
      }, {
        "height" : 160,
        "url" : "https://i.scdn.co/image/ab6761610000f17896cc2c2a0c8fd0c15a6f1b60",
        "width" : 160
      } ],
      "name" : "dave rodgers",
      "popularity" : 53,
      "type" : "artist",
      "uri" : "spotify:artist:1uXrhF4cZsmDQZDueF9uJT"
    }, {
      "external_urls" : {
        "spotify" : "https://open.spotify.com/artist/39LRDjCTn1f255RhV5cmyF"
      },
      "followers" : {
        "href" : null,
        "total" : 215
      },
      "genres" : [ ],
      "href" : "https://api.spotify.com/v1/artists/39LRDjCTn1f255RhV5cmyF",
      "id" : "39LRDjCTn1f255RhV5cmyF",
      "images" : [ {
        "height" : 640,
        "url" : "https://i.scdn.co/image/ab67616d0000b27335b65105a956f5fb7e01f429",
        "width" : 640
      }, {
        "height" : 300,
        "url" : "https://i.scdn.co/image/ab67616d00001e0235b65105a956f5fb7e01f429",
        "width" : 300
      }, {
        "height" : 64,
        "url" : "https://i.scdn.co/image/ab67616d0000485135b65105a956f5fb7e01f429",
        "width" : 64
      } ],
      "name" : "Dave Chamberlain",
      "popularity" : 55,
      "type" : "artist",
      "uri" : "spotify:artist:39LRDjCTn1f255RhV5cmyF"
    } ],
    "limit" : 20,
    "next" : "https://api.spotify.com/v1/search?query=+Dave&type=artist&market=US&offset=20&limit=20",
    "offset" : 0,
    "previous" : null,
    "total" : 7607
  }
}