{
  "artists" : {
    "href" : "https://api.spotify.com/v1/search?query=FISHER&type=artist&market=US&offset=0&limit=20",
    "items" : [ {
      "external_urls" : {
        "spotify" : "https://open.spotify.com/artist/1VJ0briNOlXRtJUAzoUJdt"
      },
      "followers" : {
        "href" : null,
        "total" : 617364
      },
      "genres" : [ "australian house", "house" ],
      "href" : "https://api.spotify.com/v1/artists/1VJ0briNOlXRtJUAzoUJdt",
      "id" : "1VJ0briNOlXRtJUAzoUJdt",
      "images" : [ {
        "height" : 640,
        "url" : "https://i.scdn.co/image/ab6761610000e5eb26b6458775a693999d024473",
        "width" : 640
      }, {
        "height" : 320,
        "url" : "https://i.scdn.co/image/ab6761610000517426b6458775a693999d024473",
        "width" : 320
      }, {
        "height" : 160,
        "url" : "https://i.scdn.co/image/ab6761610000f17826b6458775a693999d024473",
        "width" : 160
      } ],
      "name" : "FISHER",
      "popularity" : 71,
      "type" : "artist",
      "uri" : "spotify:artist:1VJ0briNOlXRtJUAzoUJdt"
    }, {
      "external_urls" : {
        "spotify" : "https://open.spotify.com/artist/60wslYioiBcxSTInM4nIy2"
      },
      "followers" : {
        "href" : null,
        "total" : 385791
      },
      "genres" : [ "post-teen pop" ],
      "href" : "https://api.spotify.com/v1/artists/60wslYioiBcxSTInM4nIy2",
      "id" : "60wslYioiBcxSTInM4nIy2",
      "images" : [ {
        "height" : 640,
        "url" : "https://i.scdn.co/image/ab6761610000e5ebbab4fa8cd8a2554bb062325d",
        "width" : 640
      }, {
        "height" : 320,
        "url" : "https://i.scdn.co/image/ab67616100005174bab4fa8cd8a2554bb062325d",
        "width" : 320
      }, {
        "height" : 160,
        "url" : "https://i.scdn.co/image/ab6761610000f178bab4fa8cd8a2554bb062325d",
        "width" : 160
      } ],
      "name" : "Jordan Fisher",
      "popularity" : 70,
      "type" : "artist",
      "uri" : "spotify:artist:60wslYioiBcxSTInM4nIy2"
    }, {
      "external_urls" : {
        "spotify" : "https://open.spotify.com/artist/0ao2GEYTQS4UrRbRfvLC8y"
      },
      "followers" : {
        "href" : null,
        "total" : 13
      },
      "genres" : [ ],
      "href" : "https://api.spotify.com/v1/artists/0ao2GEYTQS4UrRbRfvLC8y",
      "id" : "0ao2GEYTQS4UrRbRfvLC8y",
      "images" : [ ],
      "name" : "FISHER",
      "popularity" : 9,
      "type" : "artist",
      "uri" : "spotify:artist:0ao2GEYTQS4UrRbRfvLC8y"
    }, {
      "external_urls" : {
        "spotify" : "https://open.spotify.com/artist/6TjbqpZF5EKmSYlcUZULk1"
      },
      "followers" : {
        "href" : null,
        "total" : 2018
      },
      "genres" : [ "preschool children's music" ],
      "href" : "https://api.spotify.com/v1/artists/6TjbqpZF5EKmSYlcUZULk1",
      "id" : "6TjbqpZF5EKmSYlcUZULk1",
      "images" : [ {
        "height" : 640,
        "url" : "https://i.scdn.co/image/ab6761610000e5eb719b306ee250a56aa5aeae3f",
        "width" : 640
      }, {
        "height" : 320,
        "url" : "https://i.scdn.co/image/ab67616100005174719b306ee250a56aa5aeae3f",
        "width" : 320
      }, {
        "height" : 160,
        "url" : "https://i.scdn.co/image/ab6761610000f178719b306ee250a56aa5aeae3f",
        "width" : 160
      } ],
      "name" : "Fisher-Price",
      "popularity" : 40,
      "type" : "artist",
      "uri" : "spotify:artist:6TjbqpZF5EKmSYlcUZULk1"
    }, {
      "external_urls" : {
        "spotify" : "https://open.spotify.com/artist/03UZwtrCiMR9P10LcjQ5Wu"
      },
      "followers" : {
        "href" : null,
        "total" : 39497
      },
      "genres" : [ "redneck", "roots americana" ],
      "href" : "https://api.spotify.com/v1/artists/03UZwtrCiMR9P10LcjQ5Wu",
      "id" : "03UZwtrCiMR9P10LcjQ5Wu",
      "images" : [ {
        "height" : 640,
        "url" : "https://i.scdn.co/image/ab6761610000e5ebf0d2735ee8bc5d94d4164fc2",
        "width" : 640
      }, {
        "height" : 320,
        "url" : "https://i.scdn.co/image/ab67616100005174f0d2735ee8bc5d94d4164fc2",
        "width" : 320
      }, {
        "height" : 160,
        "url" : "https://i.scdn.co/image/ab6761610000f178f0d2735ee8bc5d94d4164fc2",
        "width" : 160
      } ],
      "name" : "Creed Fisher",
      "popularity" : 51,
      "type" : "artist",
      "uri" : "spotify:artist:03UZwtrCiMR9P10LcjQ5Wu"
    }, {
      "external_urls" : {
        "spotify" : "https://open.spotify.com/artist/4d8ctgSxlcsw0RePFhCeC1"
      },
      "followers" : {
        "href" : null,
        "total" : 24
      },
      "genres" : [ ],
      "href" : "https://api.spotify.com/v1/artists/4d8ctgSxlcsw0RePFhCeC1",
      "id" : "4d8ctgSxlcsw0RePFhCeC1",
      "images" : [ {
        "height" : 640,
        "url" : "https://i.scdn.co/image/ab67616d0000b2734f4e8844156e19e2fb4f34ac",
        "width" : 640
      }, {
        "height" : 300,
        "url" : "https://i.scdn.co/image/ab67616d00001e024f4e8844156e19e2fb4f34ac",
        "width" : 300
      }, {
        "height" : 64,
        "url" : "https://i.scdn.co/image/ab67616d000048514f4e8844156e19e2fb4f34ac",
        "width" : 64
      } ],
      "name" : "FISHER",
      "popularity" : 3,
      "type" : "artist",
      "uri" : "spotify:artist:4d8ctgSxlcsw0RePFhCeC1"
    }, {
      "external_urls" : {
        "spotify" : "https://open.spotify.com/artist/3pno5kSGw5zAubtXtKps2h"
      },
      "followers" : {
        "href" : null,
        "total" : 3241
      },
      "genres" : [ "lilith" ],
      "href" : "https://api.spotify.com/v1/artists/3pno5kSGw5zAubtXtKps2h",
      "id" : "3pno5kSGw5zAubtXtKps2h",
      "images" : [ {
        "height" : 640,
        "url" : "https://i.scdn.co/image/ab6761610000e5ebe78667057678017974d6aa4b",
        "width" : 640
      }, {
        "height" : 320,
        "url" : "https://i.scdn.co/image/ab67616100005174e78667057678017974d6aa4b",
        "width" : 320
      }, {
        "height" : 160,
        "url" : "https://i.scdn.co/image/ab6761610000f178e78667057678017974d6aa4b",
        "width" : 160
      } ],
      "name" : "Fisher",
      "popularity" : 33,
      "type" : "artist",
      "uri" : "spotify:artist:3pno5kSGw5zAubtXtKps2h"
    }, {
      "external_urls" : {
        "spotify" : "https://open.spotify.com/artist/0cyEKEh8fQkksmpwLBlZV4"
      },
      "followers" : {
        "href" : null,
        "total" : 46764
      },
      "genres" : [ "cornish folk", "shanty" ],
      "href" : "https://api.spotify.com/v1/artists/0cyEKEh8fQkksmpwLBlZV4",
      "id" : "0cyEKEh8fQkksmpwLBlZV4",
      "images" : [ {
        "height" : 640,
        "url" : "https://i.scdn.co/image/ab6761610000e5eb45301d12a8a0426345521c49",
        "width" : 640
      }, {
        "height" : 320,
        "url" : "https://i.scdn.co/image/ab6761610000517445301d12a8a0426345521c49",
        "width" : 320
      }, {
        "height" : 160,
        "url" : "https://i.scdn.co/image/ab6761610000f17845301d12a8a0426345521c49",
        "width" : 160
      } ],
      "name" : "The Fisherman’s Friends",
      "popularity" : 48,
      "type" : "artist",
      "uri" : "spotify:artist:0cyEKEh8fQkksmpwLBlZV4"
    }, {
      "external_urls" : {
        "spotify" : "https://open.spotify.com/artist/60Z2GlsN9MFOAjY4Kfd2X8"
      },
      "followers" : {
        "href" : null,
        "total" : 16
      },
      "genres" : [ ],
      "href" : "https://api.spotify.com/v1/artists/60Z2GlsN9MFOAjY4Kfd2X8",
      "id" : "60Z2GlsN9MFOAjY4Kfd2X8",
      "images" : [ ],
      "name" : "FISHER",
      "popularity" : 1,
      "type" : "artist",
      "uri" : "spotify:artist:60Z2GlsN9MFOAjY4Kfd2X8"
    }, {
      "external_urls" : {
        "spotify" : "https://open.spotify.com/artist/3bpvhFSIErguVNQUiutctF"
      },
      "followers" : {
        "href" : null,
        "total" : 52873
      },
      "genres" : [ "new romantic", "new wave pop", "synthpop" ],
      "href" : "https://api.spotify.com/v1/artists/3bpvhFSIErguVNQUiutctF",
      "id" : "3bpvhFSIErguVNQUiutctF",
      "images" : [ {
        "height" : 1169,
        "url" : "https://i.scdn.co/image/3c4b310dad4e8a21ba8638958f03462f519b43c9",
        "width" : 1000
      }, {
        "height" : 748,
        "url" : "https://i.scdn.co/image/22ac371ba75f5ce54d4039609907cd00ab524676",
        "width" : 640
      }, {
        "height" : 234,
        "url" : "https://i.scdn.co/image/67c39847d0962446a30a497c04aaf676232b2684",
        "width" : 200
      }, {
        "height" : 75,
        "url" : "https://i.scdn.co/image/523211d32f4847859dca311c1017e47e730f9094",
        "width" : 64
      } ],
      "name" : "Climie Fisher",
      "popularity" : 53,
      "type" : "artist",
      "uri" : "spotify:artist:3bpvhFSIErguVNQUiutctF"
    }, {
      "external_urls" : {
        "spotify" : "https://open.spotify.com/artist/3VBZBLX807XsYkBcZqEGn4"
      },
      "followers" : {
        "href" : null,
        "total" : 2818
      },
      "genres" : [ ],
      "href" : "https://api.spotify.com/v1/artists/3VBZBLX807XsYkBcZqEGn4",
      "id" : "3VBZBLX807XsYkBcZqEGn4",
      "images" : [ {
        "height" : 640,
        "url" : "https://i.scdn.co/image/ab67616d0000b27307b734d1a9a9df7aa5869f90",
        "width" : 640
      }, {
        "height" : 300,
        "url" : "https://i.scdn.co/image/ab67616d00001e0207b734d1a9a9df7aa5869f90",
        "width" : 300
      }, {
        "height" : 64,
        "url" : "https://i.scdn.co/image/ab67616d0000485107b734d1a9a9df7aa5869f90",
        "width" : 64
      } ],
      "name" : "Fisherman",
      "popularity" : 31,
      "type" : "artist",
      "uri" : "spotify:artist:3VBZBLX807XsYkBcZqEGn4"
    }, {
      "external_urls" : {
        "spotify" : "https://open.spotify.com/artist/4aTYZNNuByNhd8QLrLMpo3"
      },
      "followers" : {
        "href" : null,
        "total" : 541
      },
      "genres" : [ ],
      "href" : "https://api.spotify.com/v1/artists/4aTYZNNuByNhd8QLrLMpo3",
      "id" : "4aTYZNNuByNhd8QLrLMpo3",
      "images" : [ {
        "height" : 640,
        "url" : "https://i.scdn.co/image/ab67616d0000b2735a0c9da6b70d3fa1db0b6199",
        "width" : 640
      }, {
        "height" : 300,
        "url" : "https://i.scdn.co/image/ab67616d00001e025a0c9da6b70d3fa1db0b6199",
        "width" : 300
      }, {
        "height" : 64,
        "url" : "https://i.scdn.co/image/ab67616d000048515a0c9da6b70d3fa1db0b6199",
        "width" : 64
      } ],
      "name" : "Gallie Fisher",
      "popularity" : 41,
      "type" : "artist",
      "uri" : "spotify:artist:4aTYZNNuByNhd8QLrLMpo3"
    }, {
      "external_urls" : {
        "spotify" : "https://open.spotify.com/artist/0vykncECxuxH5RqOMt6IIg"
      },
      "followers" : {
        "href" : null,
        "total" : 3423
      },
      "genres" : [ ],
      "href" : "https://api.spotify.com/v1/artists/0vykncECxuxH5RqOMt6IIg",
      "id" : "0vykncECxuxH5RqOMt6IIg",
      "images" : [ {
        "height" : 640,
        "url" : "https://i.scdn.co/image/ab6761610000e5ebfe3b8bdf64e721439bf1e24c",
        "width" : 640
      }, {
        "height" : 320,
        "url" : "https://i.scdn.co/image/ab67616100005174fe3b8bdf64e721439bf1e24c",
        "width" : 320
      }, {
        "height" : 160,
        "url" : "https://i.scdn.co/image/ab6761610000f178fe3b8bdf64e721439bf1e24c",
        "width" : 160
      } ],
      "name" : "Fisherman",
      "popularity" : 36,
      "type" : "artist",
      "uri" : "spotify:artist:0vykncECxuxH5RqOMt6IIg"
    }, {
      "external_urls" : {
        "spotify" : "https://open.spotify.com/artist/6bHSJldq5J4lYowHOm9OOX"
      },
      "followers" : {
        "href" : null,
        "total" : 29952
      },
      "genres" : [ "adult standards", "deep adult standards", "easy listening", "lounge" ],
      "href" : "https://api.spotify.com/v1/artists/6bHSJldq5J4lYowHOm9OOX",
      "id" : "6bHSJldq5J4lYowHOm9OOX",
      "images" : [ {
        "height" : 640,
        "url" : "https://i.scdn.co/image/ab67616d0000b2732630f57e8079f23823f9c238",
        "width" : 640
      }, {
        "height" : 300,
        "url" : "https://i.scdn.co/image/ab67616d00001e022630f57e8079f23823f9c238",
        "width" : 300
      }, {
        "height" : 64,
        "url" : "https://i.scdn.co/image/ab67616d000048512630f57e8079f23823f9c238",
        "width" : 64
      } ],
      "name" : "Eddie Fisher",
      "popularity" : 39,
      "type" : "artist",
      "uri" : "spotify:artist:6bHSJldq5J4lYowHOm9OOX"
    }, {
      "external_urls" : {
        "spotify" : "https://open.spotify.com/artist/4Hum1pkCIzrdVhaz2VQpbB"
      },
      "followers" : {
        "href" : null,
        "total" : 1177
      },
      "genres" : [ "backing track" ],
      "href" : "https://api.spotify.com/v1/artists/4Hum1pkCIzrdVhaz2VQpbB",
      "id" : "4Hum1pkCIzrdVhaz2VQpbB",
      "images" : [ {
        "height" : 640,
        "url" : "https://i.scdn.co/image/ab67616d0000b2735b50732ea0faac9b4e5cd0ee",
        "width" : 640
      }, {
        "height" : 300,
        "url" : "https://i.scdn.co/image/ab67616d00001e025b50732ea0faac9b4e5cd0ee",
        "width" : 300
      }, {
        "height" : 64,
        "url" : "https://i.scdn.co/image/ab67616d000048515b50732ea0faac9b4e5cd0ee",
        "width" : 64
      } ],
      "name" : "Fisher Music",
      "popularity" : 29,
      "type" : "artist",
      "uri" : "spotify:artist:4Hum1pkCIzrdVhaz2VQpbB"
    }, {
      "external_urls" : {
        "spotify" : "https://open.spotify.com/artist/0FxZvLqFQaxTtCAiqflsjT"
      },
      "followers" : {
        "href" : null,
        "total" : 437
      },
      "genres" : [ "instrumental worship", "rosary" ],
      "href" : "https://api.spotify.com/v1/artists/0FxZvLqFQaxTtCAiqflsjT",
      "id" : "0FxZvLqFQaxTtCAiqflsjT",
      "images" : [ {
        "height" : 640,
        "url" : "https://i.scdn.co/image/ab67616d0000b2733569f5e8f261f1868e70b8e0",
        "width" : 640
      }, {
        "height" : 300,
        "url" : "https://i.scdn.co/image/ab67616d00001e023569f5e8f261f1868e70b8e0",
        "width" : 300
      }, {
        "height" : 64,
        "url" : "https://i.scdn.co/image/ab67616d000048513569f5e8f261f1868e70b8e0",
        "width" : 64
      } ],
      "name" : "Bobby Fisher",
      "popularity" : 37,
      "type" : "artist",
      "uri" : "spotify:artist:0FxZvLqFQaxTtCAiqflsjT"
    }, {
      "external_urls" : {
        "spotify" : "https://open.spotify.com/artist/6Dq8IRrM5rVwzOmbTKjAID"
      },
      "followers" : {
        "href" : null,
        "total" : 3687
      },
      "genres" : [ "uplifting trance" ],
      "href" : "https://api.spotify.com/v1/artists/6Dq8IRrM5rVwzOmbTKjAID",
      "id" : "6Dq8IRrM5rVwzOmbTKjAID",
      "images" : [ {
        "height" : 640,
        "url" : "https://i.scdn.co/image/ab6761610000e5ebeda27886192ada6cd0044924",
        "width" : 640
      }, {
        "height" : 320,
        "url" : "https://i.scdn.co/image/ab67616100005174eda27886192ada6cd0044924",
        "width" : 320
      }, {
        "height" : 160,
        "url" : "https://i.scdn.co/image/ab6761610000f178eda27886192ada6cd0044924",
        "width" : 160
      } ],
      "name" : "Fisherman & Hawkins",
      "popularity" : 29,
      "type" : "artist",
      "uri" : "spotify:artist:6Dq8IRrM5rVwzOmbTKjAID"
    }, {
      "external_urls" : {
        "spotify" : "https://open.spotify.com/artist/5Bdoqe7eyvKZV0FluhBtSO"
      },
      "followers" : {
        "href" : null,
        "total" : 4
      },
      "genres" : [ ],
      "href" : "https://api.spotify.com/v1/artists/5Bdoqe7eyvKZV0FluhBtSO",
      "id" : "5Bdoqe7eyvKZV0FluhBtSO",
      "images" : [ {
        "height" : 640,
        "url" : "https://i.scdn.co/image/ab67616d0000b273d211e4326b2362f382a2ec16",
        "width" : 640
      }, {
        "height" : 300,
        "url" : "https://i.scdn.co/image/ab67616d00001e02d211e4326b2362f382a2ec16",
        "width" : 300
      }, {
        "height" : 64,
        "url" : "https://i.scdn.co/image/ab67616d00004851d211e4326b2362f382a2ec16",
        "width" : 64
      } ],
      "name" : "Leon Fisher",
      "popularity" : 37,
      "type" : "artist",
      "uri" : "spotify:artist:5Bdoqe7eyvKZV0FluhBtSO"
    }, {
      "external_urls" : {
        "spotify" : "https://open.spotify.com/artist/7GMaLb5prPuSPChGvMVyS4"
      },
      "followers" : {
        "href" : null,
        "total" : 43
      },
      "genres" : [ "instrumental lullaby" ],
      "href" : "https://api.spotify.com/v1/artists/7GMaLb5prPuSPChGvMVyS4",
      "id" : "7GMaLb5prPuSPChGvMVyS4",
      "images" : [ {
        "height" : 640,
        "url" : "https://i.scdn.co/image/ab67616d0000b27333e5592cc6011bb07a8d51d9",
        "width" : 640
      }, {
        "height" : 300,
        "url" : "https://i.scdn.co/image/ab67616d00001e0233e5592cc6011bb07a8d51d9",
        "width" : 300
      }, {
        "height" : 64,
        "url" : "https://i.scdn.co/image/ab67616d0000485133e5592cc6011bb07a8d51d9",
        "width" : 64
      } ],
      "name" : "Megan Fisher",
      "popularity" : 35,
      "type" : "artist",
      "uri" : "spotify:artist:7GMaLb5prPuSPChGvMVyS4"
    }, {
      "external_urls" : {
        "spotify" : "https://open.spotify.com/artist/0Jxj78XIQVzR7Onc7XsX8A"
      },
      "followers" : {
        "href" : null,
        "total" : 635
      },
      "genres" : [ "hmong pop" ],
      "href" : "https://api.spotify.com/v1/artists/0Jxj78XIQVzR7Onc7XsX8A",
      "id" : "0Jxj78XIQVzR7Onc7XsX8A",
      "images" : [ {
        "height" : 640,
        "url" : "https://i.scdn.co/image/ab67616d0000b273b436a2f2e69cd482bc40e005",
        "width" : 640
      }, {
        "height" : 300,
        "url" : "https://i.scdn.co/image/ab67616d00001e02b436a2f2e69cd482bc40e005",
        "width" : 300
      }, {
        "height" : 64,
        "url" : "https://i.scdn.co/image/ab67616d00004851b436a2f2e69cd482bc40e005",
        "width" : 64
      } ],
      "name" : "Fishermen's Project",
      "popularity" : 12,
      "type" : "artist",
      "uri" : "spotify:artist:0Jxj78XIQVzR7Onc7XsX8A"
    } ],
    "limit" : 20,
    "next" : "https://api.spotify.com/v1/search?query=FISHER&type=artist&market=US&offset=20&limit=20",
    "offset" : 0,
    "previous" : null,
    "total" : 1486
  }
}