{
  "artists" : {
    "href" : "https://api.spotify.com/v1/search?query=IMANU&type=artist&market=US&offset=0&limit=20",
    "items" : [ {
      "external_urls" : {
        "spotify" : "https://open.spotify.com/artist/5Y7rFm0tiJTVDzGLMzz0W1"
      },
      "followers" : {
        "href" : null,
        "total" : 25989
      },
      "genres" : [ "dutch dnb", "future bass" ],
      "href" : "https://api.spotify.com/v1/artists/5Y7rFm0tiJTVDzGLMzz0W1",
      "id" : "5Y7rFm0tiJTVDzGLMzz0W1",
      "images" : [ {
        "height" : 640,
        "url" : "https://i.scdn.co/image/ab6761610000e5eb0eededee27a3d5ea412df7b1",
        "width" : 640
      }, {
        "height" : 320,
        "url" : "https://i.scdn.co/image/ab676161000051740eededee27a3d5ea412df7b1",
        "width" : 320
      }, {
        "height" : 160,
        "url" : "https://i.scdn.co/image/ab6761610000f1780eededee27a3d5ea412df7b1",
        "width" : 160
      } ],
      "name" : "IMANU",
      "popularity" : 52,
      "type" : "artist",
      "uri" : "spotify:artist:5Y7rFm0tiJTVDzGLMzz0W1"
    }, {
      "external_urls" : {
        "spotify" : "https://open.spotify.com/artist/4NCMYyvG5btFEKkTTXf0pR"
      },
      "followers" : {
        "href" : null,
        "total" : 0
      },
      "genres" : [ ],
      "href" : "https://api.spotify.com/v1/artists/4NCMYyvG5btFEKkTTXf0pR",
      "id" : "4NCMYyvG5btFEKkTTXf0pR",
      "images" : [ {
        "height" : 640,
        "url" : "https://i.scdn.co/image/ab67616d0000b273354fe2fae1828c939b6e1ca1",
        "width" : 640
      }, {
        "height" : 300,
        "url" : "https://i.scdn.co/image/ab67616d00001e02354fe2fae1828c939b6e1ca1",
        "width" : 300
      }, {
        "height" : 64,
        "url" : "https://i.scdn.co/image/ab67616d00004851354fe2fae1828c939b6e1ca1",
        "width" : 64
      } ],
      "name" : "Imanudin",
      "popularity" : 3,
      "type" : "artist",
      "uri" : "spotify:artist:4NCMYyvG5btFEKkTTXf0pR"
    }, {
      "external_urls" : {
        "spotify" : "https://open.spotify.com/artist/3uQYsvZhFDNBb6bpVNEhO7"
      },
      "followers" : {
        "href" : null,
        "total" : 776
      },
      "genres" : [ "surinamese pop" ],
      "href" : "https://api.spotify.com/v1/artists/3uQYsvZhFDNBb6bpVNEhO7",
      "id" : "3uQYsvZhFDNBb6bpVNEhO7",
      "images" : [ {
        "height" : 640,
        "url" : "https://i.scdn.co/image/ab6761610000e5eb2f862475ac3730577bf06476",
        "width" : 640
      }, {
        "height" : 320,
        "url" : "https://i.scdn.co/image/ab676161000051742f862475ac3730577bf06476",
        "width" : 320
      }, {
        "height" : 160,
        "url" : "https://i.scdn.co/image/ab6761610000f1782f862475ac3730577bf06476",
        "width" : 160
      } ],
      "name" : "Jason Imanuel",
      "popularity" : 35,
      "type" : "artist",
      "uri" : "spotify:artist:3uQYsvZhFDNBb6bpVNEhO7"
    }, {
      "external_urls" : {
        "spotify" : "https://open.spotify.com/artist/6AZXNrYKsmNfH6hvKJwZvg"
      },
      "followers" : {
        "href" : null,
        "total" : 0
      },
      "genres" : [ ],
      "href" : "https://api.spotify.com/v1/artists/6AZXNrYKsmNfH6hvKJwZvg",
      "id" : "6AZXNrYKsmNfH6hvKJwZvg",
      "images" : [ {
        "height" : 640,
        "url" : "https://i.scdn.co/image/ab67616d0000b27346ce8f44237138bb1e20f168",
        "width" : 640
      }, {
        "height" : 300,
        "url" : "https://i.scdn.co/image/ab67616d00001e0246ce8f44237138bb1e20f168",
        "width" : 300
      }, {
        "height" : 64,
        "url" : "https://i.scdn.co/image/ab67616d0000485146ce8f44237138bb1e20f168",
        "width" : 64
      } ],
      "name" : "iManuL",
      "popularity" : 0,
      "type" : "artist",
      "uri" : "spotify:artist:6AZXNrYKsmNfH6hvKJwZvg"
    }, {
      "external_urls" : {
        "spotify" : "https://open.spotify.com/artist/0JF3hDocCC2LKaR9YXu8Or"
      },
      "followers" : {
        "href" : null,
        "total" : 14
      },
      "genres" : [ ],
      "href" : "https://api.spotify.com/v1/artists/0JF3hDocCC2LKaR9YXu8Or",
      "id" : "0JF3hDocCC2LKaR9YXu8Or",
      "images" : [ ],
      "name" : "Imanuell",
      "popularity" : 4,
      "type" : "artist",
      "uri" : "spotify:artist:0JF3hDocCC2LKaR9YXu8Or"
    }, {
      "external_urls" : {
        "spotify" : "https://open.spotify.com/artist/0Vs3jGSFYcWx7i0H94iXuH"
      },
      "followers" : {
        "href" : null,
        "total" : 1
      },
      "genres" : [ ],
      "href" : "https://api.spotify.com/v1/artists/0Vs3jGSFYcWx7i0H94iXuH",
      "id" : "0Vs3jGSFYcWx7i0H94iXuH",
      "images" : [ {
        "height" : 640,
        "url" : "https://i.scdn.co/image/ab67616d0000b27306226a422ebaab6084aee088",
        "width" : 640
      }, {
        "height" : 300,
        "url" : "https://i.scdn.co/image/ab67616d00001e0206226a422ebaab6084aee088",
        "width" : 300
      }, {
        "height" : 64,
        "url" : "https://i.scdn.co/image/ab67616d0000485106226a422ebaab6084aee088",
        "width" : 64
      } ],
      "name" : "Imanuel",
      "popularity" : 0,
      "type" : "artist",
      "uri" : "spotify:artist:0Vs3jGSFYcWx7i0H94iXuH"
    }, {
      "external_urls" : {
        "spotify" : "https://open.spotify.com/artist/5ncZelOztiZIrEkarKBplj"
      },
      "followers" : {
        "href" : null,
        "total" : 15
      },
      "genres" : [ ],
      "href" : "https://api.spotify.com/v1/artists/5ncZelOztiZIrEkarKBplj",
      "id" : "5ncZelOztiZIrEkarKBplj",
      "images" : [ {
        "height" : 640,
        "url" : "https://i.scdn.co/image/ab67616d0000b2738e13e7bbe72e32c7fa3d08a9",
        "width" : 640
      }, {
        "height" : 300,
        "url" : "https://i.scdn.co/image/ab67616d00001e028e13e7bbe72e32c7fa3d08a9",
        "width" : 300
      }, {
        "height" : 64,
        "url" : "https://i.scdn.co/image/ab67616d000048518e13e7bbe72e32c7fa3d08a9",
        "width" : 64
      } ],
      "name" : "Imanuel",
      "popularity" : 1,
      "type" : "artist",
      "uri" : "spotify:artist:5ncZelOztiZIrEkarKBplj"
    }, {
      "external_urls" : {
        "spotify" : "https://open.spotify.com/artist/5Ys6Mu9oCXhCnZC8jxKnka"
      },
      "followers" : {
        "href" : null,
        "total" : 20
      },
      "genres" : [ ],
      "href" : "https://api.spotify.com/v1/artists/5Ys6Mu9oCXhCnZC8jxKnka",
      "id" : "5Ys6Mu9oCXhCnZC8jxKnka",
      "images" : [ {
        "height" : 640,
        "url" : "https://i.scdn.co/image/ab67616d0000b27386d4f050745768514b9eca96",
        "width" : 640
      }, {
        "height" : 300,
        "url" : "https://i.scdn.co/image/ab67616d00001e0286d4f050745768514b9eca96",
        "width" : 300
      }, {
        "height" : 64,
        "url" : "https://i.scdn.co/image/ab67616d0000485186d4f050745768514b9eca96",
        "width" : 64
      } ],
      "name" : "Imanuella",
      "popularity" : 1,
      "type" : "artist",
      "uri" : "spotify:artist:5Ys6Mu9oCXhCnZC8jxKnka"
    }, {
      "external_urls" : {
        "spotify" : "https://open.spotify.com/artist/1WeTPh63k1cRIMTPrv3Wxt"
      },
      "followers" : {
        "href" : null,
        "total" : 85
      },
      "genres" : [ ],
      "href" : "https://api.spotify.com/v1/artists/1WeTPh63k1cRIMTPrv3Wxt",
      "id" : "1WeTPh63k1cRIMTPrv3Wxt",
      "images" : [ {
        "height" : 640,
        "url" : "https://i.scdn.co/image/ab6761610000e5ebdf39cf0e73bd554d27dafb37",
        "width" : 640
      }, {
        "height" : 320,
        "url" : "https://i.scdn.co/image/ab67616100005174df39cf0e73bd554d27dafb37",
        "width" : 320
      }, {
        "height" : 160,
        "url" : "https://i.scdn.co/image/ab6761610000f178df39cf0e73bd554d27dafb37",
        "width" : 160
      } ],
      "name" : "Imanuela",
      "popularity" : 0,
      "type" : "artist",
      "uri" : "spotify:artist:1WeTPh63k1cRIMTPrv3Wxt"
    }, {
      "external_urls" : {
        "spotify" : "https://open.spotify.com/artist/7lTuqdMCh87I8ST7QBi4re"
      },
      "followers" : {
        "href" : null,
        "total" : 1
      },
      "genres" : [ ],
      "href" : "https://api.spotify.com/v1/artists/7lTuqdMCh87I8ST7QBi4re",
      "id" : "7lTuqdMCh87I8ST7QBi4re",
      "images" : [ {
        "height" : 640,
        "url" : "https://i.scdn.co/image/ab6761610000e5eb3e7c0298a2528770f8b012ac",
        "width" : 640
      }, {
        "height" : 320,
        "url" : "https://i.scdn.co/image/ab676161000051743e7c0298a2528770f8b012ac",
        "width" : 320
      }, {
        "height" : 160,
        "url" : "https://i.scdn.co/image/ab6761610000f1783e7c0298a2528770f8b012ac",
        "width" : 160
      } ],
      "name" : "Imanual",
      "popularity" : 0,
      "type" : "artist",
      "uri" : "spotify:artist:7lTuqdMCh87I8ST7QBi4re"
    }, {
      "external_urls" : {
        "spotify" : "https://open.spotify.com/artist/5v82tNz5cRaqCzQI7Exg6I"
      },
      "followers" : {
        "href" : null,
        "total" : 54
      },
      "genres" : [ ],
      "href" : "https://api.spotify.com/v1/artists/5v82tNz5cRaqCzQI7Exg6I",
      "id" : "5v82tNz5cRaqCzQI7Exg6I",
      "images" : [ {
        "height" : 640,
        "url" : "https://i.scdn.co/image/ab6761610000e5eb6a4d51e462ec42a4afaa1093",
        "width" : 640
      }, {
        "height" : 320,
        "url" : "https://i.scdn.co/image/ab676161000051746a4d51e462ec42a4afaa1093",
        "width" : 320
      }, {
        "height" : 160,
        "url" : "https://i.scdn.co/image/ab6761610000f1786a4d51e462ec42a4afaa1093",
        "width" : 160
      } ],
      "name" : "Claude Imanuel",
      "popularity" : 0,
      "type" : "artist",
      "uri" : "spotify:artist:5v82tNz5cRaqCzQI7Exg6I"
    }, {
      "external_urls" : {
        "spotify" : "https://open.spotify.com/artist/5cKDx7hnwYXC4TtlaaFhgK"
      },
      "followers" : {
        "href" : null,
        "total" : 101
      },
      "genres" : [ ],
      "href" : "https://api.spotify.com/v1/artists/5cKDx7hnwYXC4TtlaaFhgK",
      "id" : "5cKDx7hnwYXC4TtlaaFhgK",
      "images" : [ {
        "height" : 640,
        "url" : "https://i.scdn.co/image/ab6761610000e5ebc20b8793bb7a9afa152b5cb0",
        "width" : 640
      }, {
        "height" : 320,
        "url" : "https://i.scdn.co/image/ab67616100005174c20b8793bb7a9afa152b5cb0",
        "width" : 320
      }, {
        "height" : 160,
        "url" : "https://i.scdn.co/image/ab6761610000f178c20b8793bb7a9afa152b5cb0",
        "width" : 160
      } ],
      "name" : "Adam Imanullah",
      "popularity" : 9,
      "type" : "artist",
      "uri" : "spotify:artist:5cKDx7hnwYXC4TtlaaFhgK"
    }, {
      "external_urls" : {
        "spotify" : "https://open.spotify.com/artist/77yuiAZg13XJO0OijFp1qU"
      },
      "followers" : {
        "href" : null,
        "total" : 26
      },
      "genres" : [ ],
      "href" : "https://api.spotify.com/v1/artists/77yuiAZg13XJO0OijFp1qU",
      "id" : "77yuiAZg13XJO0OijFp1qU",
      "images" : [ {
        "height" : 640,
        "url" : "https://i.scdn.co/image/ab67616d0000b2735b5264d3000ed086dd566ec1",
        "width" : 640
      }, {
        "height" : 300,
        "url" : "https://i.scdn.co/image/ab67616d00001e025b5264d3000ed086dd566ec1",
        "width" : 300
      }, {
        "height" : 64,
        "url" : "https://i.scdn.co/image/ab67616d000048515b5264d3000ed086dd566ec1",
        "width" : 64
      } ],
      "name" : "Vicsel Imanuel",
      "popularity" : 3,
      "type" : "artist",
      "uri" : "spotify:artist:77yuiAZg13XJO0OijFp1qU"
    }, {
      "external_urls" : {
        "spotify" : "https://open.spotify.com/artist/2p4KX1Nd7Y0FTe61exocg3"
      },
      "followers" : {
        "href" : null,
        "total" : 0
      },
      "genres" : [ ],
      "href" : "https://api.spotify.com/v1/artists/2p4KX1Nd7Y0FTe61exocg3",
      "id" : "2p4KX1Nd7Y0FTe61exocg3",
      "images" : [ {
        "height" : 640,
        "url" : "https://i.scdn.co/image/ab67616d0000b2735b5264d3000ed086dd566ec1",
        "width" : 640
      }, {
        "height" : 300,
        "url" : "https://i.scdn.co/image/ab67616d00001e025b5264d3000ed086dd566ec1",
        "width" : 300
      }, {
        "height" : 64,
        "url" : "https://i.scdn.co/image/ab67616d000048515b5264d3000ed086dd566ec1",
        "width" : 64
      } ],
      "name" : "Vivia Imanuela",
      "popularity" : 0,
      "type" : "artist",
      "uri" : "spotify:artist:2p4KX1Nd7Y0FTe61exocg3"
    }, {
      "external_urls" : {
        "spotify" : "https://open.spotify.com/artist/3gv3VKAhuGBhKdP0BMfls1"
      },
      "followers" : {
        "href" : null,
        "total" : 15
      },
      "genres" : [ ],
      "href" : "https://api.spotify.com/v1/artists/3gv3VKAhuGBhKdP0BMfls1",
      "id" : "3gv3VKAhuGBhKdP0BMfls1",
      "images" : [ ],
      "name" : "Antonino Imanuel",
      "popularity" : 0,
      "type" : "artist",
      "uri" : "spotify:artist:3gv3VKAhuGBhKdP0BMfls1"
    }, {
      "external_urls" : {
        "spotify" : "https://open.spotify.com/artist/13dostZqoO3ph7CKjmtQhR"
      },
      "followers" : {
        "href" : null,
        "total" : 0
      },
      "genres" : [ ],
      "href" : "https://api.spotify.com/v1/artists/13dostZqoO3ph7CKjmtQhR",
      "id" : "13dostZqoO3ph7CKjmtQhR",
      "images" : [ ],
      "name" : "Gucci Imanu",
      "popularity" : 0,
      "type" : "artist",
      "uri" : "spotify:artist:13dostZqoO3ph7CKjmtQhR"
    }, {
      "external_urls" : {
        "spotify" : "https://open.spotify.com/artist/5TvBdO9fQkTEP5OA6dd6Om"
      },
      "followers" : {
        "href" : null,
        "total" : 3
      },
      "genres" : [ ],
      "href" : "https://api.spotify.com/v1/artists/5TvBdO9fQkTEP5OA6dd6Om",
      "id" : "5TvBdO9fQkTEP5OA6dd6Om",
      "images" : [ {
        "height" : 640,
        "url" : "https://i.scdn.co/image/ab67616d0000b27357da5bf3eb116213fedc4ccb",
        "width" : 640
      }, {
        "height" : 300,
        "url" : "https://i.scdn.co/image/ab67616d00001e0257da5bf3eb116213fedc4ccb",
        "width" : 300
      }, {
        "height" : 64,
        "url" : "https://i.scdn.co/image/ab67616d0000485157da5bf3eb116213fedc4ccb",
        "width" : 64
      } ],
      "name" : "Imanuel Voice",
      "popularity" : 0,
      "type" : "artist",
      "uri" : "spotify:artist:5TvBdO9fQkTEP5OA6dd6Om"
    }, {
      "external_urls" : {
        "spotify" : "https://open.spotify.com/artist/7jmah2XOcTq764NeZPTlWs"
      },
      "followers" : {
        "href" : null,
        "total" : 4
      },
      "genres" : [ ],
      "href" : "https://api.spotify.com/v1/artists/7jmah2XOcTq764NeZPTlWs",
      "id" : "7jmah2XOcTq764NeZPTlWs",
      "images" : [ {
        "height" : 640,
        "url" : "https://i.scdn.co/image/ab67616d0000b273fa91731fca2d4c2f2e3981c5",
        "width" : 640
      }, {
        "height" : 300,
        "url" : "https://i.scdn.co/image/ab67616d00001e02fa91731fca2d4c2f2e3981c5",
        "width" : 300
      }, {
        "height" : 64,
        "url" : "https://i.scdn.co/image/ab67616d00004851fa91731fca2d4c2f2e3981c5",
        "width" : 64
      } ],
      "name" : "Prince Imanuel",
      "popularity" : 0,
      "type" : "artist",
      "uri" : "spotify:artist:7jmah2XOcTq764NeZPTlWs"
    }, {
      "external_urls" : {
        "spotify" : "https://open.spotify.com/artist/5oPswl6XnjyJPiVoPOBFNn"
      },
      "followers" : {
        "href" : null,
        "total" : 0
      },
      "genres" : [ ],
      "href" : "https://api.spotify.com/v1/artists/5oPswl6XnjyJPiVoPOBFNn",
      "id" : "5oPswl6XnjyJPiVoPOBFNn",
      "images" : [ ],
      "name" : "Imanuel Umboh",
      "popularity" : 0,
      "type" : "artist",
      "uri" : "spotify:artist:5oPswl6XnjyJPiVoPOBFNn"
    }, {
      "external_urls" : {
        "spotify" : "https://open.spotify.com/artist/59XY4bdMFAb4NuT2kqBrHD"
      },
      "followers" : {
        "href" : null,
        "total" : 18
      },
      "genres" : [ ],
      "href" : "https://api.spotify.com/v1/artists/59XY4bdMFAb4NuT2kqBrHD",
      "id" : "59XY4bdMFAb4NuT2kqBrHD",
      "images" : [ {
        "height" : 640,
        "url" : "https://i.scdn.co/image/ab6761610000e5ebd3a0d19f436220471e9aad43",
        "width" : 640
      }, {
        "height" : 320,
        "url" : "https://i.scdn.co/image/ab67616100005174d3a0d19f436220471e9aad43",
        "width" : 320
      }, {
        "height" : 160,
        "url" : "https://i.scdn.co/image/ab6761610000f178d3a0d19f436220471e9aad43",
        "width" : 160
      } ],
      "name" : "JosieImanuel",
      "popularity" : 0,
      "type" : "artist",
      "uri" : "spotify:artist:59XY4bdMFAb4NuT2kqBrHD"
    } ],
    "limit" : 20,
    "next" : "https://api.spotify.com/v1/search?query=IMANU&type=artist&market=US&offset=20&limit=20",
    "offset" : 0,
    "previous" : null,
    "total" : 47
  }
}