{
  "artists" : {
    "href" : "https://api.spotify.com/v1/search?query=REDLIGHT&type=artist&market=US&offset=0&limit=20",
    "items" : [ {
      "external_urls" : {
        "spotify" : "https://open.spotify.com/artist/6hha7AM7ao3kNpN0VwOXgD"
      },
      "followers" : {
        "href" : null,
        "total" : 46681
      },
      "genres" : [ "alternative metal", "post-grunge" ],
      "href" : "https://api.spotify.com/v1/artists/6hha7AM7ao3kNpN0VwOXgD",
      "id" : "6hha7AM7ao3kNpN0VwOXgD",
      "images" : [ {
        "height" : 640,
        "url" : "https://i.scdn.co/image/ab6761610000e5ebfca38e27ea0bd537b09c73b8",
        "width" : 640
      }, {
        "height" : 320,
        "url" : "https://i.scdn.co/image/ab67616100005174fca38e27ea0bd537b09c73b8",
        "width" : 320
      }, {
        "height" : 160,
        "url" : "https://i.scdn.co/image/ab6761610000f178fca38e27ea0bd537b09c73b8",
        "width" : 160
      } ],
      "name" : "Redlight King",
      "popularity" : 49,
      "type" : "artist",
      "uri" : "spotify:artist:6hha7AM7ao3kNpN0VwOXgD"
    }, {
      "external_urls" : {
        "spotify" : "https://open.spotify.com/artist/4ly0VtIYiDYVA4q6ry0NUk"
      },
      "followers" : {
        "href" : null,
        "total" : 65592
      },
      "genres" : [ "bass house", "bristol electronic", "deep groove house", "house", "pop dance", "tropical house", "uk bass", "uk dance", "uk funky" ],
      "href" : "https://api.spotify.com/v1/artists/4ly0VtIYiDYVA4q6ry0NUk",
      "id" : "4ly0VtIYiDYVA4q6ry0NUk",
      "images" : [ {
        "height" : 640,
        "url" : "https://i.scdn.co/image/ab6761610000e5ebab24f6e24dd87ff69b158878",
        "width" : 640
      }, {
        "height" : 320,
        "url" : "https://i.scdn.co/image/ab67616100005174ab24f6e24dd87ff69b158878",
        "width" : 320
      }, {
        "height" : 160,
        "url" : "https://i.scdn.co/image/ab6761610000f178ab24f6e24dd87ff69b158878",
        "width" : 160
      } ],
      "name" : "Redlight",
      "popularity" : 53,
      "type" : "artist",
      "uri" : "spotify:artist:4ly0VtIYiDYVA4q6ry0NUk"
    }, {
      "external_urls" : {
        "spotify" : "https://open.spotify.com/artist/1vDfhGeJZ5MRymMka7F08h"
      },
      "followers" : {
        "href" : null,
        "total" : 1815
      },
      "genres" : [ ],
      "href" : "https://api.spotify.com/v1/artists/1vDfhGeJZ5MRymMka7F08h",
      "id" : "1vDfhGeJZ5MRymMka7F08h",
      "images" : [ {
        "height" : 640,
        "url" : "https://i.scdn.co/image/ab6761610000e5eb3e0b3f6f57535d64bf6713d2",
        "width" : 640
      }, {
        "height" : 320,
        "url" : "https://i.scdn.co/image/ab676161000051743e0b3f6f57535d64bf6713d2",
        "width" : 320
      }, {
        "height" : 160,
        "url" : "https://i.scdn.co/image/ab6761610000f1783e0b3f6f57535d64bf6713d2",
        "width" : 160
      } ],
      "name" : "Redlight Blue",
      "popularity" : 32,
      "type" : "artist",
      "uri" : "spotify:artist:1vDfhGeJZ5MRymMka7F08h"
    }, {
      "external_urls" : {
        "spotify" : "https://open.spotify.com/artist/5hScJOfZYHToWFT3udwZSi"
      },
      "followers" : {
        "href" : null,
        "total" : 1238
      },
      "genres" : [ ],
      "href" : "https://api.spotify.com/v1/artists/5hScJOfZYHToWFT3udwZSi",
      "id" : "5hScJOfZYHToWFT3udwZSi",
      "images" : [ {
        "height" : 640,
        "url" : "https://i.scdn.co/image/ab67616d0000b273b489df2fa9f28e950c6c08b6",
        "width" : 640
      }, {
        "height" : 300,
        "url" : "https://i.scdn.co/image/ab67616d00001e02b489df2fa9f28e950c6c08b6",
        "width" : 300
      }, {
        "height" : 64,
        "url" : "https://i.scdn.co/image/ab67616d00004851b489df2fa9f28e950c6c08b6",
        "width" : 64
      } ],
      "name" : "RedLightDistrict Cash",
      "popularity" : 24,
      "type" : "artist",
      "uri" : "spotify:artist:5hScJOfZYHToWFT3udwZSi"
    }, {
      "external_urls" : {
        "spotify" : "https://open.spotify.com/artist/3cejmqYkf9oyEasVGoI3md"
      },
      "followers" : {
        "href" : null,
        "total" : 63
      },
      "genres" : [ ],
      "href" : "https://api.spotify.com/v1/artists/3cejmqYkf9oyEasVGoI3md",
      "id" : "3cejmqYkf9oyEasVGoI3md",
      "images" : [ {
        "height" : 640,
        "url" : "https://i.scdn.co/image/ab6761610000e5ebfba2b4ae65a31d22fc92ce22",
        "width" : 640
      }, {
        "height" : 320,
        "url" : "https://i.scdn.co/image/ab67616100005174fba2b4ae65a31d22fc92ce22",
        "width" : 320
      }, {
        "height" : 160,
        "url" : "https://i.scdn.co/image/ab6761610000f178fba2b4ae65a31d22fc92ce22",
        "width" : 160
      } ],
      "name" : "RedLight21",
      "popularity" : 7,
      "type" : "artist",
      "uri" : "spotify:artist:3cejmqYkf9oyEasVGoI3md"
    }, {
      "external_urls" : {
        "spotify" : "https://open.spotify.com/artist/19vJZWj0a4qXXsYI2CeW5X"
      },
      "followers" : {
        "href" : null,
        "total" : 351
      },
      "genres" : [ "armenian hip hop" ],
      "href" : "https://api.spotify.com/v1/artists/19vJZWj0a4qXXsYI2CeW5X",
      "id" : "19vJZWj0a4qXXsYI2CeW5X",
      "images" : [ {
        "height" : 640,
        "url" : "https://i.scdn.co/image/ab67616d0000b273de035d4c04ee76eda70bdde4",
        "width" : 640
      }, {
        "height" : 300,
        "url" : "https://i.scdn.co/image/ab67616d00001e02de035d4c04ee76eda70bdde4",
        "width" : 300
      }, {
        "height" : 64,
        "url" : "https://i.scdn.co/image/ab67616d00004851de035d4c04ee76eda70bdde4",
        "width" : 64
      } ],
      "name" : "Redlight",
      "popularity" : 10,
      "type" : "artist",
      "uri" : "spotify:artist:19vJZWj0a4qXXsYI2CeW5X"
    }, {
      "external_urls" : {
        "spotify" : "https://open.spotify.com/artist/4ndHkMtVrpNSGBSIvARx76"
      },
      "followers" : {
        "href" : null,
        "total" : 572
      },
      "genres" : [ ],
      "href" : "https://api.spotify.com/v1/artists/4ndHkMtVrpNSGBSIvARx76",
      "id" : "4ndHkMtVrpNSGBSIvARx76",
      "images" : [ {
        "height" : 640,
        "url" : "https://i.scdn.co/image/ab67616d0000b27333aeb79dc0f47357b8a3c820",
        "width" : 640
      }, {
        "height" : 300,
        "url" : "https://i.scdn.co/image/ab67616d00001e0233aeb79dc0f47357b8a3c820",
        "width" : 300
      }, {
        "height" : 64,
        "url" : "https://i.scdn.co/image/ab67616d0000485133aeb79dc0f47357b8a3c820",
        "width" : 64
      } ],
      "name" : "Red Light",
      "popularity" : 9,
      "type" : "artist",
      "uri" : "spotify:artist:4ndHkMtVrpNSGBSIvARx76"
    }, {
      "external_urls" : {
        "spotify" : "https://open.spotify.com/artist/5jusrdon1IhChuDoA3pVwM"
      },
      "followers" : {
        "href" : null,
        "total" : 2213
      },
      "genres" : [ "pinoy pop punk" ],
      "href" : "https://api.spotify.com/v1/artists/5jusrdon1IhChuDoA3pVwM",
      "id" : "5jusrdon1IhChuDoA3pVwM",
      "images" : [ {
        "height" : 640,
        "url" : "https://i.scdn.co/image/ab67616d0000b273a3fd079868d7687bd3a3d4ba",
        "width" : 640
      }, {
        "height" : 300,
        "url" : "https://i.scdn.co/image/ab67616d00001e02a3fd079868d7687bd3a3d4ba",
        "width" : 300
      }, {
        "height" : 64,
        "url" : "https://i.scdn.co/image/ab67616d00004851a3fd079868d7687bd3a3d4ba",
        "width" : 64
      } ],
      "name" : "RedLightGo!",
      "popularity" : 15,
      "type" : "artist",
      "uri" : "spotify:artist:5jusrdon1IhChuDoA3pVwM"
    }, {
      "external_urls" : {
        "spotify" : "https://open.spotify.com/artist/16Aw9PDrG1vatULkZBuqik"
      },
      "followers" : {
        "href" : null,
        "total" : 2
      },
      "genres" : [ ],
      "href" : "https://api.spotify.com/v1/artists/16Aw9PDrG1vatULkZBuqik",
      "id" : "16Aw9PDrG1vatULkZBuqik",
      "images" : [ ],
      "name" : "SugaCane a.k.a Redlight Boogie",
      "popularity" : 22,
      "type" : "artist",
      "uri" : "spotify:artist:16Aw9PDrG1vatULkZBuqik"
    }, {
      "external_urls" : {
        "spotify" : "https://open.spotify.com/artist/1Gt8JC17O4PfDeO12iEndm"
      },
      "followers" : {
        "href" : null,
        "total" : 326
      },
      "genres" : [ ],
      "href" : "https://api.spotify.com/v1/artists/1Gt8JC17O4PfDeO12iEndm",
      "id" : "1Gt8JC17O4PfDeO12iEndm",
      "images" : [ {
        "height" : 640,
        "url" : "https://i.scdn.co/image/ab67616d0000b2735427eaa832376d23b6ac1cf9",
        "width" : 640
      }, {
        "height" : 300,
        "url" : "https://i.scdn.co/image/ab67616d00001e025427eaa832376d23b6ac1cf9",
        "width" : 300
      }, {
        "height" : 64,
        "url" : "https://i.scdn.co/image/ab67616d000048515427eaa832376d23b6ac1cf9",
        "width" : 64
      } ],
      "name" : "Redlight Boogie",
      "popularity" : 10,
      "type" : "artist",
      "uri" : "spotify:artist:1Gt8JC17O4PfDeO12iEndm"
    }, {
      "external_urls" : {
        "spotify" : "https://open.spotify.com/artist/73rnOWJvYfuzppB6QmwBLA"
      },
      "followers" : {
        "href" : null,
        "total" : 70
      },
      "genres" : [ ],
      "href" : "https://api.spotify.com/v1/artists/73rnOWJvYfuzppB6QmwBLA",
      "id" : "73rnOWJvYfuzppB6QmwBLA",
      "images" : [ {
        "height" : 640,
        "url" : "https://i.scdn.co/image/ab67616d0000b27360e010d11bb0fc003ab1168e",
        "width" : 640
      }, {
        "height" : 300,
        "url" : "https://i.scdn.co/image/ab67616d00001e0260e010d11bb0fc003ab1168e",
        "width" : 300
      }, {
        "height" : 64,
        "url" : "https://i.scdn.co/image/ab67616d0000485160e010d11bb0fc003ab1168e",
        "width" : 64
      } ],
      "name" : "Redlight Drive",
      "popularity" : 0,
      "type" : "artist",
      "uri" : "spotify:artist:73rnOWJvYfuzppB6QmwBLA"
    }, {
      "external_urls" : {
        "spotify" : "https://open.spotify.com/artist/4Qk77wYBNvxjmOcPGalkI6"
      },
      "followers" : {
        "href" : null,
        "total" : 2
      },
      "genres" : [ ],
      "href" : "https://api.spotify.com/v1/artists/4Qk77wYBNvxjmOcPGalkI6",
      "id" : "4Qk77wYBNvxjmOcPGalkI6",
      "images" : [ {
        "height" : 640,
        "url" : "https://i.scdn.co/image/ab67616d0000b2739c34bef4e8e5ba4807d8605d",
        "width" : 640
      }, {
        "height" : 300,
        "url" : "https://i.scdn.co/image/ab67616d00001e029c34bef4e8e5ba4807d8605d",
        "width" : 300
      }, {
        "height" : 64,
        "url" : "https://i.scdn.co/image/ab67616d000048519c34bef4e8e5ba4807d8605d",
        "width" : 64
      } ],
      "name" : "RedLight Glizzy",
      "popularity" : 0,
      "type" : "artist",
      "uri" : "spotify:artist:4Qk77wYBNvxjmOcPGalkI6"
    }, {
      "external_urls" : {
        "spotify" : "https://open.spotify.com/artist/00GAXRVcNDdhV7VIqZDR41"
      },
      "followers" : {
        "href" : null,
        "total" : 0
      },
      "genres" : [ ],
      "href" : "https://api.spotify.com/v1/artists/00GAXRVcNDdhV7VIqZDR41",
      "id" : "00GAXRVcNDdhV7VIqZDR41",
      "images" : [ {
        "height" : 640,
        "url" : "https://i.scdn.co/image/ab67616d0000b273449421eae392053afce2df30",
        "width" : 640
      }, {
        "height" : 300,
        "url" : "https://i.scdn.co/image/ab67616d00001e02449421eae392053afce2df30",
        "width" : 300
      }, {
        "height" : 64,
        "url" : "https://i.scdn.co/image/ab67616d00004851449421eae392053afce2df30",
        "width" : 64
      } ],
      "name" : "RedLightON",
      "popularity" : 0,
      "type" : "artist",
      "uri" : "spotify:artist:00GAXRVcNDdhV7VIqZDR41"
    }, {
      "external_urls" : {
        "spotify" : "https://open.spotify.com/artist/0CCoEhto0QJPjezQriIrvN"
      },
      "followers" : {
        "href" : null,
        "total" : 2
      },
      "genres" : [ ],
      "href" : "https://api.spotify.com/v1/artists/0CCoEhto0QJPjezQriIrvN",
      "id" : "0CCoEhto0QJPjezQriIrvN",
      "images" : [ ],
      "name" : "Redlightx",
      "popularity" : 1,
      "type" : "artist",
      "uri" : "spotify:artist:0CCoEhto0QJPjezQriIrvN"
    }, {
      "external_urls" : {
        "spotify" : "https://open.spotify.com/artist/1snAzDqMcTwBYzbpTonjAF"
      },
      "followers" : {
        "href" : null,
        "total" : 0
      },
      "genres" : [ ],
      "href" : "https://api.spotify.com/v1/artists/1snAzDqMcTwBYzbpTonjAF",
      "id" : "1snAzDqMcTwBYzbpTonjAF",
      "images" : [ ],
      "name" : "redlights",
      "popularity" : 0,
      "type" : "artist",
      "uri" : "spotify:artist:1snAzDqMcTwBYzbpTonjAF"
    }, {
      "external_urls" : {
        "spotify" : "https://open.spotify.com/artist/6W8OnfR0yuqTd5VgR67wkJ"
      },
      "followers" : {
        "href" : null,
        "total" : 0
      },
      "genres" : [ ],
      "href" : "https://api.spotify.com/v1/artists/6W8OnfR0yuqTd5VgR67wkJ",
      "id" : "6W8OnfR0yuqTd5VgR67wkJ",
      "images" : [ {
        "height" : 640,
        "url" : "https://i.scdn.co/image/ab67616d0000b273d574f41567466d66fe59e40a",
        "width" : 640
      }, {
        "height" : 300,
        "url" : "https://i.scdn.co/image/ab67616d00001e02d574f41567466d66fe59e40a",
        "width" : 300
      }, {
        "height" : 64,
        "url" : "https://i.scdn.co/image/ab67616d00004851d574f41567466d66fe59e40a",
        "width" : 64
      } ],
      "name" : "Redlight",
      "popularity" : 1,
      "type" : "artist",
      "uri" : "spotify:artist:6W8OnfR0yuqTd5VgR67wkJ"
    }, {
      "external_urls" : {
        "spotify" : "https://open.spotify.com/artist/6hR8bLpHAVDvcI0Fgds2nd"
      },
      "followers" : {
        "href" : null,
        "total" : 2
      },
      "genres" : [ ],
      "href" : "https://api.spotify.com/v1/artists/6hR8bLpHAVDvcI0Fgds2nd",
      "id" : "6hR8bLpHAVDvcI0Fgds2nd",
      "images" : [ {
        "height" : 640,
        "url" : "https://i.scdn.co/image/ab67616d0000b273dfbaac60c1864ebc1b83f8e0",
        "width" : 640
      }, {
        "height" : 300,
        "url" : "https://i.scdn.co/image/ab67616d00001e02dfbaac60c1864ebc1b83f8e0",
        "width" : 300
      }, {
        "height" : 64,
        "url" : "https://i.scdn.co/image/ab67616d00004851dfbaac60c1864ebc1b83f8e0",
        "width" : 64
      } ],
      "name" : "REDLIGHTVALENTINE",
      "popularity" : 0,
      "type" : "artist",
      "uri" : "spotify:artist:6hR8bLpHAVDvcI0Fgds2nd"
    }, {
      "external_urls" : {
        "spotify" : "https://open.spotify.com/artist/0dIDMhWdxptg0tPr83siuA"
      },
      "followers" : {
        "href" : null,
        "total" : 6
      },
      "genres" : [ ],
      "href" : "https://api.spotify.com/v1/artists/0dIDMhWdxptg0tPr83siuA",
      "id" : "0dIDMhWdxptg0tPr83siuA",
      "images" : [ ],
      "name" : "Redlight",
      "popularity" : 1,
      "type" : "artist",
      "uri" : "spotify:artist:0dIDMhWdxptg0tPr83siuA"
    }, {
      "external_urls" : {
        "spotify" : "https://open.spotify.com/artist/1XgjqN2LohKnlIMDO3Silf"
      },
      "followers" : {
        "href" : null,
        "total" : 10
      },
      "genres" : [ ],
      "href" : "https://api.spotify.com/v1/artists/1XgjqN2LohKnlIMDO3Silf",
      "id" : "1XgjqN2LohKnlIMDO3Silf",
      "images" : [ {
        "height" : 640,
        "url" : "https://i.scdn.co/image/ab67616d0000b273504089a28c82cecf21381ad5",
        "width" : 640
      }, {
        "height" : 300,
        "url" : "https://i.scdn.co/image/ab67616d00001e02504089a28c82cecf21381ad5",
        "width" : 300
      }, {
        "height" : 64,
        "url" : "https://i.scdn.co/image/ab67616d00004851504089a28c82cecf21381ad5",
        "width" : 64
      } ],
      "name" : "Redlight",
      "popularity" : 0,
      "type" : "artist",
      "uri" : "spotify:artist:1XgjqN2LohKnlIMDO3Silf"
    }, {
      "external_urls" : {
        "spotify" : "https://open.spotify.com/artist/14hpoNjvZcwkbVEo1cYSId"
      },
      "followers" : {
        "href" : null,
        "total" : 1
      },
      "genres" : [ ],
      "href" : "https://api.spotify.com/v1/artists/14hpoNjvZcwkbVEo1cYSId",
      "id" : "14hpoNjvZcwkbVEo1cYSId",
      "images" : [ ],
      "name" : "Redlight Animal Youth",
      "popularity" : 2,
      "type" : "artist",
      "uri" : "spotify:artist:14hpoNjvZcwkbVEo1cYSId"
    } ],
    "limit" : 20,
    "next" : "https://api.spotify.com/v1/search?query=REDLIGHT&type=artist&market=US&offset=20&limit=20",
    "offset" : 0,
    "previous" : null,
    "total" : 71
  }
}