{
  "artists" : {
    "href" : "https://api.spotify.com/v1/search?query=ABSOLUTE.&type=artist&market=US&offset=0&limit=20",
    "items" : [ {
      "external_urls" : {
        "spotify" : "https://open.spotify.com/artist/0ntJWEv4bwPUp16SabEbKM"
      },
      "followers" : {
        "href" : null,
        "total" : 11857
      },
      "genres" : [ "chillsynth", "dark clubbing", "darksynth", "synthwave" ],
      "href" : "https://api.spotify.com/v1/artists/0ntJWEv4bwPUp16SabEbKM",
      "id" : "0ntJWEv4bwPUp16SabEbKM",
      "images" : [ {
        "height" : 640,
        "url" : "https://i.scdn.co/image/ab6761610000e5eb0746c876ba3259a95f2eab6d",
        "width" : 640
      }, {
        "height" : 320,
        "url" : "https://i.scdn.co/image/ab676161000051740746c876ba3259a95f2eab6d",
        "width" : 320
      }, {
        "height" : 160,
        "url" : "https://i.scdn.co/image/ab6761610000f1780746c876ba3259a95f2eab6d",
        "width" : 160
      } ],
      "name" : "Absolute Valentine",
      "popularity" : 45,
      "type" : "artist",
      "uri" : "spotify:artist:0ntJWEv4bwPUp16SabEbKM"
    }, {
      "external_urls" : {
        "spotify" : "https://open.spotify.com/artist/7LAUsmZK0QfpJAmapct66h"
      },
      "followers" : {
        "href" : null,
        "total" : 3476
      },
      "genres" : [ ],
      "href" : "https://api.spotify.com/v1/artists/7LAUsmZK0QfpJAmapct66h",
      "id" : "7LAUsmZK0QfpJAmapct66h",
      "images" : [ {
        "height" : 640,
        "url" : "https://i.scdn.co/image/ab6761610000e5eb795aaabb80093e89ba9d381e",
        "width" : 640
      }, {
        "height" : 320,
        "url" : "https://i.scdn.co/image/ab67616100005174795aaabb80093e89ba9d381e",
        "width" : 320
      }, {
        "height" : 160,
        "url" : "https://i.scdn.co/image/ab6761610000f178795aaabb80093e89ba9d381e",
        "width" : 160
      } ],
      "name" : "ABSOLUTE.",
      "popularity" : 39,
      "type" : "artist",
      "uri" : "spotify:artist:7LAUsmZK0QfpJAmapct66h"
    }, {
      "external_urls" : {
        "spotify" : "https://open.spotify.com/artist/1e5GVSEOMU2EP1MudgV4hI"
      },
      "followers" : {
        "href" : null,
        "total" : 154
      },
      "genres" : [ ],
      "href" : "https://api.spotify.com/v1/artists/1e5GVSEOMU2EP1MudgV4hI",
      "id" : "1e5GVSEOMU2EP1MudgV4hI",
      "images" : [ {
        "height" : 640,
        "url" : "https://i.scdn.co/image/ab6761610000e5ebd71e859d31f2635788e1019f",
        "width" : 640
      }, {
        "height" : 320,
        "url" : "https://i.scdn.co/image/ab67616100005174d71e859d31f2635788e1019f",
        "width" : 320
      }, {
        "height" : 160,
        "url" : "https://i.scdn.co/image/ab6761610000f178d71e859d31f2635788e1019f",
        "width" : 160
      } ],
      "name" : "Absolutely",
      "popularity" : 32,
      "type" : "artist",
      "uri" : "spotify:artist:1e5GVSEOMU2EP1MudgV4hI"
    }, {
      "external_urls" : {
        "spotify" : "https://open.spotify.com/artist/5sDt76QaMvM4mH6xX3croX"
      },
      "followers" : {
        "href" : null,
        "total" : 89
      },
      "genres" : [ ],
      "href" : "https://api.spotify.com/v1/artists/5sDt76QaMvM4mH6xX3croX",
      "id" : "5sDt76QaMvM4mH6xX3croX",
      "images" : [ {
        "height" : 640,
        "url" : "https://i.scdn.co/image/ab6761610000e5eb93a4b9c8fad8004c6a81c1a9",
        "width" : 640
      }, {
        "height" : 320,
        "url" : "https://i.scdn.co/image/ab6761610000517493a4b9c8fad8004c6a81c1a9",
        "width" : 320
      }, {
        "height" : 160,
        "url" : "https://i.scdn.co/image/ab6761610000f17893a4b9c8fad8004c6a81c1a9",
        "width" : 160
      } ],
      "name" : "Water Sounds for Absolute Sleep",
      "popularity" : 32,
      "type" : "artist",
      "uri" : "spotify:artist:5sDt76QaMvM4mH6xX3croX"
    }, {
      "external_urls" : {
        "spotify" : "https://open.spotify.com/artist/202Xi7gbs968QiT65Bsd99"
      },
      "followers" : {
        "href" : null,
        "total" : 2
      },
      "genres" : [ ],
      "href" : "https://api.spotify.com/v1/artists/202Xi7gbs968QiT65Bsd99",
      "id" : "202Xi7gbs968QiT65Bsd99",
      "images" : [ {
        "height" : 640,
        "url" : "https://i.scdn.co/image/ab67616d0000b27389d8343e1719786564d4a10d",
        "width" : 640
      }, {
        "height" : 300,
        "url" : "https://i.scdn.co/image/ab67616d00001e0289d8343e1719786564d4a10d",
        "width" : 300
      }, {
        "height" : 64,
        "url" : "https://i.scdn.co/image/ab67616d0000485189d8343e1719786564d4a10d",
        "width" : 64
      } ],
      "name" : "ABSOLUTE.",
      "popularity" : 0,
      "type" : "artist",
      "uri" : "spotify:artist:202Xi7gbs968QiT65Bsd99"
    }, {
      "external_urls" : {
        "spotify" : "https://open.spotify.com/artist/3xczcMd5UZ5f7lBxCyaWUD"
      },
      "followers" : {
        "href" : null,
        "total" : 129
      },
      "genres" : [ ],
      "href" : "https://api.spotify.com/v1/artists/3xczcMd5UZ5f7lBxCyaWUD",
      "id" : "3xczcMd5UZ5f7lBxCyaWUD",
      "images" : [ {
        "height" : 640,
        "url" : "https://i.scdn.co/image/ab6761610000e5eb3829589750678da16ab4252c",
        "width" : 640
      }, {
        "height" : 320,
        "url" : "https://i.scdn.co/image/ab676161000051743829589750678da16ab4252c",
        "width" : 320
      }, {
        "height" : 160,
        "url" : "https://i.scdn.co/image/ab6761610000f1783829589750678da16ab4252c",
        "width" : 160
      } ],
      "name" : "Absolute Sleep",
      "popularity" : 29,
      "type" : "artist",
      "uri" : "spotify:artist:3xczcMd5UZ5f7lBxCyaWUD"
    }, {
      "external_urls" : {
        "spotify" : "https://open.spotify.com/artist/311Xf4oyUUgMiVyMvrjIsO"
      },
      "followers" : {
        "href" : null,
        "total" : 5100
      },
      "genres" : [ "sleep" ],
      "href" : "https://api.spotify.com/v1/artists/311Xf4oyUUgMiVyMvrjIsO",
      "id" : "311Xf4oyUUgMiVyMvrjIsO",
      "images" : [ {
        "height" : 640,
        "url" : "https://i.scdn.co/image/ab6761610000e5ebdfd3dec914150a9e1c969dd0",
        "width" : 640
      }, {
        "height" : 320,
        "url" : "https://i.scdn.co/image/ab67616100005174dfd3dec914150a9e1c969dd0",
        "width" : 320
      }, {
        "height" : 160,
        "url" : "https://i.scdn.co/image/ab6761610000f178dfd3dec914150a9e1c969dd0",
        "width" : 160
      } ],
      "name" : "Music For Absolute Sleep",
      "popularity" : 35,
      "type" : "artist",
      "uri" : "spotify:artist:311Xf4oyUUgMiVyMvrjIsO"
    }, {
      "external_urls" : {
        "spotify" : "https://open.spotify.com/artist/5QEHQw5uiE7WQY3cMXXe3T"
      },
      "followers" : {
        "href" : null,
        "total" : 546
      },
      "genres" : [ ],
      "href" : "https://api.spotify.com/v1/artists/5QEHQw5uiE7WQY3cMXXe3T",
      "id" : "5QEHQw5uiE7WQY3cMXXe3T",
      "images" : [ {
        "height" : 643,
        "url" : "https://i.scdn.co/image/b473317512e47bb51b5cf429b3b572bc371c0584",
        "width" : 1000
      }, {
        "height" : 412,
        "url" : "https://i.scdn.co/image/f506cb8422bec74a83426f39f2ec2e98e705e08f",
        "width" : 640
      }, {
        "height" : 129,
        "url" : "https://i.scdn.co/image/a95b8cbbc3359747b75f7f2eb7eabd5f2bbe9288",
        "width" : 200
      }, {
        "height" : 41,
        "url" : "https://i.scdn.co/image/6b648f4f7ae6d8c246cddfeb9dfc0bef2fb7401a",
        "width" : 64
      } ],
      "name" : "Absolute Ensemble",
      "popularity" : 22,
      "type" : "artist",
      "uri" : "spotify:artist:5QEHQw5uiE7WQY3cMXXe3T"
    }, {
      "external_urls" : {
        "spotify" : "https://open.spotify.com/artist/5DD56TbdQI5Xe9c8YSiTj5"
      },
      "followers" : {
        "href" : null,
        "total" : 2975
      },
      "genres" : [ "canadian psychedelic rock", "experimental pop", "neo-psychedelic", "shiver pop", "toronto indie" ],
      "href" : "https://api.spotify.com/v1/artists/5DD56TbdQI5Xe9c8YSiTj5",
      "id" : "5DD56TbdQI5Xe9c8YSiTj5",
      "images" : [ {
        "height" : 640,
        "url" : "https://i.scdn.co/image/ab6761610000e5eb56fb7200384254a6f17297d8",
        "width" : 640
      }, {
        "height" : 320,
        "url" : "https://i.scdn.co/image/ab6761610000517456fb7200384254a6f17297d8",
        "width" : 320
      }, {
        "height" : 160,
        "url" : "https://i.scdn.co/image/ab6761610000f17856fb7200384254a6f17297d8",
        "width" : 160
      } ],
      "name" : "Absolutely Free",
      "popularity" : 18,
      "type" : "artist",
      "uri" : "spotify:artist:5DD56TbdQI5Xe9c8YSiTj5"
    }, {
      "external_urls" : {
        "spotify" : "https://open.spotify.com/artist/03wx6Q0Osk88eyEyZjCk6e"
      },
      "followers" : {
        "href" : null,
        "total" : 382
      },
      "genres" : [ ],
      "href" : "https://api.spotify.com/v1/artists/03wx6Q0Osk88eyEyZjCk6e",
      "id" : "03wx6Q0Osk88eyEyZjCk6e",
      "images" : [ ],
      "name" : "Absolutely Fabulous",
      "popularity" : 22,
      "type" : "artist",
      "uri" : "spotify:artist:03wx6Q0Osk88eyEyZjCk6e"
    }, {
      "external_urls" : {
        "spotify" : "https://open.spotify.com/artist/4WNEqCTrk5CHpgZEQJWsVS"
      },
      "followers" : {
        "href" : null,
        "total" : 33
      },
      "genres" : [ "white noise" ],
      "href" : "https://api.spotify.com/v1/artists/4WNEqCTrk5CHpgZEQJWsVS",
      "id" : "4WNEqCTrk5CHpgZEQJWsVS",
      "images" : [ {
        "height" : 640,
        "url" : "https://i.scdn.co/image/ab67616d0000b273522d76f310447361c3bfba23",
        "width" : 640
      }, {
        "height" : 300,
        "url" : "https://i.scdn.co/image/ab67616d00001e02522d76f310447361c3bfba23",
        "width" : 300
      }, {
        "height" : 64,
        "url" : "https://i.scdn.co/image/ab67616d00004851522d76f310447361c3bfba23",
        "width" : 64
      } ],
      "name" : "White Noise for Absolute Sleep",
      "popularity" : 34,
      "type" : "artist",
      "uri" : "spotify:artist:4WNEqCTrk5CHpgZEQJWsVS"
    }, {
      "external_urls" : {
        "spotify" : "https://open.spotify.com/artist/4ewAGkp20YJ8KDi2nDrTmt"
      },
      "followers" : {
        "href" : null,
        "total" : 589
      },
      "genres" : [ ],
      "href" : "https://api.spotify.com/v1/artists/4ewAGkp20YJ8KDi2nDrTmt",
      "id" : "4ewAGkp20YJ8KDi2nDrTmt",
      "images" : [ {
        "height" : 640,
        "url" : "https://i.scdn.co/image/ab67616d0000b273f0f428f7693cf1bcaf04f858",
        "width" : 640
      }, {
        "height" : 300,
        "url" : "https://i.scdn.co/image/ab67616d00001e02f0f428f7693cf1bcaf04f858",
        "width" : 300
      }, {
        "height" : 64,
        "url" : "https://i.scdn.co/image/ab67616d00004851f0f428f7693cf1bcaf04f858",
        "width" : 64
      } ],
      "name" : "Absolute",
      "popularity" : 24,
      "type" : "artist",
      "uri" : "spotify:artist:4ewAGkp20YJ8KDi2nDrTmt"
    }, {
      "external_urls" : {
        "spotify" : "https://open.spotify.com/artist/29ToFrUcrKjj8cDvwN58Et"
      },
      "followers" : {
        "href" : null,
        "total" : 316
      },
      "genres" : [ "meditation" ],
      "href" : "https://api.spotify.com/v1/artists/29ToFrUcrKjj8cDvwN58Et",
      "id" : "29ToFrUcrKjj8cDvwN58Et",
      "images" : [ {
        "height" : 640,
        "url" : "https://i.scdn.co/image/ab67616d0000b27339c126632e6efaa0af5ac2ce",
        "width" : 640
      }, {
        "height" : 300,
        "url" : "https://i.scdn.co/image/ab67616d00001e0239c126632e6efaa0af5ac2ce",
        "width" : 300
      }, {
        "height" : 64,
        "url" : "https://i.scdn.co/image/ab67616d0000485139c126632e6efaa0af5ac2ce",
        "width" : 64
      } ],
      "name" : "Lullabies for Deep Meditation & Music For Absolute",
      "popularity" : 21,
      "type" : "artist",
      "uri" : "spotify:artist:29ToFrUcrKjj8cDvwN58Et"
    }, {
      "external_urls" : {
        "spotify" : "https://open.spotify.com/artist/62yQ73aKAkkl8h397EKqA6"
      },
      "followers" : {
        "href" : null,
        "total" : 1273
      },
      "genres" : [ ],
      "href" : "https://api.spotify.com/v1/artists/62yQ73aKAkkl8h397EKqA6",
      "id" : "62yQ73aKAkkl8h397EKqA6",
      "images" : [ {
        "height" : 640,
        "url" : "https://i.scdn.co/image/ab6761610000e5eb5e44f882a44828768071b523",
        "width" : 640
      }, {
        "height" : 320,
        "url" : "https://i.scdn.co/image/ab676161000051745e44f882a44828768071b523",
        "width" : 320
      }, {
        "height" : 160,
        "url" : "https://i.scdn.co/image/ab6761610000f1785e44f882a44828768071b523",
        "width" : 160
      } ],
      "name" : "Absolute A Cappella",
      "popularity" : 17,
      "type" : "artist",
      "uri" : "spotify:artist:62yQ73aKAkkl8h397EKqA6"
    }, {
      "external_urls" : {
        "spotify" : "https://open.spotify.com/artist/4XkhEirR2JZT4fncyOxxtf"
      },
      "followers" : {
        "href" : null,
        "total" : 284481
      },
      "genres" : [ "german jazz rap", "german pop", "german reggae", "hamburg hip hop", "oldschool deutschrap" ],
      "href" : "https://api.spotify.com/v1/artists/4XkhEirR2JZT4fncyOxxtf",
      "id" : "4XkhEirR2JZT4fncyOxxtf",
      "images" : [ {
        "height" : 1000,
        "url" : "https://i.scdn.co/image/c9567c6916366d071e1261098d1a727e145f41a5",
        "width" : 1000
      }, {
        "height" : 640,
        "url" : "https://i.scdn.co/image/7a1737017ec406aec719e3d5ee06d46659142822",
        "width" : 640
      }, {
        "height" : 200,
        "url" : "https://i.scdn.co/image/f4951cdc90761872000d4972d8d02d4d16182856",
        "width" : 200
      }, {
        "height" : 64,
        "url" : "https://i.scdn.co/image/05033a7479e6c8d0922bfb9ebe665b1e5a781bcd",
        "width" : 64
      } ],
      "name" : "Beginner",
      "popularity" : 53,
      "type" : "artist",
      "uri" : "spotify:artist:4XkhEirR2JZT4fncyOxxtf"
    }, {
      "external_urls" : {
        "spotify" : "https://open.spotify.com/artist/3ulPohamkLlH0vON7usIu3"
      },
      "followers" : {
        "href" : null,
        "total" : 1669
      },
      "genres" : [ "drift phonk", "phonk" ],
      "href" : "https://api.spotify.com/v1/artists/3ulPohamkLlH0vON7usIu3",
      "id" : "3ulPohamkLlH0vON7usIu3",
      "images" : [ {
        "height" : 640,
        "url" : "https://i.scdn.co/image/ab6761610000e5eba38c2a0bb7901077df2144e8",
        "width" : 640
      }, {
        "height" : 320,
        "url" : "https://i.scdn.co/image/ab67616100005174a38c2a0bb7901077df2144e8",
        "width" : 320
      }, {
        "height" : 160,
        "url" : "https://i.scdn.co/image/ab6761610000f178a38c2a0bb7901077df2144e8",
        "width" : 160
      } ],
      "name" : "Absolute Terror",
      "popularity" : 18,
      "type" : "artist",
      "uri" : "spotify:artist:3ulPohamkLlH0vON7usIu3"
    }, {
      "external_urls" : {
        "spotify" : "https://open.spotify.com/artist/2nPbHQW065TWbk7EjsEfiS"
      },
      "followers" : {
        "href" : null,
        "total" : 17160
      },
      "genres" : [ ],
      "href" : "https://api.spotify.com/v1/artists/2nPbHQW065TWbk7EjsEfiS",
      "id" : "2nPbHQW065TWbk7EjsEfiS",
      "images" : [ {
        "height" : 640,
        "url" : "https://i.scdn.co/image/ab6761610000e5eb2985cc457b13a62a0af5e086",
        "width" : 640
      }, {
        "height" : 320,
        "url" : "https://i.scdn.co/image/ab676161000051742985cc457b13a62a0af5e086",
        "width" : 320
      }, {
        "height" : 160,
        "url" : "https://i.scdn.co/image/ab6761610000f1782985cc457b13a62a0af5e086",
        "width" : 160
      } ],
      "name" : "Absolute area",
      "popularity" : 35,
      "type" : "artist",
      "uri" : "spotify:artist:2nPbHQW065TWbk7EjsEfiS"
    }, {
      "external_urls" : {
        "spotify" : "https://open.spotify.com/artist/3oquTUqZU0bvFKbyBPiFjv"
      },
      "followers" : {
        "href" : null,
        "total" : 243
      },
      "genres" : [ ],
      "href" : "https://api.spotify.com/v1/artists/3oquTUqZU0bvFKbyBPiFjv",
      "id" : "3oquTUqZU0bvFKbyBPiFjv",
      "images" : [ {
        "height" : 640,
        "url" : "https://i.scdn.co/image/ab67616d0000b273da8be6357398116b47ea5035",
        "width" : 640
      }, {
        "height" : 300,
        "url" : "https://i.scdn.co/image/ab67616d00001e02da8be6357398116b47ea5035",
        "width" : 300
      }, {
        "height" : 64,
        "url" : "https://i.scdn.co/image/ab67616d00004851da8be6357398116b47ea5035",
        "width" : 64
      } ],
      "name" : "The Absolute Monster Gentlemen",
      "popularity" : 16,
      "type" : "artist",
      "uri" : "spotify:artist:3oquTUqZU0bvFKbyBPiFjv"
    }, {
      "external_urls" : {
        "spotify" : "https://open.spotify.com/artist/0sY0sggayqH5fxwe3abfUn"
      },
      "followers" : {
        "href" : null,
        "total" : 5819
      },
      "genres" : [ "belgian new wave", "ebm", "minimal wave" ],
      "href" : "https://api.spotify.com/v1/artists/0sY0sggayqH5fxwe3abfUn",
      "id" : "0sY0sggayqH5fxwe3abfUn",
      "images" : [ {
        "height" : 640,
        "url" : "https://i.scdn.co/image/ab67616d0000b2737f3d73a4b0a323ec9f60f1a9",
        "width" : 640
      }, {
        "height" : 300,
        "url" : "https://i.scdn.co/image/ab67616d00001e027f3d73a4b0a323ec9f60f1a9",
        "width" : 300
      }, {
        "height" : 64,
        "url" : "https://i.scdn.co/image/ab67616d000048517f3d73a4b0a323ec9f60f1a9",
        "width" : 64
      } ],
      "name" : "Absolute Body Control",
      "popularity" : 18,
      "type" : "artist",
      "uri" : "spotify:artist:0sY0sggayqH5fxwe3abfUn"
    }, {
      "external_urls" : {
        "spotify" : "https://open.spotify.com/artist/0ybQNPbKAO6WicNUMQ8jji"
      },
      "followers" : {
        "href" : null,
        "total" : 68
      },
      "genres" : [ ],
      "href" : "https://api.spotify.com/v1/artists/0ybQNPbKAO6WicNUMQ8jji",
      "id" : "0ybQNPbKAO6WicNUMQ8jji",
      "images" : [ {
        "height" : 640,
        "url" : "https://i.scdn.co/image/ab6761610000e5ebc65a94a5278b430ad7de4242",
        "width" : 640
      }, {
        "height" : 320,
        "url" : "https://i.scdn.co/image/ab67616100005174c65a94a5278b430ad7de4242",
        "width" : 320
      }, {
        "height" : 160,
        "url" : "https://i.scdn.co/image/ab6761610000f178c65a94a5278b430ad7de4242",
        "width" : 160
      } ],
      "name" : "AbsoluteBeat",
      "popularity" : 15,
      "type" : "artist",
      "uri" : "spotify:artist:0ybQNPbKAO6WicNUMQ8jji"
    } ],
    "limit" : 20,
    "next" : "https://api.spotify.com/v1/search?query=ABSOLUTE.&type=artist&market=US&offset=20&limit=20",
    "offset" : 0,
    "previous" : null,
    "total" : 522
  }
}