{
  "artists" : {
    "href" : "https://api.spotify.com/v1/search?query=Cristoph&type=artist&market=US&offset=0&limit=20",
    "items" : [ {
      "external_urls" : {
        "spotify" : "https://open.spotify.com/artist/532SqCIYmJyXEdEiCJLgYG"
      },
      "followers" : {
        "href" : null,
        "total" : 44583
      },
      "genres" : [ "house", "progressive house", "tech house" ],
      "href" : "https://api.spotify.com/v1/artists/532SqCIYmJyXEdEiCJLgYG",
      "id" : "532SqCIYmJyXEdEiCJLgYG",
      "images" : [ {
        "height" : 640,
        "url" : "https://i.scdn.co/image/ab6761610000e5ebdd0f7807f9e08c239645729b",
        "width" : 640
      }, {
        "height" : 320,
        "url" : "https://i.scdn.co/image/ab67616100005174dd0f7807f9e08c239645729b",
        "width" : 320
      }, {
        "height" : 160,
        "url" : "https://i.scdn.co/image/ab6761610000f178dd0f7807f9e08c239645729b",
        "width" : 160
      } ],
      "name" : "Cristoph",
      "popularity" : 59,
      "type" : "artist",
      "uri" : "spotify:artist:532SqCIYmJyXEdEiCJLgYG"
    }, {
      "external_urls" : {
        "spotify" : "https://open.spotify.com/artist/7GvvZWqI8qi9E13IAbYnXE"
      },
      "followers" : {
        "href" : null,
        "total" : 1269
      },
      "genres" : [ "chill guitar", "focus" ],
      "href" : "https://api.spotify.com/v1/artists/7GvvZWqI8qi9E13IAbYnXE",
      "id" : "7GvvZWqI8qi9E13IAbYnXE",
      "images" : [ {
        "height" : 640,
        "url" : "https://i.scdn.co/image/ab67616d0000b273d38bcd3f4f5cc0b405383ce8",
        "width" : 640
      }, {
        "height" : 300,
        "url" : "https://i.scdn.co/image/ab67616d00001e02d38bcd3f4f5cc0b405383ce8",
        "width" : 300
      }, {
        "height" : 64,
        "url" : "https://i.scdn.co/image/ab67616d00004851d38bcd3f4f5cc0b405383ce8",
        "width" : 64
      } ],
      "name" : "Cristopher Varela",
      "popularity" : 37,
      "type" : "artist",
      "uri" : "spotify:artist:7GvvZWqI8qi9E13IAbYnXE"
    }, {
      "external_urls" : {
        "spotify" : "https://open.spotify.com/artist/3IG3Ub4ra8AuSxCFDVkVco"
      },
      "followers" : {
        "href" : null,
        "total" : 29854
      },
      "genres" : [ "house", "progressive house", "uk dance", "uk house" ],
      "href" : "https://api.spotify.com/v1/artists/3IG3Ub4ra8AuSxCFDVkVco",
      "id" : "3IG3Ub4ra8AuSxCFDVkVco",
      "images" : [ {
        "height" : 640,
        "url" : "https://i.scdn.co/image/ab6761610000e5ebb1783532279780aab06d8182",
        "width" : 640
      }, {
        "height" : 320,
        "url" : "https://i.scdn.co/image/ab67616100005174b1783532279780aab06d8182",
        "width" : 320
      }, {
        "height" : 160,
        "url" : "https://i.scdn.co/image/ab6761610000f178b1783532279780aab06d8182",
        "width" : 160
      } ],
      "name" : "Franky Wah",
      "popularity" : 56,
      "type" : "artist",
      "uri" : "spotify:artist:3IG3Ub4ra8AuSxCFDVkVco"
    }, {
      "external_urls" : {
        "spotify" : "https://open.spotify.com/artist/4isIKIxNXhS88HYcnLwlUn"
      },
      "followers" : {
        "href" : null,
        "total" : 42
      },
      "genres" : [ ],
      "href" : "https://api.spotify.com/v1/artists/4isIKIxNXhS88HYcnLwlUn",
      "id" : "4isIKIxNXhS88HYcnLwlUn",
      "images" : [ {
        "height" : 640,
        "url" : "https://i.scdn.co/image/ab67616d0000b2738f2d56febb72accfe6c8636a",
        "width" : 640
      }, {
        "height" : 300,
        "url" : "https://i.scdn.co/image/ab67616d00001e028f2d56febb72accfe6c8636a",
        "width" : 300
      }, {
        "height" : 64,
        "url" : "https://i.scdn.co/image/ab67616d000048518f2d56febb72accfe6c8636a",
        "width" : 64
      } ],
      "name" : "Cristoph Normann",
      "popularity" : 26,
      "type" : "artist",
      "uri" : "spotify:artist:4isIKIxNXhS88HYcnLwlUn"
    }, {
      "external_urls" : {
        "spotify" : "https://open.spotify.com/artist/695W5F2Ih8dYahLdjVOIoH"
      },
      "followers" : {
        "href" : null,
        "total" : 728627
      },
      "genres" : [ "adult standards", "album rock", "disco", "folk rock", "mellow gold", "new wave pop", "quiet storm", "soft rock", "yacht rock" ],
      "href" : "https://api.spotify.com/v1/artists/695W5F2Ih8dYahLdjVOIoH",
      "id" : "695W5F2Ih8dYahLdjVOIoH",
      "images" : [ {
        "height" : 640,
        "url" : "https://i.scdn.co/image/ab6761610000e5eba2e75d072e19a6150744f924",
        "width" : 640
      }, {
        "height" : 320,
        "url" : "https://i.scdn.co/image/ab67616100005174a2e75d072e19a6150744f924",
        "width" : 320
      }, {
        "height" : 160,
        "url" : "https://i.scdn.co/image/ab6761610000f178a2e75d072e19a6150744f924",
        "width" : 160
      } ],
      "name" : "Christopher Cross",
      "popularity" : 66,
      "type" : "artist",
      "uri" : "spotify:artist:695W5F2Ih8dYahLdjVOIoH"
    }, {
      "external_urls" : {
        "spotify" : "https://open.spotify.com/artist/6QvNxv5FiGF4C94FTYTT1B"
      },
      "followers" : {
        "href" : null,
        "total" : 6
      },
      "genres" : [ ],
      "href" : "https://api.spotify.com/v1/artists/6QvNxv5FiGF4C94FTYTT1B",
      "id" : "6QvNxv5FiGF4C94FTYTT1B",
      "images" : [ {
        "height" : 640,
        "url" : "https://i.scdn.co/image/ab67616d0000b2731f59105bf936fb05f3cc0f7b",
        "width" : 640
      }, {
        "height" : 300,
        "url" : "https://i.scdn.co/image/ab67616d00001e021f59105bf936fb05f3cc0f7b",
        "width" : 300
      }, {
        "height" : 64,
        "url" : "https://i.scdn.co/image/ab67616d000048511f59105bf936fb05f3cc0f7b",
        "width" : 64
      } ],
      "name" : "Cristopher Willis",
      "popularity" : 6,
      "type" : "artist",
      "uri" : "spotify:artist:6QvNxv5FiGF4C94FTYTT1B"
    }, {
      "external_urls" : {
        "spotify" : "https://open.spotify.com/artist/5wzQJV9zEwTqR08Gx1AmSC"
      },
      "followers" : {
        "href" : null,
        "total" : 0
      },
      "genres" : [ ],
      "href" : "https://api.spotify.com/v1/artists/5wzQJV9zEwTqR08Gx1AmSC",
      "id" : "5wzQJV9zEwTqR08Gx1AmSC",
      "images" : [ {
        "height" : 640,
        "url" : "https://i.scdn.co/image/ab67616d0000b2731298975f9e53b8432c96886e",
        "width" : 640
      }, {
        "height" : 300,
        "url" : "https://i.scdn.co/image/ab67616d00001e021298975f9e53b8432c96886e",
        "width" : 300
      }, {
        "height" : 64,
        "url" : "https://i.scdn.co/image/ab67616d000048511298975f9e53b8432c96886e",
        "width" : 64
      } ],
      "name" : "Cristopher Dee",
      "popularity" : 5,
      "type" : "artist",
      "uri" : "spotify:artist:5wzQJV9zEwTqR08Gx1AmSC"
    }, {
      "external_urls" : {
        "spotify" : "https://open.spotify.com/artist/0DuC7iIqkSCH82VmuQb5hv"
      },
      "followers" : {
        "href" : null,
        "total" : 2
      },
      "genres" : [ ],
      "href" : "https://api.spotify.com/v1/artists/0DuC7iIqkSCH82VmuQb5hv",
      "id" : "0DuC7iIqkSCH82VmuQb5hv",
      "images" : [ {
        "height" : 640,
        "url" : "https://i.scdn.co/image/ab67616d0000b27303c24d37b979f6cc4eaf84c1",
        "width" : 640
      }, {
        "height" : 300,
        "url" : "https://i.scdn.co/image/ab67616d00001e0203c24d37b979f6cc4eaf84c1",
        "width" : 300
      }, {
        "height" : 64,
        "url" : "https://i.scdn.co/image/ab67616d0000485103c24d37b979f6cc4eaf84c1",
        "width" : 64
      } ],
      "name" : "Cristopher Tolliver",
      "popularity" : 6,
      "type" : "artist",
      "uri" : "spotify:artist:0DuC7iIqkSCH82VmuQb5hv"
    }, {
      "external_urls" : {
        "spotify" : "https://open.spotify.com/artist/2y0nZNYGkNq3bp2XKDoxc7"
      },
      "followers" : {
        "href" : null,
        "total" : 53
      },
      "genres" : [ ],
      "href" : "https://api.spotify.com/v1/artists/2y0nZNYGkNq3bp2XKDoxc7",
      "id" : "2y0nZNYGkNq3bp2XKDoxc7",
      "images" : [ ],
      "name" : "Cristopher Goze",
      "popularity" : 9,
      "type" : "artist",
      "uri" : "spotify:artist:2y0nZNYGkNq3bp2XKDoxc7"
    }, {
      "external_urls" : {
        "spotify" : "https://open.spotify.com/artist/5IpUQFMES9t6ZsvGWKXHtc"
      },
      "followers" : {
        "href" : null,
        "total" : 5
      },
      "genres" : [ ],
      "href" : "https://api.spotify.com/v1/artists/5IpUQFMES9t6ZsvGWKXHtc",
      "id" : "5IpUQFMES9t6ZsvGWKXHtc",
      "images" : [ ],
      "name" : "Bryn Cristopher",
      "popularity" : 4,
      "type" : "artist",
      "uri" : "spotify:artist:5IpUQFMES9t6ZsvGWKXHtc"
    }, {
      "external_urls" : {
        "spotify" : "https://open.spotify.com/artist/6rM1ZRalVmGc3od5Zvh0mT"
      },
      "followers" : {
        "href" : null,
        "total" : 43
      },
      "genres" : [ "bahai" ],
      "href" : "https://api.spotify.com/v1/artists/6rM1ZRalVmGc3od5Zvh0mT",
      "id" : "6rM1ZRalVmGc3od5Zvh0mT",
      "images" : [ ],
      "name" : "Cristopher Faizi",
      "popularity" : 2,
      "type" : "artist",
      "uri" : "spotify:artist:6rM1ZRalVmGc3od5Zvh0mT"
    }, {
      "external_urls" : {
        "spotify" : "https://open.spotify.com/artist/0ojI89dbNKVQhX8covG993"
      },
      "followers" : {
        "href" : null,
        "total" : 3
      },
      "genres" : [ ],
      "href" : "https://api.spotify.com/v1/artists/0ojI89dbNKVQhX8covG993",
      "id" : "0ojI89dbNKVQhX8covG993",
      "images" : [ ],
      "name" : "Cristopher",
      "popularity" : 0,
      "type" : "artist",
      "uri" : "spotify:artist:0ojI89dbNKVQhX8covG993"
    }, {
      "external_urls" : {
        "spotify" : "https://open.spotify.com/artist/7vrBO3tQZSt5nCAcmFazim"
      },
      "followers" : {
        "href" : null,
        "total" : 23
      },
      "genres" : [ ],
      "href" : "https://api.spotify.com/v1/artists/7vrBO3tQZSt5nCAcmFazim",
      "id" : "7vrBO3tQZSt5nCAcmFazim",
      "images" : [ {
        "height" : 640,
        "url" : "https://i.scdn.co/image/ab6761610000e5ebd00411b1ac12df9a34bcf765",
        "width" : 640
      }, {
        "height" : 320,
        "url" : "https://i.scdn.co/image/ab67616100005174d00411b1ac12df9a34bcf765",
        "width" : 320
      }, {
        "height" : 160,
        "url" : "https://i.scdn.co/image/ab6761610000f178d00411b1ac12df9a34bcf765",
        "width" : 160
      } ],
      "name" : "Cristopher Amieva M",
      "popularity" : 4,
      "type" : "artist",
      "uri" : "spotify:artist:7vrBO3tQZSt5nCAcmFazim"
    }, {
      "external_urls" : {
        "spotify" : "https://open.spotify.com/artist/5z7CurkvaNOntDUhwehovl"
      },
      "followers" : {
        "href" : null,
        "total" : 2
      },
      "genres" : [ ],
      "href" : "https://api.spotify.com/v1/artists/5z7CurkvaNOntDUhwehovl",
      "id" : "5z7CurkvaNOntDUhwehovl",
      "images" : [ ],
      "name" : "Cristophh",
      "popularity" : 0,
      "type" : "artist",
      "uri" : "spotify:artist:5z7CurkvaNOntDUhwehovl"
    }, {
      "external_urls" : {
        "spotify" : "https://open.spotify.com/artist/4AmukpmX1vxgFpnmyCvczV"
      },
      "followers" : {
        "href" : null,
        "total" : 26
      },
      "genres" : [ ],
      "href" : "https://api.spotify.com/v1/artists/4AmukpmX1vxgFpnmyCvczV",
      "id" : "4AmukpmX1vxgFpnmyCvczV",
      "images" : [ {
        "height" : 640,
        "url" : "https://i.scdn.co/image/ab6761610000e5ebb632b065cfc5da9eb9b8e34e",
        "width" : 640
      }, {
        "height" : 320,
        "url" : "https://i.scdn.co/image/ab67616100005174b632b065cfc5da9eb9b8e34e",
        "width" : 320
      }, {
        "height" : 160,
        "url" : "https://i.scdn.co/image/ab6761610000f178b632b065cfc5da9eb9b8e34e",
        "width" : 160
      } ],
      "name" : "Cristopher Martinez",
      "popularity" : 0,
      "type" : "artist",
      "uri" : "spotify:artist:4AmukpmX1vxgFpnmyCvczV"
    }, {
      "external_urls" : {
        "spotify" : "https://open.spotify.com/artist/6TTneL9FSMeDTbNEWKaCNz"
      },
      "followers" : {
        "href" : null,
        "total" : 2
      },
      "genres" : [ ],
      "href" : "https://api.spotify.com/v1/artists/6TTneL9FSMeDTbNEWKaCNz",
      "id" : "6TTneL9FSMeDTbNEWKaCNz",
      "images" : [ {
        "height" : 640,
        "url" : "https://i.scdn.co/image/ab67616d0000b273f47fa511d43862615970fa1c",
        "width" : 640
      }, {
        "height" : 300,
        "url" : "https://i.scdn.co/image/ab67616d00001e02f47fa511d43862615970fa1c",
        "width" : 300
      }, {
        "height" : 64,
        "url" : "https://i.scdn.co/image/ab67616d00004851f47fa511d43862615970fa1c",
        "width" : 64
      } ],
      "name" : "Cristophan",
      "popularity" : 0,
      "type" : "artist",
      "uri" : "spotify:artist:6TTneL9FSMeDTbNEWKaCNz"
    }, {
      "external_urls" : {
        "spotify" : "https://open.spotify.com/artist/6mMKZEFPF1vtDpHTP0plcx"
      },
      "followers" : {
        "href" : null,
        "total" : 102
      },
      "genres" : [ ],
      "href" : "https://api.spotify.com/v1/artists/6mMKZEFPF1vtDpHTP0plcx",
      "id" : "6mMKZEFPF1vtDpHTP0plcx",
      "images" : [ {
        "height" : 640,
        "url" : "https://i.scdn.co/image/ab6761610000e5ebfbdb9325cb358492261d8e40",
        "width" : 640
      }, {
        "height" : 320,
        "url" : "https://i.scdn.co/image/ab67616100005174fbdb9325cb358492261d8e40",
        "width" : 320
      }, {
        "height" : 160,
        "url" : "https://i.scdn.co/image/ab6761610000f178fbdb9325cb358492261d8e40",
        "width" : 160
      } ],
      "name" : "Cristopher Bryan",
      "popularity" : 11,
      "type" : "artist",
      "uri" : "spotify:artist:6mMKZEFPF1vtDpHTP0plcx"
    }, {
      "external_urls" : {
        "spotify" : "https://open.spotify.com/artist/3t2hK9tHJCwVxKHkr3pGUb"
      },
      "followers" : {
        "href" : null,
        "total" : 72
      },
      "genres" : [ ],
      "href" : "https://api.spotify.com/v1/artists/3t2hK9tHJCwVxKHkr3pGUb",
      "id" : "3t2hK9tHJCwVxKHkr3pGUb",
      "images" : [ {
        "height" : 640,
        "url" : "https://i.scdn.co/image/ab67616d0000b2736bd55576c2431b52a22b4542",
        "width" : 640
      }, {
        "height" : 300,
        "url" : "https://i.scdn.co/image/ab67616d00001e026bd55576c2431b52a22b4542",
        "width" : 300
      }, {
        "height" : 64,
        "url" : "https://i.scdn.co/image/ab67616d000048516bd55576c2431b52a22b4542",
        "width" : 64
      } ],
      "name" : "Cristopher",
      "popularity" : 5,
      "type" : "artist",
      "uri" : "spotify:artist:3t2hK9tHJCwVxKHkr3pGUb"
    }, {
      "external_urls" : {
        "spotify" : "https://open.spotify.com/artist/7qN8sPubPGI2kyv5o0ilkq"
      },
      "followers" : {
        "href" : null,
        "total" : 1
      },
      "genres" : [ ],
      "href" : "https://api.spotify.com/v1/artists/7qN8sPubPGI2kyv5o0ilkq",
      "id" : "7qN8sPubPGI2kyv5o0ilkq",
      "images" : [ ],
      "name" : "Cristopher Carlos",
      "popularity" : 1,
      "type" : "artist",
      "uri" : "spotify:artist:7qN8sPubPGI2kyv5o0ilkq"
    }, {
      "external_urls" : {
        "spotify" : "https://open.spotify.com/artist/1PNtMEYfdfoKOUhyT3db75"
      },
      "followers" : {
        "href" : null,
        "total" : 5
      },
      "genres" : [ ],
      "href" : "https://api.spotify.com/v1/artists/1PNtMEYfdfoKOUhyT3db75",
      "id" : "1PNtMEYfdfoKOUhyT3db75",
      "images" : [ {
        "height" : 640,
        "url" : "https://i.scdn.co/image/ab6761610000e5ebc60decbaed65287eba0074e6",
        "width" : 640
      }, {
        "height" : 320,
        "url" : "https://i.scdn.co/image/ab67616100005174c60decbaed65287eba0074e6",
        "width" : 320
      }, {
        "height" : 160,
        "url" : "https://i.scdn.co/image/ab6761610000f178c60decbaed65287eba0074e6",
        "width" : 160
      } ],
      "name" : "Cristopher",
      "popularity" : 0,
      "type" : "artist",
      "uri" : "spotify:artist:1PNtMEYfdfoKOUhyT3db75"
    } ],
    "limit" : 20,
    "next" : "https://api.spotify.com/v1/search?query=Cristoph&type=artist&market=US&offset=20&limit=20",
    "offset" : 0,
    "previous" : null,
    "total" : 152
  }
}