{
  "artists" : {
    "href" : "https://api.spotify.com/v1/search?query=Eli+Brown&type=artist&market=US&offset=0&limit=20",
    "items" : [ {
      "external_urls" : {
        "spotify" : "https://open.spotify.com/artist/5lVNSw2GPci8kebrAQpZqU"
      },
      "followers" : {
        "href" : null,
        "total" : 42683
      },
      "genres" : [ "bass house", "deep groove house", "deep house", "house" ],
      "href" : "https://api.spotify.com/v1/artists/5lVNSw2GPci8kebrAQpZqU",
      "id" : "5lVNSw2GPci8kebrAQpZqU",
      "images" : [ {
        "height" : 640,
        "url" : "https://i.scdn.co/image/ab6761610000e5eb0f9b9210b2276c1268ece518",
        "width" : 640
      }, {
        "height" : 320,
        "url" : "https://i.scdn.co/image/ab676161000051740f9b9210b2276c1268ece518",
        "width" : 320
      }, {
        "height" : 160,
        "url" : "https://i.scdn.co/image/ab6761610000f1780f9b9210b2276c1268ece518",
        "width" : 160
      } ],
      "name" : "Eli Brown",
      "popularity" : 59,
      "type" : "artist",
      "uri" : "spotify:artist:5lVNSw2GPci8kebrAQpZqU"
    }, {
      "external_urls" : {
        "spotify" : "https://open.spotify.com/artist/1amlRUuphRCIOygxHA1WhO"
      },
      "followers" : {
        "href" : null,
        "total" : 15
      },
      "genres" : [ ],
      "href" : "https://api.spotify.com/v1/artists/1amlRUuphRCIOygxHA1WhO",
      "id" : "1amlRUuphRCIOygxHA1WhO",
      "images" : [ ],
      "name" : "Eli Brown",
      "popularity" : 0,
      "type" : "artist",
      "uri" : "spotify:artist:1amlRUuphRCIOygxHA1WhO"
    }, {
      "external_urls" : {
        "spotify" : "https://open.spotify.com/artist/2ljDHW0zt90SrHDwjVIGXs"
      },
      "followers" : {
        "href" : null,
        "total" : 15026
      },
      "genres" : [ "classical performance", "historic orchestral performance", "orchestral performance" ],
      "href" : "https://api.spotify.com/v1/artists/2ljDHW0zt90SrHDwjVIGXs",
      "id" : "2ljDHW0zt90SrHDwjVIGXs",
      "images" : [ {
        "height" : 209,
        "url" : "https://i.scdn.co/image/236e26c64873147b7ef57cc62a99bb172f6749e7",
        "width" : 243
      }, {
        "height" : 172,
        "url" : "https://i.scdn.co/image/a831ebdc93f801a68023e07b7ee0d8bafd08f476",
        "width" : 200
      }, {
        "height" : 55,
        "url" : "https://i.scdn.co/image/299af0db7f8a025956d79895e36a9a5057d4aa5a",
        "width" : 64
      } ],
      "name" : "Otto Klemperer",
      "popularity" : 39,
      "type" : "artist",
      "uri" : "spotify:artist:2ljDHW0zt90SrHDwjVIGXs"
    }, {
      "external_urls" : {
        "spotify" : "https://open.spotify.com/artist/7zTyBxaokQA7NJwJo2oEAt"
      },
      "followers" : {
        "href" : null,
        "total" : 1232
      },
      "genres" : [ ],
      "href" : "https://api.spotify.com/v1/artists/7zTyBxaokQA7NJwJo2oEAt",
      "id" : "7zTyBxaokQA7NJwJo2oEAt",
      "images" : [ {
        "height" : 640,
        "url" : "https://i.scdn.co/image/ab6761610000e5ebc754777ca8554a3f405a15d1",
        "width" : 640
      }, {
        "height" : 320,
        "url" : "https://i.scdn.co/image/ab67616100005174c754777ca8554a3f405a15d1",
        "width" : 320
      }, {
        "height" : 160,
        "url" : "https://i.scdn.co/image/ab6761610000f178c754777ca8554a3f405a15d1",
        "width" : 160
      } ],
      "name" : "Downtown Eli Brown",
      "popularity" : 0,
      "type" : "artist",
      "uri" : "spotify:artist:7zTyBxaokQA7NJwJo2oEAt"
    }, {
      "external_urls" : {
        "spotify" : "https://open.spotify.com/artist/07lFHs9AZM6U0EziF1n1RB"
      },
      "followers" : {
        "href" : null,
        "total" : 28
      },
      "genres" : [ ],
      "href" : "https://api.spotify.com/v1/artists/07lFHs9AZM6U0EziF1n1RB",
      "id" : "07lFHs9AZM6U0EziF1n1RB",
      "images" : [ ],
      "name" : "Elicia Brown",
      "popularity" : 19,
      "type" : "artist",
      "uri" : "spotify:artist:07lFHs9AZM6U0EziF1n1RB"
    }, {
      "external_urls" : {
        "spotify" : "https://open.spotify.com/artist/6dczYioy2VqZKE7ksKiMrB"
      },
      "followers" : {
        "href" : null,
        "total" : 3
      },
      "genres" : [ ],
      "href" : "https://api.spotify.com/v1/artists/6dczYioy2VqZKE7ksKiMrB",
      "id" : "6dczYioy2VqZKE7ksKiMrB",
      "images" : [ ],
      "name" : "Eli Brown",
      "popularity" : 0,
      "type" : "artist",
      "uri" : "spotify:artist:6dczYioy2VqZKE7ksKiMrB"
    }, {
      "external_urls" : {
        "spotify" : "https://open.spotify.com/artist/12uTvNZqEzefAOfAeUxycc"
      },
      "followers" : {
        "href" : null,
        "total" : 0
      },
      "genres" : [ ],
      "href" : "https://api.spotify.com/v1/artists/12uTvNZqEzefAOfAeUxycc",
      "id" : "12uTvNZqEzefAOfAeUxycc",
      "images" : [ {
        "height" : 640,
        "url" : "https://i.scdn.co/image/ab67616d0000b273c26604f8343b03b02294050d",
        "width" : 640
      }, {
        "height" : 300,
        "url" : "https://i.scdn.co/image/ab67616d00001e02c26604f8343b03b02294050d",
        "width" : 300
      }, {
        "height" : 64,
        "url" : "https://i.scdn.co/image/ab67616d00004851c26604f8343b03b02294050d",
        "width" : 64
      } ],
      "name" : "Eliana Brown",
      "popularity" : 0,
      "type" : "artist",
      "uri" : "spotify:artist:12uTvNZqEzefAOfAeUxycc"
    }, {
      "external_urls" : {
        "spotify" : "https://open.spotify.com/artist/2xngD5PrHrimi3LapNOry0"
      },
      "followers" : {
        "href" : null,
        "total" : 5
      },
      "genres" : [ ],
      "href" : "https://api.spotify.com/v1/artists/2xngD5PrHrimi3LapNOry0",
      "id" : "2xngD5PrHrimi3LapNOry0",
      "images" : [ {
        "height" : 640,
        "url" : "https://i.scdn.co/image/ab67616d0000b2732532049c32c7d2e9db917fe3",
        "width" : 640
      }, {
        "height" : 300,
        "url" : "https://i.scdn.co/image/ab67616d00001e022532049c32c7d2e9db917fe3",
        "width" : 300
      }, {
        "height" : 64,
        "url" : "https://i.scdn.co/image/ab67616d000048512532049c32c7d2e9db917fe3",
        "width" : 64
      } ],
      "name" : "Eli Brown",
      "popularity" : 0,
      "type" : "artist",
      "uri" : "spotify:artist:2xngD5PrHrimi3LapNOry0"
    }, {
      "external_urls" : {
        "spotify" : "https://open.spotify.com/artist/4q6NGdBnpSDeY2O812ub75"
      },
      "followers" : {
        "href" : null,
        "total" : 2
      },
      "genres" : [ ],
      "href" : "https://api.spotify.com/v1/artists/4q6NGdBnpSDeY2O812ub75",
      "id" : "4q6NGdBnpSDeY2O812ub75",
      "images" : [ {
        "height" : 640,
        "url" : "https://i.scdn.co/image/ab67616d0000b273264551e6940b2824eb0fbf5b",
        "width" : 640
      }, {
        "height" : 300,
        "url" : "https://i.scdn.co/image/ab67616d00001e02264551e6940b2824eb0fbf5b",
        "width" : 300
      }, {
        "height" : 64,
        "url" : "https://i.scdn.co/image/ab67616d00004851264551e6940b2824eb0fbf5b",
        "width" : 64
      } ],
      "name" : "Eliane Brown",
      "popularity" : 0,
      "type" : "artist",
      "uri" : "spotify:artist:4q6NGdBnpSDeY2O812ub75"
    }, {
      "external_urls" : {
        "spotify" : "https://open.spotify.com/artist/44R3DXEewd4ifPB0eNo5VR"
      },
      "followers" : {
        "href" : null,
        "total" : 1
      },
      "genres" : [ ],
      "href" : "https://api.spotify.com/v1/artists/44R3DXEewd4ifPB0eNo5VR",
      "id" : "44R3DXEewd4ifPB0eNo5VR",
      "images" : [ {
        "height" : 640,
        "url" : "https://i.scdn.co/image/ab67616d0000b2731940606adbef38f66b00890a",
        "width" : 640
      }, {
        "height" : 300,
        "url" : "https://i.scdn.co/image/ab67616d00001e021940606adbef38f66b00890a",
        "width" : 300
      }, {
        "height" : 64,
        "url" : "https://i.scdn.co/image/ab67616d000048511940606adbef38f66b00890a",
        "width" : 64
      } ],
      "name" : "Eli Brown",
      "popularity" : 0,
      "type" : "artist",
      "uri" : "spotify:artist:44R3DXEewd4ifPB0eNo5VR"
    }, {
      "external_urls" : {
        "spotify" : "https://open.spotify.com/artist/0yjenLknggN9ef3mCnFykO"
      },
      "followers" : {
        "href" : null,
        "total" : 1
      },
      "genres" : [ ],
      "href" : "https://api.spotify.com/v1/artists/0yjenLknggN9ef3mCnFykO",
      "id" : "0yjenLknggN9ef3mCnFykO",
      "images" : [ ],
      "name" : "Eli Browning",
      "popularity" : 0,
      "type" : "artist",
      "uri" : "spotify:artist:0yjenLknggN9ef3mCnFykO"
    }, {
      "external_urls" : {
        "spotify" : "https://open.spotify.com/artist/5zCOZw95k8ktrbf9V8moNH"
      },
      "followers" : {
        "href" : null,
        "total" : 0
      },
      "genres" : [ ],
      "href" : "https://api.spotify.com/v1/artists/5zCOZw95k8ktrbf9V8moNH",
      "id" : "5zCOZw95k8ktrbf9V8moNH",
      "images" : [ ],
      "name" : "Elissa Brown",
      "popularity" : 0,
      "type" : "artist",
      "uri" : "spotify:artist:5zCOZw95k8ktrbf9V8moNH"
    }, {
      "external_urls" : {
        "spotify" : "https://open.spotify.com/artist/2mOf2RsNrqRbwagj4dwJxO"
      },
      "followers" : {
        "href" : null,
        "total" : 33
      },
      "genres" : [ ],
      "href" : "https://api.spotify.com/v1/artists/2mOf2RsNrqRbwagj4dwJxO",
      "id" : "2mOf2RsNrqRbwagj4dwJxO",
      "images" : [ {
        "height" : 640,
        "url" : "https://i.scdn.co/image/ab6761610000e5eb76f7ad6b4443392d6e647612",
        "width" : 640
      }, {
        "height" : 320,
        "url" : "https://i.scdn.co/image/ab6761610000517476f7ad6b4443392d6e647612",
        "width" : 320
      }, {
        "height" : 160,
        "url" : "https://i.scdn.co/image/ab6761610000f17876f7ad6b4443392d6e647612",
        "width" : 160
      } ],
      "name" : "Elisa Brown",
      "popularity" : 0,
      "type" : "artist",
      "uri" : "spotify:artist:2mOf2RsNrqRbwagj4dwJxO"
    }, {
      "external_urls" : {
        "spotify" : "https://open.spotify.com/artist/1IHnesYGgzX4JNnRRwigGb"
      },
      "followers" : {
        "href" : null,
        "total" : 8
      },
      "genres" : [ ],
      "href" : "https://api.spotify.com/v1/artists/1IHnesYGgzX4JNnRRwigGb",
      "id" : "1IHnesYGgzX4JNnRRwigGb",
      "images" : [ ],
      "name" : "Eliza Brown",
      "popularity" : 0,
      "type" : "artist",
      "uri" : "spotify:artist:1IHnesYGgzX4JNnRRwigGb"
    }, {
      "external_urls" : {
        "spotify" : "https://open.spotify.com/artist/3ahwb02S5lCNAoz6Oh75H4"
      },
      "followers" : {
        "href" : null,
        "total" : 0
      },
      "genres" : [ ],
      "href" : "https://api.spotify.com/v1/artists/3ahwb02S5lCNAoz6Oh75H4",
      "id" : "3ahwb02S5lCNAoz6Oh75H4",
      "images" : [ {
        "height" : 640,
        "url" : "https://i.scdn.co/image/ab67616d0000b27387f70a0e3aaafbeb09402a59",
        "width" : 640
      }, {
        "height" : 300,
        "url" : "https://i.scdn.co/image/ab67616d00001e0287f70a0e3aaafbeb09402a59",
        "width" : 300
      }, {
        "height" : 64,
        "url" : "https://i.scdn.co/image/ab67616d0000485187f70a0e3aaafbeb09402a59",
        "width" : 64
      } ],
      "name" : "Elisa Brown",
      "popularity" : 20,
      "type" : "artist",
      "uri" : "spotify:artist:3ahwb02S5lCNAoz6Oh75H4"
    }, {
      "external_urls" : {
        "spotify" : "https://open.spotify.com/artist/4xGl73JolO1hTpTg16ZoKT"
      },
      "followers" : {
        "href" : null,
        "total" : 52
      },
      "genres" : [ ],
      "href" : "https://api.spotify.com/v1/artists/4xGl73JolO1hTpTg16ZoKT",
      "id" : "4xGl73JolO1hTpTg16ZoKT",
      "images" : [ {
        "height" : 640,
        "url" : "https://i.scdn.co/image/ab67616d0000b2730c88d5cffea6dad1409f07c0",
        "width" : 640
      }, {
        "height" : 300,
        "url" : "https://i.scdn.co/image/ab67616d00001e020c88d5cffea6dad1409f07c0",
        "width" : 300
      }, {
        "height" : 64,
        "url" : "https://i.scdn.co/image/ab67616d000048510c88d5cffea6dad1409f07c0",
        "width" : 64
      } ],
      "name" : "Elizabeth Brown",
      "popularity" : 2,
      "type" : "artist",
      "uri" : "spotify:artist:4xGl73JolO1hTpTg16ZoKT"
    }, {
      "external_urls" : {
        "spotify" : "https://open.spotify.com/artist/0x9A4OY5lnkFWXfCbfMxWu"
      },
      "followers" : {
        "href" : null,
        "total" : 119
      },
      "genres" : [ ],
      "href" : "https://api.spotify.com/v1/artists/0x9A4OY5lnkFWXfCbfMxWu",
      "id" : "0x9A4OY5lnkFWXfCbfMxWu",
      "images" : [ {
        "height" : 640,
        "url" : "https://i.scdn.co/image/ab67616d0000b273a83eb7a18720f96365e0deba",
        "width" : 640
      }, {
        "height" : 300,
        "url" : "https://i.scdn.co/image/ab67616d00001e02a83eb7a18720f96365e0deba",
        "width" : 300
      }, {
        "height" : 64,
        "url" : "https://i.scdn.co/image/ab67616d00004851a83eb7a18720f96365e0deba",
        "width" : 64
      } ],
      "name" : "Elisa Brown",
      "popularity" : 4,
      "type" : "artist",
      "uri" : "spotify:artist:0x9A4OY5lnkFWXfCbfMxWu"
    }, {
      "external_urls" : {
        "spotify" : "https://open.spotify.com/artist/4EHQtKm1bcsGQdkJEIKOB7"
      },
      "followers" : {
        "href" : null,
        "total" : 192
      },
      "genres" : [ ],
      "href" : "https://api.spotify.com/v1/artists/4EHQtKm1bcsGQdkJEIKOB7",
      "id" : "4EHQtKm1bcsGQdkJEIKOB7",
      "images" : [ {
        "height" : 640,
        "url" : "https://i.scdn.co/image/ab6761610000e5eb484091476d9d2216292e1ef3",
        "width" : 640
      }, {
        "height" : 320,
        "url" : "https://i.scdn.co/image/ab67616100005174484091476d9d2216292e1ef3",
        "width" : 320
      }, {
        "height" : 160,
        "url" : "https://i.scdn.co/image/ab6761610000f178484091476d9d2216292e1ef3",
        "width" : 160
      } ],
      "name" : "Elijah Brown",
      "popularity" : 0,
      "type" : "artist",
      "uri" : "spotify:artist:4EHQtKm1bcsGQdkJEIKOB7"
    }, {
      "external_urls" : {
        "spotify" : "https://open.spotify.com/artist/6QDLplt84YITRpX1y8ksXQ"
      },
      "followers" : {
        "href" : null,
        "total" : 1
      },
      "genres" : [ ],
      "href" : "https://api.spotify.com/v1/artists/6QDLplt84YITRpX1y8ksXQ",
      "id" : "6QDLplt84YITRpX1y8ksXQ",
      "images" : [ ],
      "name" : "Elijah Brown",
      "popularity" : 0,
      "type" : "artist",
      "uri" : "spotify:artist:6QDLplt84YITRpX1y8ksXQ"
    }, {
      "external_urls" : {
        "spotify" : "https://open.spotify.com/artist/5koRLtvu8Fx4ml5i46sTDc"
      },
      "followers" : {
        "href" : null,
        "total" : 11
      },
      "genres" : [ ],
      "href" : "https://api.spotify.com/v1/artists/5koRLtvu8Fx4ml5i46sTDc",
      "id" : "5koRLtvu8Fx4ml5i46sTDc",
      "images" : [ {
        "height" : 640,
        "url" : "https://i.scdn.co/image/ab67616d0000b273527efa826a00942c6d917052",
        "width" : 640
      }, {
        "height" : 300,
        "url" : "https://i.scdn.co/image/ab67616d00001e02527efa826a00942c6d917052",
        "width" : 300
      }, {
        "height" : 64,
        "url" : "https://i.scdn.co/image/ab67616d00004851527efa826a00942c6d917052",
        "width" : 64
      } ],
      "name" : "Elijah Brown",
      "popularity" : 0,
      "type" : "artist",
      "uri" : "spotify:artist:5koRLtvu8Fx4ml5i46sTDc"
    } ],
    "limit" : 20,
    "next" : "https://api.spotify.com/v1/search?query=Eli+Brown&type=artist&market=US&offset=20&limit=20",
    "offset" : 0,
    "previous" : null,
    "total" : 39
  }
}