{
  "artists" : {
    "href" : "https://api.spotify.com/v1/search?query=Nastia&type=artist&market=US&offset=0&limit=20",
    "items" : [ {
      "external_urls" : {
        "spotify" : "https://open.spotify.com/artist/0hO43f5QyMb7EzmWybB4Ip"
      },
      "followers" : {
        "href" : null,
        "total" : 4181
      },
      "genres" : [ ],
      "href" : "https://api.spotify.com/v1/artists/0hO43f5QyMb7EzmWybB4Ip",
      "id" : "0hO43f5QyMb7EzmWybB4Ip",
      "images" : [ {
        "height" : 640,
        "url" : "https://i.scdn.co/image/ab67616d0000b273e587910d9042557ca775c4a1",
        "width" : 640
      }, {
        "height" : 300,
        "url" : "https://i.scdn.co/image/ab67616d00001e02e587910d9042557ca775c4a1",
        "width" : 300
      }, {
        "height" : 64,
        "url" : "https://i.scdn.co/image/ab67616d00004851e587910d9042557ca775c4a1",
        "width" : 64
      } ],
      "name" : "Nastia",
      "popularity" : 10,
      "type" : "artist",
      "uri" : "spotify:artist:0hO43f5QyMb7EzmWybB4Ip"
    }, {
      "external_urls" : {
        "spotify" : "https://open.spotify.com/artist/6AV6IkyeHw74Dw7STTfY27"
      },
      "followers" : {
        "href" : null,
        "total" : 2932
      },
      "genres" : [ "malaysian indie", "malaysian pop" ],
      "href" : "https://api.spotify.com/v1/artists/6AV6IkyeHw74Dw7STTfY27",
      "id" : "6AV6IkyeHw74Dw7STTfY27",
      "images" : [ {
        "height" : 640,
        "url" : "https://i.scdn.co/image/ab6761610000e5eb485be41f9cd4df76885c224d",
        "width" : 640
      }, {
        "height" : 320,
        "url" : "https://i.scdn.co/image/ab67616100005174485be41f9cd4df76885c224d",
        "width" : 320
      }, {
        "height" : 160,
        "url" : "https://i.scdn.co/image/ab6761610000f178485be41f9cd4df76885c224d",
        "width" : 160
      } ],
      "name" : "Nastia",
      "popularity" : 30,
      "type" : "artist",
      "uri" : "spotify:artist:6AV6IkyeHw74Dw7STTfY27"
    }, {
      "external_urls" : {
        "spotify" : "https://open.spotify.com/artist/4jdGTgmlRjIXreuTLKoO4m"
      },
      "followers" : {
        "href" : null,
        "total" : 4178
      },
      "genres" : [ "industrial techno" ],
      "href" : "https://api.spotify.com/v1/artists/4jdGTgmlRjIXreuTLKoO4m",
      "id" : "4jdGTgmlRjIXreuTLKoO4m",
      "images" : [ {
        "height" : 640,
        "url" : "https://i.scdn.co/image/ab6761610000e5ebfeaa79977355beaf6f2e0589",
        "width" : 640
      }, {
        "height" : 320,
        "url" : "https://i.scdn.co/image/ab67616100005174feaa79977355beaf6f2e0589",
        "width" : 320
      }, {
        "height" : 160,
        "url" : "https://i.scdn.co/image/ab6761610000f178feaa79977355beaf6f2e0589",
        "width" : 160
      } ],
      "name" : "Nastia Reigel",
      "popularity" : 19,
      "type" : "artist",
      "uri" : "spotify:artist:4jdGTgmlRjIXreuTLKoO4m"
    }, {
      "external_urls" : {
        "spotify" : "https://open.spotify.com/artist/6hfBViif35NkILVh7q8SD5"
      },
      "followers" : {
        "href" : null,
        "total" : 5932
      },
      "genres" : [ ],
      "href" : "https://api.spotify.com/v1/artists/6hfBViif35NkILVh7q8SD5",
      "id" : "6hfBViif35NkILVh7q8SD5",
      "images" : [ {
        "height" : 640,
        "url" : "https://i.scdn.co/image/ab67616d0000b273e04edf8167277b1019b6b8dc",
        "width" : 640
      }, {
        "height" : 300,
        "url" : "https://i.scdn.co/image/ab67616d00001e02e04edf8167277b1019b6b8dc",
        "width" : 300
      }, {
        "height" : 64,
        "url" : "https://i.scdn.co/image/ab67616d00004851e04edf8167277b1019b6b8dc",
        "width" : 64
      } ],
      "name" : "Like Nastya",
      "popularity" : 37,
      "type" : "artist",
      "uri" : "spotify:artist:6hfBViif35NkILVh7q8SD5"
    }, {
      "external_urls" : {
        "spotify" : "https://open.spotify.com/artist/2qLpHb2PEAZzs4JJM3DzOQ"
      },
      "followers" : {
        "href" : null,
        "total" : 56
      },
      "genres" : [ ],
      "href" : "https://api.spotify.com/v1/artists/2qLpHb2PEAZzs4JJM3DzOQ",
      "id" : "2qLpHb2PEAZzs4JJM3DzOQ",
      "images" : [ {
        "height" : 640,
        "url" : "https://i.scdn.co/image/ab67616d0000b273f32faf4b91742f0eb46e50e1",
        "width" : 640
      }, {
        "height" : 300,
        "url" : "https://i.scdn.co/image/ab67616d00001e02f32faf4b91742f0eb46e50e1",
        "width" : 300
      }, {
        "height" : 64,
        "url" : "https://i.scdn.co/image/ab67616d00004851f32faf4b91742f0eb46e50e1",
        "width" : 64
      } ],
      "name" : "Nastia Y",
      "popularity" : 6,
      "type" : "artist",
      "uri" : "spotify:artist:2qLpHb2PEAZzs4JJM3DzOQ"
    }, {
      "external_urls" : {
        "spotify" : "https://open.spotify.com/artist/4C03Www2UszWH7IJQ5J5sw"
      },
      "followers" : {
        "href" : null,
        "total" : 0
      },
      "genres" : [ ],
      "href" : "https://api.spotify.com/v1/artists/4C03Www2UszWH7IJQ5J5sw",
      "id" : "4C03Www2UszWH7IJQ5J5sw",
      "images" : [ {
        "height" : 640,
        "url" : "https://i.scdn.co/image/ab67616d0000b2733c0f4ee41ee27231ed812379",
        "width" : 640
      }, {
        "height" : 300,
        "url" : "https://i.scdn.co/image/ab67616d00001e023c0f4ee41ee27231ed812379",
        "width" : 300
      }, {
        "height" : 64,
        "url" : "https://i.scdn.co/image/ab67616d000048513c0f4ee41ee27231ed812379",
        "width" : 64
      } ],
      "name" : "NASTIABLONDI",
      "popularity" : 0,
      "type" : "artist",
      "uri" : "spotify:artist:4C03Www2UszWH7IJQ5J5sw"
    }, {
      "external_urls" : {
        "spotify" : "https://open.spotify.com/artist/5DpExZ96TVUIPEglRCytkn"
      },
      "followers" : {
        "href" : null,
        "total" : 39
      },
      "genres" : [ ],
      "href" : "https://api.spotify.com/v1/artists/5DpExZ96TVUIPEglRCytkn",
      "id" : "5DpExZ96TVUIPEglRCytkn",
      "images" : [ {
        "height" : 640,
        "url" : "https://i.scdn.co/image/ab67616d0000b273e727fee11f2acec4ce80928f",
        "width" : 640
      }, {
        "height" : 300,
        "url" : "https://i.scdn.co/image/ab67616d00001e02e727fee11f2acec4ce80928f",
        "width" : 300
      }, {
        "height" : 64,
        "url" : "https://i.scdn.co/image/ab67616d00004851e727fee11f2acec4ce80928f",
        "width" : 64
      } ],
      "name" : "Nastia Zavie",
      "popularity" : 2,
      "type" : "artist",
      "uri" : "spotify:artist:5DpExZ96TVUIPEglRCytkn"
    }, {
      "external_urls" : {
        "spotify" : "https://open.spotify.com/artist/1JoIH1oUDxZYCcKrjHtvCl"
      },
      "followers" : {
        "href" : null,
        "total" : 5
      },
      "genres" : [ ],
      "href" : "https://api.spotify.com/v1/artists/1JoIH1oUDxZYCcKrjHtvCl",
      "id" : "1JoIH1oUDxZYCcKrjHtvCl",
      "images" : [ ],
      "name" : "Nastiaz",
      "popularity" : 0,
      "type" : "artist",
      "uri" : "spotify:artist:1JoIH1oUDxZYCcKrjHtvCl"
    }, {
      "external_urls" : {
        "spotify" : "https://open.spotify.com/artist/4ver699BUZzq4sAMPen86j"
      },
      "followers" : {
        "href" : null,
        "total" : 7
      },
      "genres" : [ ],
      "href" : "https://api.spotify.com/v1/artists/4ver699BUZzq4sAMPen86j",
      "id" : "4ver699BUZzq4sAMPen86j",
      "images" : [ {
        "height" : 640,
        "url" : "https://i.scdn.co/image/ab6761610000e5eba40091e12dcf9cae6f27ec81",
        "width" : 640
      }, {
        "height" : 320,
        "url" : "https://i.scdn.co/image/ab67616100005174a40091e12dcf9cae6f27ec81",
        "width" : 320
      }, {
        "height" : 160,
        "url" : "https://i.scdn.co/image/ab6761610000f178a40091e12dcf9cae6f27ec81",
        "width" : 160
      } ],
      "name" : "Nastia",
      "popularity" : 0,
      "type" : "artist",
      "uri" : "spotify:artist:4ver699BUZzq4sAMPen86j"
    }, {
      "external_urls" : {
        "spotify" : "https://open.spotify.com/artist/4MELZUMnVjE0SPyzjT3aO6"
      },
      "followers" : {
        "href" : null,
        "total" : 941
      },
      "genres" : [ "russian techno" ],
      "href" : "https://api.spotify.com/v1/artists/4MELZUMnVjE0SPyzjT3aO6",
      "id" : "4MELZUMnVjE0SPyzjT3aO6",
      "images" : [ {
        "height" : 640,
        "url" : "https://i.scdn.co/image/ab67616d0000b273319ca55f4adbacd4dd70d052",
        "width" : 640
      }, {
        "height" : 300,
        "url" : "https://i.scdn.co/image/ab67616d00001e02319ca55f4adbacd4dd70d052",
        "width" : 300
      }, {
        "height" : 64,
        "url" : "https://i.scdn.co/image/ab67616d00004851319ca55f4adbacd4dd70d052",
        "width" : 64
      } ],
      "name" : "Nastia Reigel",
      "popularity" : 1,
      "type" : "artist",
      "uri" : "spotify:artist:4MELZUMnVjE0SPyzjT3aO6"
    }, {
      "external_urls" : {
        "spotify" : "https://open.spotify.com/artist/7cPRHM25GmAMFP4fH9EbYd"
      },
      "followers" : {
        "href" : null,
        "total" : 2
      },
      "genres" : [ ],
      "href" : "https://api.spotify.com/v1/artists/7cPRHM25GmAMFP4fH9EbYd",
      "id" : "7cPRHM25GmAMFP4fH9EbYd",
      "images" : [ ],
      "name" : "Nastia_Nutrik",
      "popularity" : 0,
      "type" : "artist",
      "uri" : "spotify:artist:7cPRHM25GmAMFP4fH9EbYd"
    }, {
      "external_urls" : {
        "spotify" : "https://open.spotify.com/artist/6AH2or89so7p9TkSD0HjAP"
      },
      "followers" : {
        "href" : null,
        "total" : 19
      },
      "genres" : [ ],
      "href" : "https://api.spotify.com/v1/artists/6AH2or89so7p9TkSD0HjAP",
      "id" : "6AH2or89so7p9TkSD0HjAP",
      "images" : [ {
        "height" : 640,
        "url" : "https://i.scdn.co/image/ab6761610000e5eb00e9dc16c1989fe09d78ff9e",
        "width" : 640
      }, {
        "height" : 320,
        "url" : "https://i.scdn.co/image/ab6761610000517400e9dc16c1989fe09d78ff9e",
        "width" : 320
      }, {
        "height" : 160,
        "url" : "https://i.scdn.co/image/ab6761610000f17800e9dc16c1989fe09d78ff9e",
        "width" : 160
      } ],
      "name" : "Nastia",
      "popularity" : 0,
      "type" : "artist",
      "uri" : "spotify:artist:6AH2or89so7p9TkSD0HjAP"
    }, {
      "external_urls" : {
        "spotify" : "https://open.spotify.com/artist/3phPvAcuW11diEMKDjMjaO"
      },
      "followers" : {
        "href" : null,
        "total" : 65
      },
      "genres" : [ ],
      "href" : "https://api.spotify.com/v1/artists/3phPvAcuW11diEMKDjMjaO",
      "id" : "3phPvAcuW11diEMKDjMjaO",
      "images" : [ {
        "height" : 640,
        "url" : "https://i.scdn.co/image/ab67616d0000b273d9eedc1177d0580635c2c983",
        "width" : 640
      }, {
        "height" : 300,
        "url" : "https://i.scdn.co/image/ab67616d00001e02d9eedc1177d0580635c2c983",
        "width" : 300
      }, {
        "height" : 64,
        "url" : "https://i.scdn.co/image/ab67616d00004851d9eedc1177d0580635c2c983",
        "width" : 64
      } ],
      "name" : "Nastia Donna",
      "popularity" : 1,
      "type" : "artist",
      "uri" : "spotify:artist:3phPvAcuW11diEMKDjMjaO"
    }, {
      "external_urls" : {
        "spotify" : "https://open.spotify.com/artist/1GRuTyNCMSjKSZGW6TXrvz"
      },
      "followers" : {
        "href" : null,
        "total" : 15
      },
      "genres" : [ ],
      "href" : "https://api.spotify.com/v1/artists/1GRuTyNCMSjKSZGW6TXrvz",
      "id" : "1GRuTyNCMSjKSZGW6TXrvz",
      "images" : [ ],
      "name" : "Nastiaz",
      "popularity" : 0,
      "type" : "artist",
      "uri" : "spotify:artist:1GRuTyNCMSjKSZGW6TXrvz"
    }, {
      "external_urls" : {
        "spotify" : "https://open.spotify.com/artist/3yQQWvFCAI4upNGhuUIVSS"
      },
      "followers" : {
        "href" : null,
        "total" : 11
      },
      "genres" : [ ],
      "href" : "https://api.spotify.com/v1/artists/3yQQWvFCAI4upNGhuUIVSS",
      "id" : "3yQQWvFCAI4upNGhuUIVSS",
      "images" : [ {
        "height" : 640,
        "url" : "https://i.scdn.co/image/ab6761610000e5ebf234ecdd94a19f56ae0d1e92",
        "width" : 640
      }, {
        "height" : 320,
        "url" : "https://i.scdn.co/image/ab67616100005174f234ecdd94a19f56ae0d1e92",
        "width" : 320
      }, {
        "height" : 160,
        "url" : "https://i.scdn.co/image/ab6761610000f178f234ecdd94a19f56ae0d1e92",
        "width" : 160
      } ],
      "name" : "Nastia Rod",
      "popularity" : 6,
      "type" : "artist",
      "uri" : "spotify:artist:3yQQWvFCAI4upNGhuUIVSS"
    }, {
      "external_urls" : {
        "spotify" : "https://open.spotify.com/artist/2OyWibfmFpYxKVYsgS6ukZ"
      },
      "followers" : {
        "href" : null,
        "total" : 6
      },
      "genres" : [ ],
      "href" : "https://api.spotify.com/v1/artists/2OyWibfmFpYxKVYsgS6ukZ",
      "id" : "2OyWibfmFpYxKVYsgS6ukZ",
      "images" : [ {
        "height" : 640,
        "url" : "https://i.scdn.co/image/ab6761610000e5eb387b8a21e586cee80fd76c09",
        "width" : 640
      }, {
        "height" : 320,
        "url" : "https://i.scdn.co/image/ab67616100005174387b8a21e586cee80fd76c09",
        "width" : 320
      }, {
        "height" : 160,
        "url" : "https://i.scdn.co/image/ab6761610000f178387b8a21e586cee80fd76c09",
        "width" : 160
      } ],
      "name" : "Nastia XO",
      "popularity" : 0,
      "type" : "artist",
      "uri" : "spotify:artist:2OyWibfmFpYxKVYsgS6ukZ"
    }, {
      "external_urls" : {
        "spotify" : "https://open.spotify.com/artist/554V6V7polOTq5D3XP2qbY"
      },
      "followers" : {
        "href" : null,
        "total" : 37
      },
      "genres" : [ ],
      "href" : "https://api.spotify.com/v1/artists/554V6V7polOTq5D3XP2qbY",
      "id" : "554V6V7polOTq5D3XP2qbY",
      "images" : [ {
        "height" : 640,
        "url" : "https://i.scdn.co/image/ab67616d0000b2730dcf0e142c00fe9d48426c1c",
        "width" : 640
      }, {
        "height" : 300,
        "url" : "https://i.scdn.co/image/ab67616d00001e020dcf0e142c00fe9d48426c1c",
        "width" : 300
      }, {
        "height" : 64,
        "url" : "https://i.scdn.co/image/ab67616d000048510dcf0e142c00fe9d48426c1c",
        "width" : 64
      } ],
      "name" : "Nastia 6.9",
      "popularity" : 0,
      "type" : "artist",
      "uri" : "spotify:artist:554V6V7polOTq5D3XP2qbY"
    }, {
      "external_urls" : {
        "spotify" : "https://open.spotify.com/artist/3mylxKVCjH2ELdB5nrR3YA"
      },
      "followers" : {
        "href" : null,
        "total" : 2108
      },
      "genres" : [ ],
      "href" : "https://api.spotify.com/v1/artists/3mylxKVCjH2ELdB5nrR3YA",
      "id" : "3mylxKVCjH2ELdB5nrR3YA",
      "images" : [ {
        "height" : 640,
        "url" : "https://i.scdn.co/image/ab67616d0000b273f190dc21fb01f129ef238a0c",
        "width" : 640
      }, {
        "height" : 300,
        "url" : "https://i.scdn.co/image/ab67616d00001e02f190dc21fb01f129ef238a0c",
        "width" : 300
      }, {
        "height" : 64,
        "url" : "https://i.scdn.co/image/ab67616d00004851f190dc21fb01f129ef238a0c",
        "width" : 64
      } ],
      "name" : "NASTiA",
      "popularity" : 0,
      "type" : "artist",
      "uri" : "spotify:artist:3mylxKVCjH2ELdB5nrR3YA"
    }, {
      "external_urls" : {
        "spotify" : "https://open.spotify.com/artist/2iye6NvqYIrIMvGYlWgYAm"
      },
      "followers" : {
        "href" : null,
        "total" : 1
      },
      "genres" : [ ],
      "href" : "https://api.spotify.com/v1/artists/2iye6NvqYIrIMvGYlWgYAm",
      "id" : "2iye6NvqYIrIMvGYlWgYAm",
      "images" : [ {
        "height" : 640,
        "url" : "https://i.scdn.co/image/ab67616d0000b273be882a9470ad72384837d3d3",
        "width" : 640
      }, {
        "height" : 300,
        "url" : "https://i.scdn.co/image/ab67616d00001e02be882a9470ad72384837d3d3",
        "width" : 300
      }, {
        "height" : 64,
        "url" : "https://i.scdn.co/image/ab67616d00004851be882a9470ad72384837d3d3",
        "width" : 64
      } ],
      "name" : "Nastia Yang",
      "popularity" : 0,
      "type" : "artist",
      "uri" : "spotify:artist:2iye6NvqYIrIMvGYlWgYAm"
    }, {
      "external_urls" : {
        "spotify" : "https://open.spotify.com/artist/0ex9FRf5tbE2XbbdQd7uNP"
      },
      "followers" : {
        "href" : null,
        "total" : 0
      },
      "genres" : [ ],
      "href" : "https://api.spotify.com/v1/artists/0ex9FRf5tbE2XbbdQd7uNP",
      "id" : "0ex9FRf5tbE2XbbdQd7uNP",
      "images" : [ ],
      "name" : "Nastia D.",
      "popularity" : 0,
      "type" : "artist",
      "uri" : "spotify:artist:0ex9FRf5tbE2XbbdQd7uNP"
    } ],
    "limit" : 20,
    "next" : "https://api.spotify.com/v1/search?query=Nastia&type=artist&market=US&offset=20&limit=20",
    "offset" : 0,
    "previous" : null,
    "total" : 45
  }
}