{
  "artists" : {
    "href" : "https://api.spotify.com/v1/search?query=PAX&type=artist&market=US&offset=0&limit=20",
    "items" : [ {
      "external_urls" : {
        "spotify" : "https://open.spotify.com/artist/1IxEav5X3hEPqk0of4PY1I"
      },
      "followers" : {
        "href" : null,
        "total" : 58
      },
      "genres" : [ ],
      "href" : "https://api.spotify.com/v1/artists/1IxEav5X3hEPqk0of4PY1I",
      "id" : "1IxEav5X3hEPqk0of4PY1I",
      "images" : [ {
        "height" : 640,
        "url" : "https://i.scdn.co/image/ab67616d0000b273d4a5ec0e7b00c5b3b4fa6f99",
        "width" : 640
      }, {
        "height" : 300,
        "url" : "https://i.scdn.co/image/ab67616d00001e02d4a5ec0e7b00c5b3b4fa6f99",
        "width" : 300
      }, {
        "height" : 64,
        "url" : "https://i.scdn.co/image/ab67616d00004851d4a5ec0e7b00c5b3b4fa6f99",
        "width" : 64
      } ],
      "name" : "Pax Gene",
      "popularity" : 55,
      "type" : "artist",
      "uri" : "spotify:artist:1IxEav5X3hEPqk0of4PY1I"
    }, {
      "external_urls" : {
        "spotify" : "https://open.spotify.com/artist/2oUi0GgBsOQRYea2aOa52L"
      },
      "followers" : {
        "href" : null,
        "total" : 81
      },
      "genres" : [ "sleep" ],
      "href" : "https://api.spotify.com/v1/artists/2oUi0GgBsOQRYea2aOa52L",
      "id" : "2oUi0GgBsOQRYea2aOa52L",
      "images" : [ {
        "height" : 640,
        "url" : "https://i.scdn.co/image/ab67616d0000b273945439db96d78254632a1ca5",
        "width" : 640
      }, {
        "height" : 300,
        "url" : "https://i.scdn.co/image/ab67616d00001e02945439db96d78254632a1ca5",
        "width" : 300
      }, {
        "height" : 64,
        "url" : "https://i.scdn.co/image/ab67616d00004851945439db96d78254632a1ca5",
        "width" : 64
      } ],
      "name" : "Serene & Pax",
      "popularity" : 56,
      "type" : "artist",
      "uri" : "spotify:artist:2oUi0GgBsOQRYea2aOa52L"
    }, {
      "external_urls" : {
        "spotify" : "https://open.spotify.com/artist/5Ibr7CPWc8QtLPg69dN6Rr"
      },
      "followers" : {
        "href" : null,
        "total" : 34
      },
      "genres" : [ ],
      "href" : "https://api.spotify.com/v1/artists/5Ibr7CPWc8QtLPg69dN6Rr",
      "id" : "5Ibr7CPWc8QtLPg69dN6Rr",
      "images" : [ {
        "height" : 640,
        "url" : "https://i.scdn.co/image/ab67616d0000b2739c03d2230ea7330d9194b7fc",
        "width" : 640
      }, {
        "height" : 300,
        "url" : "https://i.scdn.co/image/ab67616d00001e029c03d2230ea7330d9194b7fc",
        "width" : 300
      }, {
        "height" : 64,
        "url" : "https://i.scdn.co/image/ab67616d000048519c03d2230ea7330d9194b7fc",
        "width" : 64
      } ],
      "name" : "PAX",
      "popularity" : 2,
      "type" : "artist",
      "uri" : "spotify:artist:5Ibr7CPWc8QtLPg69dN6Rr"
    }, {
      "external_urls" : {
        "spotify" : "https://open.spotify.com/artist/3NYySx3H1V7zHemD9hmsQv"
      },
      "followers" : {
        "href" : null,
        "total" : 20761
      },
      "genres" : [ "bass house", "deep groove house", "house" ],
      "href" : "https://api.spotify.com/v1/artists/3NYySx3H1V7zHemD9hmsQv",
      "id" : "3NYySx3H1V7zHemD9hmsQv",
      "images" : [ {
        "height" : 640,
        "url" : "https://i.scdn.co/image/ab6761610000e5ebc6d3b3bb16289b20e81cc59c",
        "width" : 640
      }, {
        "height" : 320,
        "url" : "https://i.scdn.co/image/ab67616100005174c6d3b3bb16289b20e81cc59c",
        "width" : 320
      }, {
        "height" : 160,
        "url" : "https://i.scdn.co/image/ab6761610000f178c6d3b3bb16289b20e81cc59c",
        "width" : 160
      } ],
      "name" : "PAX",
      "popularity" : 52,
      "type" : "artist",
      "uri" : "spotify:artist:3NYySx3H1V7zHemD9hmsQv"
    }, {
      "external_urls" : {
        "spotify" : "https://open.spotify.com/artist/2BMq835Yir366yDKvW3Rcv"
      },
      "followers" : {
        "href" : null,
        "total" : 25098
      },
      "genres" : [ "plugg", "pluggnb", "vapor trap" ],
      "href" : "https://api.spotify.com/v1/artists/2BMq835Yir366yDKvW3Rcv",
      "id" : "2BMq835Yir366yDKvW3Rcv",
      "images" : [ {
        "height" : 640,
        "url" : "https://i.scdn.co/image/ab6761610000e5eb228f2b4bc7b468dc5d6d9ac3",
        "width" : 640
      }, {
        "height" : 320,
        "url" : "https://i.scdn.co/image/ab67616100005174228f2b4bc7b468dc5d6d9ac3",
        "width" : 320
      }, {
        "height" : 160,
        "url" : "https://i.scdn.co/image/ab6761610000f178228f2b4bc7b468dc5d6d9ac3",
        "width" : 160
      } ],
      "name" : "BoofPaxkMooky",
      "popularity" : 52,
      "type" : "artist",
      "uri" : "spotify:artist:2BMq835Yir366yDKvW3Rcv"
    }, {
      "external_urls" : {
        "spotify" : "https://open.spotify.com/artist/6qEuVOqIEWV9DdogHOzp41"
      },
      "followers" : {
        "href" : null,
        "total" : 77
      },
      "genres" : [ ],
      "href" : "https://api.spotify.com/v1/artists/6qEuVOqIEWV9DdogHOzp41",
      "id" : "6qEuVOqIEWV9DdogHOzp41",
      "images" : [ {
        "height" : 640,
        "url" : "https://i.scdn.co/image/ab6761610000e5eb8df462e24852335da5059d25",
        "width" : 640
      }, {
        "height" : 320,
        "url" : "https://i.scdn.co/image/ab676161000051748df462e24852335da5059d25",
        "width" : 320
      }, {
        "height" : 160,
        "url" : "https://i.scdn.co/image/ab6761610000f1788df462e24852335da5059d25",
        "width" : 160
      } ],
      "name" : "PAX",
      "popularity" : 7,
      "type" : "artist",
      "uri" : "spotify:artist:6qEuVOqIEWV9DdogHOzp41"
    }, {
      "external_urls" : {
        "spotify" : "https://open.spotify.com/artist/7lPIQjl1EboMXeIKVogpRg"
      },
      "followers" : {
        "href" : null,
        "total" : 80
      },
      "genres" : [ ],
      "href" : "https://api.spotify.com/v1/artists/7lPIQjl1EboMXeIKVogpRg",
      "id" : "7lPIQjl1EboMXeIKVogpRg",
      "images" : [ {
        "height" : 640,
        "url" : "https://i.scdn.co/image/ab67616d0000b273b311edce5964065401066482",
        "width" : 640
      }, {
        "height" : 300,
        "url" : "https://i.scdn.co/image/ab67616d00001e02b311edce5964065401066482",
        "width" : 300
      }, {
        "height" : 64,
        "url" : "https://i.scdn.co/image/ab67616d00004851b311edce5964065401066482",
        "width" : 64
      } ],
      "name" : "Pax Soloman",
      "popularity" : 46,
      "type" : "artist",
      "uri" : "spotify:artist:7lPIQjl1EboMXeIKVogpRg"
    }, {
      "external_urls" : {
        "spotify" : "https://open.spotify.com/artist/1U2UXz3RH779Hd8cGxAZjh"
      },
      "followers" : {
        "href" : null,
        "total" : 406
      },
      "genres" : [ ],
      "href" : "https://api.spotify.com/v1/artists/1U2UXz3RH779Hd8cGxAZjh",
      "id" : "1U2UXz3RH779Hd8cGxAZjh",
      "images" : [ {
        "height" : 640,
        "url" : "https://i.scdn.co/image/ab6761610000e5eb5a8bc193f834510881fdfd57",
        "width" : 640
      }, {
        "height" : 320,
        "url" : "https://i.scdn.co/image/ab676161000051745a8bc193f834510881fdfd57",
        "width" : 320
      }, {
        "height" : 160,
        "url" : "https://i.scdn.co/image/ab6761610000f1785a8bc193f834510881fdfd57",
        "width" : 160
      } ],
      "name" : "Paxe",
      "popularity" : 45,
      "type" : "artist",
      "uri" : "spotify:artist:1U2UXz3RH779Hd8cGxAZjh"
    }, {
      "external_urls" : {
        "spotify" : "https://open.spotify.com/artist/4zcFWKKQiNFlCFIil3gXnq"
      },
      "followers" : {
        "href" : null,
        "total" : 2171
      },
      "genres" : [ ],
      "href" : "https://api.spotify.com/v1/artists/4zcFWKKQiNFlCFIil3gXnq",
      "id" : "4zcFWKKQiNFlCFIil3gXnq",
      "images" : [ {
        "height" : 640,
        "url" : "https://i.scdn.co/image/ab6761610000e5eb8b3c780adbf1b2cd1e733cc3",
        "width" : 640
      }, {
        "height" : 320,
        "url" : "https://i.scdn.co/image/ab676161000051748b3c780adbf1b2cd1e733cc3",
        "width" : 320
      }, {
        "height" : 160,
        "url" : "https://i.scdn.co/image/ab6761610000f1788b3c780adbf1b2cd1e733cc3",
        "width" : 160
      } ],
      "name" : "Pax",
      "popularity" : 29,
      "type" : "artist",
      "uri" : "spotify:artist:4zcFWKKQiNFlCFIil3gXnq"
    }, {
      "external_urls" : {
        "spotify" : "https://open.spotify.com/artist/0KzKJBl7TLa9O0OnjYcRBq"
      },
      "followers" : {
        "href" : null,
        "total" : 36
      },
      "genres" : [ ],
      "href" : "https://api.spotify.com/v1/artists/0KzKJBl7TLa9O0OnjYcRBq",
      "id" : "0KzKJBl7TLa9O0OnjYcRBq",
      "images" : [ ],
      "name" : "Paxton Myler",
      "popularity" : 36,
      "type" : "artist",
      "uri" : "spotify:artist:0KzKJBl7TLa9O0OnjYcRBq"
    }, {
      "external_urls" : {
        "spotify" : "https://open.spotify.com/artist/7ozvfWx1ZiUtxzvHueG6ak"
      },
      "followers" : {
        "href" : null,
        "total" : 315
      },
      "genres" : [ "chinese viral pop" ],
      "href" : "https://api.spotify.com/v1/artists/7ozvfWx1ZiUtxzvHueG6ak",
      "id" : "7ozvfWx1ZiUtxzvHueG6ak",
      "images" : [ {
        "height" : 640,
        "url" : "https://i.scdn.co/image/ab67616d0000b273d9aefb64ea7f0dad4feae139",
        "width" : 640
      }, {
        "height" : 300,
        "url" : "https://i.scdn.co/image/ab67616d00001e02d9aefb64ea7f0dad4feae139",
        "width" : 300
      }, {
        "height" : 64,
        "url" : "https://i.scdn.co/image/ab67616d00004851d9aefb64ea7f0dad4feae139",
        "width" : 64
      } ],
      "name" : "PAX",
      "popularity" : 34,
      "type" : "artist",
      "uri" : "spotify:artist:7ozvfWx1ZiUtxzvHueG6ak"
    }, {
      "external_urls" : {
        "spotify" : "https://open.spotify.com/artist/55kipiKplrHBCZN6L1gtrv"
      },
      "followers" : {
        "href" : null,
        "total" : 35476
      },
      "genres" : [ "american folk revival", "folk", "folk rock" ],
      "href" : "https://api.spotify.com/v1/artists/55kipiKplrHBCZN6L1gtrv",
      "id" : "55kipiKplrHBCZN6L1gtrv",
      "images" : [ {
        "height" : 640,
        "url" : "https://i.scdn.co/image/ab6761610000e5ebd47c4452af03d5e4d9b597eb",
        "width" : 640
      }, {
        "height" : 320,
        "url" : "https://i.scdn.co/image/ab67616100005174d47c4452af03d5e4d9b597eb",
        "width" : 320
      }, {
        "height" : 160,
        "url" : "https://i.scdn.co/image/ab6761610000f178d47c4452af03d5e4d9b597eb",
        "width" : 160
      } ],
      "name" : "Tom Paxton",
      "popularity" : 40,
      "type" : "artist",
      "uri" : "spotify:artist:55kipiKplrHBCZN6L1gtrv"
    }, {
      "external_urls" : {
        "spotify" : "https://open.spotify.com/artist/52BrJWa29mZPy5hgDIs6d0"
      },
      "followers" : {
        "href" : null,
        "total" : 4398
      },
      "genres" : [ ],
      "href" : "https://api.spotify.com/v1/artists/52BrJWa29mZPy5hgDIs6d0",
      "id" : "52BrJWa29mZPy5hgDIs6d0",
      "images" : [ {
        "height" : 640,
        "url" : "https://i.scdn.co/image/ab67616d0000b27387dc08052e2e7ec0d5200249",
        "width" : 640
      }, {
        "height" : 300,
        "url" : "https://i.scdn.co/image/ab67616d00001e0287dc08052e2e7ec0d5200249",
        "width" : 300
      }, {
        "height" : 64,
        "url" : "https://i.scdn.co/image/ab67616d0000485187dc08052e2e7ec0d5200249",
        "width" : 64
      } ],
      "name" : "Pax217",
      "popularity" : 21,
      "type" : "artist",
      "uri" : "spotify:artist:52BrJWa29mZPy5hgDIs6d0"
    }, {
      "external_urls" : {
        "spotify" : "https://open.spotify.com/artist/1YhthHHCDrrokQ3xsYImWd"
      },
      "followers" : {
        "href" : null,
        "total" : 1560
      },
      "genres" : [ ],
      "href" : "https://api.spotify.com/v1/artists/1YhthHHCDrrokQ3xsYImWd",
      "id" : "1YhthHHCDrrokQ3xsYImWd",
      "images" : [ {
        "height" : 640,
        "url" : "https://i.scdn.co/image/ab6761610000e5eb335a32bcee60cecbfe75d9f4",
        "width" : 640
      }, {
        "height" : 320,
        "url" : "https://i.scdn.co/image/ab67616100005174335a32bcee60cecbfe75d9f4",
        "width" : 320
      }, {
        "height" : 160,
        "url" : "https://i.scdn.co/image/ab6761610000f178335a32bcee60cecbfe75d9f4",
        "width" : 160
      } ],
      "name" : "Paxquiao",
      "popularity" : 26,
      "type" : "artist",
      "uri" : "spotify:artist:1YhthHHCDrrokQ3xsYImWd"
    }, {
      "external_urls" : {
        "spotify" : "https://open.spotify.com/artist/1beEmtEPRuwtvnjuOjarHv"
      },
      "followers" : {
        "href" : null,
        "total" : 78
      },
      "genres" : [ ],
      "href" : "https://api.spotify.com/v1/artists/1beEmtEPRuwtvnjuOjarHv",
      "id" : "1beEmtEPRuwtvnjuOjarHv",
      "images" : [ {
        "height" : 640,
        "url" : "https://i.scdn.co/image/ab67616d0000b273c8c8c68aa0a14cdb9a02aacb",
        "width" : 640
      }, {
        "height" : 300,
        "url" : "https://i.scdn.co/image/ab67616d00001e02c8c8c68aa0a14cdb9a02aacb",
        "width" : 300
      }, {
        "height" : 64,
        "url" : "https://i.scdn.co/image/ab67616d00004851c8c8c68aa0a14cdb9a02aacb",
        "width" : 64
      } ],
      "name" : "PAX",
      "popularity" : 1,
      "type" : "artist",
      "uri" : "spotify:artist:1beEmtEPRuwtvnjuOjarHv"
    }, {
      "external_urls" : {
        "spotify" : "https://open.spotify.com/artist/6gWuAJCh6ktSY9B7ATylMq"
      },
      "followers" : {
        "href" : null,
        "total" : 6
      },
      "genres" : [ ],
      "href" : "https://api.spotify.com/v1/artists/6gWuAJCh6ktSY9B7ATylMq",
      "id" : "6gWuAJCh6ktSY9B7ATylMq",
      "images" : [ {
        "height" : 640,
        "url" : "https://i.scdn.co/image/ab67616d0000b2739ce1942fbfff32b4dedb2c33",
        "width" : 640
      }, {
        "height" : 300,
        "url" : "https://i.scdn.co/image/ab67616d00001e029ce1942fbfff32b4dedb2c33",
        "width" : 300
      }, {
        "height" : 64,
        "url" : "https://i.scdn.co/image/ab67616d000048519ce1942fbfff32b4dedb2c33",
        "width" : 64
      } ],
      "name" : "PAX",
      "popularity" : 0,
      "type" : "artist",
      "uri" : "spotify:artist:6gWuAJCh6ktSY9B7ATylMq"
    }, {
      "external_urls" : {
        "spotify" : "https://open.spotify.com/artist/6Tabml9HYiynouDND7RFLz"
      },
      "followers" : {
        "href" : null,
        "total" : 3099
      },
      "genres" : [ ],
      "href" : "https://api.spotify.com/v1/artists/6Tabml9HYiynouDND7RFLz",
      "id" : "6Tabml9HYiynouDND7RFLz",
      "images" : [ {
        "height" : 640,
        "url" : "https://i.scdn.co/image/ab6761610000e5ebecce90d46f2011e8fcd2289e",
        "width" : 640
      }, {
        "height" : 320,
        "url" : "https://i.scdn.co/image/ab67616100005174ecce90d46f2011e8fcd2289e",
        "width" : 320
      }, {
        "height" : 160,
        "url" : "https://i.scdn.co/image/ab6761610000f178ecce90d46f2011e8fcd2289e",
        "width" : 160
      } ],
      "name" : "Pax Impera",
      "popularity" : 28,
      "type" : "artist",
      "uri" : "spotify:artist:6Tabml9HYiynouDND7RFLz"
    }, {
      "external_urls" : {
        "spotify" : "https://open.spotify.com/artist/01Iu92oYyrjWAzncdldQJC"
      },
      "followers" : {
        "href" : null,
        "total" : 1131
      },
      "genres" : [ "emo rap", "sad lo-fi", "sad rap" ],
      "href" : "https://api.spotify.com/v1/artists/01Iu92oYyrjWAzncdldQJC",
      "id" : "01Iu92oYyrjWAzncdldQJC",
      "images" : [ {
        "height" : 640,
        "url" : "https://i.scdn.co/image/ab6761610000e5eb9ab4cdb7546789daac96d1b9",
        "width" : 640
      }, {
        "height" : 320,
        "url" : "https://i.scdn.co/image/ab676161000051749ab4cdb7546789daac96d1b9",
        "width" : 320
      }, {
        "height" : 160,
        "url" : "https://i.scdn.co/image/ab6761610000f1789ab4cdb7546789daac96d1b9",
        "width" : 160
      } ],
      "name" : "Anton Pax",
      "popularity" : 33,
      "type" : "artist",
      "uri" : "spotify:artist:01Iu92oYyrjWAzncdldQJC"
    }, {
      "external_urls" : {
        "spotify" : "https://open.spotify.com/artist/6ald1niy8OkAEUGvm50aOh"
      },
      "followers" : {
        "href" : null,
        "total" : 44
      },
      "genres" : [ ],
      "href" : "https://api.spotify.com/v1/artists/6ald1niy8OkAEUGvm50aOh",
      "id" : "6ald1niy8OkAEUGvm50aOh",
      "images" : [ {
        "height" : 640,
        "url" : "https://i.scdn.co/image/ab6761610000e5eb13004caa50ab52e1516905fe",
        "width" : 640
      }, {
        "height" : 320,
        "url" : "https://i.scdn.co/image/ab6761610000517413004caa50ab52e1516905fe",
        "width" : 320
      }, {
        "height" : 160,
        "url" : "https://i.scdn.co/image/ab6761610000f17813004caa50ab52e1516905fe",
        "width" : 160
      } ],
      "name" : "PAX",
      "popularity" : 7,
      "type" : "artist",
      "uri" : "spotify:artist:6ald1niy8OkAEUGvm50aOh"
    }, {
      "external_urls" : {
        "spotify" : "https://open.spotify.com/artist/2FVLixsmW8J9nETH05QKkh"
      },
      "followers" : {
        "href" : null,
        "total" : 50
      },
      "genres" : [ ],
      "href" : "https://api.spotify.com/v1/artists/2FVLixsmW8J9nETH05QKkh",
      "id" : "2FVLixsmW8J9nETH05QKkh",
      "images" : [ {
        "height" : 640,
        "url" : "https://i.scdn.co/image/ab67616d0000b273f5c2071453eb1b36c838edf1",
        "width" : 640
      }, {
        "height" : 300,
        "url" : "https://i.scdn.co/image/ab67616d00001e02f5c2071453eb1b36c838edf1",
        "width" : 300
      }, {
        "height" : 64,
        "url" : "https://i.scdn.co/image/ab67616d00004851f5c2071453eb1b36c838edf1",
        "width" : 64
      } ],
      "name" : "pax million",
      "popularity" : 26,
      "type" : "artist",
      "uri" : "spotify:artist:2FVLixsmW8J9nETH05QKkh"
    } ],
    "limit" : 20,
    "next" : "https://api.spotify.com/v1/search?query=PAX&type=artist&market=US&offset=20&limit=20",
    "offset" : 0,
    "previous" : null,
    "total" : 844
  }
}