{
  "artists" : {
    "href" : "https://api.spotify.com/v1/search?query=ABOVE+&type=artist&market=US&offset=0&limit=20",
    "items" : [ {
      "external_urls" : {
        "spotify" : "https://open.spotify.com/artist/10gzBoINW3cLJfZUka8Zoe"
      },
      "followers" : {
        "href" : null,
        "total" : 700225
      },
      "genres" : [ "edm", "pop dance", "progressive house", "progressive trance", "trance", "uplifting trance" ],
      "href" : "https://api.spotify.com/v1/artists/10gzBoINW3cLJfZUka8Zoe",
      "id" : "10gzBoINW3cLJfZUka8Zoe",
      "images" : [ {
        "height" : 640,
        "url" : "https://i.scdn.co/image/ab6761610000e5eb2a538d1a36a271885510d98a",
        "width" : 640
      }, {
        "height" : 320,
        "url" : "https://i.scdn.co/image/ab676161000051742a538d1a36a271885510d98a",
        "width" : 320
      }, {
        "height" : 160,
        "url" : "https://i.scdn.co/image/ab6761610000f1782a538d1a36a271885510d98a",
        "width" : 160
      } ],
      "name" : "Above & Beyond",
      "popularity" : 67,
      "type" : "artist",
      "uri" : "spotify:artist:10gzBoINW3cLJfZUka8Zoe"
    }, {
      "external_urls" : {
        "spotify" : "https://open.spotify.com/artist/1YStXHRj5phGb2LGCudZ6N"
      },
      "followers" : {
        "href" : null,
        "total" : 155464
      },
      "genres" : [ "g funk", "gangster rap", "hyphy", "west coast rap" ],
      "href" : "https://api.spotify.com/v1/artists/1YStXHRj5phGb2LGCudZ6N",
      "id" : "1YStXHRj5phGb2LGCudZ6N",
      "images" : [ {
        "height" : 684,
        "url" : "https://i.scdn.co/image/475369cc21bbf57cd676283e2fd308c7f5c80539",
        "width" : 1000
      }, {
        "height" : 438,
        "url" : "https://i.scdn.co/image/ba2e73dfbd0ff56447b9b052d9b2d23a223e5a87",
        "width" : 640
      }, {
        "height" : 137,
        "url" : "https://i.scdn.co/image/1639145d5ed76a4edc67bec70a71a8fc1675017b",
        "width" : 200
      }, {
        "height" : 44,
        "url" : "https://i.scdn.co/image/4bb5722eb22646209eb11a66730ccffdc8f446b3",
        "width" : 64
      } ],
      "name" : "Above The Law",
      "popularity" : 42,
      "type" : "artist",
      "uri" : "spotify:artist:1YStXHRj5phGb2LGCudZ6N"
    }, {
      "external_urls" : {
        "spotify" : "https://open.spotify.com/artist/18H0sAptzdwid08XGg1Lcj"
      },
      "followers" : {
        "href" : null,
        "total" : 251496
      },
      "genres" : [ "alternative dance", "alternative rock", "canadian rock", "dance-punk", "garage rock", "indie rock", "indietronica", "modern alternative rock", "modern rock", "new rave", "rock" ],
      "href" : "https://api.spotify.com/v1/artists/18H0sAptzdwid08XGg1Lcj",
      "id" : "18H0sAptzdwid08XGg1Lcj",
      "images" : [ {
        "height" : 640,
        "url" : "https://i.scdn.co/image/ab6761610000e5eb564eec26efb2ab29424cba8e",
        "width" : 640
      }, {
        "height" : 320,
        "url" : "https://i.scdn.co/image/ab67616100005174564eec26efb2ab29424cba8e",
        "width" : 320
      }, {
        "height" : 160,
        "url" : "https://i.scdn.co/image/ab6761610000f178564eec26efb2ab29424cba8e",
        "width" : 160
      } ],
      "name" : "Death From Above 1979",
      "popularity" : 55,
      "type" : "artist",
      "uri" : "spotify:artist:18H0sAptzdwid08XGg1Lcj"
    }, {
      "external_urls" : {
        "spotify" : "https://open.spotify.com/artist/52LnYKZEJPQhT1ePuMVxnb"
      },
      "followers" : {
        "href" : null,
        "total" : 1
      },
      "genres" : [ ],
      "href" : "https://api.spotify.com/v1/artists/52LnYKZEJPQhT1ePuMVxnb",
      "id" : "52LnYKZEJPQhT1ePuMVxnb",
      "images" : [ {
        "height" : 640,
        "url" : "https://i.scdn.co/image/ab67616d0000b273859a4a92866e2b55697f54db",
        "width" : 640
      }, {
        "height" : 300,
        "url" : "https://i.scdn.co/image/ab67616d00001e02859a4a92866e2b55697f54db",
        "width" : 300
      }, {
        "height" : 64,
        "url" : "https://i.scdn.co/image/ab67616d00004851859a4a92866e2b55697f54db",
        "width" : 64
      } ],
      "name" : "Above Cloud 9",
      "popularity" : 32,
      "type" : "artist",
      "uri" : "spotify:artist:52LnYKZEJPQhT1ePuMVxnb"
    }, {
      "external_urls" : {
        "spotify" : "https://open.spotify.com/artist/5xHX5hLVen1uvA6THTO7Tn"
      },
      "followers" : {
        "href" : null,
        "total" : 6320
      },
      "genres" : [ "christian hard rock", "gymcore", "post-screamo" ],
      "href" : "https://api.spotify.com/v1/artists/5xHX5hLVen1uvA6THTO7Tn",
      "id" : "5xHX5hLVen1uvA6THTO7Tn",
      "images" : [ {
        "height" : 640,
        "url" : "https://i.scdn.co/image/ab67616d0000b2733fc86739763524ea93fe35ae",
        "width" : 640
      }, {
        "height" : 300,
        "url" : "https://i.scdn.co/image/ab67616d00001e023fc86739763524ea93fe35ae",
        "width" : 300
      }, {
        "height" : 64,
        "url" : "https://i.scdn.co/image/ab67616d000048513fc86739763524ea93fe35ae",
        "width" : 64
      } ],
      "name" : "Above Only",
      "popularity" : 34,
      "type" : "artist",
      "uri" : "spotify:artist:5xHX5hLVen1uvA6THTO7Tn"
    }, {
      "external_urls" : {
        "spotify" : "https://open.spotify.com/artist/0TGwwqBPOAEsrEQKOT2FVY"
      },
      "followers" : {
        "href" : null,
        "total" : 28
      },
      "genres" : [ "white noise" ],
      "href" : "https://api.spotify.com/v1/artists/0TGwwqBPOAEsrEQKOT2FVY",
      "id" : "0TGwwqBPOAEsrEQKOT2FVY",
      "images" : [ {
        "height" : 640,
        "url" : "https://i.scdn.co/image/ab67616d0000b273704c64f544ff6ff90de3304a",
        "width" : 640
      }, {
        "height" : 300,
        "url" : "https://i.scdn.co/image/ab67616d00001e02704c64f544ff6ff90de3304a",
        "width" : 300
      }, {
        "height" : 64,
        "url" : "https://i.scdn.co/image/ab67616d00004851704c64f544ff6ff90de3304a",
        "width" : 64
      } ],
      "name" : "High Above The Clouds",
      "popularity" : 42,
      "type" : "artist",
      "uri" : "spotify:artist:0TGwwqBPOAEsrEQKOT2FVY"
    }, {
      "external_urls" : {
        "spotify" : "https://open.spotify.com/artist/2hH7uEbdBk31CRmcHj8Emh"
      },
      "followers" : {
        "href" : null,
        "total" : 49
      },
      "genres" : [ ],
      "href" : "https://api.spotify.com/v1/artists/2hH7uEbdBk31CRmcHj8Emh",
      "id" : "2hH7uEbdBk31CRmcHj8Emh",
      "images" : [ {
        "height" : 640,
        "url" : "https://i.scdn.co/image/ab67616d0000b273014e439da2682125bd29c82f",
        "width" : 640
      }, {
        "height" : 300,
        "url" : "https://i.scdn.co/image/ab67616d00001e02014e439da2682125bd29c82f",
        "width" : 300
      }, {
        "height" : 64,
        "url" : "https://i.scdn.co/image/ab67616d00004851014e439da2682125bd29c82f",
        "width" : 64
      } ],
      "name" : "Above the Mex",
      "popularity" : 32,
      "type" : "artist",
      "uri" : "spotify:artist:2hH7uEbdBk31CRmcHj8Emh"
    }, {
      "external_urls" : {
        "spotify" : "https://open.spotify.com/artist/17HGEQUIyMzUgtjvBh8rWc"
      },
      "followers" : {
        "href" : null,
        "total" : 71
      },
      "genres" : [ ],
      "href" : "https://api.spotify.com/v1/artists/17HGEQUIyMzUgtjvBh8rWc",
      "id" : "17HGEQUIyMzUgtjvBh8rWc",
      "images" : [ {
        "height" : 640,
        "url" : "https://i.scdn.co/image/ab67616d0000b273204db996a8539330e88200d7",
        "width" : 640
      }, {
        "height" : 300,
        "url" : "https://i.scdn.co/image/ab67616d00001e02204db996a8539330e88200d7",
        "width" : 300
      }, {
        "height" : 64,
        "url" : "https://i.scdn.co/image/ab67616d00004851204db996a8539330e88200d7",
        "width" : 64
      } ],
      "name" : "Sounds from Above",
      "popularity" : 35,
      "type" : "artist",
      "uri" : "spotify:artist:17HGEQUIyMzUgtjvBh8rWc"
    }, {
      "external_urls" : {
        "spotify" : "https://open.spotify.com/artist/1BvVWm89YnIqEVnQiGvBLx"
      },
      "followers" : {
        "href" : null,
        "total" : 9379
      },
      "genres" : [ "australian post-hardcore", "metalcore", "progressive metalcore" ],
      "href" : "https://api.spotify.com/v1/artists/1BvVWm89YnIqEVnQiGvBLx",
      "id" : "1BvVWm89YnIqEVnQiGvBLx",
      "images" : [ {
        "height" : 640,
        "url" : "https://i.scdn.co/image/ab6761610000e5eb088165a53c8bbf5157069c96",
        "width" : 640
      }, {
        "height" : 320,
        "url" : "https://i.scdn.co/image/ab67616100005174088165a53c8bbf5157069c96",
        "width" : 320
      }, {
        "height" : 160,
        "url" : "https://i.scdn.co/image/ab6761610000f178088165a53c8bbf5157069c96",
        "width" : 160
      } ],
      "name" : "Above, Below",
      "popularity" : 29,
      "type" : "artist",
      "uri" : "spotify:artist:1BvVWm89YnIqEVnQiGvBLx"
    }, {
      "external_urls" : {
        "spotify" : "https://open.spotify.com/artist/6tnupeqWgElXI24vv3kwmo"
      },
      "followers" : {
        "href" : null,
        "total" : 9447
      },
      "genres" : [ "electronic djent" ],
      "href" : "https://api.spotify.com/v1/artists/6tnupeqWgElXI24vv3kwmo",
      "id" : "6tnupeqWgElXI24vv3kwmo",
      "images" : [ {
        "height" : 640,
        "url" : "https://i.scdn.co/image/ab6761610000e5eb0a66a8cfccabee15292d6888",
        "width" : 640
      }, {
        "height" : 320,
        "url" : "https://i.scdn.co/image/ab676161000051740a66a8cfccabee15292d6888",
        "width" : 320
      }, {
        "height" : 160,
        "url" : "https://i.scdn.co/image/ab6761610000f1780a66a8cfccabee15292d6888",
        "width" : 160
      } ],
      "name" : "ENEMY AC130 ABOVE",
      "popularity" : 31,
      "type" : "artist",
      "uri" : "spotify:artist:6tnupeqWgElXI24vv3kwmo"
    }, {
      "external_urls" : {
        "spotify" : "https://open.spotify.com/artist/1j9yhc8NKqweD0kR1eonFZ"
      },
      "followers" : {
        "href" : null,
        "total" : 1076
      },
      "genres" : [ "australian post-hardcore" ],
      "href" : "https://api.spotify.com/v1/artists/1j9yhc8NKqweD0kR1eonFZ",
      "id" : "1j9yhc8NKqweD0kR1eonFZ",
      "images" : [ {
        "height" : 640,
        "url" : "https://i.scdn.co/image/ab6761610000e5eb15c6c68a64a4f71e381a0971",
        "width" : 640
      }, {
        "height" : 320,
        "url" : "https://i.scdn.co/image/ab6761610000517415c6c68a64a4f71e381a0971",
        "width" : 320
      }, {
        "height" : 160,
        "url" : "https://i.scdn.co/image/ab6761610000f17815c6c68a64a4f71e381a0971",
        "width" : 160
      } ],
      "name" : "Above the Fallen",
      "popularity" : 28,
      "type" : "artist",
      "uri" : "spotify:artist:1j9yhc8NKqweD0kR1eonFZ"
    }, {
      "external_urls" : {
        "spotify" : "https://open.spotify.com/artist/7eJS8nDZm81A6iMd7H4w7C"
      },
      "followers" : {
        "href" : null,
        "total" : 10544
      },
      "genres" : [ ],
      "href" : "https://api.spotify.com/v1/artists/7eJS8nDZm81A6iMd7H4w7C",
      "id" : "7eJS8nDZm81A6iMd7H4w7C",
      "images" : [ {
        "height" : 640,
        "url" : "https://i.scdn.co/image/ab6761610000e5eb3bd1b4b277b443d6143ca259",
        "width" : 640
      }, {
        "height" : 320,
        "url" : "https://i.scdn.co/image/ab676161000051743bd1b4b277b443d6143ca259",
        "width" : 320
      }, {
        "height" : 160,
        "url" : "https://i.scdn.co/image/ab6761610000f1783bd1b4b277b443d6143ca259",
        "width" : 160
      } ],
      "name" : "Above This",
      "popularity" : 22,
      "type" : "artist",
      "uri" : "spotify:artist:7eJS8nDZm81A6iMd7H4w7C"
    }, {
      "external_urls" : {
        "spotify" : "https://open.spotify.com/artist/6RvRxOxNz0y3bg3p7pGFcn"
      },
      "followers" : {
        "href" : null,
        "total" : 2590
      },
      "genres" : [ ],
      "href" : "https://api.spotify.com/v1/artists/6RvRxOxNz0y3bg3p7pGFcn",
      "id" : "6RvRxOxNz0y3bg3p7pGFcn",
      "images" : [ {
        "height" : 640,
        "url" : "https://i.scdn.co/image/ab6761610000e5eb882a57318c5f7fc6a5261ed2",
        "width" : 640
      }, {
        "height" : 320,
        "url" : "https://i.scdn.co/image/ab67616100005174882a57318c5f7fc6a5261ed2",
        "width" : 320
      }, {
        "height" : 160,
        "url" : "https://i.scdn.co/image/ab6761610000f178882a57318c5f7fc6a5261ed2",
        "width" : 160
      } ],
      "name" : "Above Waves",
      "popularity" : 18,
      "type" : "artist",
      "uri" : "spotify:artist:6RvRxOxNz0y3bg3p7pGFcn"
    }, {
      "external_urls" : {
        "spotify" : "https://open.spotify.com/artist/6uJSrTMuVKmMx06k46uyIX"
      },
      "followers" : {
        "href" : null,
        "total" : 2552
      },
      "genres" : [ ],
      "href" : "https://api.spotify.com/v1/artists/6uJSrTMuVKmMx06k46uyIX",
      "id" : "6uJSrTMuVKmMx06k46uyIX",
      "images" : [ ],
      "name" : "Above & Beyond pres. Tranquility Base",
      "popularity" : 28,
      "type" : "artist",
      "uri" : "spotify:artist:6uJSrTMuVKmMx06k46uyIX"
    }, {
      "external_urls" : {
        "spotify" : "https://open.spotify.com/artist/749ALvZgZ9FFvGEMifdXVv"
      },
      "followers" : {
        "href" : null,
        "total" : 179
      },
      "genres" : [ ],
      "href" : "https://api.spotify.com/v1/artists/749ALvZgZ9FFvGEMifdXVv",
      "id" : "749ALvZgZ9FFvGEMifdXVv",
      "images" : [ {
        "height" : 640,
        "url" : "https://i.scdn.co/image/ab67616d0000b2735acd4445868bd77b0ea292bf",
        "width" : 640
      }, {
        "height" : 300,
        "url" : "https://i.scdn.co/image/ab67616d00001e025acd4445868bd77b0ea292bf",
        "width" : 300
      }, {
        "height" : 64,
        "url" : "https://i.scdn.co/image/ab67616d000048515acd4445868bd77b0ea292bf",
        "width" : 64
      } ],
      "name" : "Science from Above",
      "popularity" : 31,
      "type" : "artist",
      "uri" : "spotify:artist:749ALvZgZ9FFvGEMifdXVv"
    }, {
      "external_urls" : {
        "spotify" : "https://open.spotify.com/artist/4KOorc5WXPSuujoB2Xb8BE"
      },
      "followers" : {
        "href" : null,
        "total" : 7330
      },
      "genres" : [ "electronicore", "post-post-hardcore" ],
      "href" : "https://api.spotify.com/v1/artists/4KOorc5WXPSuujoB2Xb8BE",
      "id" : "4KOorc5WXPSuujoB2Xb8BE",
      "images" : [ {
        "height" : 640,
        "url" : "https://i.scdn.co/image/ab67616d0000b273f2555f9057072235c83e8436",
        "width" : 640
      }, {
        "height" : 300,
        "url" : "https://i.scdn.co/image/ab67616d00001e02f2555f9057072235c83e8436",
        "width" : 300
      }, {
        "height" : 64,
        "url" : "https://i.scdn.co/image/ab67616d00004851f2555f9057072235c83e8436",
        "width" : 64
      } ],
      "name" : "Above the Broken",
      "popularity" : 18,
      "type" : "artist",
      "uri" : "spotify:artist:4KOorc5WXPSuujoB2Xb8BE"
    }, {
      "external_urls" : {
        "spotify" : "https://open.spotify.com/artist/65ypgVh5p50BgrYjQylzBv"
      },
      "followers" : {
        "href" : null,
        "total" : 1056
      },
      "genres" : [ ],
      "href" : "https://api.spotify.com/v1/artists/65ypgVh5p50BgrYjQylzBv",
      "id" : "65ypgVh5p50BgrYjQylzBv",
      "images" : [ {
        "height" : 640,
        "url" : "https://i.scdn.co/image/ab6761610000e5eb9c9a363778388c8323d3baea",
        "width" : 640
      }, {
        "height" : 320,
        "url" : "https://i.scdn.co/image/ab676161000051749c9a363778388c8323d3baea",
        "width" : 320
      }, {
        "height" : 160,
        "url" : "https://i.scdn.co/image/ab6761610000f1789c9a363778388c8323d3baea",
        "width" : 160
      } ],
      "name" : "Above Snakes",
      "popularity" : 22,
      "type" : "artist",
      "uri" : "spotify:artist:65ypgVh5p50BgrYjQylzBv"
    }, {
      "external_urls" : {
        "spotify" : "https://open.spotify.com/artist/5tX9HVrjmQfDFNxoKiDJSt"
      },
      "followers" : {
        "href" : null,
        "total" : 3973
      },
      "genres" : [ ],
      "href" : "https://api.spotify.com/v1/artists/5tX9HVrjmQfDFNxoKiDJSt",
      "id" : "5tX9HVrjmQfDFNxoKiDJSt",
      "images" : [ {
        "height" : 640,
        "url" : "https://i.scdn.co/image/ab67616d0000b2732bd7c7100cd09cd7e6f93d2a",
        "width" : 640
      }, {
        "height" : 300,
        "url" : "https://i.scdn.co/image/ab67616d00001e022bd7c7100cd09cd7e6f93d2a",
        "width" : 300
      }, {
        "height" : 64,
        "url" : "https://i.scdn.co/image/ab67616d000048512bd7c7100cd09cd7e6f93d2a",
        "width" : 64
      } ],
      "name" : "Above The Golden State",
      "popularity" : 15,
      "type" : "artist",
      "uri" : "spotify:artist:5tX9HVrjmQfDFNxoKiDJSt"
    }, {
      "external_urls" : {
        "spotify" : "https://open.spotify.com/artist/2NTkbU94RNxgFY767jc1Pw"
      },
      "followers" : {
        "href" : null,
        "total" : 48
      },
      "genres" : [ ],
      "href" : "https://api.spotify.com/v1/artists/2NTkbU94RNxgFY767jc1Pw",
      "id" : "2NTkbU94RNxgFY767jc1Pw",
      "images" : [ {
        "height" : 640,
        "url" : "https://i.scdn.co/image/ab6761610000e5ebd1b12d329a5e145380bbdd46",
        "width" : 640
      }, {
        "height" : 320,
        "url" : "https://i.scdn.co/image/ab67616100005174d1b12d329a5e145380bbdd46",
        "width" : 320
      }, {
        "height" : 160,
        "url" : "https://i.scdn.co/image/ab6761610000f178d1b12d329a5e145380bbdd46",
        "width" : 160
      } ],
      "name" : "Rise Above Everything",
      "popularity" : 21,
      "type" : "artist",
      "uri" : "spotify:artist:2NTkbU94RNxgFY767jc1Pw"
    }, {
      "external_urls" : {
        "spotify" : "https://open.spotify.com/artist/2ADDZ2HbeOUSVsbRslcZ3X"
      },
      "followers" : {
        "href" : null,
        "total" : 110990
      },
      "genres" : [ "greek hip hop", "greek trap", "greek underground rap" ],
      "href" : "https://api.spotify.com/v1/artists/2ADDZ2HbeOUSVsbRslcZ3X",
      "id" : "2ADDZ2HbeOUSVsbRslcZ3X",
      "images" : [ {
        "height" : 640,
        "url" : "https://i.scdn.co/image/ab6761610000e5ebc7ff8f98235cc3fb8a879b75",
        "width" : 640
      }, {
        "height" : 320,
        "url" : "https://i.scdn.co/image/ab67616100005174c7ff8f98235cc3fb8a879b75",
        "width" : 320
      }, {
        "height" : 160,
        "url" : "https://i.scdn.co/image/ab6761610000f178c7ff8f98235cc3fb8a879b75",
        "width" : 160
      } ],
      "name" : "Above The Hood",
      "popularity" : 43,
      "type" : "artist",
      "uri" : "spotify:artist:2ADDZ2HbeOUSVsbRslcZ3X"
    } ],
    "limit" : 20,
    "next" : "https://api.spotify.com/v1/search?query=ABOVE+&type=artist&market=US&offset=20&limit=20",
    "offset" : 0,
    "previous" : null,
    "total" : 570
  }
}