{
  "artists" : {
    "href" : "https://api.spotify.com/v1/search?query=AU5&type=artist&market=US&offset=0&limit=20",
    "items" : [ {
      "external_urls" : {
        "spotify" : "https://open.spotify.com/artist/40WIa01eubnEVkxUHeDZyF"
      },
      "followers" : {
        "href" : null,
        "total" : 92736
      },
      "genres" : [ "chillstep", "complextro", "dubstep", "edm", "electro house", "future bass", "gaming edm", "melodic dubstep", "pop edm" ],
      "href" : "https://api.spotify.com/v1/artists/40WIa01eubnEVkxUHeDZyF",
      "id" : "40WIa01eubnEVkxUHeDZyF",
      "images" : [ {
        "height" : 640,
        "url" : "https://i.scdn.co/image/ab6761610000e5ebf207f2c7e1897ea962e35bcb",
        "width" : 640
      }, {
        "height" : 320,
        "url" : "https://i.scdn.co/image/ab67616100005174f207f2c7e1897ea962e35bcb",
        "width" : 320
      }, {
        "height" : 160,
        "url" : "https://i.scdn.co/image/ab6761610000f178f207f2c7e1897ea962e35bcb",
        "width" : 160
      } ],
      "name" : "Au5",
      "popularity" : 54,
      "type" : "artist",
      "uri" : "spotify:artist:40WIa01eubnEVkxUHeDZyF"
    }, {
      "external_urls" : {
        "spotify" : "https://open.spotify.com/artist/6EfunZyXKq89aey7lh2bUO"
      },
      "followers" : {
        "href" : null,
        "total" : 5799
      },
      "genres" : [ "acoustic pop", "neo mellow" ],
      "href" : "https://api.spotify.com/v1/artists/6EfunZyXKq89aey7lh2bUO",
      "id" : "6EfunZyXKq89aey7lh2bUO",
      "images" : [ {
        "height" : 640,
        "url" : "https://i.scdn.co/image/ab6761610000e5eb4e4302f813eb6e03179ce02c",
        "width" : 640
      }, {
        "height" : 320,
        "url" : "https://i.scdn.co/image/ab676161000051744e4302f813eb6e03179ce02c",
        "width" : 320
      }, {
        "height" : 160,
        "url" : "https://i.scdn.co/image/ab6761610000f1784e4302f813eb6e03179ce02c",
        "width" : 160
      } ],
      "name" : "Five Times August",
      "popularity" : 31,
      "type" : "artist",
      "uri" : "spotify:artist:6EfunZyXKq89aey7lh2bUO"
    }, {
      "external_urls" : {
        "spotify" : "https://open.spotify.com/artist/0PRVC5bRZEJh0r9XNRW4n4"
      },
      "followers" : {
        "href" : null,
        "total" : 51
      },
      "genres" : [ ],
      "href" : "https://api.spotify.com/v1/artists/0PRVC5bRZEJh0r9XNRW4n4",
      "id" : "0PRVC5bRZEJh0r9XNRW4n4",
      "images" : [ {
        "height" : 640,
        "url" : "https://i.scdn.co/image/ab6761610000e5eb70cb61d61914a2315597a946",
        "width" : 640
      }, {
        "height" : 320,
        "url" : "https://i.scdn.co/image/ab6761610000517470cb61d61914a2315597a946",
        "width" : 320
      }, {
        "height" : 160,
        "url" : "https://i.scdn.co/image/ab6761610000f17870cb61d61914a2315597a946",
        "width" : 160
      } ],
      "name" : "atDusk",
      "popularity" : 29,
      "type" : "artist",
      "uri" : "spotify:artist:0PRVC5bRZEJh0r9XNRW4n4"
    }, {
      "external_urls" : {
        "spotify" : "https://open.spotify.com/artist/5kVUvVfD8kEFYnAZhm25ZZ"
      },
      "followers" : {
        "href" : null,
        "total" : 22
      },
      "genres" : [ ],
      "href" : "https://api.spotify.com/v1/artists/5kVUvVfD8kEFYnAZhm25ZZ",
      "id" : "5kVUvVfD8kEFYnAZhm25ZZ",
      "images" : [ ],
      "name" : "Auron530",
      "popularity" : 25,
      "type" : "artist",
      "uri" : "spotify:artist:5kVUvVfD8kEFYnAZhm25ZZ"
    }, {
      "external_urls" : {
        "spotify" : "https://open.spotify.com/artist/6EnGydhXmeqxsm1FdZbRAd"
      },
      "followers" : {
        "href" : null,
        "total" : 90
      },
      "genres" : [ ],
      "href" : "https://api.spotify.com/v1/artists/6EnGydhXmeqxsm1FdZbRAd",
      "id" : "6EnGydhXmeqxsm1FdZbRAd",
      "images" : [ {
        "height" : 640,
        "url" : "https://i.scdn.co/image/ab67616d0000b2733033f94e9ef5ad7c1bb2f838",
        "width" : 640
      }, {
        "height" : 300,
        "url" : "https://i.scdn.co/image/ab67616d00001e023033f94e9ef5ad7c1bb2f838",
        "width" : 300
      }, {
        "height" : 64,
        "url" : "https://i.scdn.co/image/ab67616d000048513033f94e9ef5ad7c1bb2f838",
        "width" : 64
      } ],
      "name" : "Aura5",
      "popularity" : 6,
      "type" : "artist",
      "uri" : "spotify:artist:6EnGydhXmeqxsm1FdZbRAd"
    }, {
      "external_urls" : {
        "spotify" : "https://open.spotify.com/artist/385pPnC5qTfYtOkln3NDpI"
      },
      "followers" : {
        "href" : null,
        "total" : 8
      },
      "genres" : [ ],
      "href" : "https://api.spotify.com/v1/artists/385pPnC5qTfYtOkln3NDpI",
      "id" : "385pPnC5qTfYtOkln3NDpI",
      "images" : [ ],
      "name" : "Audii A5",
      "popularity" : 5,
      "type" : "artist",
      "uri" : "spotify:artist:385pPnC5qTfYtOkln3NDpI"
    }, {
      "external_urls" : {
        "spotify" : "https://open.spotify.com/artist/6aAwsK7PKCgGPn72ffbq81"
      },
      "followers" : {
        "href" : null,
        "total" : 515
      },
      "genres" : [ "tierra caliente" ],
      "href" : "https://api.spotify.com/v1/artists/6aAwsK7PKCgGPn72ffbq81",
      "id" : "6aAwsK7PKCgGPn72ffbq81",
      "images" : [ {
        "height" : 640,
        "url" : "https://i.scdn.co/image/ab6761610000e5eb0c22441ef4e13a2c1a99bb98",
        "width" : 640
      }, {
        "height" : 320,
        "url" : "https://i.scdn.co/image/ab676161000051740c22441ef4e13a2c1a99bb98",
        "width" : 320
      }, {
        "height" : 160,
        "url" : "https://i.scdn.co/image/ab6761610000f1780c22441ef4e13a2c1a99bb98",
        "width" : 160
      } ],
      "name" : "La Autentica Clave 5 de Tierra Caliente",
      "popularity" : 6,
      "type" : "artist",
      "uri" : "spotify:artist:6aAwsK7PKCgGPn72ffbq81"
    }, {
      "external_urls" : {
        "spotify" : "https://open.spotify.com/artist/638xWpliMVfMUJDJw3IPbg"
      },
      "followers" : {
        "href" : null,
        "total" : 7
      },
      "genres" : [ ],
      "href" : "https://api.spotify.com/v1/artists/638xWpliMVfMUJDJw3IPbg",
      "id" : "638xWpliMVfMUJDJw3IPbg",
      "images" : [ {
        "height" : 640,
        "url" : "https://i.scdn.co/image/ab67616d0000b27309909648ed3d7d26b80b5224",
        "width" : 640
      }, {
        "height" : 300,
        "url" : "https://i.scdn.co/image/ab67616d00001e0209909648ed3d7d26b80b5224",
        "width" : 300
      }, {
        "height" : 64,
        "url" : "https://i.scdn.co/image/ab67616d0000485109909648ed3d7d26b80b5224",
        "width" : 64
      } ],
      "name" : "5star Audemar",
      "popularity" : 4,
      "type" : "artist",
      "uri" : "spotify:artist:638xWpliMVfMUJDJw3IPbg"
    }, {
      "external_urls" : {
        "spotify" : "https://open.spotify.com/artist/7AJa3v3GRjbApDlWnDRvln"
      },
      "followers" : {
        "href" : null,
        "total" : 2
      },
      "genres" : [ ],
      "href" : "https://api.spotify.com/v1/artists/7AJa3v3GRjbApDlWnDRvln",
      "id" : "7AJa3v3GRjbApDlWnDRvln",
      "images" : [ ],
      "name" : "5auce Lik",
      "popularity" : 3,
      "type" : "artist",
      "uri" : "spotify:artist:7AJa3v3GRjbApDlWnDRvln"
    }, {
      "external_urls" : {
        "spotify" : "https://open.spotify.com/artist/14igIOoFxGf1z9jI4LyRFN"
      },
      "followers" : {
        "href" : null,
        "total" : 17
      },
      "genres" : [ ],
      "href" : "https://api.spotify.com/v1/artists/14igIOoFxGf1z9jI4LyRFN",
      "id" : "14igIOoFxGf1z9jI4LyRFN",
      "images" : [ {
        "height" : 640,
        "url" : "https://i.scdn.co/image/ab6761610000e5eb34f748fb036b7abcced0d04b",
        "width" : 640
      }, {
        "height" : 320,
        "url" : "https://i.scdn.co/image/ab6761610000517434f748fb036b7abcced0d04b",
        "width" : 320
      }, {
        "height" : 160,
        "url" : "https://i.scdn.co/image/ab6761610000f17834f748fb036b7abcced0d04b",
        "width" : 160
      } ],
      "name" : "Au5t1n Boom",
      "popularity" : 0,
      "type" : "artist",
      "uri" : "spotify:artist:14igIOoFxGf1z9jI4LyRFN"
    }, {
      "external_urls" : {
        "spotify" : "https://open.spotify.com/artist/6pTU8rpSOWJtNavDOoo8Da"
      },
      "followers" : {
        "href" : null,
        "total" : 0
      },
      "genres" : [ ],
      "href" : "https://api.spotify.com/v1/artists/6pTU8rpSOWJtNavDOoo8Da",
      "id" : "6pTU8rpSOWJtNavDOoo8Da",
      "images" : [ {
        "height" : 640,
        "url" : "https://i.scdn.co/image/ab67616d0000b273475036106e25ae9a775ce9fa",
        "width" : 640
      }, {
        "height" : 300,
        "url" : "https://i.scdn.co/image/ab67616d00001e02475036106e25ae9a775ce9fa",
        "width" : 300
      }, {
        "height" : 64,
        "url" : "https://i.scdn.co/image/ab67616d00004851475036106e25ae9a775ce9fa",
        "width" : 64
      } ],
      "name" : "AUDRIU5",
      "popularity" : 0,
      "type" : "artist",
      "uri" : "spotify:artist:6pTU8rpSOWJtNavDOoo8Da"
    }, {
      "external_urls" : {
        "spotify" : "https://open.spotify.com/artist/3wRXqlsgoWK1s1Uyyo2Hlz"
      },
      "followers" : {
        "href" : null,
        "total" : 3
      },
      "genres" : [ ],
      "href" : "https://api.spotify.com/v1/artists/3wRXqlsgoWK1s1Uyyo2Hlz",
      "id" : "3wRXqlsgoWK1s1Uyyo2Hlz",
      "images" : [ {
        "height" : 640,
        "url" : "https://i.scdn.co/image/ab67616d0000b273d8819238757c30a997679229",
        "width" : 640
      }, {
        "height" : 300,
        "url" : "https://i.scdn.co/image/ab67616d00001e02d8819238757c30a997679229",
        "width" : 300
      }, {
        "height" : 64,
        "url" : "https://i.scdn.co/image/ab67616d00004851d8819238757c30a997679229",
        "width" : 64
      } ],
      "name" : "520austin",
      "popularity" : 0,
      "type" : "artist",
      "uri" : "spotify:artist:3wRXqlsgoWK1s1Uyyo2Hlz"
    }, {
      "external_urls" : {
        "spotify" : "https://open.spotify.com/artist/4ihfMBbRXNpQiK9q0PPyVr"
      },
      "followers" : {
        "href" : null,
        "total" : 1
      },
      "genres" : [ ],
      "href" : "https://api.spotify.com/v1/artists/4ihfMBbRXNpQiK9q0PPyVr",
      "id" : "4ihfMBbRXNpQiK9q0PPyVr",
      "images" : [ ],
      "name" : "Audio5",
      "popularity" : 0,
      "type" : "artist",
      "uri" : "spotify:artist:4ihfMBbRXNpQiK9q0PPyVr"
    }, {
      "external_urls" : {
        "spotify" : "https://open.spotify.com/artist/1gPm90ST0sn9y1iJ8hQAnb"
      },
      "followers" : {
        "href" : null,
        "total" : 3
      },
      "genres" : [ ],
      "href" : "https://api.spotify.com/v1/artists/1gPm90ST0sn9y1iJ8hQAnb",
      "id" : "1gPm90ST0sn9y1iJ8hQAnb",
      "images" : [ {
        "height" : 640,
        "url" : "https://i.scdn.co/image/ab67616d0000b2730ec2cd7260efe7eacde44ac9",
        "width" : 640
      }, {
        "height" : 300,
        "url" : "https://i.scdn.co/image/ab67616d00001e020ec2cd7260efe7eacde44ac9",
        "width" : 300
      }, {
        "height" : 64,
        "url" : "https://i.scdn.co/image/ab67616d000048510ec2cd7260efe7eacde44ac9",
        "width" : 64
      } ],
      "name" : "5AURON",
      "popularity" : 0,
      "type" : "artist",
      "uri" : "spotify:artist:1gPm90ST0sn9y1iJ8hQAnb"
    }, {
      "external_urls" : {
        "spotify" : "https://open.spotify.com/artist/4aoCuxzhokiLvy5scIhqA8"
      },
      "followers" : {
        "href" : null,
        "total" : 1
      },
      "genres" : [ ],
      "href" : "https://api.spotify.com/v1/artists/4aoCuxzhokiLvy5scIhqA8",
      "id" : "4aoCuxzhokiLvy5scIhqA8",
      "images" : [ ],
      "name" : "Audio 54",
      "popularity" : 0,
      "type" : "artist",
      "uri" : "spotify:artist:4aoCuxzhokiLvy5scIhqA8"
    }, {
      "external_urls" : {
        "spotify" : "https://open.spotify.com/artist/6JkMZh21eOIxorbmN3fWou"
      },
      "followers" : {
        "href" : null,
        "total" : 0
      },
      "genres" : [ ],
      "href" : "https://api.spotify.com/v1/artists/6JkMZh21eOIxorbmN3fWou",
      "id" : "6JkMZh21eOIxorbmN3fWou",
      "images" : [ {
        "height" : 640,
        "url" : "https://i.scdn.co/image/ab67616d0000b2739d4594c58862307d4cb771c7",
        "width" : 640
      }, {
        "height" : 300,
        "url" : "https://i.scdn.co/image/ab67616d00001e029d4594c58862307d4cb771c7",
        "width" : 300
      }, {
        "height" : 64,
        "url" : "https://i.scdn.co/image/ab67616d000048519d4594c58862307d4cb771c7",
        "width" : 64
      } ],
      "name" : "Austria5",
      "popularity" : 0,
      "type" : "artist",
      "uri" : "spotify:artist:6JkMZh21eOIxorbmN3fWou"
    }, {
      "external_urls" : {
        "spotify" : "https://open.spotify.com/artist/2xQnUd3J6Gn1HwFxM7Y3yy"
      },
      "followers" : {
        "href" : null,
        "total" : 10
      },
      "genres" : [ ],
      "href" : "https://api.spotify.com/v1/artists/2xQnUd3J6Gn1HwFxM7Y3yy",
      "id" : "2xQnUd3J6Gn1HwFxM7Y3yy",
      "images" : [ {
        "height" : 640,
        "url" : "https://i.scdn.co/image/ab67616d0000b2730bae746d95da93db94ce0919",
        "width" : 640
      }, {
        "height" : 300,
        "url" : "https://i.scdn.co/image/ab67616d00001e020bae746d95da93db94ce0919",
        "width" : 300
      }, {
        "height" : 64,
        "url" : "https://i.scdn.co/image/ab67616d000048510bae746d95da93db94ce0919",
        "width" : 64
      } ],
      "name" : "Autentik 512",
      "popularity" : 0,
      "type" : "artist",
      "uri" : "spotify:artist:2xQnUd3J6Gn1HwFxM7Y3yy"
    }, {
      "external_urls" : {
        "spotify" : "https://open.spotify.com/artist/15Uv84UivL7w22VMJXELef"
      },
      "followers" : {
        "href" : null,
        "total" : 2
      },
      "genres" : [ ],
      "href" : "https://api.spotify.com/v1/artists/15Uv84UivL7w22VMJXELef",
      "id" : "15Uv84UivL7w22VMJXELef",
      "images" : [ {
        "height" : 640,
        "url" : "https://i.scdn.co/image/ab67616d0000b2736f36f617a5d6018c4e60bbd1",
        "width" : 640
      }, {
        "height" : 300,
        "url" : "https://i.scdn.co/image/ab67616d00001e026f36f617a5d6018c4e60bbd1",
        "width" : 300
      }, {
        "height" : 64,
        "url" : "https://i.scdn.co/image/ab67616d000048516f36f617a5d6018c4e60bbd1",
        "width" : 64
      } ],
      "name" : "Audio#five",
      "popularity" : 0,
      "type" : "artist",
      "uri" : "spotify:artist:15Uv84UivL7w22VMJXELef"
    }, {
      "external_urls" : {
        "spotify" : "https://open.spotify.com/artist/40jqZT44GbBBc7D5xjXdpH"
      },
      "followers" : {
        "href" : null,
        "total" : 14
      },
      "genres" : [ ],
      "href" : "https://api.spotify.com/v1/artists/40jqZT44GbBBc7D5xjXdpH",
      "id" : "40jqZT44GbBBc7D5xjXdpH",
      "images" : [ {
        "height" : 640,
        "url" : "https://i.scdn.co/image/ab67616d0000b273509a8d3262a821afa49d4a32",
        "width" : 640
      }, {
        "height" : 300,
        "url" : "https://i.scdn.co/image/ab67616d00001e02509a8d3262a821afa49d4a32",
        "width" : 300
      }, {
        "height" : 64,
        "url" : "https://i.scdn.co/image/ab67616d00004851509a8d3262a821afa49d4a32",
        "width" : 64
      } ],
      "name" : "Audio54",
      "popularity" : 0,
      "type" : "artist",
      "uri" : "spotify:artist:40jqZT44GbBBc7D5xjXdpH"
    }, {
      "external_urls" : {
        "spotify" : "https://open.spotify.com/artist/3MlbM4TwMhCy9JAhjAbeJU"
      },
      "followers" : {
        "href" : null,
        "total" : 33
      },
      "genres" : [ ],
      "href" : "https://api.spotify.com/v1/artists/3MlbM4TwMhCy9JAhjAbeJU",
      "id" : "3MlbM4TwMhCy9JAhjAbeJU",
      "images" : [ {
        "height" : 640,
        "url" : "https://i.scdn.co/image/ab6761610000e5eb8e51ef80ea7e94bbbea0d76c",
        "width" : 640
      }, {
        "height" : 320,
        "url" : "https://i.scdn.co/image/ab676161000051748e51ef80ea7e94bbbea0d76c",
        "width" : 320
      }, {
        "height" : 160,
        "url" : "https://i.scdn.co/image/ab6761610000f1788e51ef80ea7e94bbbea0d76c",
        "width" : 160
      } ],
      "name" : "AudiBoyG5",
      "popularity" : 0,
      "type" : "artist",
      "uri" : "spotify:artist:3MlbM4TwMhCy9JAhjAbeJU"
    } ],
    "limit" : 20,
    "next" : "https://api.spotify.com/v1/search?query=AU5&type=artist&market=US&offset=20&limit=20",
    "offset" : 0,
    "previous" : null,
    "total" : 58
  }
}