{
  "artists" : {
    "href" : "https://api.spotify.com/v1/search?query=COONE&type=artist&market=US&offset=0&limit=20",
    "items" : [ {
      "external_urls" : {
        "spotify" : "https://open.spotify.com/artist/1Wt63OMKtv6v2ivHuQLm2C"
      },
      "followers" : {
        "href" : null,
        "total" : 169545
      },
      "genres" : [ "belgian edm", "classic hardstyle", "euphoric hardstyle", "jumpstyle", "rawstyle" ],
      "href" : "https://api.spotify.com/v1/artists/1Wt63OMKtv6v2ivHuQLm2C",
      "id" : "1Wt63OMKtv6v2ivHuQLm2C",
      "images" : [ {
        "height" : 640,
        "url" : "https://i.scdn.co/image/ab6761610000e5eb6ec4f813ccf80dbf6925e545",
        "width" : 640
      }, {
        "height" : 320,
        "url" : "https://i.scdn.co/image/ab676161000051746ec4f813ccf80dbf6925e545",
        "width" : 320
      }, {
        "height" : 160,
        "url" : "https://i.scdn.co/image/ab6761610000f1786ec4f813ccf80dbf6925e545",
        "width" : 160
      } ],
      "name" : "Coone",
      "popularity" : 63,
      "type" : "artist",
      "uri" : "spotify:artist:1Wt63OMKtv6v2ivHuQLm2C"
    }, {
      "external_urls" : {
        "spotify" : "https://open.spotify.com/artist/74c9px24FOFK37ZVY9nYPt"
      },
      "followers" : {
        "href" : null,
        "total" : 106
      },
      "genres" : [ ],
      "href" : "https://api.spotify.com/v1/artists/74c9px24FOFK37ZVY9nYPt",
      "id" : "74c9px24FOFK37ZVY9nYPt",
      "images" : [ ],
      "name" : "Daniel Cooney",
      "popularity" : 52,
      "type" : "artist",
      "uri" : "spotify:artist:74c9px24FOFK37ZVY9nYPt"
    }, {
      "external_urls" : {
        "spotify" : "https://open.spotify.com/artist/6WA2y5DXCxYxToju4spq57"
      },
      "followers" : {
        "href" : null,
        "total" : 531
      },
      "genres" : [ "rosary" ],
      "href" : "https://api.spotify.com/v1/artists/6WA2y5DXCxYxToju4spq57",
      "id" : "6WA2y5DXCxYxToju4spq57",
      "images" : [ {
        "height" : 640,
        "url" : "https://i.scdn.co/image/ab67616d0000b27319a9ba690cee271a17434290",
        "width" : 640
      }, {
        "height" : 300,
        "url" : "https://i.scdn.co/image/ab67616d00001e0219a9ba690cee271a17434290",
        "width" : 300
      }, {
        "height" : 64,
        "url" : "https://i.scdn.co/image/ab67616d0000485119a9ba690cee271a17434290",
        "width" : 64
      } ],
      "name" : "Rory Cooney",
      "popularity" : 24,
      "type" : "artist",
      "uri" : "spotify:artist:6WA2y5DXCxYxToju4spq57"
    }, {
      "external_urls" : {
        "spotify" : "https://open.spotify.com/artist/6yxIHtLOJ4yhb8HFL6FpKZ"
      },
      "followers" : {
        "href" : null,
        "total" : 7
      },
      "genres" : [ ],
      "href" : "https://api.spotify.com/v1/artists/6yxIHtLOJ4yhb8HFL6FpKZ",
      "id" : "6yxIHtLOJ4yhb8HFL6FpKZ",
      "images" : [ {
        "height" : 640,
        "url" : "https://i.scdn.co/image/ab67616d0000b27341a2e3632d044f8000b06129",
        "width" : 640
      }, {
        "height" : 300,
        "url" : "https://i.scdn.co/image/ab67616d00001e0241a2e3632d044f8000b06129",
        "width" : 300
      }, {
        "height" : 64,
        "url" : "https://i.scdn.co/image/ab67616d0000485141a2e3632d044f8000b06129",
        "width" : 64
      } ],
      "name" : "CooneyInDaBando",
      "popularity" : 2,
      "type" : "artist",
      "uri" : "spotify:artist:6yxIHtLOJ4yhb8HFL6FpKZ"
    }, {
      "external_urls" : {
        "spotify" : "https://open.spotify.com/artist/6DQhRhyASMpxYniCVKHrrC"
      },
      "followers" : {
        "href" : null,
        "total" : 941
      },
      "genres" : [ ],
      "href" : "https://api.spotify.com/v1/artists/6DQhRhyASMpxYniCVKHrrC",
      "id" : "6DQhRhyASMpxYniCVKHrrC",
      "images" : [ {
        "height" : 640,
        "url" : "https://i.scdn.co/image/ab67616d0000b273b03ef906876892402b06b7c6",
        "width" : 640
      }, {
        "height" : 300,
        "url" : "https://i.scdn.co/image/ab67616d00001e02f49018fccd4cddb64bdb4827",
        "width" : 300
      }, {
        "height" : 64,
        "url" : "https://i.scdn.co/image/ab67616d00004851b03ef906876892402b06b7c6",
        "width" : 64
      } ],
      "name" : "Steve Cooney",
      "popularity" : 18,
      "type" : "artist",
      "uri" : "spotify:artist:6DQhRhyASMpxYniCVKHrrC"
    }, {
      "external_urls" : {
        "spotify" : "https://open.spotify.com/artist/4bLGZKuKJ0utrIP5s8Suk5"
      },
      "followers" : {
        "href" : null,
        "total" : 91
      },
      "genres" : [ ],
      "href" : "https://api.spotify.com/v1/artists/4bLGZKuKJ0utrIP5s8Suk5",
      "id" : "4bLGZKuKJ0utrIP5s8Suk5",
      "images" : [ {
        "height" : 640,
        "url" : "https://i.scdn.co/image/ab6761610000e5eb8a3a6fd418ef66d89a2d8793",
        "width" : 640
      }, {
        "height" : 320,
        "url" : "https://i.scdn.co/image/ab676161000051748a3a6fd418ef66d89a2d8793",
        "width" : 320
      }, {
        "height" : 160,
        "url" : "https://i.scdn.co/image/ab6761610000f1788a3a6fd418ef66d89a2d8793",
        "width" : 160
      } ],
      "name" : "Cooney Thatcher",
      "popularity" : 1,
      "type" : "artist",
      "uri" : "spotify:artist:4bLGZKuKJ0utrIP5s8Suk5"
    }, {
      "external_urls" : {
        "spotify" : "https://open.spotify.com/artist/5VvwWwGWFTwMJfKc3cvKkp"
      },
      "followers" : {
        "href" : null,
        "total" : 384
      },
      "genres" : [ "irish country" ],
      "href" : "https://api.spotify.com/v1/artists/5VvwWwGWFTwMJfKc3cvKkp",
      "id" : "5VvwWwGWFTwMJfKc3cvKkp",
      "images" : [ {
        "height" : 640,
        "url" : "https://i.scdn.co/image/ab67616d0000b2733ac424622f7ec798b632973a",
        "width" : 640
      }, {
        "height" : 300,
        "url" : "https://i.scdn.co/image/ab67616d00001e023ac424622f7ec798b632973a",
        "width" : 300
      }, {
        "height" : 64,
        "url" : "https://i.scdn.co/image/ab67616d000048513ac424622f7ec798b632973a",
        "width" : 64
      } ],
      "name" : "Andy Cooney",
      "popularity" : 15,
      "type" : "artist",
      "uri" : "spotify:artist:5VvwWwGWFTwMJfKc3cvKkp"
    }, {
      "external_urls" : {
        "spotify" : "https://open.spotify.com/artist/56V3z0xpyiaB877f30RCJ6"
      },
      "followers" : {
        "href" : null,
        "total" : 236
      },
      "genres" : [ "uilleann pipes" ],
      "href" : "https://api.spotify.com/v1/artists/56V3z0xpyiaB877f30RCJ6",
      "id" : "56V3z0xpyiaB877f30RCJ6",
      "images" : [ {
        "height" : 640,
        "url" : "https://i.scdn.co/image/ab67616d0000b27363b95bce7c8ef10624d083b7",
        "width" : 640
      }, {
        "height" : 300,
        "url" : "https://i.scdn.co/image/ab67616d00001e0263b95bce7c8ef10624d083b7",
        "width" : 300
      }, {
        "height" : 64,
        "url" : "https://i.scdn.co/image/ab67616d0000485163b95bce7c8ef10624d083b7",
        "width" : 64
      } ],
      "name" : "Michael Cooney",
      "popularity" : 10,
      "type" : "artist",
      "uri" : "spotify:artist:56V3z0xpyiaB877f30RCJ6"
    }, {
      "external_urls" : {
        "spotify" : "https://open.spotify.com/artist/2ExWc7YvwfpBrspK7oKqaw"
      },
      "followers" : {
        "href" : null,
        "total" : 5171
      },
      "genres" : [ "irish underground rap" ],
      "href" : "https://api.spotify.com/v1/artists/2ExWc7YvwfpBrspK7oKqaw",
      "id" : "2ExWc7YvwfpBrspK7oKqaw",
      "images" : [ {
        "height" : 640,
        "url" : "https://i.scdn.co/image/ab6761610000e5ebbbd6114d346b5690d682dca6",
        "width" : 640
      }, {
        "height" : 320,
        "url" : "https://i.scdn.co/image/ab67616100005174bbd6114d346b5690d682dca6",
        "width" : 320
      }, {
        "height" : 160,
        "url" : "https://i.scdn.co/image/ab6761610000f178bbd6114d346b5690d682dca6",
        "width" : 160
      } ],
      "name" : "Craig Cooney",
      "popularity" : 16,
      "type" : "artist",
      "uri" : "spotify:artist:2ExWc7YvwfpBrspK7oKqaw"
    }, {
      "external_urls" : {
        "spotify" : "https://open.spotify.com/artist/12F1ZEVI9Jg8PtvtW1nveg"
      },
      "followers" : {
        "href" : null,
        "total" : 11
      },
      "genres" : [ ],
      "href" : "https://api.spotify.com/v1/artists/12F1ZEVI9Jg8PtvtW1nveg",
      "id" : "12F1ZEVI9Jg8PtvtW1nveg",
      "images" : [ {
        "height" : 640,
        "url" : "https://i.scdn.co/image/ab6761610000e5ebe51e954f0b846a9602a72def",
        "width" : 640
      }, {
        "height" : 320,
        "url" : "https://i.scdn.co/image/ab67616100005174e51e954f0b846a9602a72def",
        "width" : 320
      }, {
        "height" : 160,
        "url" : "https://i.scdn.co/image/ab6761610000f178e51e954f0b846a9602a72def",
        "width" : 160
      } ],
      "name" : "Cooney",
      "popularity" : 1,
      "type" : "artist",
      "uri" : "spotify:artist:12F1ZEVI9Jg8PtvtW1nveg"
    }, {
      "external_urls" : {
        "spotify" : "https://open.spotify.com/artist/4t3OfLVb9Zw0Jk9QAiFWqp"
      },
      "followers" : {
        "href" : null,
        "total" : 4
      },
      "genres" : [ ],
      "href" : "https://api.spotify.com/v1/artists/4t3OfLVb9Zw0Jk9QAiFWqp",
      "id" : "4t3OfLVb9Zw0Jk9QAiFWqp",
      "images" : [ ],
      "name" : "Buddy Cooner",
      "popularity" : 4,
      "type" : "artist",
      "uri" : "spotify:artist:4t3OfLVb9Zw0Jk9QAiFWqp"
    }, {
      "external_urls" : {
        "spotify" : "https://open.spotify.com/artist/4vfOzrbhKxL0UrCEWu6s6N"
      },
      "followers" : {
        "href" : null,
        "total" : 24
      },
      "genres" : [ ],
      "href" : "https://api.spotify.com/v1/artists/4vfOzrbhKxL0UrCEWu6s6N",
      "id" : "4vfOzrbhKxL0UrCEWu6s6N",
      "images" : [ ],
      "name" : "Coone",
      "popularity" : 3,
      "type" : "artist",
      "uri" : "spotify:artist:4vfOzrbhKxL0UrCEWu6s6N"
    }, {
      "external_urls" : {
        "spotify" : "https://open.spotify.com/artist/1B5ZzP2d2uDBC5uZz6O7kf"
      },
      "followers" : {
        "href" : null,
        "total" : 7
      },
      "genres" : [ ],
      "href" : "https://api.spotify.com/v1/artists/1B5ZzP2d2uDBC5uZz6O7kf",
      "id" : "1B5ZzP2d2uDBC5uZz6O7kf",
      "images" : [ {
        "height" : 640,
        "url" : "https://i.scdn.co/image/ab67616d0000b273e16070252b62c9e0b89b16d1",
        "width" : 640
      }, {
        "height" : 300,
        "url" : "https://i.scdn.co/image/ab67616d00001e02e16070252b62c9e0b89b16d1",
        "width" : 300
      }, {
        "height" : 64,
        "url" : "https://i.scdn.co/image/ab67616d00004851e16070252b62c9e0b89b16d1",
        "width" : 64
      } ],
      "name" : "Claire Cooney & Rory Cooney",
      "popularity" : 0,
      "type" : "artist",
      "uri" : "spotify:artist:1B5ZzP2d2uDBC5uZz6O7kf"
    }, {
      "external_urls" : {
        "spotify" : "https://open.spotify.com/artist/0NkyXWGxE3WTFixDSJ39PK"
      },
      "followers" : {
        "href" : null,
        "total" : 109877
      },
      "genres" : [ "adult standards", "brill building pop", "easy listening", "lounge", "swing", "torch song", "vocal jazz" ],
      "href" : "https://api.spotify.com/v1/artists/0NkyXWGxE3WTFixDSJ39PK",
      "id" : "0NkyXWGxE3WTFixDSJ39PK",
      "images" : [ {
        "height" : 1133,
        "url" : "https://i.scdn.co/image/5974256cb22557291dcc9c71640bcd47a8c879d8",
        "width" : 1000
      }, {
        "height" : 725,
        "url" : "https://i.scdn.co/image/61cf45f75c5c15a8d946595abef5dd2f892a66e8",
        "width" : 640
      }, {
        "height" : 227,
        "url" : "https://i.scdn.co/image/18c5bb596b749d0ee16df2f3a56d90c38dca5b84",
        "width" : 200
      }, {
        "height" : 73,
        "url" : "https://i.scdn.co/image/54cad315e7fc222fcbbb8b0995692783f6f225c5",
        "width" : 64
      } ],
      "name" : "Rosemary Clooney",
      "popularity" : 51,
      "type" : "artist",
      "uri" : "spotify:artist:0NkyXWGxE3WTFixDSJ39PK"
    }, {
      "external_urls" : {
        "spotify" : "https://open.spotify.com/artist/2eWjvbMF22DADEMXIxkG1a"
      },
      "followers" : {
        "href" : null,
        "total" : 2
      },
      "genres" : [ ],
      "href" : "https://api.spotify.com/v1/artists/2eWjvbMF22DADEMXIxkG1a",
      "id" : "2eWjvbMF22DADEMXIxkG1a",
      "images" : [ {
        "height" : 640,
        "url" : "https://i.scdn.co/image/ab67616d0000b2737116c9d250d3317528475077",
        "width" : 640
      }, {
        "height" : 300,
        "url" : "https://i.scdn.co/image/ab67616d00001e027116c9d250d3317528475077",
        "width" : 300
      }, {
        "height" : 64,
        "url" : "https://i.scdn.co/image/ab67616d000048517116c9d250d3317528475077",
        "width" : 64
      } ],
      "name" : "Cooney",
      "popularity" : 0,
      "type" : "artist",
      "uri" : "spotify:artist:2eWjvbMF22DADEMXIxkG1a"
    }, {
      "external_urls" : {
        "spotify" : "https://open.spotify.com/artist/3BP4hml7DhOF7HQsvkagek"
      },
      "followers" : {
        "href" : null,
        "total" : 20
      },
      "genres" : [ ],
      "href" : "https://api.spotify.com/v1/artists/3BP4hml7DhOF7HQsvkagek",
      "id" : "3BP4hml7DhOF7HQsvkagek",
      "images" : [ {
        "height" : 640,
        "url" : "https://i.scdn.co/image/ab67616d0000b273683ed0c98dacd25bb20cf661",
        "width" : 640
      }, {
        "height" : 300,
        "url" : "https://i.scdn.co/image/ab67616d00001e02683ed0c98dacd25bb20cf661",
        "width" : 300
      }, {
        "height" : 64,
        "url" : "https://i.scdn.co/image/ab67616d00004851683ed0c98dacd25bb20cf661",
        "width" : 64
      } ],
      "name" : "Coone the Goone DaGr8",
      "popularity" : 0,
      "type" : "artist",
      "uri" : "spotify:artist:3BP4hml7DhOF7HQsvkagek"
    }, {
      "external_urls" : {
        "spotify" : "https://open.spotify.com/artist/7gcv6pJApkYgr3X5oS9qo7"
      },
      "followers" : {
        "href" : null,
        "total" : 0
      },
      "genres" : [ ],
      "href" : "https://api.spotify.com/v1/artists/7gcv6pJApkYgr3X5oS9qo7",
      "id" : "7gcv6pJApkYgr3X5oS9qo7",
      "images" : [ ],
      "name" : "Cooneja",
      "popularity" : 0,
      "type" : "artist",
      "uri" : "spotify:artist:7gcv6pJApkYgr3X5oS9qo7"
    }, {
      "external_urls" : {
        "spotify" : "https://open.spotify.com/artist/4WQnA751TE2XEYrg1qLh0O"
      },
      "followers" : {
        "href" : null,
        "total" : 2538
      },
      "genres" : [ "jumpstyle" ],
      "href" : "https://api.spotify.com/v1/artists/4WQnA751TE2XEYrg1qLh0O",
      "id" : "4WQnA751TE2XEYrg1qLh0O",
      "images" : [ ],
      "name" : "DJ Coone",
      "popularity" : 23,
      "type" : "artist",
      "uri" : "spotify:artist:4WQnA751TE2XEYrg1qLh0O"
    }, {
      "external_urls" : {
        "spotify" : "https://open.spotify.com/artist/2seGZWU440QxJGLterLIK5"
      },
      "followers" : {
        "href" : null,
        "total" : 4
      },
      "genres" : [ ],
      "href" : "https://api.spotify.com/v1/artists/2seGZWU440QxJGLterLIK5",
      "id" : "2seGZWU440QxJGLterLIK5",
      "images" : [ {
        "height" : 640,
        "url" : "https://i.scdn.co/image/ab67616d0000b2738480faa8b09e4a574c254dd4",
        "width" : 640
      }, {
        "height" : 300,
        "url" : "https://i.scdn.co/image/ab67616d00001e028480faa8b09e4a574c254dd4",
        "width" : 300
      }, {
        "height" : 64,
        "url" : "https://i.scdn.co/image/ab67616d000048518480faa8b09e4a574c254dd4",
        "width" : 64
      } ],
      "name" : "Coonen",
      "popularity" : 0,
      "type" : "artist",
      "uri" : "spotify:artist:2seGZWU440QxJGLterLIK5"
    }, {
      "external_urls" : {
        "spotify" : "https://open.spotify.com/artist/0Dcnt0X264nPLHDYX1HkO3"
      },
      "followers" : {
        "href" : null,
        "total" : 4
      },
      "genres" : [ ],
      "href" : "https://api.spotify.com/v1/artists/0Dcnt0X264nPLHDYX1HkO3",
      "id" : "0Dcnt0X264nPLHDYX1HkO3",
      "images" : [ {
        "height" : 640,
        "url" : "https://i.scdn.co/image/ab6761610000e5ebd1225687bee2e02928f02063",
        "width" : 640
      }, {
        "height" : 320,
        "url" : "https://i.scdn.co/image/ab67616100005174d1225687bee2e02928f02063",
        "width" : 320
      }, {
        "height" : 160,
        "url" : "https://i.scdn.co/image/ab6761610000f178d1225687bee2e02928f02063",
        "width" : 160
      } ],
      "name" : "Cooney",
      "popularity" : 0,
      "type" : "artist",
      "uri" : "spotify:artist:0Dcnt0X264nPLHDYX1HkO3"
    } ],
    "limit" : 20,
    "next" : "https://api.spotify.com/v1/search?query=COONE&type=artist&market=US&offset=20&limit=20",
    "offset" : 0,
    "previous" : null,
    "total" : 112
  }
}