{
  "artists" : {
    "href" : "https://api.spotify.com/v1/search?query=DIESEL&type=artist&market=US&offset=0&limit=20",
    "items" : [ {
      "external_urls" : {
        "spotify" : "https://open.spotify.com/artist/6byCVLbgOawjt1RStMyJWn"
      },
      "followers" : {
        "href" : null,
        "total" : 3120
      },
      "genres" : [ "basshall" ],
      "href" : "https://api.spotify.com/v1/artists/6byCVLbgOawjt1RStMyJWn",
      "id" : "6byCVLbgOawjt1RStMyJWn",
      "images" : [ {
        "height" : 640,
        "url" : "https://i.scdn.co/image/ab67616d0000b27373320edbb8669ee02da78d07",
        "width" : 640
      }, {
        "height" : 300,
        "url" : "https://i.scdn.co/image/ab67616d00001e0273320edbb8669ee02da78d07",
        "width" : 300
      }, {
        "height" : 64,
        "url" : "https://i.scdn.co/image/ab67616d0000485173320edbb8669ee02da78d07",
        "width" : 64
      } ],
      "name" : "Diesel",
      "popularity" : 35,
      "type" : "artist",
      "uri" : "spotify:artist:6byCVLbgOawjt1RStMyJWn"
    }, {
      "external_urls" : {
        "spotify" : "https://open.spotify.com/artist/3dtkct6MUrKfxCUWLgnGAD"
      },
      "followers" : {
        "href" : null,
        "total" : 17708
      },
      "genres" : [ ],
      "href" : "https://api.spotify.com/v1/artists/3dtkct6MUrKfxCUWLgnGAD",
      "id" : "3dtkct6MUrKfxCUWLgnGAD",
      "images" : [ {
        "height" : 640,
        "url" : "https://i.scdn.co/image/ab6761610000e5ebb5cde2a263dc7986a8eec140",
        "width" : 640
      }, {
        "height" : 320,
        "url" : "https://i.scdn.co/image/ab67616100005174b5cde2a263dc7986a8eec140",
        "width" : 320
      }, {
        "height" : 160,
        "url" : "https://i.scdn.co/image/ab6761610000f178b5cde2a263dc7986a8eec140",
        "width" : 160
      } ],
      "name" : "Vin Diesel",
      "popularity" : 45,
      "type" : "artist",
      "uri" : "spotify:artist:3dtkct6MUrKfxCUWLgnGAD"
    }, {
      "external_urls" : {
        "spotify" : "https://open.spotify.com/artist/4wTgto2eauupLwUCQ59vLK"
      },
      "followers" : {
        "href" : null,
        "total" : 2
      },
      "genres" : [ ],
      "href" : "https://api.spotify.com/v1/artists/4wTgto2eauupLwUCQ59vLK",
      "id" : "4wTgto2eauupLwUCQ59vLK",
      "images" : [ {
        "height" : 640,
        "url" : "https://i.scdn.co/image/ab67616d0000b273c266b5e7c01cecf167352364",
        "width" : 640
      }, {
        "height" : 300,
        "url" : "https://i.scdn.co/image/ab67616d00001e02c266b5e7c01cecf167352364",
        "width" : 300
      }, {
        "height" : 64,
        "url" : "https://i.scdn.co/image/ab67616d00004851c266b5e7c01cecf167352364",
        "width" : 64
      } ],
      "name" : "DIESEL",
      "popularity" : 0,
      "type" : "artist",
      "uri" : "spotify:artist:4wTgto2eauupLwUCQ59vLK"
    }, {
      "external_urls" : {
        "spotify" : "https://open.spotify.com/artist/2CglKkBzoKcAjFjxp0hBZM"
      },
      "followers" : {
        "href" : null,
        "total" : 73
      },
      "genres" : [ ],
      "href" : "https://api.spotify.com/v1/artists/2CglKkBzoKcAjFjxp0hBZM",
      "id" : "2CglKkBzoKcAjFjxp0hBZM",
      "images" : [ {
        "height" : 640,
        "url" : "https://i.scdn.co/image/ab6761610000e5eb80c67c728531dfa9fed33312",
        "width" : 640
      }, {
        "height" : 320,
        "url" : "https://i.scdn.co/image/ab6761610000517480c67c728531dfa9fed33312",
        "width" : 320
      }, {
        "height" : 160,
        "url" : "https://i.scdn.co/image/ab6761610000f17880c67c728531dfa9fed33312",
        "width" : 160
      } ],
      "name" : "DieselDonlow",
      "popularity" : 28,
      "type" : "artist",
      "uri" : "spotify:artist:2CglKkBzoKcAjFjxp0hBZM"
    }, {
      "external_urls" : {
        "spotify" : "https://open.spotify.com/artist/6ioTAQZBmrqOErz48ks1Ey"
      },
      "followers" : {
        "href" : null,
        "total" : 1300
      },
      "genres" : [ ],
      "href" : "https://api.spotify.com/v1/artists/6ioTAQZBmrqOErz48ks1Ey",
      "id" : "6ioTAQZBmrqOErz48ks1Ey",
      "images" : [ {
        "height" : 640,
        "url" : "https://i.scdn.co/image/ab6761610000e5eb5e9b964fd194dcf599f22c88",
        "width" : 640
      }, {
        "height" : 320,
        "url" : "https://i.scdn.co/image/ab676161000051745e9b964fd194dcf599f22c88",
        "width" : 320
      }, {
        "height" : 160,
        "url" : "https://i.scdn.co/image/ab6761610000f1785e9b964fd194dcf599f22c88",
        "width" : 160
      } ],
      "name" : "Quadie Diesel",
      "popularity" : 35,
      "type" : "artist",
      "uri" : "spotify:artist:6ioTAQZBmrqOErz48ks1Ey"
    }, {
      "external_urls" : {
        "spotify" : "https://open.spotify.com/artist/2agAYKDv3WcwXt4nKmDThj"
      },
      "followers" : {
        "href" : null,
        "total" : 18532
      },
      "genres" : [ "melodic hardcore", "skate punk" ],
      "href" : "https://api.spotify.com/v1/artists/2agAYKDv3WcwXt4nKmDThj",
      "id" : "2agAYKDv3WcwXt4nKmDThj",
      "images" : [ {
        "height" : 800,
        "url" : "https://i.scdn.co/image/a425b4116e486fa05d755fa34e8a9e9ebedcbd13",
        "width" : 800
      }, {
        "height" : 640,
        "url" : "https://i.scdn.co/image/53d6556aa7ac37681751c9286891d39feb0e0b76",
        "width" : 640
      }, {
        "height" : 200,
        "url" : "https://i.scdn.co/image/85a815688f5005a3e0221c84face7d841da3fb6a",
        "width" : 200
      }, {
        "height" : 64,
        "url" : "https://i.scdn.co/image/05237e5fe9d5e9df985f9e139871f5792982eb50",
        "width" : 64
      } ],
      "name" : "Diesel Boy",
      "popularity" : 32,
      "type" : "artist",
      "uri" : "spotify:artist:2agAYKDv3WcwXt4nKmDThj"
    }, {
      "external_urls" : {
        "spotify" : "https://open.spotify.com/artist/75hI0WZzbh6YlIQUv7yFw3"
      },
      "followers" : {
        "href" : null,
        "total" : 0
      },
      "genres" : [ ],
      "href" : "https://api.spotify.com/v1/artists/75hI0WZzbh6YlIQUv7yFw3",
      "id" : "75hI0WZzbh6YlIQUv7yFw3",
      "images" : [ ],
      "name" : "DIESEL",
      "popularity" : 0,
      "type" : "artist",
      "uri" : "spotify:artist:75hI0WZzbh6YlIQUv7yFw3"
    }, {
      "external_urls" : {
        "spotify" : "https://open.spotify.com/artist/3eqpqMxtBGLjalyirPxJe3"
      },
      "followers" : {
        "href" : null,
        "total" : 21459
      },
      "genres" : [ "drum and bass", "neurofunk", "stateside dnb" ],
      "href" : "https://api.spotify.com/v1/artists/3eqpqMxtBGLjalyirPxJe3",
      "id" : "3eqpqMxtBGLjalyirPxJe3",
      "images" : [ {
        "height" : 640,
        "url" : "https://i.scdn.co/image/ab6761610000e5eb041674436b66651e75aab345",
        "width" : 640
      }, {
        "height" : 320,
        "url" : "https://i.scdn.co/image/ab67616100005174041674436b66651e75aab345",
        "width" : 320
      }, {
        "height" : 160,
        "url" : "https://i.scdn.co/image/ab6761610000f178041674436b66651e75aab345",
        "width" : 160
      } ],
      "name" : "Dieselboy",
      "popularity" : 27,
      "type" : "artist",
      "uri" : "spotify:artist:3eqpqMxtBGLjalyirPxJe3"
    }, {
      "external_urls" : {
        "spotify" : "https://open.spotify.com/artist/7uwyZdDFkokMJutXbnv9ZF"
      },
      "followers" : {
        "href" : null,
        "total" : 76
      },
      "genres" : [ ],
      "href" : "https://api.spotify.com/v1/artists/7uwyZdDFkokMJutXbnv9ZF",
      "id" : "7uwyZdDFkokMJutXbnv9ZF",
      "images" : [ {
        "height" : 640,
        "url" : "https://i.scdn.co/image/ab67616d0000b273c6a5fbb5779726a90c8663c6",
        "width" : 640
      }, {
        "height" : 300,
        "url" : "https://i.scdn.co/image/ab67616d00001e02c6a5fbb5779726a90c8663c6",
        "width" : 300
      }, {
        "height" : 64,
        "url" : "https://i.scdn.co/image/ab67616d00004851c6a5fbb5779726a90c8663c6",
        "width" : 64
      } ],
      "name" : "Shaq Diesel",
      "popularity" : 29,
      "type" : "artist",
      "uri" : "spotify:artist:7uwyZdDFkokMJutXbnv9ZF"
    }, {
      "external_urls" : {
        "spotify" : "https://open.spotify.com/artist/78Xw6WiwFsI8zGsPPBEuEr"
      },
      "followers" : {
        "href" : null,
        "total" : 2
      },
      "genres" : [ ],
      "href" : "https://api.spotify.com/v1/artists/78Xw6WiwFsI8zGsPPBEuEr",
      "id" : "78Xw6WiwFsI8zGsPPBEuEr",
      "images" : [ {
        "height" : 640,
        "url" : "https://i.scdn.co/image/ab67616d0000b273aa50f792496a7c9d64aa21bd",
        "width" : 640
      }, {
        "height" : 300,
        "url" : "https://i.scdn.co/image/ab67616d00001e02aa50f792496a7c9d64aa21bd",
        "width" : 300
      }, {
        "height" : 64,
        "url" : "https://i.scdn.co/image/ab67616d00004851aa50f792496a7c9d64aa21bd",
        "width" : 64
      } ],
      "name" : "DIESEL",
      "popularity" : 0,
      "type" : "artist",
      "uri" : "spotify:artist:78Xw6WiwFsI8zGsPPBEuEr"
    }, {
      "external_urls" : {
        "spotify" : "https://open.spotify.com/artist/4rCLXPaqaUjGa1aHDwkviR"
      },
      "followers" : {
        "href" : null,
        "total" : 50457
      },
      "genres" : [ "australian alternative rock", "australian pop", "australian rock" ],
      "href" : "https://api.spotify.com/v1/artists/4rCLXPaqaUjGa1aHDwkviR",
      "id" : "4rCLXPaqaUjGa1aHDwkviR",
      "images" : [ {
        "height" : 640,
        "url" : "https://i.scdn.co/image/ab6761610000e5ebb469ee53415be7fb33452cf0",
        "width" : 640
      }, {
        "height" : 320,
        "url" : "https://i.scdn.co/image/ab67616100005174b469ee53415be7fb33452cf0",
        "width" : 320
      }, {
        "height" : 160,
        "url" : "https://i.scdn.co/image/ab6761610000f178b469ee53415be7fb33452cf0",
        "width" : 160
      } ],
      "name" : "Diesel",
      "popularity" : 48,
      "type" : "artist",
      "uri" : "spotify:artist:4rCLXPaqaUjGa1aHDwkviR"
    }, {
      "external_urls" : {
        "spotify" : "https://open.spotify.com/artist/6Q85e4kFA35xrmH5k1NDCO"
      },
      "followers" : {
        "href" : null,
        "total" : 297
      },
      "genres" : [ ],
      "href" : "https://api.spotify.com/v1/artists/6Q85e4kFA35xrmH5k1NDCO",
      "id" : "6Q85e4kFA35xrmH5k1NDCO",
      "images" : [ {
        "height" : 640,
        "url" : "https://i.scdn.co/image/ab6761610000e5ebf40dafcbdf3da1ab04ba644e",
        "width" : 640
      }, {
        "height" : 320,
        "url" : "https://i.scdn.co/image/ab67616100005174f40dafcbdf3da1ab04ba644e",
        "width" : 320
      }, {
        "height" : 160,
        "url" : "https://i.scdn.co/image/ab6761610000f178f40dafcbdf3da1ab04ba644e",
        "width" : 160
      } ],
      "name" : "Slim Diesel",
      "popularity" : 30,
      "type" : "artist",
      "uri" : "spotify:artist:6Q85e4kFA35xrmH5k1NDCO"
    }, {
      "external_urls" : {
        "spotify" : "https://open.spotify.com/artist/4Iip40BKV2Wz5n0pfyNxad"
      },
      "followers" : {
        "href" : null,
        "total" : 103
      },
      "genres" : [ ],
      "href" : "https://api.spotify.com/v1/artists/4Iip40BKV2Wz5n0pfyNxad",
      "id" : "4Iip40BKV2Wz5n0pfyNxad",
      "images" : [ {
        "height" : 640,
        "url" : "https://i.scdn.co/image/ab67616d0000b2738c5af685db173c8c309d03c8",
        "width" : 640
      }, {
        "height" : 300,
        "url" : "https://i.scdn.co/image/ab67616d00001e028c5af685db173c8c309d03c8",
        "width" : 300
      }, {
        "height" : 64,
        "url" : "https://i.scdn.co/image/ab67616d000048518c5af685db173c8c309d03c8",
        "width" : 64
      } ],
      "name" : "Diesel",
      "popularity" : 39,
      "type" : "artist",
      "uri" : "spotify:artist:4Iip40BKV2Wz5n0pfyNxad"
    }, {
      "external_urls" : {
        "spotify" : "https://open.spotify.com/artist/3kI4xu4I5HW6a3h1n8UTE1"
      },
      "followers" : {
        "href" : null,
        "total" : 8659
      },
      "genres" : [ ],
      "href" : "https://api.spotify.com/v1/artists/3kI4xu4I5HW6a3h1n8UTE1",
      "id" : "3kI4xu4I5HW6a3h1n8UTE1",
      "images" : [ {
        "height" : 640,
        "url" : "https://i.scdn.co/image/ab6761610000e5eb9a573ff9368de472c5cbaf8f",
        "width" : 640
      }, {
        "height" : 320,
        "url" : "https://i.scdn.co/image/ab676161000051749a573ff9368de472c5cbaf8f",
        "width" : 320
      }, {
        "height" : 160,
        "url" : "https://i.scdn.co/image/ab6761610000f1789a573ff9368de472c5cbaf8f",
        "width" : 160
      } ],
      "name" : "Diesel Slaughter",
      "popularity" : 21,
      "type" : "artist",
      "uri" : "spotify:artist:3kI4xu4I5HW6a3h1n8UTE1"
    }, {
      "external_urls" : {
        "spotify" : "https://open.spotify.com/artist/6B8nU8hpONPJN5acoiI0kK"
      },
      "followers" : {
        "href" : null,
        "total" : 988
      },
      "genres" : [ "wu fam" ],
      "href" : "https://api.spotify.com/v1/artists/6B8nU8hpONPJN5acoiI0kK",
      "id" : "6B8nU8hpONPJN5acoiI0kK",
      "images" : [ {
        "height" : 640,
        "url" : "https://i.scdn.co/image/ab67616d0000b2732a435779423591e2845196bc",
        "width" : 640
      }, {
        "height" : 300,
        "url" : "https://i.scdn.co/image/ab67616d00001e022a435779423591e2845196bc",
        "width" : 300
      }, {
        "height" : 64,
        "url" : "https://i.scdn.co/image/ab67616d000048512a435779423591e2845196bc",
        "width" : 64
      } ],
      "name" : "Trife Diesel",
      "popularity" : 31,
      "type" : "artist",
      "uri" : "spotify:artist:6B8nU8hpONPJN5acoiI0kK"
    }, {
      "external_urls" : {
        "spotify" : "https://open.spotify.com/artist/5rUbUsiHSY0ZLZ9CRNpb5V"
      },
      "followers" : {
        "href" : null,
        "total" : 764
      },
      "genres" : [ ],
      "href" : "https://api.spotify.com/v1/artists/5rUbUsiHSY0ZLZ9CRNpb5V",
      "id" : "5rUbUsiHSY0ZLZ9CRNpb5V",
      "images" : [ {
        "height" : 640,
        "url" : "https://i.scdn.co/image/ab67616d0000b273857ee43b07584409aeca7067",
        "width" : 640
      }, {
        "height" : 300,
        "url" : "https://i.scdn.co/image/ab67616d00001e02857ee43b07584409aeca7067",
        "width" : 300
      }, {
        "height" : 64,
        "url" : "https://i.scdn.co/image/ab67616d00004851857ee43b07584409aeca7067",
        "width" : 64
      } ],
      "name" : "Dieselboy + Kaos",
      "popularity" : 29,
      "type" : "artist",
      "uri" : "spotify:artist:5rUbUsiHSY0ZLZ9CRNpb5V"
    }, {
      "external_urls" : {
        "spotify" : "https://open.spotify.com/artist/2Wo5oaP19W1SpOtkY8Rxof"
      },
      "followers" : {
        "href" : null,
        "total" : 830
      },
      "genres" : [ ],
      "href" : "https://api.spotify.com/v1/artists/2Wo5oaP19W1SpOtkY8Rxof",
      "id" : "2Wo5oaP19W1SpOtkY8Rxof",
      "images" : [ {
        "height" : 640,
        "url" : "https://i.scdn.co/image/ab6761610000e5ebc429a405be2b8cb18b82989f",
        "width" : 640
      }, {
        "height" : 320,
        "url" : "https://i.scdn.co/image/ab67616100005174c429a405be2b8cb18b82989f",
        "width" : 320
      }, {
        "height" : 160,
        "url" : "https://i.scdn.co/image/ab6761610000f178c429a405be2b8cb18b82989f",
        "width" : 160
      } ],
      "name" : "NickyDiesel",
      "popularity" : 32,
      "type" : "artist",
      "uri" : "spotify:artist:2Wo5oaP19W1SpOtkY8Rxof"
    }, {
      "external_urls" : {
        "spotify" : "https://open.spotify.com/artist/0iqZCDKS1MYQexNwlm0GdG"
      },
      "followers" : {
        "href" : null,
        "total" : 6016
      },
      "genres" : [ ],
      "href" : "https://api.spotify.com/v1/artists/0iqZCDKS1MYQexNwlm0GdG",
      "id" : "0iqZCDKS1MYQexNwlm0GdG",
      "images" : [ {
        "height" : 640,
        "url" : "https://i.scdn.co/image/ab6761610000e5eb33bddb193873383fa2ed06ef",
        "width" : 640
      }, {
        "height" : 320,
        "url" : "https://i.scdn.co/image/ab6761610000517433bddb193873383fa2ed06ef",
        "width" : 320
      }, {
        "height" : 160,
        "url" : "https://i.scdn.co/image/ab6761610000f17833bddb193873383fa2ed06ef",
        "width" : 160
      } ],
      "name" : "Diesel Hampton",
      "popularity" : 22,
      "type" : "artist",
      "uri" : "spotify:artist:0iqZCDKS1MYQexNwlm0GdG"
    }, {
      "external_urls" : {
        "spotify" : "https://open.spotify.com/artist/2IkLiKic83trGEEXgLjsDC"
      },
      "followers" : {
        "href" : null,
        "total" : 271
      },
      "genres" : [ ],
      "href" : "https://api.spotify.com/v1/artists/2IkLiKic83trGEEXgLjsDC",
      "id" : "2IkLiKic83trGEEXgLjsDC",
      "images" : [ {
        "height" : 640,
        "url" : "https://i.scdn.co/image/ab6761610000e5eb29424ab690f72c2847c79268",
        "width" : 640
      }, {
        "height" : 320,
        "url" : "https://i.scdn.co/image/ab6761610000517429424ab690f72c2847c79268",
        "width" : 320
      }, {
        "height" : 160,
        "url" : "https://i.scdn.co/image/ab6761610000f17829424ab690f72c2847c79268",
        "width" : 160
      } ],
      "name" : "SQ Diesel",
      "popularity" : 41,
      "type" : "artist",
      "uri" : "spotify:artist:2IkLiKic83trGEEXgLjsDC"
    }, {
      "external_urls" : {
        "spotify" : "https://open.spotify.com/artist/6WUoSwixzrM4xfmkHvyUpk"
      },
      "followers" : {
        "href" : null,
        "total" : 2572
      },
      "genres" : [ "francoton" ],
      "href" : "https://api.spotify.com/v1/artists/6WUoSwixzrM4xfmkHvyUpk",
      "id" : "6WUoSwixzrM4xfmkHvyUpk",
      "images" : [ {
        "height" : 640,
        "url" : "https://i.scdn.co/image/ab67616d0000b27373000d98314f0299aa202e99",
        "width" : 640
      }, {
        "height" : 300,
        "url" : "https://i.scdn.co/image/ab67616d00001e0273000d98314f0299aa202e99",
        "width" : 300
      }, {
        "height" : 64,
        "url" : "https://i.scdn.co/image/ab67616d0000485173000d98314f0299aa202e99",
        "width" : 64
      } ],
      "name" : "Dieselle",
      "popularity" : 42,
      "type" : "artist",
      "uri" : "spotify:artist:6WUoSwixzrM4xfmkHvyUpk"
    } ],
    "limit" : 20,
    "next" : "https://api.spotify.com/v1/search?query=DIESEL&type=artist&market=US&offset=20&limit=20",
    "offset" : 0,
    "previous" : null,
    "total" : 767
  }
}