{
  "artists" : {
    "href" : "https://api.spotify.com/v1/search?query=DJ+SNAKE&type=artist&market=US&offset=0&limit=20",
    "items" : [ {
      "external_urls" : {
        "spotify" : "https://open.spotify.com/artist/540vIaP2JwjQb9dm3aArA4"
      },
      "followers" : {
        "href" : null,
        "total" : 7727596
      },
      "genres" : [ "dance pop", "edm", "electronic trap", "pop", "pop dance", "pop rap" ],
      "href" : "https://api.spotify.com/v1/artists/540vIaP2JwjQb9dm3aArA4",
      "id" : "540vIaP2JwjQb9dm3aArA4",
      "images" : [ {
        "height" : 640,
        "url" : "https://i.scdn.co/image/ab6761610000e5ebf2855e25f1d9c8a20bcc85ae",
        "width" : 640
      }, {
        "height" : 320,
        "url" : "https://i.scdn.co/image/ab67616100005174f2855e25f1d9c8a20bcc85ae",
        "width" : 320
      }, {
        "height" : 160,
        "url" : "https://i.scdn.co/image/ab6761610000f178f2855e25f1d9c8a20bcc85ae",
        "width" : 160
      } ],
      "name" : "DJ Snake",
      "popularity" : 82,
      "type" : "artist",
      "uri" : "spotify:artist:540vIaP2JwjQb9dm3aArA4"
    }, {
      "external_urls" : {
        "spotify" : "https://open.spotify.com/artist/08D4g5qIkSY71Y6IEbsNLd"
      },
      "followers" : {
        "href" : null,
        "total" : 531
      },
      "genres" : [ ],
      "href" : "https://api.spotify.com/v1/artists/08D4g5qIkSY71Y6IEbsNLd",
      "id" : "08D4g5qIkSY71Y6IEbsNLd",
      "images" : [ {
        "height" : 640,
        "url" : "https://i.scdn.co/image/ab67616d0000b27319a38db3579e55963a9008bf",
        "width" : 640
      }, {
        "height" : 300,
        "url" : "https://i.scdn.co/image/ab67616d00001e0219a38db3579e55963a9008bf",
        "width" : 300
      }, {
        "height" : 64,
        "url" : "https://i.scdn.co/image/ab67616d0000485119a38db3579e55963a9008bf",
        "width" : 64
      } ],
      "name" : "DJ Snake Machine",
      "popularity" : 11,
      "type" : "artist",
      "uri" : "spotify:artist:08D4g5qIkSY71Y6IEbsNLd"
    }, {
      "external_urls" : {
        "spotify" : "https://open.spotify.com/artist/3KgEwiy1phnU3RQo6IHplZ"
      },
      "followers" : {
        "href" : null,
        "total" : 3091
      },
      "genres" : [ ],
      "href" : "https://api.spotify.com/v1/artists/3KgEwiy1phnU3RQo6IHplZ",
      "id" : "3KgEwiy1phnU3RQo6IHplZ",
      "images" : [ {
        "height" : 640,
        "url" : "https://i.scdn.co/image/ab67616d0000b273c308646c1a18d00803e700cc",
        "width" : 640
      }, {
        "height" : 300,
        "url" : "https://i.scdn.co/image/ab67616d00001e02c308646c1a18d00803e700cc",
        "width" : 300
      }, {
        "height" : 64,
        "url" : "https://i.scdn.co/image/ab67616d00004851c308646c1a18d00803e700cc",
        "width" : 64
      } ],
      "name" : "DJ Snake",
      "popularity" : 12,
      "type" : "artist",
      "uri" : "spotify:artist:3KgEwiy1phnU3RQo6IHplZ"
    }, {
      "external_urls" : {
        "spotify" : "https://open.spotify.com/artist/50LhxbvjP64wVj5zYcwlRK"
      },
      "followers" : {
        "href" : null,
        "total" : 64
      },
      "genres" : [ ],
      "href" : "https://api.spotify.com/v1/artists/50LhxbvjP64wVj5zYcwlRK",
      "id" : "50LhxbvjP64wVj5zYcwlRK",
      "images" : [ {
        "height" : 640,
        "url" : "https://i.scdn.co/image/ab67616d0000b2736bb3b17cf75c18239c3468dd",
        "width" : 640
      }, {
        "height" : 300,
        "url" : "https://i.scdn.co/image/ab67616d00001e026bb3b17cf75c18239c3468dd",
        "width" : 300
      }, {
        "height" : 64,
        "url" : "https://i.scdn.co/image/ab67616d000048516bb3b17cf75c18239c3468dd",
        "width" : 64
      } ],
      "name" : "Dj Snake Haiti",
      "popularity" : 6,
      "type" : "artist",
      "uri" : "spotify:artist:50LhxbvjP64wVj5zYcwlRK"
    }, {
      "external_urls" : {
        "spotify" : "https://open.spotify.com/artist/37Whw4C8AvrtIhjj2TLM1o"
      },
      "followers" : {
        "href" : null,
        "total" : 788
      },
      "genres" : [ ],
      "href" : "https://api.spotify.com/v1/artists/37Whw4C8AvrtIhjj2TLM1o",
      "id" : "37Whw4C8AvrtIhjj2TLM1o",
      "images" : [ {
        "height" : 640,
        "url" : "https://i.scdn.co/image/ab6761610000e5eb29c70044451f49347c1d38b8",
        "width" : 640
      }, {
        "height" : 320,
        "url" : "https://i.scdn.co/image/ab6761610000517429c70044451f49347c1d38b8",
        "width" : 320
      }, {
        "height" : 160,
        "url" : "https://i.scdn.co/image/ab6761610000f17829c70044451f49347c1d38b8",
        "width" : 160
      } ],
      "name" : "Dj Snakes",
      "popularity" : 15,
      "type" : "artist",
      "uri" : "spotify:artist:37Whw4C8AvrtIhjj2TLM1o"
    }, {
      "external_urls" : {
        "spotify" : "https://open.spotify.com/artist/1RhTKNzEkwJVkHkPUiuAbE"
      },
      "followers" : {
        "href" : null,
        "total" : 1
      },
      "genres" : [ ],
      "href" : "https://api.spotify.com/v1/artists/1RhTKNzEkwJVkHkPUiuAbE",
      "id" : "1RhTKNzEkwJVkHkPUiuAbE",
      "images" : [ ],
      "name" : "DJ SNAKEZ",
      "popularity" : 0,
      "type" : "artist",
      "uri" : "spotify:artist:1RhTKNzEkwJVkHkPUiuAbE"
    }, {
      "external_urls" : {
        "spotify" : "https://open.spotify.com/artist/3ckkbvcbaJ6QnqmHGPaX6b"
      },
      "followers" : {
        "href" : null,
        "total" : 793
      },
      "genres" : [ ],
      "href" : "https://api.spotify.com/v1/artists/3ckkbvcbaJ6QnqmHGPaX6b",
      "id" : "3ckkbvcbaJ6QnqmHGPaX6b",
      "images" : [ {
        "height" : 640,
        "url" : "https://i.scdn.co/image/ab67616d0000b2738b0e80e21f60a7d948b1729a",
        "width" : 640
      }, {
        "height" : 300,
        "url" : "https://i.scdn.co/image/ab67616d00001e028b0e80e21f60a7d948b1729a",
        "width" : 300
      }, {
        "height" : 64,
        "url" : "https://i.scdn.co/image/ab67616d000048518b0e80e21f60a7d948b1729a",
        "width" : 64
      } ],
      "name" : "DJ Snake",
      "popularity" : 0,
      "type" : "artist",
      "uri" : "spotify:artist:3ckkbvcbaJ6QnqmHGPaX6b"
    }, {
      "external_urls" : {
        "spotify" : "https://open.spotify.com/artist/1yUxRSNCMuJahByl1J7ivE"
      },
      "followers" : {
        "href" : null,
        "total" : 1165
      },
      "genres" : [ ],
      "href" : "https://api.spotify.com/v1/artists/1yUxRSNCMuJahByl1J7ivE",
      "id" : "1yUxRSNCMuJahByl1J7ivE",
      "images" : [ {
        "height" : 640,
        "url" : "https://i.scdn.co/image/ab67616d0000b273b1fa7bfe465bd6165073b0c2",
        "width" : 640
      }, {
        "height" : 300,
        "url" : "https://i.scdn.co/image/ab67616d00001e02b1fa7bfe465bd6165073b0c2",
        "width" : 300
      }, {
        "height" : 64,
        "url" : "https://i.scdn.co/image/ab67616d00004851b1fa7bfe465bd6165073b0c2",
        "width" : 64
      } ],
      "name" : "DJ Snake",
      "popularity" : 0,
      "type" : "artist",
      "uri" : "spotify:artist:1yUxRSNCMuJahByl1J7ivE"
    }, {
      "external_urls" : {
        "spotify" : "https://open.spotify.com/artist/4gs9IYYVbvrR6Ej0ct8TOF"
      },
      "followers" : {
        "href" : null,
        "total" : 10
      },
      "genres" : [ ],
      "href" : "https://api.spotify.com/v1/artists/4gs9IYYVbvrR6Ej0ct8TOF",
      "id" : "4gs9IYYVbvrR6Ej0ct8TOF",
      "images" : [ {
        "height" : 640,
        "url" : "https://i.scdn.co/image/ab67616d0000b2736b042d1f7452bc9fa094f802",
        "width" : 640
      }, {
        "height" : 300,
        "url" : "https://i.scdn.co/image/ab67616d00001e026b042d1f7452bc9fa094f802",
        "width" : 300
      }, {
        "height" : 64,
        "url" : "https://i.scdn.co/image/ab67616d000048516b042d1f7452bc9fa094f802",
        "width" : 64
      } ],
      "name" : "DJ Snakey",
      "popularity" : 0,
      "type" : "artist",
      "uri" : "spotify:artist:4gs9IYYVbvrR6Ej0ct8TOF"
    }, {
      "external_urls" : {
        "spotify" : "https://open.spotify.com/artist/3P0gfsCkMqJWBsfXU1rkvK"
      },
      "followers" : {
        "href" : null,
        "total" : 21
      },
      "genres" : [ ],
      "href" : "https://api.spotify.com/v1/artists/3P0gfsCkMqJWBsfXU1rkvK",
      "id" : "3P0gfsCkMqJWBsfXU1rkvK",
      "images" : [ ],
      "name" : "Dj Snakeline",
      "popularity" : 0,
      "type" : "artist",
      "uri" : "spotify:artist:3P0gfsCkMqJWBsfXU1rkvK"
    }, {
      "external_urls" : {
        "spotify" : "https://open.spotify.com/artist/1ZUuxTmFDG4Kz0QPAVsaRn"
      },
      "followers" : {
        "href" : null,
        "total" : 157
      },
      "genres" : [ ],
      "href" : "https://api.spotify.com/v1/artists/1ZUuxTmFDG4Kz0QPAVsaRn",
      "id" : "1ZUuxTmFDG4Kz0QPAVsaRn",
      "images" : [ ],
      "name" : "DJ Snakes",
      "popularity" : 0,
      "type" : "artist",
      "uri" : "spotify:artist:1ZUuxTmFDG4Kz0QPAVsaRn"
    }, {
      "external_urls" : {
        "spotify" : "https://open.spotify.com/artist/3hlLIAMtz957FH2JxoxUEF"
      },
      "followers" : {
        "href" : null,
        "total" : 9
      },
      "genres" : [ ],
      "href" : "https://api.spotify.com/v1/artists/3hlLIAMtz957FH2JxoxUEF",
      "id" : "3hlLIAMtz957FH2JxoxUEF",
      "images" : [ ],
      "name" : "DJ C-Snake",
      "popularity" : 0,
      "type" : "artist",
      "uri" : "spotify:artist:3hlLIAMtz957FH2JxoxUEF"
    }, {
      "external_urls" : {
        "spotify" : "https://open.spotify.com/artist/6Tx7BhmOVziHXaM07jMuBa"
      },
      "followers" : {
        "href" : null,
        "total" : 5
      },
      "genres" : [ ],
      "href" : "https://api.spotify.com/v1/artists/6Tx7BhmOVziHXaM07jMuBa",
      "id" : "6Tx7BhmOVziHXaM07jMuBa",
      "images" : [ {
        "height" : 640,
        "url" : "https://i.scdn.co/image/ab67616d0000b2732bde83a45fdbe4289afaef6f",
        "width" : 640
      }, {
        "height" : 300,
        "url" : "https://i.scdn.co/image/ab67616d00001e022bde83a45fdbe4289afaef6f",
        "width" : 300
      }, {
        "height" : 64,
        "url" : "https://i.scdn.co/image/ab67616d000048512bde83a45fdbe4289afaef6f",
        "width" : 64
      } ],
      "name" : "DJ HB-Snake",
      "popularity" : 0,
      "type" : "artist",
      "uri" : "spotify:artist:6Tx7BhmOVziHXaM07jMuBa"
    }, {
      "external_urls" : {
        "spotify" : "https://open.spotify.com/artist/5evxweAeUKbl0VRskjn07b"
      },
      "followers" : {
        "href" : null,
        "total" : 6
      },
      "genres" : [ ],
      "href" : "https://api.spotify.com/v1/artists/5evxweAeUKbl0VRskjn07b",
      "id" : "5evxweAeUKbl0VRskjn07b",
      "images" : [ {
        "height" : 640,
        "url" : "https://i.scdn.co/image/ab67616d0000b273ab07266d92830c5c3e453308",
        "width" : 640
      }, {
        "height" : 300,
        "url" : "https://i.scdn.co/image/ab67616d00001e02ab07266d92830c5c3e453308",
        "width" : 300
      }, {
        "height" : 64,
        "url" : "https://i.scdn.co/image/ab67616d00004851ab07266d92830c5c3e453308",
        "width" : 64
      } ],
      "name" : "DJ Green Snake",
      "popularity" : 0,
      "type" : "artist",
      "uri" : "spotify:artist:5evxweAeUKbl0VRskjn07b"
    }, {
      "external_urls" : {
        "spotify" : "https://open.spotify.com/artist/1G3yBsTEm77rcLOTyzgXiZ"
      },
      "followers" : {
        "href" : null,
        "total" : 56
      },
      "genres" : [ ],
      "href" : "https://api.spotify.com/v1/artists/1G3yBsTEm77rcLOTyzgXiZ",
      "id" : "1G3yBsTEm77rcLOTyzgXiZ",
      "images" : [ {
        "height" : 640,
        "url" : "https://i.scdn.co/image/ab67616d0000b2731ee01fba4eb96a632e524f21",
        "width" : 640
      }, {
        "height" : 300,
        "url" : "https://i.scdn.co/image/ab67616d00001e021ee01fba4eb96a632e524f21",
        "width" : 300
      }, {
        "height" : 64,
        "url" : "https://i.scdn.co/image/ab67616d000048511ee01fba4eb96a632e524f21",
        "width" : 64
      } ],
      "name" : "DJ Tripolar Snake",
      "popularity" : 0,
      "type" : "artist",
      "uri" : "spotify:artist:1G3yBsTEm77rcLOTyzgXiZ"
    }, {
      "external_urls" : {
        "spotify" : "https://open.spotify.com/artist/6xDvmA9jsMcMkjDWjYgKeq"
      },
      "followers" : {
        "href" : null,
        "total" : 33
      },
      "genres" : [ ],
      "href" : "https://api.spotify.com/v1/artists/6xDvmA9jsMcMkjDWjYgKeq",
      "id" : "6xDvmA9jsMcMkjDWjYgKeq",
      "images" : [ ],
      "name" : "DJ Snake House",
      "popularity" : 0,
      "type" : "artist",
      "uri" : "spotify:artist:6xDvmA9jsMcMkjDWjYgKeq"
    }, {
      "external_urls" : {
        "spotify" : "https://open.spotify.com/artist/0DQFhRkYwIvuSWW5lGkVzT"
      },
      "followers" : {
        "href" : null,
        "total" : 19
      },
      "genres" : [ ],
      "href" : "https://api.spotify.com/v1/artists/0DQFhRkYwIvuSWW5lGkVzT",
      "id" : "0DQFhRkYwIvuSWW5lGkVzT",
      "images" : [ ],
      "name" : "DJ Snake SA",
      "popularity" : 0,
      "type" : "artist",
      "uri" : "spotify:artist:0DQFhRkYwIvuSWW5lGkVzT"
    }, {
      "external_urls" : {
        "spotify" : "https://open.spotify.com/artist/0l4ygX2la7cIdRYc9W3y9r"
      },
      "followers" : {
        "href" : null,
        "total" : 7
      },
      "genres" : [ ],
      "href" : "https://api.spotify.com/v1/artists/0l4ygX2la7cIdRYc9W3y9r",
      "id" : "0l4ygX2la7cIdRYc9W3y9r",
      "images" : [ {
        "height" : 640,
        "url" : "https://i.scdn.co/image/ab67616d0000b273665bef6572b170811cc27e79",
        "width" : 640
      }, {
        "height" : 300,
        "url" : "https://i.scdn.co/image/ab67616d00001e02665bef6572b170811cc27e79",
        "width" : 300
      }, {
        "height" : 64,
        "url" : "https://i.scdn.co/image/ab67616d00004851665bef6572b170811cc27e79",
        "width" : 64
      } ],
      "name" : "DJ DEVIL SNAKE",
      "popularity" : 0,
      "type" : "artist",
      "uri" : "spotify:artist:0l4ygX2la7cIdRYc9W3y9r"
    }, {
      "external_urls" : {
        "spotify" : "https://open.spotify.com/artist/3fN6GKqxG6w7Km0RaYPSAH"
      },
      "followers" : {
        "href" : null,
        "total" : 2
      },
      "genres" : [ ],
      "href" : "https://api.spotify.com/v1/artists/3fN6GKqxG6w7Km0RaYPSAH",
      "id" : "3fN6GKqxG6w7Km0RaYPSAH",
      "images" : [ ],
      "name" : "DJ Sticky Snake",
      "popularity" : 0,
      "type" : "artist",
      "uri" : "spotify:artist:3fN6GKqxG6w7Km0RaYPSAH"
    }, {
      "external_urls" : {
        "spotify" : "https://open.spotify.com/artist/45TrXdEYtQoCOO4JBy3SRn"
      },
      "followers" : {
        "href" : null,
        "total" : 1
      },
      "genres" : [ ],
      "href" : "https://api.spotify.com/v1/artists/45TrXdEYtQoCOO4JBy3SRn",
      "id" : "45TrXdEYtQoCOO4JBy3SRn",
      "images" : [ ],
      "name" : "DJ Snake of Nemesis",
      "popularity" : 0,
      "type" : "artist",
      "uri" : "spotify:artist:45TrXdEYtQoCOO4JBy3SRn"
    } ],
    "limit" : 20,
    "next" : "https://api.spotify.com/v1/search?query=DJ+SNAKE&type=artist&market=US&offset=20&limit=20",
    "offset" : 0,
    "previous" : null,
    "total" : 21
  }
}