{
  "artists" : {
    "href" : "https://api.spotify.com/v1/search?query=JAUZ&type=artist&market=US&offset=0&limit=20",
    "items" : [ {
      "external_urls" : {
        "spotify" : "https://open.spotify.com/artist/5ttgIeUVka6FLyi00Uu5h8"
      },
      "followers" : {
        "href" : null,
        "total" : 366625
      },
      "genres" : [ "bass house", "brostep", "edm", "electro house", "electronic trap", "pop dance" ],
      "href" : "https://api.spotify.com/v1/artists/5ttgIeUVka6FLyi00Uu5h8",
      "id" : "5ttgIeUVka6FLyi00Uu5h8",
      "images" : [ {
        "height" : 640,
        "url" : "https://i.scdn.co/image/ab6761610000e5eba6e40e1e9121683b7caa2f84",
        "width" : 640
      }, {
        "height" : 320,
        "url" : "https://i.scdn.co/image/ab67616100005174a6e40e1e9121683b7caa2f84",
        "width" : 320
      }, {
        "height" : 160,
        "url" : "https://i.scdn.co/image/ab6761610000f178a6e40e1e9121683b7caa2f84",
        "width" : 160
      } ],
      "name" : "Jauz",
      "popularity" : 64,
      "type" : "artist",
      "uri" : "spotify:artist:5ttgIeUVka6FLyi00Uu5h8"
    }, {
      "external_urls" : {
        "spotify" : "https://open.spotify.com/artist/177S7i2cePTADAjo5UpZQc"
      },
      "followers" : {
        "href" : null,
        "total" : 66
      },
      "genres" : [ ],
      "href" : "https://api.spotify.com/v1/artists/177S7i2cePTADAjo5UpZQc",
      "id" : "177S7i2cePTADAjo5UpZQc",
      "images" : [ ],
      "name" : "Jauz",
      "popularity" : 15,
      "type" : "artist",
      "uri" : "spotify:artist:177S7i2cePTADAjo5UpZQc"
    }, {
      "external_urls" : {
        "spotify" : "https://open.spotify.com/artist/5pzqxek11nSUythmdLZnW7"
      },
      "followers" : {
        "href" : null,
        "total" : 48
      },
      "genres" : [ ],
      "href" : "https://api.spotify.com/v1/artists/5pzqxek11nSUythmdLZnW7",
      "id" : "5pzqxek11nSUythmdLZnW7",
      "images" : [ ],
      "name" : "JAUZ",
      "popularity" : 8,
      "type" : "artist",
      "uri" : "spotify:artist:5pzqxek11nSUythmdLZnW7"
    }, {
      "external_urls" : {
        "spotify" : "https://open.spotify.com/artist/0nTErwSOllrcUWt3knOG2T"
      },
      "followers" : {
        "href" : null,
        "total" : 85901
      },
      "genres" : [ "broken beat", "electronica", "indie jazz", "jazztronica", "ninja", "nu jazz", "trip hop" ],
      "href" : "https://api.spotify.com/v1/artists/0nTErwSOllrcUWt3knOG2T",
      "id" : "0nTErwSOllrcUWt3knOG2T",
      "images" : [ {
        "height" : 640,
        "url" : "https://i.scdn.co/image/ab6761610000e5ebe608096fb8535eeec95289ef",
        "width" : 640
      }, {
        "height" : 320,
        "url" : "https://i.scdn.co/image/ab67616100005174e608096fb8535eeec95289ef",
        "width" : 320
      }, {
        "height" : 160,
        "url" : "https://i.scdn.co/image/ab6761610000f178e608096fb8535eeec95289ef",
        "width" : 160
      } ],
      "name" : "Jazzanova",
      "popularity" : 45,
      "type" : "artist",
      "uri" : "spotify:artist:0nTErwSOllrcUWt3knOG2T"
    }, {
      "external_urls" : {
        "spotify" : "https://open.spotify.com/artist/7ooV8wC7m5EEqBdzd06Sy5"
      },
      "followers" : {
        "href" : null,
        "total" : 9
      },
      "genres" : [ ],
      "href" : "https://api.spotify.com/v1/artists/7ooV8wC7m5EEqBdzd06Sy5",
      "id" : "7ooV8wC7m5EEqBdzd06Sy5",
      "images" : [ {
        "height" : 640,
        "url" : "https://i.scdn.co/image/ab67616d0000b2731f4ba6639bc7d038798fcd66",
        "width" : 640
      }, {
        "height" : 300,
        "url" : "https://i.scdn.co/image/ab67616d00001e021f4ba6639bc7d038798fcd66",
        "width" : 300
      }, {
        "height" : 64,
        "url" : "https://i.scdn.co/image/ab67616d000048511f4ba6639bc7d038798fcd66",
        "width" : 64
      } ],
      "name" : "Jauzi",
      "popularity" : 0,
      "type" : "artist",
      "uri" : "spotify:artist:7ooV8wC7m5EEqBdzd06Sy5"
    }, {
      "external_urls" : {
        "spotify" : "https://open.spotify.com/artist/1smXNiR2uzlspOQp7HVKSG"
      },
      "followers" : {
        "href" : null,
        "total" : 243
      },
      "genres" : [ ],
      "href" : "https://api.spotify.com/v1/artists/1smXNiR2uzlspOQp7HVKSG",
      "id" : "1smXNiR2uzlspOQp7HVKSG",
      "images" : [ {
        "height" : 640,
        "url" : "https://i.scdn.co/image/ab6761610000e5ebad851a5e7d37e0aafd504370",
        "width" : 640
      }, {
        "height" : 320,
        "url" : "https://i.scdn.co/image/ab67616100005174ad851a5e7d37e0aafd504370",
        "width" : 320
      }, {
        "height" : 160,
        "url" : "https://i.scdn.co/image/ab6761610000f178ad851a5e7d37e0aafd504370",
        "width" : 160
      } ],
      "name" : "Jauzas the Shining",
      "popularity" : 9,
      "type" : "artist",
      "uri" : "spotify:artist:1smXNiR2uzlspOQp7HVKSG"
    }, {
      "external_urls" : {
        "spotify" : "https://open.spotify.com/artist/2e4Dg3UATaK1VIxODqdoGQ"
      },
      "followers" : {
        "href" : null,
        "total" : 0
      },
      "genres" : [ ],
      "href" : "https://api.spotify.com/v1/artists/2e4Dg3UATaK1VIxODqdoGQ",
      "id" : "2e4Dg3UATaK1VIxODqdoGQ",
      "images" : [ ],
      "name" : "Jauzzlyn",
      "popularity" : 0,
      "type" : "artist",
      "uri" : "spotify:artist:2e4Dg3UATaK1VIxODqdoGQ"
    }, {
      "external_urls" : {
        "spotify" : "https://open.spotify.com/artist/1Iq0BIVyiK4DEZZC727r4v"
      },
      "followers" : {
        "href" : null,
        "total" : 48
      },
      "genres" : [ ],
      "href" : "https://api.spotify.com/v1/artists/1Iq0BIVyiK4DEZZC727r4v",
      "id" : "1Iq0BIVyiK4DEZZC727r4v",
      "images" : [ ],
      "name" : "Jauz",
      "popularity" : 2,
      "type" : "artist",
      "uri" : "spotify:artist:1Iq0BIVyiK4DEZZC727r4v"
    }, {
      "external_urls" : {
        "spotify" : "https://open.spotify.com/artist/5tnZYkU85X5NXK3g8zJ7RM"
      },
      "followers" : {
        "href" : null,
        "total" : 40
      },
      "genres" : [ ],
      "href" : "https://api.spotify.com/v1/artists/5tnZYkU85X5NXK3g8zJ7RM",
      "id" : "5tnZYkU85X5NXK3g8zJ7RM",
      "images" : [ {
        "height" : 640,
        "url" : "https://i.scdn.co/image/ab6761610000e5ebb9bf3baf55e7a876cf626bdf",
        "width" : 640
      }, {
        "height" : 320,
        "url" : "https://i.scdn.co/image/ab67616100005174b9bf3baf55e7a876cf626bdf",
        "width" : 320
      }, {
        "height" : 160,
        "url" : "https://i.scdn.co/image/ab6761610000f178b9bf3baf55e7a876cf626bdf",
        "width" : 160
      } ],
      "name" : "Jauziim",
      "popularity" : 0,
      "type" : "artist",
      "uri" : "spotify:artist:5tnZYkU85X5NXK3g8zJ7RM"
    }, {
      "external_urls" : {
        "spotify" : "https://open.spotify.com/artist/2KgslpdziWVG7aVNdRXmdO"
      },
      "followers" : {
        "href" : null,
        "total" : 26
      },
      "genres" : [ ],
      "href" : "https://api.spotify.com/v1/artists/2KgslpdziWVG7aVNdRXmdO",
      "id" : "2KgslpdziWVG7aVNdRXmdO",
      "images" : [ {
        "height" : 640,
        "url" : "https://i.scdn.co/image/ab67616d0000b273a9b98c0288d93945073f0dbc",
        "width" : 640
      }, {
        "height" : 300,
        "url" : "https://i.scdn.co/image/ab67616d00001e02a9b98c0288d93945073f0dbc",
        "width" : 300
      }, {
        "height" : 64,
        "url" : "https://i.scdn.co/image/ab67616d00004851a9b98c0288d93945073f0dbc",
        "width" : 64
      } ],
      "name" : "Jauz",
      "popularity" : 0,
      "type" : "artist",
      "uri" : "spotify:artist:2KgslpdziWVG7aVNdRXmdO"
    }, {
      "external_urls" : {
        "spotify" : "https://open.spotify.com/artist/0DjDZcavhjJyyonkaH0UfO"
      },
      "followers" : {
        "href" : null,
        "total" : 0
      },
      "genres" : [ ],
      "href" : "https://api.spotify.com/v1/artists/0DjDZcavhjJyyonkaH0UfO",
      "id" : "0DjDZcavhjJyyonkaH0UfO",
      "images" : [ {
        "height" : 640,
        "url" : "https://i.scdn.co/image/ab67616d0000b273eefad6828ba4fc3f63630fee",
        "width" : 640
      }, {
        "height" : 300,
        "url" : "https://i.scdn.co/image/ab67616d00001e02eefad6828ba4fc3f63630fee",
        "width" : 300
      }, {
        "height" : 64,
        "url" : "https://i.scdn.co/image/ab67616d00004851eefad6828ba4fc3f63630fee",
        "width" : 64
      } ],
      "name" : "jauzerbeats",
      "popularity" : 0,
      "type" : "artist",
      "uri" : "spotify:artist:0DjDZcavhjJyyonkaH0UfO"
    }, {
      "external_urls" : {
        "spotify" : "https://open.spotify.com/artist/25AWC48HFdycdijI25Yxx0"
      },
      "followers" : {
        "href" : null,
        "total" : 7
      },
      "genres" : [ ],
      "href" : "https://api.spotify.com/v1/artists/25AWC48HFdycdijI25Yxx0",
      "id" : "25AWC48HFdycdijI25Yxx0",
      "images" : [ {
        "height" : 640,
        "url" : "https://i.scdn.co/image/ab6761610000e5eb686efe55dd8f2707e98a3e06",
        "width" : 640
      }, {
        "height" : 320,
        "url" : "https://i.scdn.co/image/ab67616100005174686efe55dd8f2707e98a3e06",
        "width" : 320
      }, {
        "height" : 160,
        "url" : "https://i.scdn.co/image/ab6761610000f178686efe55dd8f2707e98a3e06",
        "width" : 160
      } ],
      "name" : "Jauza Alif",
      "popularity" : 0,
      "type" : "artist",
      "uri" : "spotify:artist:25AWC48HFdycdijI25Yxx0"
    }, {
      "external_urls" : {
        "spotify" : "https://open.spotify.com/artist/6u2Op6zz272Ho6bUm2jkPH"
      },
      "followers" : {
        "href" : null,
        "total" : 0
      },
      "genres" : [ ],
      "href" : "https://api.spotify.com/v1/artists/6u2Op6zz272Ho6bUm2jkPH",
      "id" : "6u2Op6zz272Ho6bUm2jkPH",
      "images" : [ ],
      "name" : "Jauzer",
      "popularity" : 0,
      "type" : "artist",
      "uri" : "spotify:artist:6u2Op6zz272Ho6bUm2jkPH"
    }, {
      "external_urls" : {
        "spotify" : "https://open.spotify.com/artist/2Fn5dDV8eW5Q6pJ9fPj62J"
      },
      "followers" : {
        "href" : null,
        "total" : 1
      },
      "genres" : [ ],
      "href" : "https://api.spotify.com/v1/artists/2Fn5dDV8eW5Q6pJ9fPj62J",
      "id" : "2Fn5dDV8eW5Q6pJ9fPj62J",
      "images" : [ ],
      "name" : "Jauzer",
      "popularity" : 0,
      "type" : "artist",
      "uri" : "spotify:artist:2Fn5dDV8eW5Q6pJ9fPj62J"
    }, {
      "external_urls" : {
        "spotify" : "https://open.spotify.com/artist/6G0DPCGsfpkrgMhfjUt1zH"
      },
      "followers" : {
        "href" : null,
        "total" : 14
      },
      "genres" : [ ],
      "href" : "https://api.spotify.com/v1/artists/6G0DPCGsfpkrgMhfjUt1zH",
      "id" : "6G0DPCGsfpkrgMhfjUt1zH",
      "images" : [ {
        "height" : 640,
        "url" : "https://i.scdn.co/image/ab67616d0000b27385c61e8e144992dd27b3d4ce",
        "width" : 640
      }, {
        "height" : 300,
        "url" : "https://i.scdn.co/image/ab67616d00001e0285c61e8e144992dd27b3d4ce",
        "width" : 300
      }, {
        "height" : 64,
        "url" : "https://i.scdn.co/image/ab67616d0000485185c61e8e144992dd27b3d4ce",
        "width" : 64
      } ],
      "name" : "Jauzas The Shining",
      "popularity" : 0,
      "type" : "artist",
      "uri" : "spotify:artist:6G0DPCGsfpkrgMhfjUt1zH"
    }, {
      "external_urls" : {
        "spotify" : "https://open.spotify.com/artist/3qrTnJFyTWDIOIXgb5CzhO"
      },
      "followers" : {
        "href" : null,
        "total" : 0
      },
      "genres" : [ ],
      "href" : "https://api.spotify.com/v1/artists/3qrTnJFyTWDIOIXgb5CzhO",
      "id" : "3qrTnJFyTWDIOIXgb5CzhO",
      "images" : [ {
        "height" : 640,
        "url" : "https://i.scdn.co/image/ab67616d0000b2737338377f69c103560a66695f",
        "width" : 640
      }, {
        "height" : 300,
        "url" : "https://i.scdn.co/image/ab67616d00001e027338377f69c103560a66695f",
        "width" : 300
      }, {
        "height" : 64,
        "url" : "https://i.scdn.co/image/ab67616d000048517338377f69c103560a66695f",
        "width" : 64
      } ],
      "name" : "JauzyClip",
      "popularity" : 0,
      "type" : "artist",
      "uri" : "spotify:artist:3qrTnJFyTWDIOIXgb5CzhO"
    }, {
      "external_urls" : {
        "spotify" : "https://open.spotify.com/artist/41FWZ8FGBwyTxHaEGdtFCI"
      },
      "followers" : {
        "href" : null,
        "total" : 4
      },
      "genres" : [ ],
      "href" : "https://api.spotify.com/v1/artists/41FWZ8FGBwyTxHaEGdtFCI",
      "id" : "41FWZ8FGBwyTxHaEGdtFCI",
      "images" : [ {
        "height" : 640,
        "url" : "https://i.scdn.co/image/ab67616d0000b27323651525ef19b59069d9453f",
        "width" : 640
      }, {
        "height" : 300,
        "url" : "https://i.scdn.co/image/ab67616d00001e0223651525ef19b59069d9453f",
        "width" : 300
      }, {
        "height" : 64,
        "url" : "https://i.scdn.co/image/ab67616d0000485123651525ef19b59069d9453f",
        "width" : 64
      } ],
      "name" : "Djy Jauza814",
      "popularity" : 0,
      "type" : "artist",
      "uri" : "spotify:artist:41FWZ8FGBwyTxHaEGdtFCI"
    }, {
      "external_urls" : {
        "spotify" : "https://open.spotify.com/artist/1WTW3L7FRTSIhI3hxrkFoj"
      },
      "followers" : {
        "href" : null,
        "total" : 3
      },
      "genres" : [ ],
      "href" : "https://api.spotify.com/v1/artists/1WTW3L7FRTSIhI3hxrkFoj",
      "id" : "1WTW3L7FRTSIhI3hxrkFoj",
      "images" : [ {
        "height" : 640,
        "url" : "https://i.scdn.co/image/ab67616d0000b273c1ff8d6b65b703b545ab62c6",
        "width" : 640
      }, {
        "height" : 300,
        "url" : "https://i.scdn.co/image/ab67616d00001e02c1ff8d6b65b703b545ab62c6",
        "width" : 300
      }, {
        "height" : 64,
        "url" : "https://i.scdn.co/image/ab67616d00004851c1ff8d6b65b703b545ab62c6",
        "width" : 64
      } ],
      "name" : "Jauze",
      "popularity" : 0,
      "type" : "artist",
      "uri" : "spotify:artist:1WTW3L7FRTSIhI3hxrkFoj"
    }, {
      "external_urls" : {
        "spotify" : "https://open.spotify.com/artist/4FMSGpx7zrGd9ruUYkzWM1"
      },
      "followers" : {
        "href" : null,
        "total" : 6
      },
      "genres" : [ ],
      "href" : "https://api.spotify.com/v1/artists/4FMSGpx7zrGd9ruUYkzWM1",
      "id" : "4FMSGpx7zrGd9ruUYkzWM1",
      "images" : [ {
        "height" : 640,
        "url" : "https://i.scdn.co/image/ab67616d0000b2730f7aee1b0879dddd5988a479",
        "width" : 640
      }, {
        "height" : 300,
        "url" : "https://i.scdn.co/image/ab67616d00001e020f7aee1b0879dddd5988a479",
        "width" : 300
      }, {
        "height" : 64,
        "url" : "https://i.scdn.co/image/ab67616d000048510f7aee1b0879dddd5988a479",
        "width" : 64
      } ],
      "name" : "JAüZZ",
      "popularity" : 0,
      "type" : "artist",
      "uri" : "spotify:artist:4FMSGpx7zrGd9ruUYkzWM1"
    }, {
      "external_urls" : {
        "spotify" : "https://open.spotify.com/artist/2zy9iImfogTNBpQwC6H43q"
      },
      "followers" : {
        "href" : null,
        "total" : 0
      },
      "genres" : [ ],
      "href" : "https://api.spotify.com/v1/artists/2zy9iImfogTNBpQwC6H43q",
      "id" : "2zy9iImfogTNBpQwC6H43q",
      "images" : [ ],
      "name" : "DJ Jauza",
      "popularity" : 0,
      "type" : "artist",
      "uri" : "spotify:artist:2zy9iImfogTNBpQwC6H43q"
    } ],
    "limit" : 20,
    "next" : "https://api.spotify.com/v1/search?query=JAUZ&type=artist&market=US&offset=20&limit=20",
    "offset" : 0,
    "previous" : null,
    "total" : 32
  }
}