{
  "artists" : {
    "href" : "https://api.spotify.com/v1/search?query=MARSH&type=artist&market=US&offset=0&limit=20",
    "items" : [ {
      "external_urls" : {
        "spotify" : "https://open.spotify.com/artist/64KEffDW9EtZ1y2vBYgq8T"
      },
      "followers" : {
        "href" : null,
        "total" : 33209681
      },
      "genres" : [ "brostep", "dance pop", "edm", "pop", "pop dance", "progressive electro house" ],
      "href" : "https://api.spotify.com/v1/artists/64KEffDW9EtZ1y2vBYgq8T",
      "id" : "64KEffDW9EtZ1y2vBYgq8T",
      "images" : [ {
        "height" : 640,
        "url" : "https://i.scdn.co/image/ab6761610000e5eba91af711541f8807ed7f0676",
        "width" : 640
      }, {
        "height" : 320,
        "url" : "https://i.scdn.co/image/ab67616100005174a91af711541f8807ed7f0676",
        "width" : 320
      }, {
        "height" : 160,
        "url" : "https://i.scdn.co/image/ab6761610000f178a91af711541f8807ed7f0676",
        "width" : 160
      } ],
      "name" : "Marshmello",
      "popularity" : 86,
      "type" : "artist",
      "uri" : "spotify:artist:64KEffDW9EtZ1y2vBYgq8T"
    }, {
      "external_urls" : {
        "spotify" : "https://open.spotify.com/artist/0uCz6njHSQuLulLtpC69LR"
      },
      "followers" : {
        "href" : null,
        "total" : 70
      },
      "genres" : [ ],
      "href" : "https://api.spotify.com/v1/artists/0uCz6njHSQuLulLtpC69LR",
      "id" : "0uCz6njHSQuLulLtpC69LR",
      "images" : [ {
        "height" : 640,
        "url" : "https://i.scdn.co/image/ab6761610000e5ebe9aabef5ad5bbce53e327497",
        "width" : 640
      }, {
        "height" : 320,
        "url" : "https://i.scdn.co/image/ab67616100005174e9aabef5ad5bbce53e327497",
        "width" : 320
      }, {
        "height" : 160,
        "url" : "https://i.scdn.co/image/ab6761610000f178e9aabef5ad5bbce53e327497",
        "width" : 160
      } ],
      "name" : "MARSHALL BENTON",
      "popularity" : 3,
      "type" : "artist",
      "uri" : "spotify:artist:0uCz6njHSQuLulLtpC69LR"
    }, {
      "external_urls" : {
        "spotify" : "https://open.spotify.com/artist/46VWDbmWmzvPBTmkSr25gM"
      },
      "followers" : {
        "href" : null,
        "total" : 468386
      },
      "genres" : [ "british soul", "contemporary r&b", "hip pop", "neo soul", "r&b", "urban contemporary" ],
      "href" : "https://api.spotify.com/v1/artists/46VWDbmWmzvPBTmkSr25gM",
      "id" : "46VWDbmWmzvPBTmkSr25gM",
      "images" : [ {
        "height" : 640,
        "url" : "https://i.scdn.co/image/ab6761610000e5eb7944b7a67b83edd8b17a4428",
        "width" : 640
      }, {
        "height" : 320,
        "url" : "https://i.scdn.co/image/ab676161000051747944b7a67b83edd8b17a4428",
        "width" : 320
      }, {
        "height" : 160,
        "url" : "https://i.scdn.co/image/ab6761610000f1787944b7a67b83edd8b17a4428",
        "width" : 160
      } ],
      "name" : "Marsha Ambrosius",
      "popularity" : 53,
      "type" : "artist",
      "uri" : "spotify:artist:46VWDbmWmzvPBTmkSr25gM"
    }, {
      "external_urls" : {
        "spotify" : "https://open.spotify.com/artist/59QxeZBL6k9L4oJBGSyukd"
      },
      "followers" : {
        "href" : null,
        "total" : 747926
      },
      "genres" : [ "album rock", "blues rock", "classic rock", "country rock", "folk rock", "hard rock", "mellow gold", "rock", "roots rock", "soft rock", "southern rock" ],
      "href" : "https://api.spotify.com/v1/artists/59QxeZBL6k9L4oJBGSyukd",
      "id" : "59QxeZBL6k9L4oJBGSyukd",
      "images" : [ {
        "height" : 640,
        "url" : "https://i.scdn.co/image/ab6761610000e5eb48bbd7b9258b38689f6dc919",
        "width" : 640
      }, {
        "height" : 320,
        "url" : "https://i.scdn.co/image/ab6761610000517448bbd7b9258b38689f6dc919",
        "width" : 320
      }, {
        "height" : 160,
        "url" : "https://i.scdn.co/image/ab6761610000f17848bbd7b9258b38689f6dc919",
        "width" : 160
      } ],
      "name" : "The Marshall Tucker Band",
      "popularity" : 61,
      "type" : "artist",
      "uri" : "spotify:artist:59QxeZBL6k9L4oJBGSyukd"
    }, {
      "external_urls" : {
        "spotify" : "https://open.spotify.com/artist/1eucLGnPT27tdEh6MU29wp"
      },
      "followers" : {
        "href" : null,
        "total" : 31626
      },
      "genres" : [ "progressive house" ],
      "href" : "https://api.spotify.com/v1/artists/1eucLGnPT27tdEh6MU29wp",
      "id" : "1eucLGnPT27tdEh6MU29wp",
      "images" : [ {
        "height" : 640,
        "url" : "https://i.scdn.co/image/ab6761610000e5eb41790819d54a0d848c5b6229",
        "width" : 640
      }, {
        "height" : 320,
        "url" : "https://i.scdn.co/image/ab6761610000517441790819d54a0d848c5b6229",
        "width" : 320
      }, {
        "height" : 160,
        "url" : "https://i.scdn.co/image/ab6761610000f17841790819d54a0d848c5b6229",
        "width" : 160
      } ],
      "name" : "Marsh",
      "popularity" : 54,
      "type" : "artist",
      "uri" : "spotify:artist:1eucLGnPT27tdEh6MU29wp"
    }, {
      "external_urls" : {
        "spotify" : "https://open.spotify.com/artist/2FT75iYuWmycqYrXbVD9cn"
      },
      "followers" : {
        "href" : null,
        "total" : 3666
      },
      "genres" : [ ],
      "href" : "https://api.spotify.com/v1/artists/2FT75iYuWmycqYrXbVD9cn",
      "id" : "2FT75iYuWmycqYrXbVD9cn",
      "images" : [ {
        "height" : 640,
        "url" : "https://i.scdn.co/image/ab6761610000e5eb379ce8bcf6147ea0b0545d18",
        "width" : 640
      }, {
        "height" : 320,
        "url" : "https://i.scdn.co/image/ab67616100005174379ce8bcf6147ea0b0545d18",
        "width" : 320
      }, {
        "height" : 160,
        "url" : "https://i.scdn.co/image/ab6761610000f178379ce8bcf6147ea0b0545d18",
        "width" : 160
      } ],
      "name" : "Michael Marshall",
      "popularity" : 63,
      "type" : "artist",
      "uri" : "spotify:artist:2FT75iYuWmycqYrXbVD9cn"
    }, {
      "external_urls" : {
        "spotify" : "https://open.spotify.com/artist/1jbgOY8j0JxOoITv62DQDC"
      },
      "followers" : {
        "href" : null,
        "total" : 13
      },
      "genres" : [ "instrumental lullaby" ],
      "href" : "https://api.spotify.com/v1/artists/1jbgOY8j0JxOoITv62DQDC",
      "id" : "1jbgOY8j0JxOoITv62DQDC",
      "images" : [ {
        "height" : 640,
        "url" : "https://i.scdn.co/image/ab67616d0000b2737c2e584538f080615d5187d1",
        "width" : 640
      }, {
        "height" : 300,
        "url" : "https://i.scdn.co/image/ab67616d00001e027c2e584538f080615d5187d1",
        "width" : 300
      }, {
        "height" : 64,
        "url" : "https://i.scdn.co/image/ab67616d000048517c2e584538f080615d5187d1",
        "width" : 64
      } ],
      "name" : "Marsha Wert",
      "popularity" : 46,
      "type" : "artist",
      "uri" : "spotify:artist:1jbgOY8j0JxOoITv62DQDC"
    }, {
      "external_urls" : {
        "spotify" : "https://open.spotify.com/artist/4gAZEdhHukJz8v4fqA9JmM"
      },
      "followers" : {
        "href" : null,
        "total" : 1
      },
      "genres" : [ ],
      "href" : "https://api.spotify.com/v1/artists/4gAZEdhHukJz8v4fqA9JmM",
      "id" : "4gAZEdhHukJz8v4fqA9JmM",
      "images" : [ {
        "height" : 640,
        "url" : "https://i.scdn.co/image/ab67616d0000b273c5f67335f624a79c39234356",
        "width" : 640
      }, {
        "height" : 300,
        "url" : "https://i.scdn.co/image/ab67616d00001e02c5f67335f624a79c39234356",
        "width" : 300
      }, {
        "height" : 64,
        "url" : "https://i.scdn.co/image/ab67616d00004851c5f67335f624a79c39234356",
        "width" : 64
      } ],
      "name" : "MARSH",
      "popularity" : 0,
      "type" : "artist",
      "uri" : "spotify:artist:4gAZEdhHukJz8v4fqA9JmM"
    }, {
      "external_urls" : {
        "spotify" : "https://open.spotify.com/artist/73YLmyaazO66GncUVHP0KV"
      },
      "followers" : {
        "href" : null,
        "total" : 31115
      },
      "genres" : [ "jangle pop", "power pop", "pub rock", "roots rock" ],
      "href" : "https://api.spotify.com/v1/artists/73YLmyaazO66GncUVHP0KV",
      "id" : "73YLmyaazO66GncUVHP0KV",
      "images" : [ {
        "height" : 640,
        "url" : "https://i.scdn.co/image/ab6761610000e5ebbca1fe0a005269dda0d17c9b",
        "width" : 640
      }, {
        "height" : 320,
        "url" : "https://i.scdn.co/image/ab67616100005174bca1fe0a005269dda0d17c9b",
        "width" : 320
      }, {
        "height" : 160,
        "url" : "https://i.scdn.co/image/ab6761610000f178bca1fe0a005269dda0d17c9b",
        "width" : 160
      } ],
      "name" : "Marshall Crenshaw",
      "popularity" : 39,
      "type" : "artist",
      "uri" : "spotify:artist:73YLmyaazO66GncUVHP0KV"
    }, {
      "external_urls" : {
        "spotify" : "https://open.spotify.com/artist/2WJmZq6fEmecdQVd3s38jE"
      },
      "followers" : {
        "href" : null,
        "total" : 6034
      },
      "genres" : [ "bluegrass", "classical mandolin", "mandolin", "progressive bluegrass" ],
      "href" : "https://api.spotify.com/v1/artists/2WJmZq6fEmecdQVd3s38jE",
      "id" : "2WJmZq6fEmecdQVd3s38jE",
      "images" : [ {
        "height" : 888,
        "url" : "https://i.scdn.co/image/8b84173f3fa2718be552d2679511a5c06c0429b7",
        "width" : 996
      }, {
        "height" : 571,
        "url" : "https://i.scdn.co/image/0945c00d3652d530d285544b456800987ade6a6e",
        "width" : 640
      }, {
        "height" : 178,
        "url" : "https://i.scdn.co/image/b2cab04c1a89cc0b8b3f4d4bc307abbfc0122cd6",
        "width" : 200
      }, {
        "height" : 57,
        "url" : "https://i.scdn.co/image/1184b860894a40d9ab5b1e5ad7da1870a3df7c9e",
        "width" : 64
      } ],
      "name" : "Mike Marshall",
      "popularity" : 45,
      "type" : "artist",
      "uri" : "spotify:artist:2WJmZq6fEmecdQVd3s38jE"
    }, {
      "external_urls" : {
        "spotify" : "https://open.spotify.com/artist/6DPWkGhzEGNFXPhsW7HCnW"
      },
      "followers" : {
        "href" : null,
        "total" : 1
      },
      "genres" : [ ],
      "href" : "https://api.spotify.com/v1/artists/6DPWkGhzEGNFXPhsW7HCnW",
      "id" : "6DPWkGhzEGNFXPhsW7HCnW",
      "images" : [ {
        "height" : 640,
        "url" : "https://i.scdn.co/image/ab67616d0000b273f0646a603cf532eee1c7e019",
        "width" : 640
      }, {
        "height" : 300,
        "url" : "https://i.scdn.co/image/ab67616d00001e02f0646a603cf532eee1c7e019",
        "width" : 300
      }, {
        "height" : 64,
        "url" : "https://i.scdn.co/image/ab67616d00004851f0646a603cf532eee1c7e019",
        "width" : 64
      } ],
      "name" : "MARSH",
      "popularity" : 0,
      "type" : "artist",
      "uri" : "spotify:artist:6DPWkGhzEGNFXPhsW7HCnW"
    }, {
      "external_urls" : {
        "spotify" : "https://open.spotify.com/artist/2Di8r9df6xjyj6CVOqbGVz"
      },
      "followers" : {
        "href" : null,
        "total" : 22142
      },
      "genres" : [ "acid house", "chicago house", "classic house", "hip house" ],
      "href" : "https://api.spotify.com/v1/artists/2Di8r9df6xjyj6CVOqbGVz",
      "id" : "2Di8r9df6xjyj6CVOqbGVz",
      "images" : [ {
        "height" : 640,
        "url" : "https://i.scdn.co/image/ab6761610000e5eb3134a7107ee71716b7ea61d5",
        "width" : 640
      }, {
        "height" : 320,
        "url" : "https://i.scdn.co/image/ab676161000051743134a7107ee71716b7ea61d5",
        "width" : 320
      }, {
        "height" : 160,
        "url" : "https://i.scdn.co/image/ab6761610000f1783134a7107ee71716b7ea61d5",
        "width" : 160
      } ],
      "name" : "Marshall Jefferson",
      "popularity" : 50,
      "type" : "artist",
      "uri" : "spotify:artist:2Di8r9df6xjyj6CVOqbGVz"
    }, {
      "external_urls" : {
        "spotify" : "https://open.spotify.com/artist/0HBiWUM29akfsHlx5y2hzc"
      },
      "followers" : {
        "href" : null,
        "total" : 0
      },
      "genres" : [ ],
      "href" : "https://api.spotify.com/v1/artists/0HBiWUM29akfsHlx5y2hzc",
      "id" : "0HBiWUM29akfsHlx5y2hzc",
      "images" : [ ],
      "name" : "MARSH",
      "popularity" : 0,
      "type" : "artist",
      "uri" : "spotify:artist:0HBiWUM29akfsHlx5y2hzc"
    }, {
      "external_urls" : {
        "spotify" : "https://open.spotify.com/artist/28Y5nsvbE8IdoUAGNgCk0Y"
      },
      "followers" : {
        "href" : null,
        "total" : 1255
      },
      "genres" : [ ],
      "href" : "https://api.spotify.com/v1/artists/28Y5nsvbE8IdoUAGNgCk0Y",
      "id" : "28Y5nsvbE8IdoUAGNgCk0Y",
      "images" : [ {
        "height" : 640,
        "url" : "https://i.scdn.co/image/ab67616d0000b27393de24630c0a43c7c458ce40",
        "width" : 640
      }, {
        "height" : 300,
        "url" : "https://i.scdn.co/image/ab67616d00001e0293de24630c0a43c7c458ce40",
        "width" : 300
      }, {
        "height" : 64,
        "url" : "https://i.scdn.co/image/ab67616d0000485193de24630c0a43c7c458ce40",
        "width" : 64
      } ],
      "name" : "Marsha",
      "popularity" : 48,
      "type" : "artist",
      "uri" : "spotify:artist:28Y5nsvbE8IdoUAGNgCk0Y"
    }, {
      "external_urls" : {
        "spotify" : "https://open.spotify.com/artist/7ppllgzNRgrnOjYbsyDzO6"
      },
      "followers" : {
        "href" : null,
        "total" : 1148
      },
      "genres" : [ ],
      "href" : "https://api.spotify.com/v1/artists/7ppllgzNRgrnOjYbsyDzO6",
      "id" : "7ppllgzNRgrnOjYbsyDzO6",
      "images" : [ {
        "height" : 640,
        "url" : "https://i.scdn.co/image/ab6761610000e5eba31e23b652501ec164d91175",
        "width" : 640
      }, {
        "height" : 320,
        "url" : "https://i.scdn.co/image/ab67616100005174a31e23b652501ec164d91175",
        "width" : 320
      }, {
        "height" : 160,
        "url" : "https://i.scdn.co/image/ab6761610000f178a31e23b652501ec164d91175",
        "width" : 160
      } ],
      "name" : "Max Marshall",
      "popularity" : 56,
      "type" : "artist",
      "uri" : "spotify:artist:7ppllgzNRgrnOjYbsyDzO6"
    }, {
      "external_urls" : {
        "spotify" : "https://open.spotify.com/artist/0ef43O1izFBZsyErkIHe3e"
      },
      "followers" : {
        "href" : null,
        "total" : 0
      },
      "genres" : [ ],
      "href" : "https://api.spotify.com/v1/artists/0ef43O1izFBZsyErkIHe3e",
      "id" : "0ef43O1izFBZsyErkIHe3e",
      "images" : [ {
        "height" : 640,
        "url" : "https://i.scdn.co/image/ab67616d0000b273667c9a552be606bc9605e532",
        "width" : 640
      }, {
        "height" : 300,
        "url" : "https://i.scdn.co/image/ab67616d00001e02667c9a552be606bc9605e532",
        "width" : 300
      }, {
        "height" : 64,
        "url" : "https://i.scdn.co/image/ab67616d00004851667c9a552be606bc9605e532",
        "width" : 64
      } ],
      "name" : "MARSH",
      "popularity" : 0,
      "type" : "artist",
      "uri" : "spotify:artist:0ef43O1izFBZsyErkIHe3e"
    }, {
      "external_urls" : {
        "spotify" : "https://open.spotify.com/artist/6nrEtBorzQn3FbVHWJAMNS"
      },
      "followers" : {
        "href" : null,
        "total" : 2447
      },
      "genres" : [ ],
      "href" : "https://api.spotify.com/v1/artists/6nrEtBorzQn3FbVHWJAMNS",
      "id" : "6nrEtBorzQn3FbVHWJAMNS",
      "images" : [ {
        "height" : 640,
        "url" : "https://i.scdn.co/image/ab6761610000e5ebea8dadb2c8ebb2925f05c120",
        "width" : 640
      }, {
        "height" : 320,
        "url" : "https://i.scdn.co/image/ab67616100005174ea8dadb2c8ebb2925f05c120",
        "width" : 320
      }, {
        "height" : 160,
        "url" : "https://i.scdn.co/image/ab6761610000f178ea8dadb2c8ebb2925f05c120",
        "width" : 160
      } ],
      "name" : "Marshall",
      "popularity" : 39,
      "type" : "artist",
      "uri" : "spotify:artist:6nrEtBorzQn3FbVHWJAMNS"
    }, {
      "external_urls" : {
        "spotify" : "https://open.spotify.com/artist/56UIK6wmbbxuQ6VA20vrWD"
      },
      "followers" : {
        "href" : null,
        "total" : 115223
      },
      "genres" : [ "israeli indie", "new americana" ],
      "href" : "https://api.spotify.com/v1/artists/56UIK6wmbbxuQ6VA20vrWD",
      "id" : "56UIK6wmbbxuQ6VA20vrWD",
      "images" : [ {
        "height" : 640,
        "url" : "https://i.scdn.co/image/ab6761610000e5eb40c91d351264c502453fd6cc",
        "width" : 640
      }, {
        "height" : 320,
        "url" : "https://i.scdn.co/image/ab6761610000517440c91d351264c502453fd6cc",
        "width" : 320
      }, {
        "height" : 160,
        "url" : "https://i.scdn.co/image/ab6761610000f17840c91d351264c502453fd6cc",
        "width" : 160
      } ],
      "name" : "Lola Marsh",
      "popularity" : 56,
      "type" : "artist",
      "uri" : "spotify:artist:56UIK6wmbbxuQ6VA20vrWD"
    }, {
      "external_urls" : {
        "spotify" : "https://open.spotify.com/artist/72lauuAsPDntS9nd2KgGEf"
      },
      "followers" : {
        "href" : null,
        "total" : 0
      },
      "genres" : [ ],
      "href" : "https://api.spotify.com/v1/artists/72lauuAsPDntS9nd2KgGEf",
      "id" : "72lauuAsPDntS9nd2KgGEf",
      "images" : [ {
        "height" : 640,
        "url" : "https://i.scdn.co/image/ab67616d0000b2735540e556105e06a40565ae2e",
        "width" : 640
      }, {
        "height" : 300,
        "url" : "https://i.scdn.co/image/ab67616d00001e025540e556105e06a40565ae2e",
        "width" : 300
      }, {
        "height" : 64,
        "url" : "https://i.scdn.co/image/ab67616d000048515540e556105e06a40565ae2e",
        "width" : 64
      } ],
      "name" : "MARSH",
      "popularity" : 0,
      "type" : "artist",
      "uri" : "spotify:artist:72lauuAsPDntS9nd2KgGEf"
    }, {
      "external_urls" : {
        "spotify" : "https://open.spotify.com/artist/66Lp0tCKePqbYtH8tGjFaC"
      },
      "followers" : {
        "href" : null,
        "total" : 92
      },
      "genres" : [ ],
      "href" : "https://api.spotify.com/v1/artists/66Lp0tCKePqbYtH8tGjFaC",
      "id" : "66Lp0tCKePqbYtH8tGjFaC",
      "images" : [ {
        "height" : 640,
        "url" : "https://i.scdn.co/image/ab6761610000e5ebf59882ee6061c0886c98dd12",
        "width" : 640
      }, {
        "height" : 320,
        "url" : "https://i.scdn.co/image/ab67616100005174f59882ee6061c0886c98dd12",
        "width" : 320
      }, {
        "height" : 160,
        "url" : "https://i.scdn.co/image/ab6761610000f178f59882ee6061c0886c98dd12",
        "width" : 160
      } ],
      "name" : "Marsh Land Monster",
      "popularity" : 31,
      "type" : "artist",
      "uri" : "spotify:artist:66Lp0tCKePqbYtH8tGjFaC"
    } ],
    "limit" : 20,
    "next" : "https://api.spotify.com/v1/search?query=MARSH&type=artist&market=US&offset=20&limit=20",
    "offset" : 0,
    "previous" : null,
    "total" : 3626
  }
}