{
  "artists" : {
    "href" : "https://api.spotify.com/v1/search?query=OLAN&type=artist&market=US&offset=0&limit=20",
    "items" : [ {
      "external_urls" : {
        "spotify" : "https://open.spotify.com/artist/1gMMbPTZtOb9W3IBYl6twO"
      },
      "followers" : {
        "href" : null,
        "total" : 1828
      },
      "genres" : [ ],
      "href" : "https://api.spotify.com/v1/artists/1gMMbPTZtOb9W3IBYl6twO",
      "id" : "1gMMbPTZtOb9W3IBYl6twO",
      "images" : [ {
        "height" : 640,
        "url" : "https://i.scdn.co/image/ab6761610000e5ebe1258b5cbd96c5260294de59",
        "width" : 640
      }, {
        "height" : 320,
        "url" : "https://i.scdn.co/image/ab67616100005174e1258b5cbd96c5260294de59",
        "width" : 320
      }, {
        "height" : 160,
        "url" : "https://i.scdn.co/image/ab6761610000f178e1258b5cbd96c5260294de59",
        "width" : 160
      } ],
      "name" : "Olan",
      "popularity" : 41,
      "type" : "artist",
      "uri" : "spotify:artist:1gMMbPTZtOb9W3IBYl6twO"
    }, {
      "external_urls" : {
        "spotify" : "https://open.spotify.com/artist/5oZeUGdEN5IVq0YolzmlpA"
      },
      "followers" : {
        "href" : null,
        "total" : 6
      },
      "genres" : [ ],
      "href" : "https://api.spotify.com/v1/artists/5oZeUGdEN5IVq0YolzmlpA",
      "id" : "5oZeUGdEN5IVq0YolzmlpA",
      "images" : [ {
        "height" : 640,
        "url" : "https://i.scdn.co/image/ab67616d0000b27378a3ed36f9cce2e939af7020",
        "width" : 640
      }, {
        "height" : 300,
        "url" : "https://i.scdn.co/image/ab67616d00001e0278a3ed36f9cce2e939af7020",
        "width" : 300
      }, {
        "height" : 64,
        "url" : "https://i.scdn.co/image/ab67616d0000485178a3ed36f9cce2e939af7020",
        "width" : 64
      } ],
      "name" : "OLAN",
      "popularity" : 0,
      "type" : "artist",
      "uri" : "spotify:artist:5oZeUGdEN5IVq0YolzmlpA"
    }, {
      "external_urls" : {
        "spotify" : "https://open.spotify.com/artist/5EtbzLDdynYLlgthbKiAlH"
      },
      "followers" : {
        "href" : null,
        "total" : 6825
      },
      "genres" : [ "ambient", "compositional ambient", "drift", "drone", "nu age" ],
      "href" : "https://api.spotify.com/v1/artists/5EtbzLDdynYLlgthbKiAlH",
      "id" : "5EtbzLDdynYLlgthbKiAlH",
      "images" : [ {
        "height" : 640,
        "url" : "https://i.scdn.co/image/ab67616d0000b2739a0a460bc419feabb490ac4f",
        "width" : 640
      }, {
        "height" : 300,
        "url" : "https://i.scdn.co/image/ab67616d00001e029a0a460bc419feabb490ac4f",
        "width" : 300
      }, {
        "height" : 64,
        "url" : "https://i.scdn.co/image/ab67616d000048519a0a460bc419feabb490ac4f",
        "width" : 64
      } ],
      "name" : "Olan Mill",
      "popularity" : 30,
      "type" : "artist",
      "uri" : "spotify:artist:5EtbzLDdynYLlgthbKiAlH"
    }, {
      "external_urls" : {
        "spotify" : "https://open.spotify.com/artist/5vdjF79d5d2m12FOkJhxHB"
      },
      "followers" : {
        "href" : null,
        "total" : 36194
      },
      "genres" : [ "progressive electro house", "progressive house", "swedish electronic", "tech house" ],
      "href" : "https://api.spotify.com/v1/artists/5vdjF79d5d2m12FOkJhxHB",
      "id" : "5vdjF79d5d2m12FOkJhxHB",
      "images" : [ {
        "height" : 640,
        "url" : "https://i.scdn.co/image/ab6761610000e5ebe9404dbc3248ba2dffbc08fb",
        "width" : 640
      }, {
        "height" : 320,
        "url" : "https://i.scdn.co/image/ab67616100005174e9404dbc3248ba2dffbc08fb",
        "width" : 320
      }, {
        "height" : 160,
        "url" : "https://i.scdn.co/image/ab6761610000f178e9404dbc3248ba2dffbc08fb",
        "width" : 160
      } ],
      "name" : "Jeremy Olander",
      "popularity" : 44,
      "type" : "artist",
      "uri" : "spotify:artist:5vdjF79d5d2m12FOkJhxHB"
    }, {
      "external_urls" : {
        "spotify" : "https://open.spotify.com/artist/7dYPaBAS0fvRDEAB6ADIjj"
      },
      "followers" : {
        "href" : null,
        "total" : 14
      },
      "genres" : [ ],
      "href" : "https://api.spotify.com/v1/artists/7dYPaBAS0fvRDEAB6ADIjj",
      "id" : "7dYPaBAS0fvRDEAB6ADIjj",
      "images" : [ {
        "height" : 640,
        "url" : "https://i.scdn.co/image/ab6761610000e5ebcb4ca4cd29cde8dd62b17c93",
        "width" : 640
      }, {
        "height" : 320,
        "url" : "https://i.scdn.co/image/ab67616100005174cb4ca4cd29cde8dd62b17c93",
        "width" : 320
      }, {
        "height" : 160,
        "url" : "https://i.scdn.co/image/ab6761610000f178cb4ca4cd29cde8dd62b17c93",
        "width" : 160
      } ],
      "name" : "Olanrewaju",
      "popularity" : 19,
      "type" : "artist",
      "uri" : "spotify:artist:7dYPaBAS0fvRDEAB6ADIjj"
    }, {
      "external_urls" : {
        "spotify" : "https://open.spotify.com/artist/3qwKzITLJVVAo2Fn8TusjE"
      },
      "followers" : {
        "href" : null,
        "total" : 12456
      },
      "genres" : [ "detroit indie", "escape room" ],
      "href" : "https://api.spotify.com/v1/artists/3qwKzITLJVVAo2Fn8TusjE",
      "id" : "3qwKzITLJVVAo2Fn8TusjE",
      "images" : [ {
        "height" : 640,
        "url" : "https://i.scdn.co/image/ab6761610000e5ebdaa47ec3b6a063987eb2319a",
        "width" : 640
      }, {
        "height" : 320,
        "url" : "https://i.scdn.co/image/ab67616100005174daa47ec3b6a063987eb2319a",
        "width" : 320
      }, {
        "height" : 160,
        "url" : "https://i.scdn.co/image/ab6761610000f178daa47ec3b6a063987eb2319a",
        "width" : 160
      } ],
      "name" : "Tunde Olaniran",
      "popularity" : 32,
      "type" : "artist",
      "uri" : "spotify:artist:3qwKzITLJVVAo2Fn8TusjE"
    }, {
      "external_urls" : {
        "spotify" : "https://open.spotify.com/artist/4zAN9WHCKPnSXlkM5qGXE3"
      },
      "followers" : {
        "href" : null,
        "total" : 43
      },
      "genres" : [ ],
      "href" : "https://api.spotify.com/v1/artists/4zAN9WHCKPnSXlkM5qGXE3",
      "id" : "4zAN9WHCKPnSXlkM5qGXE3",
      "images" : [ {
        "height" : 640,
        "url" : "https://i.scdn.co/image/ab6761610000e5ebc8e6bdfa834bfec137a00e75",
        "width" : 640
      }, {
        "height" : 320,
        "url" : "https://i.scdn.co/image/ab67616100005174c8e6bdfa834bfec137a00e75",
        "width" : 320
      }, {
        "height" : 160,
        "url" : "https://i.scdn.co/image/ab6761610000f178c8e6bdfa834bfec137a00e75",
        "width" : 160
      } ],
      "name" : "Olan",
      "popularity" : 19,
      "type" : "artist",
      "uri" : "spotify:artist:4zAN9WHCKPnSXlkM5qGXE3"
    }, {
      "external_urls" : {
        "spotify" : "https://open.spotify.com/artist/41gUlBGtUkpH7nsr90YvYw"
      },
      "followers" : {
        "href" : null,
        "total" : 249
      },
      "genres" : [ ],
      "href" : "https://api.spotify.com/v1/artists/41gUlBGtUkpH7nsr90YvYw",
      "id" : "41gUlBGtUkpH7nsr90YvYw",
      "images" : [ {
        "height" : 640,
        "url" : "https://i.scdn.co/image/ab6761610000e5ebd47466d8976acd7ab81b9b8d",
        "width" : 640
      }, {
        "height" : 320,
        "url" : "https://i.scdn.co/image/ab67616100005174d47466d8976acd7ab81b9b8d",
        "width" : 320
      }, {
        "height" : 160,
        "url" : "https://i.scdn.co/image/ab6761610000f178d47466d8976acd7ab81b9b8d",
        "width" : 160
      } ],
      "name" : "Olanzo Carver",
      "popularity" : 17,
      "type" : "artist",
      "uri" : "spotify:artist:41gUlBGtUkpH7nsr90YvYw"
    }, {
      "external_urls" : {
        "spotify" : "https://open.spotify.com/artist/4ri5sMDXRZJDYhsTqG0vB9"
      },
      "followers" : {
        "href" : null,
        "total" : 2770
      },
      "genres" : [ ],
      "href" : "https://api.spotify.com/v1/artists/4ri5sMDXRZJDYhsTqG0vB9",
      "id" : "4ri5sMDXRZJDYhsTqG0vB9",
      "images" : [ {
        "height" : 640,
        "url" : "https://i.scdn.co/image/ab6761610000e5ebe7ac6ae2d5683cf3be4b61ba",
        "width" : 640
      }, {
        "height" : 320,
        "url" : "https://i.scdn.co/image/ab67616100005174e7ac6ae2d5683cf3be4b61ba",
        "width" : 320
      }, {
        "height" : 160,
        "url" : "https://i.scdn.co/image/ab6761610000f178e7ac6ae2d5683cf3be4b61ba",
        "width" : 160
      } ],
      "name" : "Olan Rogers",
      "popularity" : 15,
      "type" : "artist",
      "uri" : "spotify:artist:4ri5sMDXRZJDYhsTqG0vB9"
    }, {
      "external_urls" : {
        "spotify" : "https://open.spotify.com/artist/4oXnOkONbafVs2brsZwepr"
      },
      "followers" : {
        "href" : null,
        "total" : 45
      },
      "genres" : [ ],
      "href" : "https://api.spotify.com/v1/artists/4oXnOkONbafVs2brsZwepr",
      "id" : "4oXnOkONbafVs2brsZwepr",
      "images" : [ {
        "height" : 640,
        "url" : "https://i.scdn.co/image/ab67616d0000b2734eddbd37d2acd5c9d4a78d92",
        "width" : 640
      }, {
        "height" : 300,
        "url" : "https://i.scdn.co/image/ab67616d00001e024eddbd37d2acd5c9d4a78d92",
        "width" : 300
      }, {
        "height" : 64,
        "url" : "https://i.scdn.co/image/ab67616d000048514eddbd37d2acd5c9d4a78d92",
        "width" : 64
      } ],
      "name" : "Frederik Oland",
      "popularity" : 25,
      "type" : "artist",
      "uri" : "spotify:artist:4oXnOkONbafVs2brsZwepr"
    }, {
      "external_urls" : {
        "spotify" : "https://open.spotify.com/artist/2SHGsBGRotk6tBt04pyiSG"
      },
      "followers" : {
        "href" : null,
        "total" : 2335
      },
      "genres" : [ "praise" ],
      "href" : "https://api.spotify.com/v1/artists/2SHGsBGRotk6tBt04pyiSG",
      "id" : "2SHGsBGRotk6tBt04pyiSG",
      "images" : [ {
        "height" : 640,
        "url" : "https://i.scdn.co/image/ab67616d0000b27344c450fa7fef30864ff406d6",
        "width" : 640
      }, {
        "height" : 300,
        "url" : "https://i.scdn.co/image/ab67616d00001e0244c450fa7fef30864ff406d6",
        "width" : 300
      }, {
        "height" : 64,
        "url" : "https://i.scdn.co/image/ab67616d0000485144c450fa7fef30864ff406d6",
        "width" : 64
      } ],
      "name" : "O'Landa Draper And The Associates",
      "popularity" : 11,
      "type" : "artist",
      "uri" : "spotify:artist:2SHGsBGRotk6tBt04pyiSG"
    }, {
      "external_urls" : {
        "spotify" : "https://open.spotify.com/artist/6GvgnvK4bgItFBntRcvRRo"
      },
      "followers" : {
        "href" : null,
        "total" : 37702
      },
      "genres" : [ "classic malaysian pop", "rock kapak" ],
      "href" : "https://api.spotify.com/v1/artists/6GvgnvK4bgItFBntRcvRRo",
      "id" : "6GvgnvK4bgItFBntRcvRRo",
      "images" : [ {
        "height" : 640,
        "url" : "https://i.scdn.co/image/ab67616d0000b273283aabadf7f140ecfdc24dc7",
        "width" : 640
      }, {
        "height" : 300,
        "url" : "https://i.scdn.co/image/ab67616d00001e02283aabadf7f140ecfdc24dc7",
        "width" : 300
      }, {
        "height" : 64,
        "url" : "https://i.scdn.co/image/ab67616d00004851283aabadf7f140ecfdc24dc7",
        "width" : 64
      } ],
      "name" : "Olan",
      "popularity" : 32,
      "type" : "artist",
      "uri" : "spotify:artist:6GvgnvK4bgItFBntRcvRRo"
    }, {
      "external_urls" : {
        "spotify" : "https://open.spotify.com/artist/79FkMwEFdodwPvmLCsXv91"
      },
      "followers" : {
        "href" : null,
        "total" : 211
      },
      "genres" : [ ],
      "href" : "https://api.spotify.com/v1/artists/79FkMwEFdodwPvmLCsXv91",
      "id" : "79FkMwEFdodwPvmLCsXv91",
      "images" : [ {
        "height" : 640,
        "url" : "https://i.scdn.co/image/ab6761610000e5eb6e408c0dd2d4e6233c640358",
        "width" : 640
      }, {
        "height" : 320,
        "url" : "https://i.scdn.co/image/ab676161000051746e408c0dd2d4e6233c640358",
        "width" : 320
      }, {
        "height" : 160,
        "url" : "https://i.scdn.co/image/ab6761610000f1786e408c0dd2d4e6233c640358",
        "width" : 160
      } ],
      "name" : "Traviezoz De Olancho",
      "popularity" : 13,
      "type" : "artist",
      "uri" : "spotify:artist:79FkMwEFdodwPvmLCsXv91"
    }, {
      "external_urls" : {
        "spotify" : "https://open.spotify.com/artist/0INu3XAUaxCGsbG213Y9o6"
      },
      "followers" : {
        "href" : null,
        "total" : 78
      },
      "genres" : [ ],
      "href" : "https://api.spotify.com/v1/artists/0INu3XAUaxCGsbG213Y9o6",
      "id" : "0INu3XAUaxCGsbG213Y9o6",
      "images" : [ {
        "height" : 640,
        "url" : "https://i.scdn.co/image/ab6761610000e5ebd6de4d4087cf19752a932e94",
        "width" : 640
      }, {
        "height" : 320,
        "url" : "https://i.scdn.co/image/ab67616100005174d6de4d4087cf19752a932e94",
        "width" : 320
      }, {
        "height" : 160,
        "url" : "https://i.scdn.co/image/ab6761610000f178d6de4d4087cf19752a932e94",
        "width" : 160
      } ],
      "name" : "Olani",
      "popularity" : 4,
      "type" : "artist",
      "uri" : "spotify:artist:0INu3XAUaxCGsbG213Y9o6"
    }, {
      "external_urls" : {
        "spotify" : "https://open.spotify.com/artist/2yxnx9EN8YMBmFJFvdXszv"
      },
      "followers" : {
        "href" : null,
        "total" : 21
      },
      "genres" : [ ],
      "href" : "https://api.spotify.com/v1/artists/2yxnx9EN8YMBmFJFvdXszv",
      "id" : "2yxnx9EN8YMBmFJFvdXszv",
      "images" : [ ],
      "name" : "Muyiwa Olanrewaju",
      "popularity" : 17,
      "type" : "artist",
      "uri" : "spotify:artist:2yxnx9EN8YMBmFJFvdXszv"
    }, {
      "external_urls" : {
        "spotify" : "https://open.spotify.com/artist/3BBWf8gJdcOI5EwrptKGSM"
      },
      "followers" : {
        "href" : null,
        "total" : 329
      },
      "genres" : [ ],
      "href" : "https://api.spotify.com/v1/artists/3BBWf8gJdcOI5EwrptKGSM",
      "id" : "3BBWf8gJdcOI5EwrptKGSM",
      "images" : [ {
        "height" : 640,
        "url" : "https://i.scdn.co/image/ab6761610000e5ebc54c3ab2ab33cf8b8e6e7810",
        "width" : 640
      }, {
        "height" : 320,
        "url" : "https://i.scdn.co/image/ab67616100005174c54c3ab2ab33cf8b8e6e7810",
        "width" : 320
      }, {
        "height" : 160,
        "url" : "https://i.scdn.co/image/ab6761610000f178c54c3ab2ab33cf8b8e6e7810",
        "width" : 160
      } ],
      "name" : "Olan Monk",
      "popularity" : 6,
      "type" : "artist",
      "uri" : "spotify:artist:3BBWf8gJdcOI5EwrptKGSM"
    }, {
      "external_urls" : {
        "spotify" : "https://open.spotify.com/artist/5DtoV3eKOBpGFfJyStM6GN"
      },
      "followers" : {
        "href" : null,
        "total" : 10
      },
      "genres" : [ ],
      "href" : "https://api.spotify.com/v1/artists/5DtoV3eKOBpGFfJyStM6GN",
      "id" : "5DtoV3eKOBpGFfJyStM6GN",
      "images" : [ ],
      "name" : "Mana'olana",
      "popularity" : 14,
      "type" : "artist",
      "uri" : "spotify:artist:5DtoV3eKOBpGFfJyStM6GN"
    }, {
      "external_urls" : {
        "spotify" : "https://open.spotify.com/artist/1aQZvSxNOs4rTYX77yEcxg"
      },
      "followers" : {
        "href" : null,
        "total" : 346
      },
      "genres" : [ ],
      "href" : "https://api.spotify.com/v1/artists/1aQZvSxNOs4rTYX77yEcxg",
      "id" : "1aQZvSxNOs4rTYX77yEcxg",
      "images" : [ {
        "height" : 1145,
        "url" : "https://i.scdn.co/image/2f01c81ba6992096b22470225de8b518363103a3",
        "width" : 1000
      }, {
        "height" : 733,
        "url" : "https://i.scdn.co/image/6b4c4ba6204c30c254dd92b07a2a7d1a8771fd0e",
        "width" : 640
      }, {
        "height" : 229,
        "url" : "https://i.scdn.co/image/cff0a6b418a57592871f31b5f9374e11c6b87cbc",
        "width" : 200
      }, {
        "height" : 73,
        "url" : "https://i.scdn.co/image/4cdbc217c85343c3ca32cdb43ee3df200f497bc9",
        "width" : 64
      } ],
      "name" : "O'Landa Draper",
      "popularity" : 1,
      "type" : "artist",
      "uri" : "spotify:artist:1aQZvSxNOs4rTYX77yEcxg"
    }, {
      "external_urls" : {
        "spotify" : "https://open.spotify.com/artist/31HPSPDm3SPtmvcXiYWJ7r"
      },
      "followers" : {
        "href" : null,
        "total" : 146
      },
      "genres" : [ ],
      "href" : "https://api.spotify.com/v1/artists/31HPSPDm3SPtmvcXiYWJ7r",
      "id" : "31HPSPDm3SPtmvcXiYWJ7r",
      "images" : [ ],
      "name" : "Nanna Øland Fabricius",
      "popularity" : 16,
      "type" : "artist",
      "uri" : "spotify:artist:31HPSPDm3SPtmvcXiYWJ7r"
    }, {
      "external_urls" : {
        "spotify" : "https://open.spotify.com/artist/7jZ5yp1o2kc39M1srp9150"
      },
      "followers" : {
        "href" : null,
        "total" : 238
      },
      "genres" : [ ],
      "href" : "https://api.spotify.com/v1/artists/7jZ5yp1o2kc39M1srp9150",
      "id" : "7jZ5yp1o2kc39M1srp9150",
      "images" : [ {
        "height" : 640,
        "url" : "https://i.scdn.co/image/ab67616d0000b273936e4bc868e021fd960eaeab",
        "width" : 640
      }, {
        "height" : 300,
        "url" : "https://i.scdn.co/image/ab67616d00001e02936e4bc868e021fd960eaeab",
        "width" : 300
      }, {
        "height" : 64,
        "url" : "https://i.scdn.co/image/ab67616d00004851936e4bc868e021fd960eaeab",
        "width" : 64
      } ],
      "name" : "O'Landa Draper's Associates",
      "popularity" : 1,
      "type" : "artist",
      "uri" : "spotify:artist:7jZ5yp1o2kc39M1srp9150"
    } ],
    "limit" : 20,
    "next" : "https://api.spotify.com/v1/search?query=OLAN&type=artist&market=US&offset=20&limit=20",
    "offset" : 0,
    "previous" : null,
    "total" : 289
  }
}