{
  "artists" : {
    "href" : "https://api.spotify.com/v1/search?query=TODD+TERRY&type=artist&market=US&offset=0&limit=20",
    "items" : [ {
      "external_urls" : {
        "spotify" : "https://open.spotify.com/artist/3dE92yGWcrboP1kC5SWyqu"
      },
      "followers" : {
        "href" : null,
        "total" : 54425
      },
      "genres" : [ "classic house", "deep groove house", "deep house", "disco house", "diva house", "funky house", "funky tech house", "garage house", "hip house", "house", "soulful house", "tech house", "tribal house", "vocal house" ],
      "href" : "https://api.spotify.com/v1/artists/3dE92yGWcrboP1kC5SWyqu",
      "id" : "3dE92yGWcrboP1kC5SWyqu",
      "images" : [ {
        "height" : 669,
        "url" : "https://i.scdn.co/image/f11a2dfb6ef7d5bc7a1eb72f6662ad9d67002a39",
        "width" : 999
      }, {
        "height" : 428,
        "url" : "https://i.scdn.co/image/5f0a217bb205fb84a4dcc6a1b0f1e2629a1c6f55",
        "width" : 639
      }, {
        "height" : 134,
        "url" : "https://i.scdn.co/image/706463cc89f77f9eadb0b79f4a96927f4d61766d",
        "width" : 200
      }, {
        "height" : 43,
        "url" : "https://i.scdn.co/image/62404fed22cde2ae0e17d7d61b9da5a14943b476",
        "width" : 64
      } ],
      "name" : "Todd Terry",
      "popularity" : 54,
      "type" : "artist",
      "uri" : "spotify:artist:3dE92yGWcrboP1kC5SWyqu"
    }, {
      "external_urls" : {
        "spotify" : "https://open.spotify.com/artist/5jECo0kFu5FyMq8Rxx3XMN"
      },
      "followers" : {
        "href" : null,
        "total" : 329
      },
      "genres" : [ "classic house" ],
      "href" : "https://api.spotify.com/v1/artists/5jECo0kFu5FyMq8Rxx3XMN",
      "id" : "5jECo0kFu5FyMq8Rxx3XMN",
      "images" : [ {
        "height" : 640,
        "url" : "https://i.scdn.co/image/ab67616d0000b2736d9af15050feffea17350b8b",
        "width" : 640
      }, {
        "height" : 300,
        "url" : "https://i.scdn.co/image/ab67616d00001e026d9af15050feffea17350b8b",
        "width" : 300
      }, {
        "height" : 64,
        "url" : "https://i.scdn.co/image/ab67616d000048516d9af15050feffea17350b8b",
        "width" : 64
      } ],
      "name" : "Todd Terry All Stars",
      "popularity" : 22,
      "type" : "artist",
      "uri" : "spotify:artist:5jECo0kFu5FyMq8Rxx3XMN"
    }, {
      "external_urls" : {
        "spotify" : "https://open.spotify.com/artist/1mjzdV49eU7CuhdWnJOWBd"
      },
      "followers" : {
        "href" : null,
        "total" : 3287
      },
      "genres" : [ "acid house", "classic house", "hip house" ],
      "href" : "https://api.spotify.com/v1/artists/1mjzdV49eU7CuhdWnJOWBd",
      "id" : "1mjzdV49eU7CuhdWnJOWBd",
      "images" : [ {
        "height" : 1000,
        "url" : "https://i.scdn.co/image/afa3057889ba7653a2a88d08de2d11c522353b9d",
        "width" : 1000
      }, {
        "height" : 640,
        "url" : "https://i.scdn.co/image/99352cf0898934e1653001bfe082ce3aec9af9cd",
        "width" : 640
      }, {
        "height" : 200,
        "url" : "https://i.scdn.co/image/f20d56e805fe1c1bac63854a535b5d582e21229d",
        "width" : 200
      }, {
        "height" : 64,
        "url" : "https://i.scdn.co/image/8f27376af4eaff58267f10ab007c3d55ac6db4ed",
        "width" : 64
      } ],
      "name" : "The Todd Terry Project",
      "popularity" : 26,
      "type" : "artist",
      "uri" : "spotify:artist:1mjzdV49eU7CuhdWnJOWBd"
    }, {
      "external_urls" : {
        "spotify" : "https://open.spotify.com/artist/5Vn6xuyfyoDKBTNAsbUQhT"
      },
      "followers" : {
        "href" : null,
        "total" : 89
      },
      "genres" : [ ],
      "href" : "https://api.spotify.com/v1/artists/5Vn6xuyfyoDKBTNAsbUQhT",
      "id" : "5Vn6xuyfyoDKBTNAsbUQhT",
      "images" : [ ],
      "name" : "Todd Terry vs Eric B and Rakim",
      "popularity" : 5,
      "type" : "artist",
      "uri" : "spotify:artist:5Vn6xuyfyoDKBTNAsbUQhT"
    }, {
      "external_urls" : {
        "spotify" : "https://open.spotify.com/artist/3awBQQgfzMh4KtSjOlL6PO"
      },
      "followers" : {
        "href" : null,
        "total" : 6
      },
      "genres" : [ ],
      "href" : "https://api.spotify.com/v1/artists/3awBQQgfzMh4KtSjOlL6PO",
      "id" : "3awBQQgfzMh4KtSjOlL6PO",
      "images" : [ ],
      "name" : "Todd Terry For Big Management Ltd NYC",
      "popularity" : 5,
      "type" : "artist",
      "uri" : "spotify:artist:3awBQQgfzMh4KtSjOlL6PO"
    }, {
      "external_urls" : {
        "spotify" : "https://open.spotify.com/artist/0qM6K78HJthazc1mN1tfhS"
      },
      "followers" : {
        "href" : null,
        "total" : 1
      },
      "genres" : [ ],
      "href" : "https://api.spotify.com/v1/artists/0qM6K78HJthazc1mN1tfhS",
      "id" : "0qM6K78HJthazc1mN1tfhS",
      "images" : [ ],
      "name" : "Todd Terry",
      "popularity" : 0,
      "type" : "artist",
      "uri" : "spotify:artist:0qM6K78HJthazc1mN1tfhS"
    }, {
      "external_urls" : {
        "spotify" : "https://open.spotify.com/artist/6zVGYLRP7qh5Rlla0C7UvF"
      },
      "followers" : {
        "href" : null,
        "total" : 6
      },
      "genres" : [ ],
      "href" : "https://api.spotify.com/v1/artists/6zVGYLRP7qh5Rlla0C7UvF",
      "id" : "6zVGYLRP7qh5Rlla0C7UvF",
      "images" : [ ],
      "name" : "Todd Terry, Leon Cormack & Simmelink",
      "popularity" : 3,
      "type" : "artist",
      "uri" : "spotify:artist:6zVGYLRP7qh5Rlla0C7UvF"
    }, {
      "external_urls" : {
        "spotify" : "https://open.spotify.com/artist/5KLHdANThg0ERqPrWny5Fa"
      },
      "followers" : {
        "href" : null,
        "total" : 6
      },
      "genres" : [ ],
      "href" : "https://api.spotify.com/v1/artists/5KLHdANThg0ERqPrWny5Fa",
      "id" : "5KLHdANThg0ERqPrWny5Fa",
      "images" : [ ],
      "name" : "Terry Todd",
      "popularity" : 0,
      "type" : "artist",
      "uri" : "spotify:artist:5KLHdANThg0ERqPrWny5Fa"
    }, {
      "external_urls" : {
        "spotify" : "https://open.spotify.com/artist/0NHCxEgEBcQZUJ2uYbX6ri"
      },
      "followers" : {
        "href" : null,
        "total" : 5
      },
      "genres" : [ ],
      "href" : "https://api.spotify.com/v1/artists/0NHCxEgEBcQZUJ2uYbX6ri",
      "id" : "0NHCxEgEBcQZUJ2uYbX6ri",
      "images" : [ ],
      "name" : "Todd Terry vs KRS ONE",
      "popularity" : 0,
      "type" : "artist",
      "uri" : "spotify:artist:0NHCxEgEBcQZUJ2uYbX6ri"
    }, {
      "external_urls" : {
        "spotify" : "https://open.spotify.com/artist/7aNXz4FETxcFShFI20sCwx"
      },
      "followers" : {
        "href" : null,
        "total" : 1
      },
      "genres" : [ ],
      "href" : "https://api.spotify.com/v1/artists/7aNXz4FETxcFShFI20sCwx",
      "id" : "7aNXz4FETxcFShFI20sCwx",
      "images" : [ ],
      "name" : "Todd Terry",
      "popularity" : 0,
      "type" : "artist",
      "uri" : "spotify:artist:7aNXz4FETxcFShFI20sCwx"
    }, {
      "external_urls" : {
        "spotify" : "https://open.spotify.com/artist/04XNVu5TK1UG1omBMQDs5u"
      },
      "followers" : {
        "href" : null,
        "total" : 4
      },
      "genres" : [ ],
      "href" : "https://api.spotify.com/v1/artists/04XNVu5TK1UG1omBMQDs5u",
      "id" : "04XNVu5TK1UG1omBMQDs5u",
      "images" : [ ],
      "name" : "Todd Terry vs Fatman Scoop",
      "popularity" : 0,
      "type" : "artist",
      "uri" : "spotify:artist:04XNVu5TK1UG1omBMQDs5u"
    }, {
      "external_urls" : {
        "spotify" : "https://open.spotify.com/artist/2J8o31z1NDBwZhnIm58TFd"
      },
      "followers" : {
        "href" : null,
        "total" : 11
      },
      "genres" : [ ],
      "href" : "https://api.spotify.com/v1/artists/2J8o31z1NDBwZhnIm58TFd",
      "id" : "2J8o31z1NDBwZhnIm58TFd",
      "images" : [ {
        "height" : 640,
        "url" : "https://i.scdn.co/image/ab67616d0000b27312b681c7f931e74b161e8b63",
        "width" : 640
      }, {
        "height" : 300,
        "url" : "https://i.scdn.co/image/ab67616d00001e0212b681c7f931e74b161e8b63",
        "width" : 300
      }, {
        "height" : 64,
        "url" : "https://i.scdn.co/image/ab67616d0000485112b681c7f931e74b161e8b63",
        "width" : 64
      } ],
      "name" : "Todd Terry, Various",
      "popularity" : 0,
      "type" : "artist",
      "uri" : "spotify:artist:2J8o31z1NDBwZhnIm58TFd"
    }, {
      "external_urls" : {
        "spotify" : "https://open.spotify.com/artist/5NuFHo5hmCelHPzWeQNX0H"
      },
      "followers" : {
        "href" : null,
        "total" : 216
      },
      "genres" : [ ],
      "href" : "https://api.spotify.com/v1/artists/5NuFHo5hmCelHPzWeQNX0H",
      "id" : "5NuFHo5hmCelHPzWeQNX0H",
      "images" : [ {
        "height" : 640,
        "url" : "https://i.scdn.co/image/ab67616d0000b273cd8842e7cc2ea4220f914601",
        "width" : 640
      }, {
        "height" : 300,
        "url" : "https://i.scdn.co/image/ab67616d00001e02cd8842e7cc2ea4220f914601",
        "width" : 300
      }, {
        "height" : 64,
        "url" : "https://i.scdn.co/image/ab67616d00004851cd8842e7cc2ea4220f914601",
        "width" : 64
      } ],
      "name" : "Todd Terry Project",
      "popularity" : 1,
      "type" : "artist",
      "uri" : "spotify:artist:5NuFHo5hmCelHPzWeQNX0H"
    }, {
      "external_urls" : {
        "spotify" : "https://open.spotify.com/artist/2dRndh1G2m42sCkA8cygJS"
      },
      "followers" : {
        "href" : null,
        "total" : 0
      },
      "genres" : [ ],
      "href" : "https://api.spotify.com/v1/artists/2dRndh1G2m42sCkA8cygJS",
      "id" : "2dRndh1G2m42sCkA8cygJS",
      "images" : [ ],
      "name" : "Maboo,Todd Terry",
      "popularity" : 0,
      "type" : "artist",
      "uri" : "spotify:artist:2dRndh1G2m42sCkA8cygJS"
    }, {
      "external_urls" : {
        "spotify" : "https://open.spotify.com/artist/7j5SFQFuwxjDlEg2FU9zeW"
      },
      "followers" : {
        "href" : null,
        "total" : 6
      },
      "genres" : [ ],
      "href" : "https://api.spotify.com/v1/artists/7j5SFQFuwxjDlEg2FU9zeW",
      "id" : "7j5SFQFuwxjDlEg2FU9zeW",
      "images" : [ ],
      "name" : "Todd Terry & Alexander Technique",
      "popularity" : 0,
      "type" : "artist",
      "uri" : "spotify:artist:7j5SFQFuwxjDlEg2FU9zeW"
    }, {
      "external_urls" : {
        "spotify" : "https://open.spotify.com/artist/5wLAr6GA5ATjadoYn9NAvn"
      },
      "followers" : {
        "href" : null,
        "total" : 23
      },
      "genres" : [ ],
      "href" : "https://api.spotify.com/v1/artists/5wLAr6GA5ATjadoYn9NAvn",
      "id" : "5wLAr6GA5ATjadoYn9NAvn",
      "images" : [ ],
      "name" : "Todd Terry vs Jodeci",
      "popularity" : 0,
      "type" : "artist",
      "uri" : "spotify:artist:5wLAr6GA5ATjadoYn9NAvn"
    }, {
      "external_urls" : {
        "spotify" : "https://open.spotify.com/artist/0Sd43a1aTtWlRVHysdqnLZ"
      },
      "followers" : {
        "href" : null,
        "total" : 2
      },
      "genres" : [ ],
      "href" : "https://api.spotify.com/v1/artists/0Sd43a1aTtWlRVHysdqnLZ",
      "id" : "0Sd43a1aTtWlRVHysdqnLZ",
      "images" : [ ],
      "name" : "Todd Terry Tee",
      "popularity" : 0,
      "type" : "artist",
      "uri" : "spotify:artist:0Sd43a1aTtWlRVHysdqnLZ"
    }, {
      "external_urls" : {
        "spotify" : "https://open.spotify.com/artist/4ywFDYhpXrDI7YXKUYXBUs"
      },
      "followers" : {
        "href" : null,
        "total" : 43
      },
      "genres" : [ ],
      "href" : "https://api.spotify.com/v1/artists/4ywFDYhpXrDI7YXKUYXBUs",
      "id" : "4ywFDYhpXrDI7YXKUYXBUs",
      "images" : [ {
        "height" : 640,
        "url" : "https://i.scdn.co/image/ab67616d0000b27337f712432cdb87217bf71d9f",
        "width" : 640
      }, {
        "height" : 300,
        "url" : "https://i.scdn.co/image/ab67616d00001e0237f712432cdb87217bf71d9f",
        "width" : 300
      }, {
        "height" : 64,
        "url" : "https://i.scdn.co/image/ab67616d0000485137f712432cdb87217bf71d9f",
        "width" : 64
      } ],
      "name" : "Todd Terry Presents Sound Design",
      "popularity" : 1,
      "type" : "artist",
      "uri" : "spotify:artist:4ywFDYhpXrDI7YXKUYXBUs"
    }, {
      "external_urls" : {
        "spotify" : "https://open.spotify.com/artist/6Nlt1LR580gud6sJsjkr9Z"
      },
      "followers" : {
        "href" : null,
        "total" : 44
      },
      "genres" : [ ],
      "href" : "https://api.spotify.com/v1/artists/6Nlt1LR580gud6sJsjkr9Z",
      "id" : "6Nlt1LR580gud6sJsjkr9Z",
      "images" : [ {
        "height" : 640,
        "url" : "https://i.scdn.co/image/ab67616d0000b273899bc043d8037326a7b14290",
        "width" : 640
      }, {
        "height" : 300,
        "url" : "https://i.scdn.co/image/ab67616d00001e02899bc043d8037326a7b14290",
        "width" : 300
      }, {
        "height" : 64,
        "url" : "https://i.scdn.co/image/ab67616d00004851899bc043d8037326a7b14290",
        "width" : 64
      } ],
      "name" : "Todd Terry Allstars",
      "popularity" : 0,
      "type" : "artist",
      "uri" : "spotify:artist:6Nlt1LR580gud6sJsjkr9Z"
    }, {
      "external_urls" : {
        "spotify" : "https://open.spotify.com/artist/5gzaCn3nHHpiCe1kvrOkAQ"
      },
      "followers" : {
        "href" : null,
        "total" : 14
      },
      "genres" : [ ],
      "href" : "https://api.spotify.com/v1/artists/5gzaCn3nHHpiCe1kvrOkAQ",
      "id" : "5gzaCn3nHHpiCe1kvrOkAQ",
      "images" : [ ],
      "name" : "Todd Terry vs Take Six",
      "popularity" : 0,
      "type" : "artist",
      "uri" : "spotify:artist:5gzaCn3nHHpiCe1kvrOkAQ"
    } ],
    "limit" : 20,
    "next" : "https://api.spotify.com/v1/search?query=TODD+TERRY&type=artist&market=US&offset=20&limit=20",
    "offset" : 0,
    "previous" : null,
    "total" : 34
  }
}