{
  "artists" : {
    "href" : "https://api.spotify.com/v1/search?query=ZEDD&type=artist&market=US&offset=0&limit=20",
    "items" : [ {
      "external_urls" : {
        "spotify" : "https://open.spotify.com/artist/2qxJFvFYMEDqd7ui6kSAcq"
      },
      "followers" : {
        "href" : null,
        "total" : 5710755
      },
      "genres" : [ "complextro", "dance pop", "edm", "electro house", "electropop", "german techno", "pop", "pop dance", "pop rap", "tropical house" ],
      "href" : "https://api.spotify.com/v1/artists/2qxJFvFYMEDqd7ui6kSAcq",
      "id" : "2qxJFvFYMEDqd7ui6kSAcq",
      "images" : [ {
        "height" : 640,
        "url" : "https://i.scdn.co/image/ab6761610000e5ebcbe6db0e826f9e816a7d158e",
        "width" : 640
      }, {
        "height" : 320,
        "url" : "https://i.scdn.co/image/ab67616100005174cbe6db0e826f9e816a7d158e",
        "width" : 320
      }, {
        "height" : 160,
        "url" : "https://i.scdn.co/image/ab6761610000f178cbe6db0e826f9e816a7d158e",
        "width" : 160
      } ],
      "name" : "Zedd",
      "popularity" : 80,
      "type" : "artist",
      "uri" : "spotify:artist:2qxJFvFYMEDqd7ui6kSAcq"
    }, {
      "external_urls" : {
        "spotify" : "https://open.spotify.com/artist/08pvyygl17Ub4Q0XWz5RzE"
      },
      "followers" : {
        "href" : null,
        "total" : 11
      },
      "genres" : [ ],
      "href" : "https://api.spotify.com/v1/artists/08pvyygl17Ub4Q0XWz5RzE",
      "id" : "08pvyygl17Ub4Q0XWz5RzE",
      "images" : [ {
        "height" : 640,
        "url" : "https://i.scdn.co/image/ab6761610000e5eba58bc048742fd4486c4e4633",
        "width" : 640
      }, {
        "height" : 320,
        "url" : "https://i.scdn.co/image/ab67616100005174a58bc048742fd4486c4e4633",
        "width" : 320
      }, {
        "height" : 160,
        "url" : "https://i.scdn.co/image/ab6761610000f178a58bc048742fd4486c4e4633",
        "width" : 160
      } ],
      "name" : "ZEDDiii",
      "popularity" : 13,
      "type" : "artist",
      "uri" : "spotify:artist:08pvyygl17Ub4Q0XWz5RzE"
    }, {
      "external_urls" : {
        "spotify" : "https://open.spotify.com/artist/67qogtRNI0GjUr8PlaG6Zh"
      },
      "followers" : {
        "href" : null,
        "total" : 521980
      },
      "genres" : [ "brostep", "canadian electronic", "dubstep", "edm", "electro house", "electronic trap", "progressive electro house", "vapor twitch" ],
      "href" : "https://api.spotify.com/v1/artists/67qogtRNI0GjUr8PlaG6Zh",
      "id" : "67qogtRNI0GjUr8PlaG6Zh",
      "images" : [ {
        "height" : 640,
        "url" : "https://i.scdn.co/image/ab6761610000e5eb8f9c9739f2bbee96365a4b23",
        "width" : 640
      }, {
        "height" : 320,
        "url" : "https://i.scdn.co/image/ab676161000051748f9c9739f2bbee96365a4b23",
        "width" : 320
      }, {
        "height" : 160,
        "url" : "https://i.scdn.co/image/ab6761610000f1788f9c9739f2bbee96365a4b23",
        "width" : 160
      } ],
      "name" : "Zeds Dead",
      "popularity" : 67,
      "type" : "artist",
      "uri" : "spotify:artist:67qogtRNI0GjUr8PlaG6Zh"
    }, {
      "external_urls" : {
        "spotify" : "https://open.spotify.com/artist/5y4dynG4Pj8JGb25WlrvGG"
      },
      "followers" : {
        "href" : null,
        "total" : 42
      },
      "genres" : [ ],
      "href" : "https://api.spotify.com/v1/artists/5y4dynG4Pj8JGb25WlrvGG",
      "id" : "5y4dynG4Pj8JGb25WlrvGG",
      "images" : [ {
        "height" : 640,
        "url" : "https://i.scdn.co/image/ab6761610000e5eb7176c2e7673fd2e680b7e4f1",
        "width" : 640
      }, {
        "height" : 320,
        "url" : "https://i.scdn.co/image/ab676161000051747176c2e7673fd2e680b7e4f1",
        "width" : 320
      }, {
        "height" : 160,
        "url" : "https://i.scdn.co/image/ab6761610000f1787176c2e7673fd2e680b7e4f1",
        "width" : 160
      } ],
      "name" : "Zeddy",
      "popularity" : 22,
      "type" : "artist",
      "uri" : "spotify:artist:5y4dynG4Pj8JGb25WlrvGG"
    }, {
      "external_urls" : {
        "spotify" : "https://open.spotify.com/artist/0HLu7PWY34eKZYZ7DUdT30"
      },
      "followers" : {
        "href" : null,
        "total" : 196
      },
      "genres" : [ "historically informed performance" ],
      "href" : "https://api.spotify.com/v1/artists/0HLu7PWY34eKZYZ7DUdT30",
      "id" : "0HLu7PWY34eKZYZ7DUdT30",
      "images" : [ {
        "height" : 1000,
        "url" : "https://i.scdn.co/image/5d391060824fa735f5edcf634d0998b813667fd8",
        "width" : 1000
      }, {
        "height" : 640,
        "url" : "https://i.scdn.co/image/6850b5a789cf1f0e20e72c4226f2f637e72819c3",
        "width" : 640
      }, {
        "height" : 200,
        "url" : "https://i.scdn.co/image/1d181d9fcdc46825ab7fd8450a5925962beceadd",
        "width" : 200
      }, {
        "height" : 64,
        "url" : "https://i.scdn.co/image/0dd9532bff0105b138900c189a9ced8b95acdcef",
        "width" : 64
      } ],
      "name" : "Alberto Zedda",
      "popularity" : 23,
      "type" : "artist",
      "uri" : "spotify:artist:0HLu7PWY34eKZYZ7DUdT30"
    }, {
      "external_urls" : {
        "spotify" : "https://open.spotify.com/artist/0K1GHnOv4P4wnXvf47BTC7"
      },
      "followers" : {
        "href" : null,
        "total" : 34
      },
      "genres" : [ ],
      "href" : "https://api.spotify.com/v1/artists/0K1GHnOv4P4wnXvf47BTC7",
      "id" : "0K1GHnOv4P4wnXvf47BTC7",
      "images" : [ {
        "height" : 640,
        "url" : "https://i.scdn.co/image/ab67616d0000b2739c4b60beb5f5bcb13213bf22",
        "width" : 640
      }, {
        "height" : 300,
        "url" : "https://i.scdn.co/image/ab67616d00001e029c4b60beb5f5bcb13213bf22",
        "width" : 300
      }, {
        "height" : 64,
        "url" : "https://i.scdn.co/image/ab67616d000048519c4b60beb5f5bcb13213bf22",
        "width" : 64
      } ],
      "name" : "Zeddy Guapo",
      "popularity" : 1,
      "type" : "artist",
      "uri" : "spotify:artist:0K1GHnOv4P4wnXvf47BTC7"
    }, {
      "external_urls" : {
        "spotify" : "https://open.spotify.com/artist/6PU04j6aeUUP0AkjRAN1ag"
      },
      "followers" : {
        "href" : null,
        "total" : 48
      },
      "genres" : [ ],
      "href" : "https://api.spotify.com/v1/artists/6PU04j6aeUUP0AkjRAN1ag",
      "id" : "6PU04j6aeUUP0AkjRAN1ag",
      "images" : [ ],
      "name" : "Zedd Ative",
      "popularity" : 6,
      "type" : "artist",
      "uri" : "spotify:artist:6PU04j6aeUUP0AkjRAN1ag"
    }, {
      "external_urls" : {
        "spotify" : "https://open.spotify.com/artist/6Fjgynm1cKeciKghldYtX6"
      },
      "followers" : {
        "href" : null,
        "total" : 136
      },
      "genres" : [ ],
      "href" : "https://api.spotify.com/v1/artists/6Fjgynm1cKeciKghldYtX6",
      "id" : "6Fjgynm1cKeciKghldYtX6",
      "images" : [ {
        "height" : 640,
        "url" : "https://i.scdn.co/image/ab6761610000e5eb2b8213defc624075ee7ed0f7",
        "width" : 640
      }, {
        "height" : 320,
        "url" : "https://i.scdn.co/image/ab676161000051742b8213defc624075ee7ed0f7",
        "width" : 320
      }, {
        "height" : 160,
        "url" : "https://i.scdn.co/image/ab6761610000f1782b8213defc624075ee7ed0f7",
        "width" : 160
      } ],
      "name" : "Yung Zedd",
      "popularity" : 14,
      "type" : "artist",
      "uri" : "spotify:artist:6Fjgynm1cKeciKghldYtX6"
    }, {
      "external_urls" : {
        "spotify" : "https://open.spotify.com/artist/1u5fAUPzHpGcFMvhyO1rlb"
      },
      "followers" : {
        "href" : null,
        "total" : 398
      },
      "genres" : [ ],
      "href" : "https://api.spotify.com/v1/artists/1u5fAUPzHpGcFMvhyO1rlb",
      "id" : "1u5fAUPzHpGcFMvhyO1rlb",
      "images" : [ {
        "height" : 640,
        "url" : "https://i.scdn.co/image/ab67616d0000b273d9f97e6c06c66e18d2c91757",
        "width" : 640
      }, {
        "height" : 300,
        "url" : "https://i.scdn.co/image/ab67616d00001e02d9f97e6c06c66e18d2c91757",
        "width" : 300
      }, {
        "height" : 64,
        "url" : "https://i.scdn.co/image/ab67616d00004851d9f97e6c06c66e18d2c91757",
        "width" : 64
      } ],
      "name" : "Zedd",
      "popularity" : 0,
      "type" : "artist",
      "uri" : "spotify:artist:1u5fAUPzHpGcFMvhyO1rlb"
    }, {
      "external_urls" : {
        "spotify" : "https://open.spotify.com/artist/4n9jMLqCNIJ7WdZBOpWeeM"
      },
      "followers" : {
        "href" : null,
        "total" : 0
      },
      "genres" : [ ],
      "href" : "https://api.spotify.com/v1/artists/4n9jMLqCNIJ7WdZBOpWeeM",
      "id" : "4n9jMLqCNIJ7WdZBOpWeeM",
      "images" : [ {
        "height" : 640,
        "url" : "https://i.scdn.co/image/ab67616d0000b273f1d13351210b6cb15ecdd585",
        "width" : 640
      }, {
        "height" : 300,
        "url" : "https://i.scdn.co/image/ab67616d00001e02f1d13351210b6cb15ecdd585",
        "width" : 300
      }, {
        "height" : 64,
        "url" : "https://i.scdn.co/image/ab67616d00004851f1d13351210b6cb15ecdd585",
        "width" : 64
      } ],
      "name" : "zeddykool",
      "popularity" : 0,
      "type" : "artist",
      "uri" : "spotify:artist:4n9jMLqCNIJ7WdZBOpWeeM"
    }, {
      "external_urls" : {
        "spotify" : "https://open.spotify.com/artist/78avh49bQJY39aJ63yRBBd"
      },
      "followers" : {
        "href" : null,
        "total" : 1
      },
      "genres" : [ ],
      "href" : "https://api.spotify.com/v1/artists/78avh49bQJY39aJ63yRBBd",
      "id" : "78avh49bQJY39aJ63yRBBd",
      "images" : [ {
        "height" : 640,
        "url" : "https://i.scdn.co/image/ab67616d0000b273fa3f057686e9795661fcf2e9",
        "width" : 640
      }, {
        "height" : 300,
        "url" : "https://i.scdn.co/image/ab67616d00001e02fa3f057686e9795661fcf2e9",
        "width" : 300
      }, {
        "height" : 64,
        "url" : "https://i.scdn.co/image/ab67616d00004851fa3f057686e9795661fcf2e9",
        "width" : 64
      } ],
      "name" : "Zeddah",
      "popularity" : 0,
      "type" : "artist",
      "uri" : "spotify:artist:78avh49bQJY39aJ63yRBBd"
    }, {
      "external_urls" : {
        "spotify" : "https://open.spotify.com/artist/42yZEGaKeaf4z8ph5vh1ld"
      },
      "followers" : {
        "href" : null,
        "total" : 124
      },
      "genres" : [ ],
      "href" : "https://api.spotify.com/v1/artists/42yZEGaKeaf4z8ph5vh1ld",
      "id" : "42yZEGaKeaf4z8ph5vh1ld",
      "images" : [ {
        "height" : 640,
        "url" : "https://i.scdn.co/image/ab6761610000e5eb0b9917e300626b0e3b6c1bc3",
        "width" : 640
      }, {
        "height" : 320,
        "url" : "https://i.scdn.co/image/ab676161000051740b9917e300626b0e3b6c1bc3",
        "width" : 320
      }, {
        "height" : 160,
        "url" : "https://i.scdn.co/image/ab6761610000f1780b9917e300626b0e3b6c1bc3",
        "width" : 160
      } ],
      "name" : "Zeddemore",
      "popularity" : 0,
      "type" : "artist",
      "uri" : "spotify:artist:42yZEGaKeaf4z8ph5vh1ld"
    }, {
      "external_urls" : {
        "spotify" : "https://open.spotify.com/artist/6IZjjTqRMeu0w7FmbAIVFX"
      },
      "followers" : {
        "href" : null,
        "total" : 2
      },
      "genres" : [ ],
      "href" : "https://api.spotify.com/v1/artists/6IZjjTqRMeu0w7FmbAIVFX",
      "id" : "6IZjjTqRMeu0w7FmbAIVFX",
      "images" : [ ],
      "name" : "Zeddski",
      "popularity" : 0,
      "type" : "artist",
      "uri" : "spotify:artist:6IZjjTqRMeu0w7FmbAIVFX"
    }, {
      "external_urls" : {
        "spotify" : "https://open.spotify.com/artist/7eUDf3pRF4ZxCQMLpQC0oH"
      },
      "followers" : {
        "href" : null,
        "total" : 132
      },
      "genres" : [ ],
      "href" : "https://api.spotify.com/v1/artists/7eUDf3pRF4ZxCQMLpQC0oH",
      "id" : "7eUDf3pRF4ZxCQMLpQC0oH",
      "images" : [ {
        "height" : 640,
        "url" : "https://i.scdn.co/image/ab6761610000e5eb11c131b2c0c28eaedf1476a4",
        "width" : 640
      }, {
        "height" : 320,
        "url" : "https://i.scdn.co/image/ab6761610000517411c131b2c0c28eaedf1476a4",
        "width" : 320
      }, {
        "height" : 160,
        "url" : "https://i.scdn.co/image/ab6761610000f17811c131b2c0c28eaedf1476a4",
        "width" : 160
      } ],
      "name" : "Zeddy",
      "popularity" : 10,
      "type" : "artist",
      "uri" : "spotify:artist:7eUDf3pRF4ZxCQMLpQC0oH"
    }, {
      "external_urls" : {
        "spotify" : "https://open.spotify.com/artist/5hkrSQRewaiRrmTx6zHpRy"
      },
      "followers" : {
        "href" : null,
        "total" : 3
      },
      "genres" : [ ],
      "href" : "https://api.spotify.com/v1/artists/5hkrSQRewaiRrmTx6zHpRy",
      "id" : "5hkrSQRewaiRrmTx6zHpRy",
      "images" : [ {
        "height" : 640,
        "url" : "https://i.scdn.co/image/ab6761610000e5ebaa5676dc3973b1b8141bf51e",
        "width" : 640
      }, {
        "height" : 320,
        "url" : "https://i.scdn.co/image/ab67616100005174aa5676dc3973b1b8141bf51e",
        "width" : 320
      }, {
        "height" : 160,
        "url" : "https://i.scdn.co/image/ab6761610000f178aa5676dc3973b1b8141bf51e",
        "width" : 160
      } ],
      "name" : "Zeddn",
      "popularity" : 0,
      "type" : "artist",
      "uri" : "spotify:artist:5hkrSQRewaiRrmTx6zHpRy"
    }, {
      "external_urls" : {
        "spotify" : "https://open.spotify.com/artist/619r0koTVQLJ1mTBYFKw8j"
      },
      "followers" : {
        "href" : null,
        "total" : 0
      },
      "genres" : [ ],
      "href" : "https://api.spotify.com/v1/artists/619r0koTVQLJ1mTBYFKw8j",
      "id" : "619r0koTVQLJ1mTBYFKw8j",
      "images" : [ {
        "height" : 640,
        "url" : "https://i.scdn.co/image/ab67616d0000b273f3f20a90e08bf51f656771bd",
        "width" : 640
      }, {
        "height" : 300,
        "url" : "https://i.scdn.co/image/ab67616d00001e02f3f20a90e08bf51f656771bd",
        "width" : 300
      }, {
        "height" : 64,
        "url" : "https://i.scdn.co/image/ab67616d00004851f3f20a90e08bf51f656771bd",
        "width" : 64
      } ],
      "name" : "Zedd",
      "popularity" : 0,
      "type" : "artist",
      "uri" : "spotify:artist:619r0koTVQLJ1mTBYFKw8j"
    }, {
      "external_urls" : {
        "spotify" : "https://open.spotify.com/artist/1MtYVE3hjORA2unOo0GaZ7"
      },
      "followers" : {
        "href" : null,
        "total" : 0
      },
      "genres" : [ ],
      "href" : "https://api.spotify.com/v1/artists/1MtYVE3hjORA2unOo0GaZ7",
      "id" : "1MtYVE3hjORA2unOo0GaZ7",
      "images" : [ {
        "height" : 640,
        "url" : "https://i.scdn.co/image/ab67616d0000b273992e3793d40f9c94474c1926",
        "width" : 640
      }, {
        "height" : 300,
        "url" : "https://i.scdn.co/image/ab67616d00001e02992e3793d40f9c94474c1926",
        "width" : 300
      }, {
        "height" : 64,
        "url" : "https://i.scdn.co/image/ab67616d00004851992e3793d40f9c94474c1926",
        "width" : 64
      } ],
      "name" : "Zeddy",
      "popularity" : 0,
      "type" : "artist",
      "uri" : "spotify:artist:1MtYVE3hjORA2unOo0GaZ7"
    }, {
      "external_urls" : {
        "spotify" : "https://open.spotify.com/artist/6YNW60JPM1JacKbn2hfKdL"
      },
      "followers" : {
        "href" : null,
        "total" : 854
      },
      "genres" : [ ],
      "href" : "https://api.spotify.com/v1/artists/6YNW60JPM1JacKbn2hfKdL",
      "id" : "6YNW60JPM1JacKbn2hfKdL",
      "images" : [ {
        "height" : 640,
        "url" : "https://i.scdn.co/image/ab6761610000e5eb705c858ccf9af92b7250ce0d",
        "width" : 640
      }, {
        "height" : 320,
        "url" : "https://i.scdn.co/image/ab67616100005174705c858ccf9af92b7250ce0d",
        "width" : 320
      }, {
        "height" : 160,
        "url" : "https://i.scdn.co/image/ab6761610000f178705c858ccf9af92b7250ce0d",
        "width" : 160
      } ],
      "name" : "Zedd",
      "popularity" : 0,
      "type" : "artist",
      "uri" : "spotify:artist:6YNW60JPM1JacKbn2hfKdL"
    }, {
      "external_urls" : {
        "spotify" : "https://open.spotify.com/artist/3lUkiIPFPBO9bkYO1K54Db"
      },
      "followers" : {
        "href" : null,
        "total" : 28
      },
      "genres" : [ "french reggae" ],
      "href" : "https://api.spotify.com/v1/artists/3lUkiIPFPBO9bkYO1K54Db",
      "id" : "3lUkiIPFPBO9bkYO1K54Db",
      "images" : [ {
        "height" : 640,
        "url" : "https://i.scdn.co/image/ab67616d0000b273c5dd0050a6528d5de5864478",
        "width" : 640
      }, {
        "height" : 300,
        "url" : "https://i.scdn.co/image/ab67616d00001e02c5dd0050a6528d5de5864478",
        "width" : 300
      }, {
        "height" : 64,
        "url" : "https://i.scdn.co/image/ab67616d00004851c5dd0050a6528d5de5864478",
        "width" : 64
      } ],
      "name" : "Zedda",
      "popularity" : 0,
      "type" : "artist",
      "uri" : "spotify:artist:3lUkiIPFPBO9bkYO1K54Db"
    }, {
      "external_urls" : {
        "spotify" : "https://open.spotify.com/artist/1MECgA5F8LOgqrwi8J29xU"
      },
      "followers" : {
        "href" : null,
        "total" : 1
      },
      "genres" : [ ],
      "href" : "https://api.spotify.com/v1/artists/1MECgA5F8LOgqrwi8J29xU",
      "id" : "1MECgA5F8LOgqrwi8J29xU",
      "images" : [ ],
      "name" : ". Zeddy",
      "popularity" : 0,
      "type" : "artist",
      "uri" : "spotify:artist:1MECgA5F8LOgqrwi8J29xU"
    } ],
    "limit" : 20,
    "next" : "https://api.spotify.com/v1/search?query=ZEDD&type=artist&market=US&offset=20&limit=20",
    "offset" : 0,
    "previous" : null,
    "total" : 140
  }
}