{
  "artists" : {
    "href" : "https://api.spotify.com/v1/search?query=+Anitta&type=artist&market=US&offset=0&limit=20",
    "items" : [ {
      "external_urls" : {
        "spotify" : "https://open.spotify.com/artist/7FNnA9vBm6EKceENgCGRMb"
      },
      "followers" : {
        "href" : null,
        "total" : 11336607
      },
      "genres" : [ "funk carioca", "funk pop", "pagode baiano", "pop nacional" ],
      "href" : "https://api.spotify.com/v1/artists/7FNnA9vBm6EKceENgCGRMb",
      "id" : "7FNnA9vBm6EKceENgCGRMb",
      "images" : [ {
        "height" : 640,
        "url" : "https://i.scdn.co/image/ab6761610000e5eb835afdc1e0333889873e402a",
        "width" : 640
      }, {
        "height" : 320,
        "url" : "https://i.scdn.co/image/ab67616100005174835afdc1e0333889873e402a",
        "width" : 320
      }, {
        "height" : 160,
        "url" : "https://i.scdn.co/image/ab6761610000f178835afdc1e0333889873e402a",
        "width" : 160
      } ],
      "name" : "Anitta",
      "popularity" : 85,
      "type" : "artist",
      "uri" : "spotify:artist:7FNnA9vBm6EKceENgCGRMb"
    }, {
      "external_urls" : {
        "spotify" : "https://open.spotify.com/artist/4bjXzUfPcaS9qTP9lhuEBd"
      },
      "followers" : {
        "href" : null,
        "total" : 2
      },
      "genres" : [ ],
      "href" : "https://api.spotify.com/v1/artists/4bjXzUfPcaS9qTP9lhuEBd",
      "id" : "4bjXzUfPcaS9qTP9lhuEBd",
      "images" : [ {
        "height" : 640,
        "url" : "https://i.scdn.co/image/ab67616d0000b27364a7141e43614ee72e396645",
        "width" : 640
      }, {
        "height" : 300,
        "url" : "https://i.scdn.co/image/ab67616d00001e0264a7141e43614ee72e396645",
        "width" : 300
      }, {
        "height" : 64,
        "url" : "https://i.scdn.co/image/ab67616d0000485164a7141e43614ee72e396645",
        "width" : 64
      } ],
      "name" : "Anitta Queenx",
      "popularity" : 19,
      "type" : "artist",
      "uri" : "spotify:artist:4bjXzUfPcaS9qTP9lhuEBd"
    }, {
      "external_urls" : {
        "spotify" : "https://open.spotify.com/artist/1doyI5zGLQMPh39TLUNPbw"
      },
      "followers" : {
        "href" : null,
        "total" : 6
      },
      "genres" : [ ],
      "href" : "https://api.spotify.com/v1/artists/1doyI5zGLQMPh39TLUNPbw",
      "id" : "1doyI5zGLQMPh39TLUNPbw",
      "images" : [ {
        "height" : 640,
        "url" : "https://i.scdn.co/image/ab67616d0000b27396f9887b5119a6e43b75abac",
        "width" : 640
      }, {
        "height" : 300,
        "url" : "https://i.scdn.co/image/ab67616d00001e0296f9887b5119a6e43b75abac",
        "width" : 300
      }, {
        "height" : 64,
        "url" : "https://i.scdn.co/image/ab67616d0000485196f9887b5119a6e43b75abac",
        "width" : 64
      } ],
      "name" : "Anitta*",
      "popularity" : 6,
      "type" : "artist",
      "uri" : "spotify:artist:1doyI5zGLQMPh39TLUNPbw"
    }, {
      "external_urls" : {
        "spotify" : "https://open.spotify.com/artist/0ierB8BycR67ApiDG37wuW"
      },
      "followers" : {
        "href" : null,
        "total" : 62
      },
      "genres" : [ ],
      "href" : "https://api.spotify.com/v1/artists/0ierB8BycR67ApiDG37wuW",
      "id" : "0ierB8BycR67ApiDG37wuW",
      "images" : [ ],
      "name" : "Anitta Juhala-Jolkkonen",
      "popularity" : 12,
      "type" : "artist",
      "uri" : "spotify:artist:0ierB8BycR67ApiDG37wuW"
    }, {
      "external_urls" : {
        "spotify" : "https://open.spotify.com/artist/2v6QOwNCzZuCbXxiH5ggsP"
      },
      "followers" : {
        "href" : null,
        "total" : 18
      },
      "genres" : [ ],
      "href" : "https://api.spotify.com/v1/artists/2v6QOwNCzZuCbXxiH5ggsP",
      "id" : "2v6QOwNCzZuCbXxiH5ggsP",
      "images" : [ ],
      "name" : "Anitta Vatt",
      "popularity" : 7,
      "type" : "artist",
      "uri" : "spotify:artist:2v6QOwNCzZuCbXxiH5ggsP"
    }, {
      "external_urls" : {
        "spotify" : "https://open.spotify.com/artist/4QzqjFGusXSNI5KDRK4ITQ"
      },
      "followers" : {
        "href" : null,
        "total" : 2783
      },
      "genres" : [ ],
      "href" : "https://api.spotify.com/v1/artists/4QzqjFGusXSNI5KDRK4ITQ",
      "id" : "4QzqjFGusXSNI5KDRK4ITQ",
      "images" : [ {
        "height" : 640,
        "url" : "https://i.scdn.co/image/ab67616d0000b2732f057bc1565ea8dbdb8043fb",
        "width" : 640
      }, {
        "height" : 300,
        "url" : "https://i.scdn.co/image/ab67616d00001e022f057bc1565ea8dbdb8043fb",
        "width" : 300
      }, {
        "height" : 64,
        "url" : "https://i.scdn.co/image/ab67616d000048512f057bc1565ea8dbdb8043fb",
        "width" : 64
      } ],
      "name" : "Anitta",
      "popularity" : 0,
      "type" : "artist",
      "uri" : "spotify:artist:4QzqjFGusXSNI5KDRK4ITQ"
    }, {
      "external_urls" : {
        "spotify" : "https://open.spotify.com/artist/3z7uejI6VjINKO4LQXxMuz"
      },
      "followers" : {
        "href" : null,
        "total" : 14
      },
      "genres" : [ ],
      "href" : "https://api.spotify.com/v1/artists/3z7uejI6VjINKO4LQXxMuz",
      "id" : "3z7uejI6VjINKO4LQXxMuz",
      "images" : [ ],
      "name" : "Anitta",
      "popularity" : 0,
      "type" : "artist",
      "uri" : "spotify:artist:3z7uejI6VjINKO4LQXxMuz"
    }, {
      "external_urls" : {
        "spotify" : "https://open.spotify.com/artist/6b0e6Btq8FgzyWeiRsARR1"
      },
      "followers" : {
        "href" : null,
        "total" : 2
      },
      "genres" : [ ],
      "href" : "https://api.spotify.com/v1/artists/6b0e6Btq8FgzyWeiRsARR1",
      "id" : "6b0e6Btq8FgzyWeiRsARR1",
      "images" : [ ],
      "name" : "Anitta Fixx",
      "popularity" : 0,
      "type" : "artist",
      "uri" : "spotify:artist:6b0e6Btq8FgzyWeiRsARR1"
    }, {
      "external_urls" : {
        "spotify" : "https://open.spotify.com/artist/4iHq8TjJbOTbRWTiprXrZA"
      },
      "followers" : {
        "href" : null,
        "total" : 215
      },
      "genres" : [ "afrofuturismo brasileiro" ],
      "href" : "https://api.spotify.com/v1/artists/4iHq8TjJbOTbRWTiprXrZA",
      "id" : "4iHq8TjJbOTbRWTiprXrZA",
      "images" : [ ],
      "name" : "Anitta Garybaldi",
      "popularity" : 9,
      "type" : "artist",
      "uri" : "spotify:artist:4iHq8TjJbOTbRWTiprXrZA"
    }, {
      "external_urls" : {
        "spotify" : "https://open.spotify.com/artist/6bxDOMoHmMzAOOdpasjnm7"
      },
      "followers" : {
        "href" : null,
        "total" : 0
      },
      "genres" : [ ],
      "href" : "https://api.spotify.com/v1/artists/6bxDOMoHmMzAOOdpasjnm7",
      "id" : "6bxDOMoHmMzAOOdpasjnm7",
      "images" : [ {
        "height" : 640,
        "url" : "https://i.scdn.co/image/ab67616d0000b27374239728806a5c2821dc3005",
        "width" : 640
      }, {
        "height" : 300,
        "url" : "https://i.scdn.co/image/ab67616d00001e0274239728806a5c2821dc3005",
        "width" : 300
      }, {
        "height" : 64,
        "url" : "https://i.scdn.co/image/ab67616d0000485174239728806a5c2821dc3005",
        "width" : 64
      } ],
      "name" : "Anitta Monoprenti",
      "popularity" : 0,
      "type" : "artist",
      "uri" : "spotify:artist:6bxDOMoHmMzAOOdpasjnm7"
    }, {
      "external_urls" : {
        "spotify" : "https://open.spotify.com/artist/2JpSBtTu5KMs1voKjnOF8H"
      },
      "followers" : {
        "href" : null,
        "total" : 173
      },
      "genres" : [ ],
      "href" : "https://api.spotify.com/v1/artists/2JpSBtTu5KMs1voKjnOF8H",
      "id" : "2JpSBtTu5KMs1voKjnOF8H",
      "images" : [ {
        "height" : 640,
        "url" : "https://i.scdn.co/image/ab67616d0000b273242f68828709215ff50c5fbb",
        "width" : 640
      }, {
        "height" : 300,
        "url" : "https://i.scdn.co/image/ab67616d00001e02242f68828709215ff50c5fbb",
        "width" : 300
      }, {
        "height" : 64,
        "url" : "https://i.scdn.co/image/ab67616d00004851242f68828709215ff50c5fbb",
        "width" : 64
      } ],
      "name" : "Anne, Anneli, Anniina ja Anitta Mattila",
      "popularity" : 1,
      "type" : "artist",
      "uri" : "spotify:artist:2JpSBtTu5KMs1voKjnOF8H"
    }, {
      "external_urls" : {
        "spotify" : "https://open.spotify.com/artist/4iynXNMj3XuOkI0bgdLrJr"
      },
      "followers" : {
        "href" : null,
        "total" : 47
      },
      "genres" : [ ],
      "href" : "https://api.spotify.com/v1/artists/4iynXNMj3XuOkI0bgdLrJr",
      "id" : "4iynXNMj3XuOkI0bgdLrJr",
      "images" : [ {
        "height" : 640,
        "url" : "https://i.scdn.co/image/ab67616d0000b2738f724b6a4f3acc63fc7b7f57",
        "width" : 640
      }, {
        "height" : 300,
        "url" : "https://i.scdn.co/image/ab67616d00001e028f724b6a4f3acc63fc7b7f57",
        "width" : 300
      }, {
        "height" : 64,
        "url" : "https://i.scdn.co/image/ab67616d000048518f724b6a4f3acc63fc7b7f57",
        "width" : 64
      } ],
      "name" : "Anitta Smith",
      "popularity" : 0,
      "type" : "artist",
      "uri" : "spotify:artist:4iynXNMj3XuOkI0bgdLrJr"
    }, {
      "external_urls" : {
        "spotify" : "https://open.spotify.com/artist/3xdZsPHOW0AEBqBHl5OeGa"
      },
      "followers" : {
        "href" : null,
        "total" : 0
      },
      "genres" : [ ],
      "href" : "https://api.spotify.com/v1/artists/3xdZsPHOW0AEBqBHl5OeGa",
      "id" : "3xdZsPHOW0AEBqBHl5OeGa",
      "images" : [ {
        "height" : 640,
        "url" : "https://i.scdn.co/image/ab67616d0000b2733ba09e1551a338c6332341b9",
        "width" : 640
      }, {
        "height" : 300,
        "url" : "https://i.scdn.co/image/ab67616d00001e023ba09e1551a338c6332341b9",
        "width" : 300
      }, {
        "height" : 64,
        "url" : "https://i.scdn.co/image/ab67616d000048513ba09e1551a338c6332341b9",
        "width" : 64
      } ],
      "name" : "Anitta G",
      "popularity" : 2,
      "type" : "artist",
      "uri" : "spotify:artist:3xdZsPHOW0AEBqBHl5OeGa"
    }, {
      "external_urls" : {
        "spotify" : "https://open.spotify.com/artist/1mnCa4qWdglRwP7a0zJGkR"
      },
      "followers" : {
        "href" : null,
        "total" : 3
      },
      "genres" : [ ],
      "href" : "https://api.spotify.com/v1/artists/1mnCa4qWdglRwP7a0zJGkR",
      "id" : "1mnCa4qWdglRwP7a0zJGkR",
      "images" : [ {
        "height" : 640,
        "url" : "https://i.scdn.co/image/ab67616d0000b2731752fb66b5802fe69efadfd7",
        "width" : 640
      }, {
        "height" : 300,
        "url" : "https://i.scdn.co/image/ab67616d00001e021752fb66b5802fe69efadfd7",
        "width" : 300
      }, {
        "height" : 64,
        "url" : "https://i.scdn.co/image/ab67616d000048511752fb66b5802fe69efadfd7",
        "width" : 64
      } ],
      "name" : "Anitta Kebradeira",
      "popularity" : 0,
      "type" : "artist",
      "uri" : "spotify:artist:1mnCa4qWdglRwP7a0zJGkR"
    }, {
      "external_urls" : {
        "spotify" : "https://open.spotify.com/artist/3tihQMIooIV2igXVPGQ6x9"
      },
      "followers" : {
        "href" : null,
        "total" : 16
      },
      "genres" : [ ],
      "href" : "https://api.spotify.com/v1/artists/3tihQMIooIV2igXVPGQ6x9",
      "id" : "3tihQMIooIV2igXVPGQ6x9",
      "images" : [ {
        "height" : 640,
        "url" : "https://i.scdn.co/image/ab67616d0000b2736c715e1ac3572fb2df5daafc",
        "width" : 640
      }, {
        "height" : 300,
        "url" : "https://i.scdn.co/image/ab67616d00001e026c715e1ac3572fb2df5daafc",
        "width" : 300
      }, {
        "height" : 64,
        "url" : "https://i.scdn.co/image/ab67616d000048516c715e1ac3572fb2df5daafc",
        "width" : 64
      } ],
      "name" : "Anitta Bartron",
      "popularity" : 1,
      "type" : "artist",
      "uri" : "spotify:artist:3tihQMIooIV2igXVPGQ6x9"
    }, {
      "external_urls" : {
        "spotify" : "https://open.spotify.com/artist/4XgW17sOu3Ov9bNHr6PcLh"
      },
      "followers" : {
        "href" : null,
        "total" : 0
      },
      "genres" : [ ],
      "href" : "https://api.spotify.com/v1/artists/4XgW17sOu3Ov9bNHr6PcLh",
      "id" : "4XgW17sOu3Ov9bNHr6PcLh",
      "images" : [ {
        "height" : 640,
        "url" : "https://i.scdn.co/image/ab67616d0000b273ad792fe6acbc484fa10bc020",
        "width" : 640
      }, {
        "height" : 300,
        "url" : "https://i.scdn.co/image/ab67616d00001e02ad792fe6acbc484fa10bc020",
        "width" : 300
      }, {
        "height" : 64,
        "url" : "https://i.scdn.co/image/ab67616d00004851ad792fe6acbc484fa10bc020",
        "width" : 64
      } ],
      "name" : "Anitta Kebradeira",
      "popularity" : 0,
      "type" : "artist",
      "uri" : "spotify:artist:4XgW17sOu3Ov9bNHr6PcLh"
    }, {
      "external_urls" : {
        "spotify" : "https://open.spotify.com/artist/5xVY9dkQbFGUOKNPrdr0k5"
      },
      "followers" : {
        "href" : null,
        "total" : 350
      },
      "genres" : [ ],
      "href" : "https://api.spotify.com/v1/artists/5xVY9dkQbFGUOKNPrdr0k5",
      "id" : "5xVY9dkQbFGUOKNPrdr0k5",
      "images" : [ {
        "height" : 640,
        "url" : "https://i.scdn.co/image/ab67616d0000b273545c334a98331d54d699e4ac",
        "width" : 640
      }, {
        "height" : 300,
        "url" : "https://i.scdn.co/image/ab67616d00001e02545c334a98331d54d699e4ac",
        "width" : 300
      }, {
        "height" : 64,
        "url" : "https://i.scdn.co/image/ab67616d00004851545c334a98331d54d699e4ac",
        "width" : 64
      } ],
      "name" : "Anitta Mattila",
      "popularity" : 2,
      "type" : "artist",
      "uri" : "spotify:artist:5xVY9dkQbFGUOKNPrdr0k5"
    }, {
      "external_urls" : {
        "spotify" : "https://open.spotify.com/artist/0VpTm2gm6RFRxS3RoHkGu3"
      },
      "followers" : {
        "href" : null,
        "total" : 571
      },
      "genres" : [ ],
      "href" : "https://api.spotify.com/v1/artists/0VpTm2gm6RFRxS3RoHkGu3",
      "id" : "0VpTm2gm6RFRxS3RoHkGu3",
      "images" : [ ],
      "name" : "Zeca Pagodinho, Elza Soares, Sandra de Sá, Jorge Aragão, Martinho da Vila, Vander Lee, Joyce Cândido, Luciana Mello, Martinho da Vila, Vander Lee, Anitta, Xande de Pilares, Péricles, Fundo de Quintal, Maria Rita, Lenine, Alcione, Luiz Melodia, Baby do Brasil, Thais Macedo, Ivan Lins, Jorge Vercillo, Seu Jorge & Beth Carvalho",
      "popularity" : 3,
      "type" : "artist",
      "uri" : "spotify:artist:0VpTm2gm6RFRxS3RoHkGu3"
    }, {
      "external_urls" : {
        "spotify" : "https://open.spotify.com/artist/16OTvnQ2rWB15HS80ZFduV"
      },
      "followers" : {
        "href" : null,
        "total" : 4
      },
      "genres" : [ ],
      "href" : "https://api.spotify.com/v1/artists/16OTvnQ2rWB15HS80ZFduV",
      "id" : "16OTvnQ2rWB15HS80ZFduV",
      "images" : [ ],
      "name" : "Anitta Siju",
      "popularity" : 0,
      "type" : "artist",
      "uri" : "spotify:artist:16OTvnQ2rWB15HS80ZFduV"
    }, {
      "external_urls" : {
        "spotify" : "https://open.spotify.com/artist/5FBZVYAjJC6bSZbJtzaKXj"
      },
      "followers" : {
        "href" : null,
        "total" : 4
      },
      "genres" : [ ],
      "href" : "https://api.spotify.com/v1/artists/5FBZVYAjJC6bSZbJtzaKXj",
      "id" : "5FBZVYAjJC6bSZbJtzaKXj",
      "images" : [ {
        "height" : 640,
        "url" : "https://i.scdn.co/image/ab67616d0000b2737911549e5ee415fb33b98a50",
        "width" : 640
      }, {
        "height" : 300,
        "url" : "https://i.scdn.co/image/ab67616d00001e027911549e5ee415fb33b98a50",
        "width" : 300
      }, {
        "height" : 64,
        "url" : "https://i.scdn.co/image/ab67616d000048517911549e5ee415fb33b98a50",
        "width" : 64
      } ],
      "name" : "Anitta Khan",
      "popularity" : 0,
      "type" : "artist",
      "uri" : "spotify:artist:5FBZVYAjJC6bSZbJtzaKXj"
    } ],
    "limit" : 20,
    "next" : "https://api.spotify.com/v1/search?query=+Anitta&type=artist&market=US&offset=20&limit=20",
    "offset" : 0,
    "previous" : null,
    "total" : 27
  }
}