{
  "artists" : {
    "href" : "https://api.spotify.com/v1/search?query=+Caribou&type=artist&market=US&offset=0&limit=20",
    "items" : [ {
      "external_urls" : {
        "spotify" : "https://open.spotify.com/artist/4aEnNH9PuU1HF3TsZTru54"
      },
      "followers" : {
        "href" : null,
        "total" : 587751
      },
      "genres" : [ "alternative dance", "chillwave", "electronica", "electropop", "folktronica", "indie rock", "indie soul", "indietronica", "intelligent dance music", "new rave" ],
      "href" : "https://api.spotify.com/v1/artists/4aEnNH9PuU1HF3TsZTru54",
      "id" : "4aEnNH9PuU1HF3TsZTru54",
      "images" : [ {
        "height" : 640,
        "url" : "https://i.scdn.co/image/ab6761610000e5ebf9da16d673af005d53bab9cc",
        "width" : 640
      }, {
        "height" : 320,
        "url" : "https://i.scdn.co/image/ab67616100005174f9da16d673af005d53bab9cc",
        "width" : 320
      }, {
        "height" : 160,
        "url" : "https://i.scdn.co/image/ab6761610000f178f9da16d673af005d53bab9cc",
        "width" : 160
      } ],
      "name" : "Caribou",
      "popularity" : 62,
      "type" : "artist",
      "uri" : "spotify:artist:4aEnNH9PuU1HF3TsZTru54"
    }, {
      "external_urls" : {
        "spotify" : "https://open.spotify.com/artist/2WUp6pfmP3eJIL222ElAgG"
      },
      "followers" : {
        "href" : null,
        "total" : 2528
      },
      "genres" : [ "neo-traditional bluegrass" ],
      "href" : "https://api.spotify.com/v1/artists/2WUp6pfmP3eJIL222ElAgG",
      "id" : "2WUp6pfmP3eJIL222ElAgG",
      "images" : [ {
        "height" : 640,
        "url" : "https://i.scdn.co/image/ab67616d0000b27370c034487d48b418e5763df7",
        "width" : 640
      }, {
        "height" : 300,
        "url" : "https://i.scdn.co/image/ab67616d00001e0270c034487d48b418e5763df7",
        "width" : 300
      }, {
        "height" : 64,
        "url" : "https://i.scdn.co/image/ab67616d0000485170c034487d48b418e5763df7",
        "width" : 64
      } ],
      "name" : "Caribou Mountain Collective",
      "popularity" : 20,
      "type" : "artist",
      "uri" : "spotify:artist:2WUp6pfmP3eJIL222ElAgG"
    }, {
      "external_urls" : {
        "spotify" : "https://open.spotify.com/artist/7eDe9ZjkVchkwRBFQRTu8e"
      },
      "followers" : {
        "href" : null,
        "total" : 0
      },
      "genres" : [ ],
      "href" : "https://api.spotify.com/v1/artists/7eDe9ZjkVchkwRBFQRTu8e",
      "id" : "7eDe9ZjkVchkwRBFQRTu8e",
      "images" : [ {
        "height" : 640,
        "url" : "https://i.scdn.co/image/ab67616d0000b2733d881959065f37973382be60",
        "width" : 640
      }, {
        "height" : 300,
        "url" : "https://i.scdn.co/image/ab67616d00001e023d881959065f37973382be60",
        "width" : 300
      }, {
        "height" : 64,
        "url" : "https://i.scdn.co/image/ab67616d000048513d881959065f37973382be60",
        "width" : 64
      } ],
      "name" : "caribouexxon",
      "popularity" : 2,
      "type" : "artist",
      "uri" : "spotify:artist:7eDe9ZjkVchkwRBFQRTu8e"
    }, {
      "external_urls" : {
        "spotify" : "https://open.spotify.com/artist/618KTGR29KdwlWalWVIL7v"
      },
      "followers" : {
        "href" : null,
        "total" : 0
      },
      "genres" : [ ],
      "href" : "https://api.spotify.com/v1/artists/618KTGR29KdwlWalWVIL7v",
      "id" : "618KTGR29KdwlWalWVIL7v",
      "images" : [ {
        "height" : 640,
        "url" : "https://i.scdn.co/image/ab67616d0000b2738376f8cbe62acb6bb7ce3321",
        "width" : 640
      }, {
        "height" : 300,
        "url" : "https://i.scdn.co/image/ab67616d00001e028376f8cbe62acb6bb7ce3321",
        "width" : 300
      }, {
        "height" : 64,
        "url" : "https://i.scdn.co/image/ab67616d000048518376f8cbe62acb6bb7ce3321",
        "width" : 64
      } ],
      "name" : "Cariboula",
      "popularity" : 0,
      "type" : "artist",
      "uri" : "spotify:artist:618KTGR29KdwlWalWVIL7v"
    }, {
      "external_urls" : {
        "spotify" : "https://open.spotify.com/artist/7nFj31QiQll8sRmWagex1M"
      },
      "followers" : {
        "href" : null,
        "total" : 30
      },
      "genres" : [ ],
      "href" : "https://api.spotify.com/v1/artists/7nFj31QiQll8sRmWagex1M",
      "id" : "7nFj31QiQll8sRmWagex1M",
      "images" : [ ],
      "name" : "Caribou",
      "popularity" : 7,
      "type" : "artist",
      "uri" : "spotify:artist:7nFj31QiQll8sRmWagex1M"
    }, {
      "external_urls" : {
        "spotify" : "https://open.spotify.com/artist/01J9ItD0Z75nP5iw6keuXr"
      },
      "followers" : {
        "href" : null,
        "total" : 2
      },
      "genres" : [ ],
      "href" : "https://api.spotify.com/v1/artists/01J9ItD0Z75nP5iw6keuXr",
      "id" : "01J9ItD0Z75nP5iw6keuXr",
      "images" : [ ],
      "name" : "Caribou",
      "popularity" : 3,
      "type" : "artist",
      "uri" : "spotify:artist:01J9ItD0Z75nP5iw6keuXr"
    }, {
      "external_urls" : {
        "spotify" : "https://open.spotify.com/artist/6Gjjp3sefLWMtvcx2n0g8D"
      },
      "followers" : {
        "href" : null,
        "total" : 0
      },
      "genres" : [ ],
      "href" : "https://api.spotify.com/v1/artists/6Gjjp3sefLWMtvcx2n0g8D",
      "id" : "6Gjjp3sefLWMtvcx2n0g8D",
      "images" : [ ],
      "name" : "Cariboup",
      "popularity" : 0,
      "type" : "artist",
      "uri" : "spotify:artist:6Gjjp3sefLWMtvcx2n0g8D"
    }, {
      "external_urls" : {
        "spotify" : "https://open.spotify.com/artist/6cxydLjpL5rP1Cuf9ZHvY2"
      },
      "followers" : {
        "href" : null,
        "total" : 160
      },
      "genres" : [ ],
      "href" : "https://api.spotify.com/v1/artists/6cxydLjpL5rP1Cuf9ZHvY2",
      "id" : "6cxydLjpL5rP1Cuf9ZHvY2",
      "images" : [ {
        "height" : 640,
        "url" : "https://i.scdn.co/image/ab6761610000e5eb8061e1c0579a66dd5ef0db63",
        "width" : 640
      }, {
        "height" : 320,
        "url" : "https://i.scdn.co/image/ab676161000051748061e1c0579a66dd5ef0db63",
        "width" : 320
      }, {
        "height" : 160,
        "url" : "https://i.scdn.co/image/ab6761610000f1788061e1c0579a66dd5ef0db63",
        "width" : 160
      } ],
      "name" : "Caribou Run",
      "popularity" : 2,
      "type" : "artist",
      "uri" : "spotify:artist:6cxydLjpL5rP1Cuf9ZHvY2"
    }, {
      "external_urls" : {
        "spotify" : "https://open.spotify.com/artist/5xFYtgyuEG30ElvN9JFelI"
      },
      "followers" : {
        "href" : null,
        "total" : 473
      },
      "genres" : [ ],
      "href" : "https://api.spotify.com/v1/artists/5xFYtgyuEG30ElvN9JFelI",
      "id" : "5xFYtgyuEG30ElvN9JFelI",
      "images" : [ {
        "height" : 640,
        "url" : "https://i.scdn.co/image/ab67616d0000b27311c6084c1b8173ae94d81ad7",
        "width" : 640
      }, {
        "height" : 300,
        "url" : "https://i.scdn.co/image/ab67616d00001e0211c6084c1b8173ae94d81ad7",
        "width" : 300
      }, {
        "height" : 64,
        "url" : "https://i.scdn.co/image/ab67616d0000485111c6084c1b8173ae94d81ad7",
        "width" : 64
      } ],
      "name" : "Caribou Vibration Ensemble",
      "popularity" : 2,
      "type" : "artist",
      "uri" : "spotify:artist:5xFYtgyuEG30ElvN9JFelI"
    }, {
      "external_urls" : {
        "spotify" : "https://open.spotify.com/artist/6yg451ZP7oEWLOviakMoh7"
      },
      "followers" : {
        "href" : null,
        "total" : 295
      },
      "genres" : [ ],
      "href" : "https://api.spotify.com/v1/artists/6yg451ZP7oEWLOviakMoh7",
      "id" : "6yg451ZP7oEWLOviakMoh7",
      "images" : [ {
        "height" : 640,
        "url" : "https://i.scdn.co/image/ab67616d0000b27367332a07e7cf9efc3f583ab6",
        "width" : 640
      }, {
        "height" : 300,
        "url" : "https://i.scdn.co/image/ab67616d00001e0267332a07e7cf9efc3f583ab6",
        "width" : 300
      }, {
        "height" : 64,
        "url" : "https://i.scdn.co/image/ab67616d0000485167332a07e7cf9efc3f583ab6",
        "width" : 64
      } ],
      "name" : "Caribou",
      "popularity" : 0,
      "type" : "artist",
      "uri" : "spotify:artist:6yg451ZP7oEWLOviakMoh7"
    }, {
      "external_urls" : {
        "spotify" : "https://open.spotify.com/artist/1GdGKiJ0HhxCComTbYYZrq"
      },
      "followers" : {
        "href" : null,
        "total" : 3
      },
      "genres" : [ "inuit traditional" ],
      "href" : "https://api.spotify.com/v1/artists/1GdGKiJ0HhxCComTbYYZrq",
      "id" : "1GdGKiJ0HhxCComTbYYZrq",
      "images" : [ ],
      "name" : "Caribou Eskimos",
      "popularity" : 0,
      "type" : "artist",
      "uri" : "spotify:artist:1GdGKiJ0HhxCComTbYYZrq"
    }, {
      "external_urls" : {
        "spotify" : "https://open.spotify.com/artist/1A10pBujVac5FaFGOlbSHG"
      },
      "followers" : {
        "href" : null,
        "total" : 89
      },
      "genres" : [ ],
      "href" : "https://api.spotify.com/v1/artists/1A10pBujVac5FaFGOlbSHG",
      "id" : "1A10pBujVac5FaFGOlbSHG",
      "images" : [ {
        "height" : 640,
        "url" : "https://i.scdn.co/image/ab6761610000e5eb5f9f7a2e6d3e782e3048e183",
        "width" : 640
      }, {
        "height" : 320,
        "url" : "https://i.scdn.co/image/ab676161000051745f9f7a2e6d3e782e3048e183",
        "width" : 320
      }, {
        "height" : 160,
        "url" : "https://i.scdn.co/image/ab6761610000f1785f9f7a2e6d3e782e3048e183",
        "width" : 160
      } ],
      "name" : "Caribou Bâtard",
      "popularity" : 0,
      "type" : "artist",
      "uri" : "spotify:artist:1A10pBujVac5FaFGOlbSHG"
    }, {
      "external_urls" : {
        "spotify" : "https://open.spotify.com/artist/1j4VbQ0k8Sdbw9nLZLor4I"
      },
      "followers" : {
        "href" : null,
        "total" : 1
      },
      "genres" : [ ],
      "href" : "https://api.spotify.com/v1/artists/1j4VbQ0k8Sdbw9nLZLor4I",
      "id" : "1j4VbQ0k8Sdbw9nLZLor4I",
      "images" : [ {
        "height" : 640,
        "url" : "https://i.scdn.co/image/ab67616d0000b273d03f6dd3450888d5f7c48e29",
        "width" : 640
      }, {
        "height" : 300,
        "url" : "https://i.scdn.co/image/ab67616d00001e02d03f6dd3450888d5f7c48e29",
        "width" : 300
      }, {
        "height" : 64,
        "url" : "https://i.scdn.co/image/ab67616d00004851d03f6dd3450888d5f7c48e29",
        "width" : 64
      } ],
      "name" : "Caribou Creek",
      "popularity" : 0,
      "type" : "artist",
      "uri" : "spotify:artist:1j4VbQ0k8Sdbw9nLZLor4I"
    }, {
      "external_urls" : {
        "spotify" : "https://open.spotify.com/artist/50I3blTio2Sb00eJuf8grd"
      },
      "followers" : {
        "href" : null,
        "total" : 53
      },
      "genres" : [ ],
      "href" : "https://api.spotify.com/v1/artists/50I3blTio2Sb00eJuf8grd",
      "id" : "50I3blTio2Sb00eJuf8grd",
      "images" : [ {
        "height" : 640,
        "url" : "https://i.scdn.co/image/ab67616d0000b27319951b637c0d0c3613bf1604",
        "width" : 640
      }, {
        "height" : 300,
        "url" : "https://i.scdn.co/image/ab67616d00001e0219951b637c0d0c3613bf1604",
        "width" : 300
      }, {
        "height" : 64,
        "url" : "https://i.scdn.co/image/ab67616d0000485119951b637c0d0c3613bf1604",
        "width" : 64
      } ],
      "name" : "Adieu Caribou",
      "popularity" : 0,
      "type" : "artist",
      "uri" : "spotify:artist:50I3blTio2Sb00eJuf8grd"
    }, {
      "external_urls" : {
        "spotify" : "https://open.spotify.com/artist/5FN3uoOpitUY6WPD9uWpKl"
      },
      "followers" : {
        "href" : null,
        "total" : 57
      },
      "genres" : [ ],
      "href" : "https://api.spotify.com/v1/artists/5FN3uoOpitUY6WPD9uWpKl",
      "id" : "5FN3uoOpitUY6WPD9uWpKl",
      "images" : [ {
        "height" : 640,
        "url" : "https://i.scdn.co/image/ab6761610000e5eb53d9c2e4fc8b27a7534f8c89",
        "width" : 640
      }, {
        "height" : 320,
        "url" : "https://i.scdn.co/image/ab6761610000517453d9c2e4fc8b27a7534f8c89",
        "width" : 320
      }, {
        "height" : 160,
        "url" : "https://i.scdn.co/image/ab6761610000f17853d9c2e4fc8b27a7534f8c89",
        "width" : 160
      } ],
      "name" : "Caribbean Caribou",
      "popularity" : 1,
      "type" : "artist",
      "uri" : "spotify:artist:5FN3uoOpitUY6WPD9uWpKl"
    }, {
      "external_urls" : {
        "spotify" : "https://open.spotify.com/artist/1kUevcBKYnNDakJNmBzkDW"
      },
      "followers" : {
        "href" : null,
        "total" : 45
      },
      "genres" : [ ],
      "href" : "https://api.spotify.com/v1/artists/1kUevcBKYnNDakJNmBzkDW",
      "id" : "1kUevcBKYnNDakJNmBzkDW",
      "images" : [ {
        "height" : 640,
        "url" : "https://i.scdn.co/image/ab6761610000e5eb48530d8543603b1f481058e6",
        "width" : 640
      }, {
        "height" : 320,
        "url" : "https://i.scdn.co/image/ab6761610000517448530d8543603b1f481058e6",
        "width" : 320
      }, {
        "height" : 160,
        "url" : "https://i.scdn.co/image/ab6761610000f17848530d8543603b1f481058e6",
        "width" : 160
      } ],
      "name" : "Conflicts with Caribou",
      "popularity" : 0,
      "type" : "artist",
      "uri" : "spotify:artist:1kUevcBKYnNDakJNmBzkDW"
    }, {
      "external_urls" : {
        "spotify" : "https://open.spotify.com/artist/51lzsnvYUzN8ZlXvHt6QRB"
      },
      "followers" : {
        "href" : null,
        "total" : 9
      },
      "genres" : [ ],
      "href" : "https://api.spotify.com/v1/artists/51lzsnvYUzN8ZlXvHt6QRB",
      "id" : "51lzsnvYUzN8ZlXvHt6QRB",
      "images" : [ {
        "height" : 640,
        "url" : "https://i.scdn.co/image/ab67616d0000b2733fc1c5efa7522918557348f9",
        "width" : 640
      }, {
        "height" : 300,
        "url" : "https://i.scdn.co/image/ab67616d00001e023fc1c5efa7522918557348f9",
        "width" : 300
      }, {
        "height" : 64,
        "url" : "https://i.scdn.co/image/ab67616d000048513fc1c5efa7522918557348f9",
        "width" : 64
      } ],
      "name" : "MC Caribou",
      "popularity" : 2,
      "type" : "artist",
      "uri" : "spotify:artist:51lzsnvYUzN8ZlXvHt6QRB"
    }, {
      "external_urls" : {
        "spotify" : "https://open.spotify.com/artist/62WGuhzbBCCgFypKs5ksJE"
      },
      "followers" : {
        "href" : null,
        "total" : 51
      },
      "genres" : [ ],
      "href" : "https://api.spotify.com/v1/artists/62WGuhzbBCCgFypKs5ksJE",
      "id" : "62WGuhzbBCCgFypKs5ksJE",
      "images" : [ {
        "height" : 640,
        "url" : "https://i.scdn.co/image/ab67616d0000b2738238d57bdca65e230a4a604d",
        "width" : 640
      }, {
        "height" : 300,
        "url" : "https://i.scdn.co/image/ab67616d00001e028238d57bdca65e230a4a604d",
        "width" : 300
      }, {
        "height" : 64,
        "url" : "https://i.scdn.co/image/ab67616d000048518238d57bdca65e230a4a604d",
        "width" : 64
      } ],
      "name" : "Killer Caribou",
      "popularity" : 0,
      "type" : "artist",
      "uri" : "spotify:artist:62WGuhzbBCCgFypKs5ksJE"
    }, {
      "external_urls" : {
        "spotify" : "https://open.spotify.com/artist/0QA8vBXPtLLndi3mo5ZLAH"
      },
      "followers" : {
        "href" : null,
        "total" : 168
      },
      "genres" : [ ],
      "href" : "https://api.spotify.com/v1/artists/0QA8vBXPtLLndi3mo5ZLAH",
      "id" : "0QA8vBXPtLLndi3mo5ZLAH",
      "images" : [ {
        "height" : 640,
        "url" : "https://i.scdn.co/image/ab6761610000e5eb0d531f7d58bebd65e03b2734",
        "width" : 640
      }, {
        "height" : 320,
        "url" : "https://i.scdn.co/image/ab676161000051740d531f7d58bebd65e03b2734",
        "width" : 320
      }, {
        "height" : 160,
        "url" : "https://i.scdn.co/image/ab6761610000f1780d531f7d58bebd65e03b2734",
        "width" : 160
      } ],
      "name" : "Le Caribou Volant",
      "popularity" : 2,
      "type" : "artist",
      "uri" : "spotify:artist:0QA8vBXPtLLndi3mo5ZLAH"
    }, {
      "external_urls" : {
        "spotify" : "https://open.spotify.com/artist/5z6Yg6d7qqF5CNnMxtPCFy"
      },
      "followers" : {
        "href" : null,
        "total" : 11
      },
      "genres" : [ ],
      "href" : "https://api.spotify.com/v1/artists/5z6Yg6d7qqF5CNnMxtPCFy",
      "id" : "5z6Yg6d7qqF5CNnMxtPCFy",
      "images" : [ {
        "height" : 640,
        "url" : "https://i.scdn.co/image/ab67616d0000b2735b0a7156b2f5333df258c5fe",
        "width" : 640
      }, {
        "height" : 300,
        "url" : "https://i.scdn.co/image/ab67616d00001e025b0a7156b2f5333df258c5fe",
        "width" : 300
      }, {
        "height" : 64,
        "url" : "https://i.scdn.co/image/ab67616d000048515b0a7156b2f5333df258c5fe",
        "width" : 64
      } ],
      "name" : "Caribou Coffee",
      "popularity" : 0,
      "type" : "artist",
      "uri" : "spotify:artist:5z6Yg6d7qqF5CNnMxtPCFy"
    } ],
    "limit" : 20,
    "next" : "https://api.spotify.com/v1/search?query=+Caribou&type=artist&market=US&offset=20&limit=20",
    "offset" : 0,
    "previous" : null,
    "total" : 21
  }
}