{
  "artists" : {
    "href" : "https://api.spotify.com/v1/search?query=+Dixon&type=artist&market=US&offset=0&limit=20",
    "items" : [ {
      "external_urls" : {
        "spotify" : "https://open.spotify.com/artist/63qmpXnBg8EryBkKJvxENQ"
      },
      "followers" : {
        "href" : null,
        "total" : 36
      },
      "genres" : [ ],
      "href" : "https://api.spotify.com/v1/artists/63qmpXnBg8EryBkKJvxENQ",
      "id" : "63qmpXnBg8EryBkKJvxENQ",
      "images" : [ {
        "height" : 640,
        "url" : "https://i.scdn.co/image/ab6761610000e5eb33e7b6db9afc0b550cad95a9",
        "width" : 640
      }, {
        "height" : 320,
        "url" : "https://i.scdn.co/image/ab6761610000517433e7b6db9afc0b550cad95a9",
        "width" : 320
      }, {
        "height" : 160,
        "url" : "https://i.scdn.co/image/ab6761610000f17833e7b6db9afc0b550cad95a9",
        "width" : 160
      } ],
      "name" : "Dixon.",
      "popularity" : 43,
      "type" : "artist",
      "uri" : "spotify:artist:63qmpXnBg8EryBkKJvxENQ"
    }, {
      "external_urls" : {
        "spotify" : "https://open.spotify.com/artist/52oVYHQ99ORZzeig2YGo4R"
      },
      "followers" : {
        "href" : null,
        "total" : 212707
      },
      "genres" : [ "ccm", "christian alternative rock", "christian music", "christian pop", "worship" ],
      "href" : "https://api.spotify.com/v1/artists/52oVYHQ99ORZzeig2YGo4R",
      "id" : "52oVYHQ99ORZzeig2YGo4R",
      "images" : [ {
        "height" : 640,
        "url" : "https://i.scdn.co/image/ab6761610000e5eb6e13e2537bce82de75455df0",
        "width" : 640
      }, {
        "height" : 320,
        "url" : "https://i.scdn.co/image/ab676161000051746e13e2537bce82de75455df0",
        "width" : 320
      }, {
        "height" : 160,
        "url" : "https://i.scdn.co/image/ab6761610000f1786e13e2537bce82de75455df0",
        "width" : 160
      } ],
      "name" : "Colton Dixon",
      "popularity" : 55,
      "type" : "artist",
      "uri" : "spotify:artist:52oVYHQ99ORZzeig2YGo4R"
    }, {
      "external_urls" : {
        "spotify" : "https://open.spotify.com/artist/3wc57nV2fGEoM8x4xPK1O9"
      },
      "followers" : {
        "href" : null,
        "total" : 72236
      },
      "genres" : [ "german house" ],
      "href" : "https://api.spotify.com/v1/artists/3wc57nV2fGEoM8x4xPK1O9",
      "id" : "3wc57nV2fGEoM8x4xPK1O9",
      "images" : [ {
        "height" : 640,
        "url" : "https://i.scdn.co/image/ab6761610000e5eb41f62c7b289ea3307750179b",
        "width" : 640
      }, {
        "height" : 320,
        "url" : "https://i.scdn.co/image/ab6761610000517441f62c7b289ea3307750179b",
        "width" : 320
      }, {
        "height" : 160,
        "url" : "https://i.scdn.co/image/ab6761610000f17841f62c7b289ea3307750179b",
        "width" : 160
      } ],
      "name" : "Dixon",
      "popularity" : 40,
      "type" : "artist",
      "uri" : "spotify:artist:3wc57nV2fGEoM8x4xPK1O9"
    }, {
      "external_urls" : {
        "spotify" : "https://open.spotify.com/artist/00oL7zWxmWveTsKF7DnIRd"
      },
      "followers" : {
        "href" : null,
        "total" : 78202
      },
      "genres" : [ "horror synth", "soundtrack" ],
      "href" : "https://api.spotify.com/v1/artists/00oL7zWxmWveTsKF7DnIRd",
      "id" : "00oL7zWxmWveTsKF7DnIRd",
      "images" : [ {
        "height" : 640,
        "url" : "https://i.scdn.co/image/ab6761610000e5eb88f71e301f3b88aa37dc4c07",
        "width" : 640
      }, {
        "height" : 320,
        "url" : "https://i.scdn.co/image/ab6761610000517488f71e301f3b88aa37dc4c07",
        "width" : 320
      }, {
        "height" : 160,
        "url" : "https://i.scdn.co/image/ab6761610000f17888f71e301f3b88aa37dc4c07",
        "width" : 160
      } ],
      "name" : "Kyle Dixon & Michael Stein",
      "popularity" : 55,
      "type" : "artist",
      "uri" : "spotify:artist:00oL7zWxmWveTsKF7DnIRd"
    }, {
      "external_urls" : {
        "spotify" : "https://open.spotify.com/artist/5AzjednUL6MFJP0dBic3be"
      },
      "followers" : {
        "href" : null,
        "total" : 14020
      },
      "genres" : [ "alternative r&b", "chill r&b", "indie r&b", "pop r&b" ],
      "href" : "https://api.spotify.com/v1/artists/5AzjednUL6MFJP0dBic3be",
      "id" : "5AzjednUL6MFJP0dBic3be",
      "images" : [ {
        "height" : 640,
        "url" : "https://i.scdn.co/image/ab6761610000e5eb01e6293584c35fcda0b4110d",
        "width" : 640
      }, {
        "height" : 320,
        "url" : "https://i.scdn.co/image/ab6761610000517401e6293584c35fcda0b4110d",
        "width" : 320
      }, {
        "height" : 160,
        "url" : "https://i.scdn.co/image/ab6761610000f17801e6293584c35fcda0b4110d",
        "width" : 160
      } ],
      "name" : "Kenyon Dixon",
      "popularity" : 49,
      "type" : "artist",
      "uri" : "spotify:artist:5AzjednUL6MFJP0dBic3be"
    }, {
      "external_urls" : {
        "spotify" : "https://open.spotify.com/artist/4mvJltDSlBawXCZhq6NAso"
      },
      "followers" : {
        "href" : null,
        "total" : 32589
      },
      "genres" : [ "uk alternative pop" ],
      "href" : "https://api.spotify.com/v1/artists/4mvJltDSlBawXCZhq6NAso",
      "id" : "4mvJltDSlBawXCZhq6NAso",
      "images" : [ {
        "height" : 640,
        "url" : "https://i.scdn.co/image/ab6761610000e5eb8a76e6ebedcebc2295abcf24",
        "width" : 640
      }, {
        "height" : 320,
        "url" : "https://i.scdn.co/image/ab676161000051748a76e6ebedcebc2295abcf24",
        "width" : 320
      }, {
        "height" : 160,
        "url" : "https://i.scdn.co/image/ab6761610000f1788a76e6ebedcebc2295abcf24",
        "width" : 160
      } ],
      "name" : "Ellie Dixon",
      "popularity" : 45,
      "type" : "artist",
      "uri" : "spotify:artist:4mvJltDSlBawXCZhq6NAso"
    }, {
      "external_urls" : {
        "spotify" : "https://open.spotify.com/artist/3H5IBzEQjlx8wlPlv5Anpj"
      },
      "followers" : {
        "href" : null,
        "total" : 818
      },
      "genres" : [ ],
      "href" : "https://api.spotify.com/v1/artists/3H5IBzEQjlx8wlPlv5Anpj",
      "id" : "3H5IBzEQjlx8wlPlv5Anpj",
      "images" : [ {
        "height" : 640,
        "url" : "https://i.scdn.co/image/ab6761610000e5eb603b08ceb46f88a44bbac108",
        "width" : 640
      }, {
        "height" : 320,
        "url" : "https://i.scdn.co/image/ab67616100005174603b08ceb46f88a44bbac108",
        "width" : 320
      }, {
        "height" : 160,
        "url" : "https://i.scdn.co/image/ab6761610000f178603b08ceb46f88a44bbac108",
        "width" : 160
      } ],
      "name" : "Dixon Hill",
      "popularity" : 24,
      "type" : "artist",
      "uri" : "spotify:artist:3H5IBzEQjlx8wlPlv5Anpj"
    }, {
      "external_urls" : {
        "spotify" : "https://open.spotify.com/artist/5v8WPpMk60cqZbuZLdXjKY"
      },
      "followers" : {
        "href" : null,
        "total" : 127052
      },
      "genres" : [ "acoustic blues", "blues", "chicago blues", "electric blues", "jump blues", "traditional blues" ],
      "href" : "https://api.spotify.com/v1/artists/5v8WPpMk60cqZbuZLdXjKY",
      "id" : "5v8WPpMk60cqZbuZLdXjKY",
      "images" : [ {
        "height" : 996,
        "url" : "https://i.scdn.co/image/0e47d718bb067a06e5939ae578e106b0bb6bd2ba",
        "width" : 1000
      }, {
        "height" : 637,
        "url" : "https://i.scdn.co/image/a054fa32bc5139793652f8e2b084c10c6efca3af",
        "width" : 640
      }, {
        "height" : 199,
        "url" : "https://i.scdn.co/image/a7da0e78dbd0b9a6d9b75ca154f4cd2c8ee5405a",
        "width" : 200
      }, {
        "height" : 64,
        "url" : "https://i.scdn.co/image/b4fc7c01397c8807e6773052ca93e773a63f6fb1",
        "width" : 64
      } ],
      "name" : "Willie Dixon",
      "popularity" : 46,
      "type" : "artist",
      "uri" : "spotify:artist:5v8WPpMk60cqZbuZLdXjKY"
    }, {
      "external_urls" : {
        "spotify" : "https://open.spotify.com/artist/1EwStlJbpwWP3NBYmNzRPP"
      },
      "followers" : {
        "href" : null,
        "total" : 19288
      },
      "genres" : [ "acoustic pop", "indiecoustica", "neo mellow", "piano rock" ],
      "href" : "https://api.spotify.com/v1/artists/1EwStlJbpwWP3NBYmNzRPP",
      "id" : "1EwStlJbpwWP3NBYmNzRPP",
      "images" : [ {
        "height" : 640,
        "url" : "https://i.scdn.co/image/ab6761610000e5eb0782acd04bc44d49be4ebaee",
        "width" : 640
      }, {
        "height" : 320,
        "url" : "https://i.scdn.co/image/ab676161000051740782acd04bc44d49be4ebaee",
        "width" : 320
      }, {
        "height" : 160,
        "url" : "https://i.scdn.co/image/ab6761610000f1780782acd04bc44d49be4ebaee",
        "width" : 160
      } ],
      "name" : "Gabe Dixon",
      "popularity" : 38,
      "type" : "artist",
      "uri" : "spotify:artist:1EwStlJbpwWP3NBYmNzRPP"
    }, {
      "external_urls" : {
        "spotify" : "https://open.spotify.com/artist/3xA83ekBDkCQRt9WiNGe3x"
      },
      "followers" : {
        "href" : null,
        "total" : 296
      },
      "genres" : [ ],
      "href" : "https://api.spotify.com/v1/artists/3xA83ekBDkCQRt9WiNGe3x",
      "id" : "3xA83ekBDkCQRt9WiNGe3x",
      "images" : [ {
        "height" : 1025,
        "url" : "https://i.scdn.co/image/f7b8ed77016e60bbda951cc34301829f779860e8",
        "width" : 1000
      }, {
        "height" : 656,
        "url" : "https://i.scdn.co/image/d60f1b7089286e6c35a932b82f5f98cb86c832bf",
        "width" : 640
      }, {
        "height" : 205,
        "url" : "https://i.scdn.co/image/8b9b63a975aad5ea11ae523d4b064ecb147392e3",
        "width" : 200
      }, {
        "height" : 66,
        "url" : "https://i.scdn.co/image/ade1aa5862a0288f778c18ec572f5ca1be8c0625",
        "width" : 64
      } ],
      "name" : "Jerry Dixon",
      "popularity" : 36,
      "type" : "artist",
      "uri" : "spotify:artist:3xA83ekBDkCQRt9WiNGe3x"
    }, {
      "external_urls" : {
        "spotify" : "https://open.spotify.com/artist/6ep1x3L37GYJ8IHVORMgGj"
      },
      "followers" : {
        "href" : null,
        "total" : 840
      },
      "genres" : [ "pokemon" ],
      "href" : "https://api.spotify.com/v1/artists/6ep1x3L37GYJ8IHVORMgGj",
      "id" : "6ep1x3L37GYJ8IHVORMgGj",
      "images" : [ ],
      "name" : "Ben Dixon and the Sad Truth",
      "popularity" : 39,
      "type" : "artist",
      "uri" : "spotify:artist:6ep1x3L37GYJ8IHVORMgGj"
    }, {
      "external_urls" : {
        "spotify" : "https://open.spotify.com/artist/7ECUCqZFq0J4GOHZ7zsi60"
      },
      "followers" : {
        "href" : null,
        "total" : 3493
      },
      "genres" : [ ],
      "href" : "https://api.spotify.com/v1/artists/7ECUCqZFq0J4GOHZ7zsi60",
      "id" : "7ECUCqZFq0J4GOHZ7zsi60",
      "images" : [ {
        "height" : 640,
        "url" : "https://i.scdn.co/image/ab6761610000e5ebcbc2a44be5a3edc6129639b4",
        "width" : 640
      }, {
        "height" : 320,
        "url" : "https://i.scdn.co/image/ab67616100005174cbc2a44be5a3edc6129639b4",
        "width" : 320
      }, {
        "height" : 160,
        "url" : "https://i.scdn.co/image/ab6761610000f178cbc2a44be5a3edc6129639b4",
        "width" : 160
      } ],
      "name" : "Dixon's Violin",
      "popularity" : 12,
      "type" : "artist",
      "uri" : "spotify:artist:7ECUCqZFq0J4GOHZ7zsi60"
    }, {
      "external_urls" : {
        "spotify" : "https://open.spotify.com/artist/4yXxlriPidNDMzvNGqUKA3"
      },
      "followers" : {
        "href" : null,
        "total" : 9343
      },
      "genres" : [ "southern gospel" ],
      "href" : "https://api.spotify.com/v1/artists/4yXxlriPidNDMzvNGqUKA3",
      "id" : "4yXxlriPidNDMzvNGqUKA3",
      "images" : [ {
        "height" : 640,
        "url" : "https://i.scdn.co/image/ab67616d0000b273f1861b49dac9b306f7ea1627",
        "width" : 640
      }, {
        "height" : 300,
        "url" : "https://i.scdn.co/image/ab67616d00001e02f1861b49dac9b306f7ea1627",
        "width" : 300
      }, {
        "height" : 64,
        "url" : "https://i.scdn.co/image/ab67616d00004851f1861b49dac9b306f7ea1627",
        "width" : 64
      } ],
      "name" : "Jessy Dixon",
      "popularity" : 35,
      "type" : "artist",
      "uri" : "spotify:artist:4yXxlriPidNDMzvNGqUKA3"
    }, {
      "external_urls" : {
        "spotify" : "https://open.spotify.com/artist/0qIz0TY83W5CaBwVUApmUF"
      },
      "followers" : {
        "href" : null,
        "total" : 12
      },
      "genres" : [ ],
      "href" : "https://api.spotify.com/v1/artists/0qIz0TY83W5CaBwVUApmUF",
      "id" : "0qIz0TY83W5CaBwVUApmUF",
      "images" : [ {
        "height" : 640,
        "url" : "https://i.scdn.co/image/ab67616d0000b27388e786f7f1faf2187d83aec0",
        "width" : 640
      }, {
        "height" : 300,
        "url" : "https://i.scdn.co/image/ab67616d00001e0288e786f7f1faf2187d83aec0",
        "width" : 300
      }, {
        "height" : 64,
        "url" : "https://i.scdn.co/image/ab67616d0000485188e786f7f1faf2187d83aec0",
        "width" : 64
      } ],
      "name" : "Rory Dixon",
      "popularity" : 34,
      "type" : "artist",
      "uri" : "spotify:artist:0qIz0TY83W5CaBwVUApmUF"
    }, {
      "external_urls" : {
        "spotify" : "https://open.spotify.com/artist/5SGqtxvuxSkivl5iEFJZRc"
      },
      "followers" : {
        "href" : null,
        "total" : 4
      },
      "genres" : [ ],
      "href" : "https://api.spotify.com/v1/artists/5SGqtxvuxSkivl5iEFJZRc",
      "id" : "5SGqtxvuxSkivl5iEFJZRc",
      "images" : [ {
        "height" : 640,
        "url" : "https://i.scdn.co/image/ab6761610000e5ebf8be31b89987df7204eb2a98",
        "width" : 640
      }, {
        "height" : 320,
        "url" : "https://i.scdn.co/image/ab67616100005174f8be31b89987df7204eb2a98",
        "width" : 320
      }, {
        "height" : 160,
        "url" : "https://i.scdn.co/image/ab6761610000f178f8be31b89987df7204eb2a98",
        "width" : 160
      } ],
      "name" : "Dixon",
      "popularity" : 18,
      "type" : "artist",
      "uri" : "spotify:artist:5SGqtxvuxSkivl5iEFJZRc"
    }, {
      "external_urls" : {
        "spotify" : "https://open.spotify.com/artist/3rIXaFZEmvRxMDdxvkg5g2"
      },
      "followers" : {
        "href" : null,
        "total" : 1334
      },
      "genres" : [ ],
      "href" : "https://api.spotify.com/v1/artists/3rIXaFZEmvRxMDdxvkg5g2",
      "id" : "3rIXaFZEmvRxMDdxvkg5g2",
      "images" : [ {
        "height" : 640,
        "url" : "https://i.scdn.co/image/ab6761610000e5ebea599c7a89529d59648407be",
        "width" : 640
      }, {
        "height" : 320,
        "url" : "https://i.scdn.co/image/ab67616100005174ea599c7a89529d59648407be",
        "width" : 320
      }, {
        "height" : 160,
        "url" : "https://i.scdn.co/image/ab6761610000f178ea599c7a89529d59648407be",
        "width" : 160
      } ],
      "name" : "Brandon Victor Dixon",
      "popularity" : 34,
      "type" : "artist",
      "uri" : "spotify:artist:3rIXaFZEmvRxMDdxvkg5g2"
    }, {
      "external_urls" : {
        "spotify" : "https://open.spotify.com/artist/2nr2WTigJaL3ZHJSZKlYe8"
      },
      "followers" : {
        "href" : null,
        "total" : 146
      },
      "genres" : [ ],
      "href" : "https://api.spotify.com/v1/artists/2nr2WTigJaL3ZHJSZKlYe8",
      "id" : "2nr2WTigJaL3ZHJSZKlYe8",
      "images" : [ {
        "height" : 640,
        "url" : "https://i.scdn.co/image/ab67616d0000b2734fcc739ffeec2150e99d5a2e",
        "width" : 640
      }, {
        "height" : 300,
        "url" : "https://i.scdn.co/image/ab67616d00001e024fcc739ffeec2150e99d5a2e",
        "width" : 300
      }, {
        "height" : 64,
        "url" : "https://i.scdn.co/image/ab67616d000048514fcc739ffeec2150e99d5a2e",
        "width" : 64
      } ],
      "name" : "Dixon Music",
      "popularity" : 11,
      "type" : "artist",
      "uri" : "spotify:artist:2nr2WTigJaL3ZHJSZKlYe8"
    }, {
      "external_urls" : {
        "spotify" : "https://open.spotify.com/artist/4pRRDuDd9Lk624swvgKWOI"
      },
      "followers" : {
        "href" : null,
        "total" : 284
      },
      "genres" : [ ],
      "href" : "https://api.spotify.com/v1/artists/4pRRDuDd9Lk624swvgKWOI",
      "id" : "4pRRDuDd9Lk624swvgKWOI",
      "images" : [ {
        "height" : 640,
        "url" : "https://i.scdn.co/image/ab67616d0000b2737afce8cb7325fbd7dec2c8b9",
        "width" : 640
      }, {
        "height" : 300,
        "url" : "https://i.scdn.co/image/ab67616d00001e027afce8cb7325fbd7dec2c8b9",
        "width" : 300
      }, {
        "height" : 64,
        "url" : "https://i.scdn.co/image/ab67616d000048517afce8cb7325fbd7dec2c8b9",
        "width" : 64
      } ],
      "name" : "Dillon Dixon",
      "popularity" : 35,
      "type" : "artist",
      "uri" : "spotify:artist:4pRRDuDd9Lk624swvgKWOI"
    }, {
      "external_urls" : {
        "spotify" : "https://open.spotify.com/artist/0g08rAXiM8laRghmonRPgF"
      },
      "followers" : {
        "href" : null,
        "total" : 1424
      },
      "genres" : [ ],
      "href" : "https://api.spotify.com/v1/artists/0g08rAXiM8laRghmonRPgF",
      "id" : "0g08rAXiM8laRghmonRPgF",
      "images" : [ {
        "height" : 640,
        "url" : "https://i.scdn.co/image/ab67616d0000b27351eb2eefa925e094b81c4e32",
        "width" : 640
      }, {
        "height" : 300,
        "url" : "https://i.scdn.co/image/ab67616d00001e0251eb2eefa925e094b81c4e32",
        "width" : 300
      }, {
        "height" : 64,
        "url" : "https://i.scdn.co/image/ab67616d0000485151eb2eefa925e094b81c4e32",
        "width" : 64
      } ],
      "name" : "The Dixons",
      "popularity" : 22,
      "type" : "artist",
      "uri" : "spotify:artist:0g08rAXiM8laRghmonRPgF"
    }, {
      "external_urls" : {
        "spotify" : "https://open.spotify.com/artist/44ga4npdjaqD4WGUt8oXXV"
      },
      "followers" : {
        "href" : null,
        "total" : 6430
      },
      "genres" : [ ],
      "href" : "https://api.spotify.com/v1/artists/44ga4npdjaqD4WGUt8oXXV",
      "id" : "44ga4npdjaqD4WGUt8oXXV",
      "images" : [ {
        "height" : 640,
        "url" : "https://i.scdn.co/image/ab6761610000e5eb59a388f92d2cad34e9fb8047",
        "width" : 640
      }, {
        "height" : 320,
        "url" : "https://i.scdn.co/image/ab6761610000517459a388f92d2cad34e9fb8047",
        "width" : 320
      }, {
        "height" : 160,
        "url" : "https://i.scdn.co/image/ab6761610000f17859a388f92d2cad34e9fb8047",
        "width" : 160
      } ],
      "name" : "Dixon",
      "popularity" : 32,
      "type" : "artist",
      "uri" : "spotify:artist:44ga4npdjaqD4WGUt8oXXV"
    } ],
    "limit" : 20,
    "next" : "https://api.spotify.com/v1/search?query=+Dixon&type=artist&market=US&offset=20&limit=20",
    "offset" : 0,
    "previous" : null,
    "total" : 1237
  }
}