{
  "artists" : {
    "href" : "https://api.spotify.com/v1/search?query=+Rich+Brian&type=artist&market=US&offset=0&limit=20",
    "items" : [ {
      "external_urls" : {
        "spotify" : "https://open.spotify.com/artist/2IDLDx25HU1nQMKde4n61a"
      },
      "followers" : {
        "href" : null,
        "total" : 1984618
      },
      "genres" : [ "indonesian hip hop" ],
      "href" : "https://api.spotify.com/v1/artists/2IDLDx25HU1nQMKde4n61a",
      "id" : "2IDLDx25HU1nQMKde4n61a",
      "images" : [ {
        "height" : 640,
        "url" : "https://i.scdn.co/image/ab6761610000e5eb39d2db28841d007ee7f8d782",
        "width" : 640
      }, {
        "height" : 320,
        "url" : "https://i.scdn.co/image/ab6761610000517439d2db28841d007ee7f8d782",
        "width" : 320
      }, {
        "height" : 160,
        "url" : "https://i.scdn.co/image/ab6761610000f17839d2db28841d007ee7f8d782",
        "width" : 160
      } ],
      "name" : "Rich Brian",
      "popularity" : 77,
      "type" : "artist",
      "uri" : "spotify:artist:2IDLDx25HU1nQMKde4n61a"
    }, {
      "external_urls" : {
        "spotify" : "https://open.spotify.com/artist/2XSfNdljbVI4QcDstTZ61P"
      },
      "followers" : {
        "href" : null,
        "total" : 4
      },
      "genres" : [ ],
      "href" : "https://api.spotify.com/v1/artists/2XSfNdljbVI4QcDstTZ61P",
      "id" : "2XSfNdljbVI4QcDstTZ61P",
      "images" : [ ],
      "name" : "Brian Richmond",
      "popularity" : 22,
      "type" : "artist",
      "uri" : "spotify:artist:2XSfNdljbVI4QcDstTZ61P"
    }, {
      "external_urls" : {
        "spotify" : "https://open.spotify.com/artist/59eWYGObnd2rHsxwrWnANk"
      },
      "followers" : {
        "href" : null,
        "total" : 46
      },
      "genres" : [ "lds youth" ],
      "href" : "https://api.spotify.com/v1/artists/59eWYGObnd2rHsxwrWnANk",
      "id" : "59eWYGObnd2rHsxwrWnANk",
      "images" : [ ],
      "name" : "Brian Richton",
      "popularity" : 10,
      "type" : "artist",
      "uri" : "spotify:artist:59eWYGObnd2rHsxwrWnANk"
    }, {
      "external_urls" : {
        "spotify" : "https://open.spotify.com/artist/5Vdfj3R5juqDpqeTYfVveV"
      },
      "followers" : {
        "href" : null,
        "total" : 7470
      },
      "genres" : [ "classical soprano", "opera" ],
      "href" : "https://api.spotify.com/v1/artists/5Vdfj3R5juqDpqeTYfVveV",
      "id" : "5Vdfj3R5juqDpqeTYfVveV",
      "images" : [ {
        "height" : 419,
        "url" : "https://i.scdn.co/image/3d37d92751c817c594af2347a5173f4dc375baf7",
        "width" : 745
      }, {
        "height" : 360,
        "url" : "https://i.scdn.co/image/6ce4f2108c9ff6bfdc309dcdfcd0ac421533a27b",
        "width" : 640
      }, {
        "height" : 112,
        "url" : "https://i.scdn.co/image/21804d1d87a4f438af1b8d199d3a182ffc81af27",
        "width" : 199
      }, {
        "height" : 36,
        "url" : "https://i.scdn.co/image/56030745af2fc52d7bf6c3c3a97cba1e7b13412e",
        "width" : 64
      } ],
      "name" : "Beverly Sills",
      "popularity" : 27,
      "type" : "artist",
      "uri" : "spotify:artist:5Vdfj3R5juqDpqeTYfVveV"
    }, {
      "external_urls" : {
        "spotify" : "https://open.spotify.com/artist/5w85GXRf0Tj9HZ5fYlcrHW"
      },
      "followers" : {
        "href" : null,
        "total" : 3
      },
      "genres" : [ ],
      "href" : "https://api.spotify.com/v1/artists/5w85GXRf0Tj9HZ5fYlcrHW",
      "id" : "5w85GXRf0Tj9HZ5fYlcrHW",
      "images" : [ {
        "height" : 640,
        "url" : "https://i.scdn.co/image/ab67616d0000b27389269a0f27bbce1579acf792",
        "width" : 640
      }, {
        "height" : 300,
        "url" : "https://i.scdn.co/image/ab67616d00001e0289269a0f27bbce1579acf792",
        "width" : 300
      }, {
        "height" : 64,
        "url" : "https://i.scdn.co/image/ab67616d0000485189269a0f27bbce1579acf792",
        "width" : 64
      } ],
      "name" : "Brian Richard",
      "popularity" : 0,
      "type" : "artist",
      "uri" : "spotify:artist:5w85GXRf0Tj9HZ5fYlcrHW"
    }, {
      "external_urls" : {
        "spotify" : "https://open.spotify.com/artist/5ywdYNQ2yDkGCHziYkapaz"
      },
      "followers" : {
        "href" : null,
        "total" : 3
      },
      "genres" : [ ],
      "href" : "https://api.spotify.com/v1/artists/5ywdYNQ2yDkGCHziYkapaz",
      "id" : "5ywdYNQ2yDkGCHziYkapaz",
      "images" : [ {
        "height" : 640,
        "url" : "https://i.scdn.co/image/ab67616d0000b2732f5c19ad1163c4bb91c8e0fd",
        "width" : 640
      }, {
        "height" : 300,
        "url" : "https://i.scdn.co/image/ab67616d00001e022f5c19ad1163c4bb91c8e0fd",
        "width" : 300
      }, {
        "height" : 64,
        "url" : "https://i.scdn.co/image/ab67616d000048512f5c19ad1163c4bb91c8e0fd",
        "width" : 64
      } ],
      "name" : "Brian Richardson",
      "popularity" : 0,
      "type" : "artist",
      "uri" : "spotify:artist:5ywdYNQ2yDkGCHziYkapaz"
    }, {
      "external_urls" : {
        "spotify" : "https://open.spotify.com/artist/6Fd64HJL6fwNe2ElMQgdqy"
      },
      "followers" : {
        "href" : null,
        "total" : 10
      },
      "genres" : [ ],
      "href" : "https://api.spotify.com/v1/artists/6Fd64HJL6fwNe2ElMQgdqy",
      "id" : "6Fd64HJL6fwNe2ElMQgdqy",
      "images" : [ {
        "height" : 640,
        "url" : "https://i.scdn.co/image/ab67616d0000b273831988dd01aec30669923da4",
        "width" : 640
      }, {
        "height" : 300,
        "url" : "https://i.scdn.co/image/ab67616d00001e02831988dd01aec30669923da4",
        "width" : 300
      }, {
        "height" : 64,
        "url" : "https://i.scdn.co/image/ab67616d00004851831988dd01aec30669923da4",
        "width" : 64
      } ],
      "name" : "Brian Richard",
      "popularity" : 0,
      "type" : "artist",
      "uri" : "spotify:artist:6Fd64HJL6fwNe2ElMQgdqy"
    }, {
      "external_urls" : {
        "spotify" : "https://open.spotify.com/artist/12EYmjA854fwXJYcDIop2g"
      },
      "followers" : {
        "href" : null,
        "total" : 4
      },
      "genres" : [ ],
      "href" : "https://api.spotify.com/v1/artists/12EYmjA854fwXJYcDIop2g",
      "id" : "12EYmjA854fwXJYcDIop2g",
      "images" : [ {
        "height" : 640,
        "url" : "https://i.scdn.co/image/ab67616d0000b2736a575307341c470e5e85fa46",
        "width" : 640
      }, {
        "height" : 300,
        "url" : "https://i.scdn.co/image/ab67616d00001e026a575307341c470e5e85fa46",
        "width" : 300
      }, {
        "height" : 64,
        "url" : "https://i.scdn.co/image/ab67616d000048516a575307341c470e5e85fa46",
        "width" : 64
      } ],
      "name" : "brian richman",
      "popularity" : 0,
      "type" : "artist",
      "uri" : "spotify:artist:12EYmjA854fwXJYcDIop2g"
    }, {
      "external_urls" : {
        "spotify" : "https://open.spotify.com/artist/4k6PDb3WhhzyjcLkvJ52bx"
      },
      "followers" : {
        "href" : null,
        "total" : 0
      },
      "genres" : [ ],
      "href" : "https://api.spotify.com/v1/artists/4k6PDb3WhhzyjcLkvJ52bx",
      "id" : "4k6PDb3WhhzyjcLkvJ52bx",
      "images" : [ {
        "height" : 640,
        "url" : "https://i.scdn.co/image/ab67616d0000b2737987426ec1585134ff1a50b9",
        "width" : 640
      }, {
        "height" : 300,
        "url" : "https://i.scdn.co/image/ab67616d00001e027987426ec1585134ff1a50b9",
        "width" : 300
      }, {
        "height" : 64,
        "url" : "https://i.scdn.co/image/ab67616d000048517987426ec1585134ff1a50b9",
        "width" : 64
      } ],
      "name" : "Brian Richman",
      "popularity" : 0,
      "type" : "artist",
      "uri" : "spotify:artist:4k6PDb3WhhzyjcLkvJ52bx"
    }, {
      "external_urls" : {
        "spotify" : "https://open.spotify.com/artist/22VHBpzBjVmjlVVUHxzuOZ"
      },
      "followers" : {
        "href" : null,
        "total" : 7
      },
      "genres" : [ ],
      "href" : "https://api.spotify.com/v1/artists/22VHBpzBjVmjlVVUHxzuOZ",
      "id" : "22VHBpzBjVmjlVVUHxzuOZ",
      "images" : [ {
        "height" : 640,
        "url" : "https://i.scdn.co/image/ab67616d0000b2738bafa4f11ff7b5777f4851cd",
        "width" : 640
      }, {
        "height" : 300,
        "url" : "https://i.scdn.co/image/ab67616d00001e028bafa4f11ff7b5777f4851cd",
        "width" : 300
      }, {
        "height" : 64,
        "url" : "https://i.scdn.co/image/ab67616d000048518bafa4f11ff7b5777f4851cd",
        "width" : 64
      } ],
      "name" : "Brian Richmond",
      "popularity" : 0,
      "type" : "artist",
      "uri" : "spotify:artist:22VHBpzBjVmjlVVUHxzuOZ"
    }, {
      "external_urls" : {
        "spotify" : "https://open.spotify.com/artist/5etqqBb2MVeXqG7FN1eVrm"
      },
      "followers" : {
        "href" : null,
        "total" : 1
      },
      "genres" : [ ],
      "href" : "https://api.spotify.com/v1/artists/5etqqBb2MVeXqG7FN1eVrm",
      "id" : "5etqqBb2MVeXqG7FN1eVrm",
      "images" : [ {
        "height" : 640,
        "url" : "https://i.scdn.co/image/ab67616d0000b2737bcf2ae8f0927c8538e7e475",
        "width" : 640
      }, {
        "height" : 300,
        "url" : "https://i.scdn.co/image/ab67616d00001e027bcf2ae8f0927c8538e7e475",
        "width" : 300
      }, {
        "height" : 64,
        "url" : "https://i.scdn.co/image/ab67616d000048517bcf2ae8f0927c8538e7e475",
        "width" : 64
      } ],
      "name" : "Brian Richard",
      "popularity" : 0,
      "type" : "artist",
      "uri" : "spotify:artist:5etqqBb2MVeXqG7FN1eVrm"
    }, {
      "external_urls" : {
        "spotify" : "https://open.spotify.com/artist/30c1bVykB68cQiOxZLweJJ"
      },
      "followers" : {
        "href" : null,
        "total" : 0
      },
      "genres" : [ ],
      "href" : "https://api.spotify.com/v1/artists/30c1bVykB68cQiOxZLweJJ",
      "id" : "30c1bVykB68cQiOxZLweJJ",
      "images" : [ ],
      "name" : "Brian Richard Henry",
      "popularity" : 0,
      "type" : "artist",
      "uri" : "spotify:artist:30c1bVykB68cQiOxZLweJJ"
    }, {
      "external_urls" : {
        "spotify" : "https://open.spotify.com/artist/27lru35f6GRJ0UFIaKIfIk"
      },
      "followers" : {
        "href" : null,
        "total" : 3
      },
      "genres" : [ ],
      "href" : "https://api.spotify.com/v1/artists/27lru35f6GRJ0UFIaKIfIk",
      "id" : "27lru35f6GRJ0UFIaKIfIk",
      "images" : [ ],
      "name" : "Brian Richburg Jr.",
      "popularity" : 0,
      "type" : "artist",
      "uri" : "spotify:artist:27lru35f6GRJ0UFIaKIfIk"
    }, {
      "external_urls" : {
        "spotify" : "https://open.spotify.com/artist/2REnSmQHsifJnViuuPjg1k"
      },
      "followers" : {
        "href" : null,
        "total" : 93
      },
      "genres" : [ ],
      "href" : "https://api.spotify.com/v1/artists/2REnSmQHsifJnViuuPjg1k",
      "id" : "2REnSmQHsifJnViuuPjg1k",
      "images" : [ {
        "height" : 640,
        "url" : "https://i.scdn.co/image/ab6761610000e5eb965aa41b7d6084632c03a8cb",
        "width" : 640
      }, {
        "height" : 320,
        "url" : "https://i.scdn.co/image/ab67616100005174965aa41b7d6084632c03a8cb",
        "width" : 320
      }, {
        "height" : 160,
        "url" : "https://i.scdn.co/image/ab6761610000f178965aa41b7d6084632c03a8cb",
        "width" : 160
      } ],
      "name" : "Brian Richard Griffin",
      "popularity" : 0,
      "type" : "artist",
      "uri" : "spotify:artist:2REnSmQHsifJnViuuPjg1k"
    }, {
      "external_urls" : {
        "spotify" : "https://open.spotify.com/artist/3GKpmzLXFbTNnGQ7K0sDnz"
      },
      "followers" : {
        "href" : null,
        "total" : 5
      },
      "genres" : [ ],
      "href" : "https://api.spotify.com/v1/artists/3GKpmzLXFbTNnGQ7K0sDnz",
      "id" : "3GKpmzLXFbTNnGQ7K0sDnz",
      "images" : [ {
        "height" : 640,
        "url" : "https://i.scdn.co/image/ab67616d0000b2735c62211ca44d7be18156905d",
        "width" : 640
      }, {
        "height" : 300,
        "url" : "https://i.scdn.co/image/ab67616d00001e025c62211ca44d7be18156905d",
        "width" : 300
      }, {
        "height" : 64,
        "url" : "https://i.scdn.co/image/ab67616d000048515c62211ca44d7be18156905d",
        "width" : 64
      } ],
      "name" : "Brian Richard Griffin",
      "popularity" : 0,
      "type" : "artist",
      "uri" : "spotify:artist:3GKpmzLXFbTNnGQ7K0sDnz"
    }, {
      "external_urls" : {
        "spotify" : "https://open.spotify.com/artist/0dIntDb222HBU718r67bmv"
      },
      "followers" : {
        "href" : null,
        "total" : 1
      },
      "genres" : [ ],
      "href" : "https://api.spotify.com/v1/artists/0dIntDb222HBU718r67bmv",
      "id" : "0dIntDb222HBU718r67bmv",
      "images" : [ {
        "height" : 640,
        "url" : "https://i.scdn.co/image/ab67616d0000b273fc37feaf6cf00e294aa4d4ae",
        "width" : 640
      }, {
        "height" : 300,
        "url" : "https://i.scdn.co/image/ab67616d00001e02fc37feaf6cf00e294aa4d4ae",
        "width" : 300
      }, {
        "height" : 64,
        "url" : "https://i.scdn.co/image/ab67616d00004851fc37feaf6cf00e294aa4d4ae",
        "width" : 64
      } ],
      "name" : "Brian Richard Earl",
      "popularity" : 0,
      "type" : "artist",
      "uri" : "spotify:artist:0dIntDb222HBU718r67bmv"
    }, {
      "external_urls" : {
        "spotify" : "https://open.spotify.com/artist/7Cx8QklB4eVJikn6yrN9ph"
      },
      "followers" : {
        "href" : null,
        "total" : 1
      },
      "genres" : [ ],
      "href" : "https://api.spotify.com/v1/artists/7Cx8QklB4eVJikn6yrN9ph",
      "id" : "7Cx8QklB4eVJikn6yrN9ph",
      "images" : [ ],
      "name" : "Brian Richburg Jr",
      "popularity" : 0,
      "type" : "artist",
      "uri" : "spotify:artist:7Cx8QklB4eVJikn6yrN9ph"
    }, {
      "external_urls" : {
        "spotify" : "https://open.spotify.com/artist/57ebtCsaXQOLfKvz4IXT5D"
      },
      "followers" : {
        "href" : null,
        "total" : 5
      },
      "genres" : [ ],
      "href" : "https://api.spotify.com/v1/artists/57ebtCsaXQOLfKvz4IXT5D",
      "id" : "57ebtCsaXQOLfKvz4IXT5D",
      "images" : [ ],
      "name" : "Richard Brian Greenspoon",
      "popularity" : 1,
      "type" : "artist",
      "uri" : "spotify:artist:57ebtCsaXQOLfKvz4IXT5D"
    }, {
      "external_urls" : {
        "spotify" : "https://open.spotify.com/artist/7KxpafCKy87vc7FPHMRKZ7"
      },
      "followers" : {
        "href" : null,
        "total" : 1
      },
      "genres" : [ ],
      "href" : "https://api.spotify.com/v1/artists/7KxpafCKy87vc7FPHMRKZ7",
      "id" : "7KxpafCKy87vc7FPHMRKZ7",
      "images" : [ ],
      "name" : "Richy Brian Sutton",
      "popularity" : 0,
      "type" : "artist",
      "uri" : "spotify:artist:7KxpafCKy87vc7FPHMRKZ7"
    }, {
      "external_urls" : {
        "spotify" : "https://open.spotify.com/artist/3EnFeGGuEJfXXjRbT5lD3x"
      },
      "followers" : {
        "href" : null,
        "total" : 1
      },
      "genres" : [ ],
      "href" : "https://api.spotify.com/v1/artists/3EnFeGGuEJfXXjRbT5lD3x",
      "id" : "3EnFeGGuEJfXXjRbT5lD3x",
      "images" : [ {
        "height" : 640,
        "url" : "https://i.scdn.co/image/ab67616d0000b2739f792fb6c66909933eb3ab4f",
        "width" : 640
      }, {
        "height" : 300,
        "url" : "https://i.scdn.co/image/ab67616d00001e029f792fb6c66909933eb3ab4f",
        "width" : 300
      }, {
        "height" : 64,
        "url" : "https://i.scdn.co/image/ab67616d000048519f792fb6c66909933eb3ab4f",
        "width" : 64
      } ],
      "name" : "Brian Lamond & Richard Parks",
      "popularity" : 0,
      "type" : "artist",
      "uri" : "spotify:artist:3EnFeGGuEJfXXjRbT5lD3x"
    } ],
    "limit" : 20,
    "next" : "https://api.spotify.com/v1/search?query=+Rich+Brian&type=artist&market=US&offset=20&limit=20",
    "offset" : 0,
    "previous" : null,
    "total" : 40
  }
}