{
  "artists" : {
    "href" : "https://api.spotify.com/v1/search?query=+Steve+Lacy&type=artist&market=US&offset=0&limit=20",
    "items" : [ {
      "external_urls" : {
        "spotify" : "https://open.spotify.com/artist/57vWImR43h4CaDao012Ofp"
      },
      "followers" : {
        "href" : null,
        "total" : 1129765
      },
      "genres" : [ "afrofuturism", "pop" ],
      "href" : "https://api.spotify.com/v1/artists/57vWImR43h4CaDao012Ofp",
      "id" : "57vWImR43h4CaDao012Ofp",
      "images" : [ {
        "height" : 640,
        "url" : "https://i.scdn.co/image/ab6761610000e5ebc393c9f2e73f1c783bbeaee3",
        "width" : 640
      }, {
        "height" : 320,
        "url" : "https://i.scdn.co/image/ab67616100005174c393c9f2e73f1c783bbeaee3",
        "width" : 320
      }, {
        "height" : 160,
        "url" : "https://i.scdn.co/image/ab6761610000f178c393c9f2e73f1c783bbeaee3",
        "width" : 160
      } ],
      "name" : "Steve Lacy",
      "popularity" : 81,
      "type" : "artist",
      "uri" : "spotify:artist:57vWImR43h4CaDao012Ofp"
    }, {
      "external_urls" : {
        "spotify" : "https://open.spotify.com/artist/1BEsuwAkTQMG50TeHB5qny"
      },
      "followers" : {
        "href" : null,
        "total" : 8206
      },
      "genres" : [ "avant-garde jazz", "free improvisation", "free jazz" ],
      "href" : "https://api.spotify.com/v1/artists/1BEsuwAkTQMG50TeHB5qny",
      "id" : "1BEsuwAkTQMG50TeHB5qny",
      "images" : [ {
        "height" : 640,
        "url" : "https://i.scdn.co/image/ab67616d0000b273dc18ca5965c1609cd12e6a78",
        "width" : 640
      }, {
        "height" : 300,
        "url" : "https://i.scdn.co/image/ab67616d00001e02dc18ca5965c1609cd12e6a78",
        "width" : 300
      }, {
        "height" : 64,
        "url" : "https://i.scdn.co/image/ab67616d00004851dc18ca5965c1609cd12e6a78",
        "width" : 64
      } ],
      "name" : "Steve Lacy",
      "popularity" : 23,
      "type" : "artist",
      "uri" : "spotify:artist:1BEsuwAkTQMG50TeHB5qny"
    }, {
      "external_urls" : {
        "spotify" : "https://open.spotify.com/artist/7J3me5ymwA8zg6azUBkpyo"
      },
      "followers" : {
        "href" : null,
        "total" : 95
      },
      "genres" : [ ],
      "href" : "https://api.spotify.com/v1/artists/7J3me5ymwA8zg6azUBkpyo",
      "id" : "7J3me5ymwA8zg6azUBkpyo",
      "images" : [ {
        "height" : 640,
        "url" : "https://i.scdn.co/image/ab67616d0000b273af0b52adeed424c3f954a009",
        "width" : 640
      }, {
        "height" : 300,
        "url" : "https://i.scdn.co/image/ab67616d00001e02af0b52adeed424c3f954a009",
        "width" : 300
      }, {
        "height" : 64,
        "url" : "https://i.scdn.co/image/ab67616d00004851af0b52adeed424c3f954a009",
        "width" : 64
      } ],
      "name" : "Steve Lacy Quintet",
      "popularity" : 0,
      "type" : "artist",
      "uri" : "spotify:artist:7J3me5ymwA8zg6azUBkpyo"
    }, {
      "external_urls" : {
        "spotify" : "https://open.spotify.com/artist/40Q2U4YOI0M7hUFYM1rDGI"
      },
      "followers" : {
        "href" : null,
        "total" : 15
      },
      "genres" : [ "experimental big band" ],
      "href" : "https://api.spotify.com/v1/artists/40Q2U4YOI0M7hUFYM1rDGI",
      "id" : "40Q2U4YOI0M7hUFYM1rDGI",
      "images" : [ {
        "height" : 640,
        "url" : "https://i.scdn.co/image/ab67616d0000b2738a625a7d6b07a9c5c7af3376",
        "width" : 640
      }, {
        "height" : 300,
        "url" : "https://i.scdn.co/image/ab67616d00001e028a625a7d6b07a9c5c7af3376",
        "width" : 300
      }, {
        "height" : 64,
        "url" : "https://i.scdn.co/image/ab67616d000048518a625a7d6b07a9c5c7af3376",
        "width" : 64
      } ],
      "name" : "Steve Lacy+16",
      "popularity" : 0,
      "type" : "artist",
      "uri" : "spotify:artist:40Q2U4YOI0M7hUFYM1rDGI"
    }, {
      "external_urls" : {
        "spotify" : "https://open.spotify.com/artist/3xjaqONh5vHd4MQF1HoNYj"
      },
      "followers" : {
        "href" : null,
        "total" : 86
      },
      "genres" : [ ],
      "href" : "https://api.spotify.com/v1/artists/3xjaqONh5vHd4MQF1HoNYj",
      "id" : "3xjaqONh5vHd4MQF1HoNYj",
      "images" : [ {
        "height" : 640,
        "url" : "https://i.scdn.co/image/ab67616d0000b273ee1c12f11add7736c168e679",
        "width" : 640
      }, {
        "height" : 300,
        "url" : "https://i.scdn.co/image/ab67616d00001e02ee1c12f11add7736c168e679",
        "width" : 300
      }, {
        "height" : 64,
        "url" : "https://i.scdn.co/image/ab67616d00004851ee1c12f11add7736c168e679",
        "width" : 64
      } ],
      "name" : "Steve Lacy 6",
      "popularity" : 0,
      "type" : "artist",
      "uri" : "spotify:artist:3xjaqONh5vHd4MQF1HoNYj"
    }, {
      "external_urls" : {
        "spotify" : "https://open.spotify.com/artist/2jzluexH2ycDyDtQPqQ31p"
      },
      "followers" : {
        "href" : null,
        "total" : 33
      },
      "genres" : [ ],
      "href" : "https://api.spotify.com/v1/artists/2jzluexH2ycDyDtQPqQ31p",
      "id" : "2jzluexH2ycDyDtQPqQ31p",
      "images" : [ {
        "height" : 640,
        "url" : "https://i.scdn.co/image/ab67616d0000b27392f909d2c71cade0f83729d0",
        "width" : 640
      }, {
        "height" : 300,
        "url" : "https://i.scdn.co/image/ab67616d00001e0292f909d2c71cade0f83729d0",
        "width" : 300
      }, {
        "height" : 64,
        "url" : "https://i.scdn.co/image/ab67616d0000485192f909d2c71cade0f83729d0",
        "width" : 64
      } ],
      "name" : "Steve Lacy Octet",
      "popularity" : 0,
      "type" : "artist",
      "uri" : "spotify:artist:2jzluexH2ycDyDtQPqQ31p"
    }, {
      "external_urls" : {
        "spotify" : "https://open.spotify.com/artist/0GfyShCwaKUU3PCK2wdXgd"
      },
      "followers" : {
        "href" : null,
        "total" : 38
      },
      "genres" : [ ],
      "href" : "https://api.spotify.com/v1/artists/0GfyShCwaKUU3PCK2wdXgd",
      "id" : "0GfyShCwaKUU3PCK2wdXgd",
      "images" : [ {
        "height" : 640,
        "url" : "https://i.scdn.co/image/ab67616d0000b273c9f6a249e885627d99cd74ad",
        "width" : 640
      }, {
        "height" : 300,
        "url" : "https://i.scdn.co/image/ab67616d00001e02c9f6a249e885627d99cd74ad",
        "width" : 300
      }, {
        "height" : 64,
        "url" : "https://i.scdn.co/image/ab67616d00004851c9f6a249e885627d99cd74ad",
        "width" : 64
      } ],
      "name" : "Steve Lacy Five",
      "popularity" : 0,
      "type" : "artist",
      "uri" : "spotify:artist:0GfyShCwaKUU3PCK2wdXgd"
    }, {
      "external_urls" : {
        "spotify" : "https://open.spotify.com/artist/2ch7mdfU2HpVRGIc9MXs2u"
      },
      "followers" : {
        "href" : null,
        "total" : 50
      },
      "genres" : [ ],
      "href" : "https://api.spotify.com/v1/artists/2ch7mdfU2HpVRGIc9MXs2u",
      "id" : "2ch7mdfU2HpVRGIc9MXs2u",
      "images" : [ {
        "height" : 640,
        "url" : "https://i.scdn.co/image/ab67616d0000b27365bd08d6baa6b8af42976e2e",
        "width" : 640
      }, {
        "height" : 300,
        "url" : "https://i.scdn.co/image/ab67616d00001e0265bd08d6baa6b8af42976e2e",
        "width" : 300
      }, {
        "height" : 64,
        "url" : "https://i.scdn.co/image/ab67616d0000485165bd08d6baa6b8af42976e2e",
        "width" : 64
      } ],
      "name" : "Steve Lacy Four",
      "popularity" : 0,
      "type" : "artist",
      "uri" : "spotify:artist:2ch7mdfU2HpVRGIc9MXs2u"
    }, {
      "external_urls" : {
        "spotify" : "https://open.spotify.com/artist/3j52XzdeyGQGBuoxZspovw"
      },
      "followers" : {
        "href" : null,
        "total" : 40
      },
      "genres" : [ ],
      "href" : "https://api.spotify.com/v1/artists/3j52XzdeyGQGBuoxZspovw",
      "id" : "3j52XzdeyGQGBuoxZspovw",
      "images" : [ {
        "height" : 640,
        "url" : "https://i.scdn.co/image/ab67616d0000b273c61551aafae194b6822da530",
        "width" : 640
      }, {
        "height" : 300,
        "url" : "https://i.scdn.co/image/ab67616d00001e02c61551aafae194b6822da530",
        "width" : 300
      }, {
        "height" : 64,
        "url" : "https://i.scdn.co/image/ab67616d00004851c61551aafae194b6822da530",
        "width" : 64
      } ],
      "name" : "Steve Lacy Sextet",
      "popularity" : 0,
      "type" : "artist",
      "uri" : "spotify:artist:3j52XzdeyGQGBuoxZspovw"
    }, {
      "external_urls" : {
        "spotify" : "https://open.spotify.com/artist/7tIO25qW9fLMq3XSXoSJPq"
      },
      "followers" : {
        "href" : null,
        "total" : 51
      },
      "genres" : [ ],
      "href" : "https://api.spotify.com/v1/artists/7tIO25qW9fLMq3XSXoSJPq",
      "id" : "7tIO25qW9fLMq3XSXoSJPq",
      "images" : [ {
        "height" : 640,
        "url" : "https://i.scdn.co/image/ab67616d0000b273f072442f5581bd4122ec579e",
        "width" : 640
      }, {
        "height" : 300,
        "url" : "https://i.scdn.co/image/ab67616d00001e02f072442f5581bd4122ec579e",
        "width" : 300
      }, {
        "height" : 64,
        "url" : "https://i.scdn.co/image/ab67616d00004851f072442f5581bd4122ec579e",
        "width" : 64
      } ],
      "name" : "Steve Lacy Nine",
      "popularity" : 0,
      "type" : "artist",
      "uri" : "spotify:artist:7tIO25qW9fLMq3XSXoSJPq"
    }, {
      "external_urls" : {
        "spotify" : "https://open.spotify.com/artist/0aOhetYhN7LrtGJ93QjD7s"
      },
      "followers" : {
        "href" : null,
        "total" : 1
      },
      "genres" : [ ],
      "href" : "https://api.spotify.com/v1/artists/0aOhetYhN7LrtGJ93QjD7s",
      "id" : "0aOhetYhN7LrtGJ93QjD7s",
      "images" : [ {
        "height" : 640,
        "url" : "https://i.scdn.co/image/ab67616d0000b27368af01d1ecd2e37ed3f5b2b1",
        "width" : 640
      }, {
        "height" : 300,
        "url" : "https://i.scdn.co/image/ab67616d00001e0268af01d1ecd2e37ed3f5b2b1",
        "width" : 300
      }, {
        "height" : 64,
        "url" : "https://i.scdn.co/image/ab67616d000048511fb3ec0d48c1cab0aaadcb56",
        "width" : 64
      } ],
      "name" : "Steve Lacy Trio",
      "popularity" : 1,
      "type" : "artist",
      "uri" : "spotify:artist:0aOhetYhN7LrtGJ93QjD7s"
    }, {
      "external_urls" : {
        "spotify" : "https://open.spotify.com/artist/0elYE8pai3zNQzmRgAW5PZ"
      },
      "followers" : {
        "href" : null,
        "total" : 84
      },
      "genres" : [ ],
      "href" : "https://api.spotify.com/v1/artists/0elYE8pai3zNQzmRgAW5PZ",
      "id" : "0elYE8pai3zNQzmRgAW5PZ",
      "images" : [ {
        "height" : 640,
        "url" : "https://i.scdn.co/image/ab67616d0000b2732ddb848607cb8856a29d9344",
        "width" : 640
      }, {
        "height" : 300,
        "url" : "https://i.scdn.co/image/ab67616d00001e022ddb848607cb8856a29d9344",
        "width" : 300
      }, {
        "height" : 64,
        "url" : "https://i.scdn.co/image/ab67616d000048512ddb848607cb8856a29d9344",
        "width" : 64
      } ],
      "name" : "Steve Lacy Seven",
      "popularity" : 0,
      "type" : "artist",
      "uri" : "spotify:artist:0elYE8pai3zNQzmRgAW5PZ"
    }, {
      "external_urls" : {
        "spotify" : "https://open.spotify.com/artist/6fFl7W0WyP8XieFcfPgGnJ"
      },
      "followers" : {
        "href" : null,
        "total" : 40
      },
      "genres" : [ ],
      "href" : "https://api.spotify.com/v1/artists/6fFl7W0WyP8XieFcfPgGnJ",
      "id" : "6fFl7W0WyP8XieFcfPgGnJ",
      "images" : [ {
        "height" : 640,
        "url" : "https://i.scdn.co/image/ab67616d0000b2737a2dc0f297852e7cd46b5fa9",
        "width" : 640
      }, {
        "height" : 300,
        "url" : "https://i.scdn.co/image/ab67616d00001e027a2dc0f297852e7cd46b5fa9",
        "width" : 300
      }, {
        "height" : 64,
        "url" : "https://i.scdn.co/image/ab67616d000048517a2dc0f297852e7cd46b5fa9",
        "width" : 64
      } ],
      "name" : "Steve Lacy Quartet",
      "popularity" : 0,
      "type" : "artist",
      "uri" : "spotify:artist:6fFl7W0WyP8XieFcfPgGnJ"
    }, {
      "external_urls" : {
        "spotify" : "https://open.spotify.com/artist/1FLQs0t6cz3hCq6jNLDARj"
      },
      "followers" : {
        "href" : null,
        "total" : 16
      },
      "genres" : [ ],
      "href" : "https://api.spotify.com/v1/artists/1FLQs0t6cz3hCq6jNLDARj",
      "id" : "1FLQs0t6cz3hCq6jNLDARj",
      "images" : [ {
        "height" : 640,
        "url" : "https://i.scdn.co/image/ab67616d0000b27349b6787571c5b8ac2558b054",
        "width" : 640
      }, {
        "height" : 300,
        "url" : "https://i.scdn.co/image/ab67616d00001e0249b6787571c5b8ac2558b054",
        "width" : 300
      }, {
        "height" : 64,
        "url" : "https://i.scdn.co/image/ab67616d0000485149b6787571c5b8ac2558b054",
        "width" : 64
      } ],
      "name" : "Steve Lacy Double Sextet",
      "popularity" : 0,
      "type" : "artist",
      "uri" : "spotify:artist:1FLQs0t6cz3hCq6jNLDARj"
    }, {
      "external_urls" : {
        "spotify" : "https://open.spotify.com/artist/3ZDGrBpEvCO2NFMjpEYCoy"
      },
      "followers" : {
        "href" : null,
        "total" : 110
      },
      "genres" : [ ],
      "href" : "https://api.spotify.com/v1/artists/3ZDGrBpEvCO2NFMjpEYCoy",
      "id" : "3ZDGrBpEvCO2NFMjpEYCoy",
      "images" : [ {
        "height" : 640,
        "url" : "https://i.scdn.co/image/ab67616d0000b273d9a41ecbebc00d734c5e655c",
        "width" : 640
      }, {
        "height" : 300,
        "url" : "https://i.scdn.co/image/ab67616d00001e02d9a41ecbebc00d734c5e655c",
        "width" : 300
      }, {
        "height" : 64,
        "url" : "https://i.scdn.co/image/ab67616d00004851d9a41ecbebc00d734c5e655c",
        "width" : 64
      } ],
      "name" : "Mal Waldron & Steve Lacy",
      "popularity" : 0,
      "type" : "artist",
      "uri" : "spotify:artist:3ZDGrBpEvCO2NFMjpEYCoy"
    }, {
      "external_urls" : {
        "spotify" : "https://open.spotify.com/artist/22gWJLTRNILLGBFKZHmso0"
      },
      "followers" : {
        "href" : null,
        "total" : 24
      },
      "genres" : [ ],
      "href" : "https://api.spotify.com/v1/artists/22gWJLTRNILLGBFKZHmso0",
      "id" : "22gWJLTRNILLGBFKZHmso0",
      "images" : [ {
        "height" : 640,
        "url" : "https://i.scdn.co/image/ab67616d0000b27398581fe43694b7865df5b095",
        "width" : 640
      }, {
        "height" : 300,
        "url" : "https://i.scdn.co/image/ab67616d00001e0298581fe43694b7865df5b095",
        "width" : 300
      }, {
        "height" : 64,
        "url" : "https://i.scdn.co/image/ab67616d0000485198581fe43694b7865df5b095",
        "width" : 64
      } ],
      "name" : "Steve Lacy Three",
      "popularity" : 0,
      "type" : "artist",
      "uri" : "spotify:artist:22gWJLTRNILLGBFKZHmso0"
    }, {
      "external_urls" : {
        "spotify" : "https://open.spotify.com/artist/1UXdpEJK58p6CLzIsRVckB"
      },
      "followers" : {
        "href" : null,
        "total" : 18
      },
      "genres" : [ ],
      "href" : "https://api.spotify.com/v1/artists/1UXdpEJK58p6CLzIsRVckB",
      "id" : "1UXdpEJK58p6CLzIsRVckB",
      "images" : [ {
        "height" : 640,
        "url" : "https://i.scdn.co/image/ab67616d0000b273fb2934670636a5d72cd0bdd3",
        "width" : 640
      }, {
        "height" : 300,
        "url" : "https://i.scdn.co/image/ab67616d00001e02fb2934670636a5d72cd0bdd3",
        "width" : 300
      }, {
        "height" : 64,
        "url" : "https://i.scdn.co/image/ab67616d00004851fb2934670636a5d72cd0bdd3",
        "width" : 64
      } ],
      "name" : "Anthony Brown's Asian American Orchestra with Steve Lacy",
      "popularity" : 0,
      "type" : "artist",
      "uri" : "spotify:artist:1UXdpEJK58p6CLzIsRVckB"
    }, {
      "external_urls" : {
        "spotify" : "https://open.spotify.com/artist/1fu9aCSbP9d4sicvVQ3kmH"
      },
      "followers" : {
        "href" : null,
        "total" : 5
      },
      "genres" : [ ],
      "href" : "https://api.spotify.com/v1/artists/1fu9aCSbP9d4sicvVQ3kmH",
      "id" : "1fu9aCSbP9d4sicvVQ3kmH",
      "images" : [ {
        "height" : 640,
        "url" : "https://i.scdn.co/image/ab67616d0000b2730f32bb3684e05fa0ef6d9b78",
        "width" : 640
      }, {
        "height" : 300,
        "url" : "https://i.scdn.co/image/ab67616d00001e020f32bb3684e05fa0ef6d9b78",
        "width" : 300
      }, {
        "height" : 64,
        "url" : "https://i.scdn.co/image/ab67616d000048510f32bb3684e05fa0ef6d9b78",
        "width" : 64
      } ],
      "name" : "Keptorchestra & Steve Lacy",
      "popularity" : 0,
      "type" : "artist",
      "uri" : "spotify:artist:1fu9aCSbP9d4sicvVQ3kmH"
    }, {
      "external_urls" : {
        "spotify" : "https://open.spotify.com/artist/1hTJhrUatTJBP8HdiB2PPg"
      },
      "followers" : {
        "href" : null,
        "total" : 0
      },
      "genres" : [ ],
      "href" : "https://api.spotify.com/v1/artists/1hTJhrUatTJBP8HdiB2PPg",
      "id" : "1hTJhrUatTJBP8HdiB2PPg",
      "images" : [ ],
      "name" : "The Steve Lacy Quartet",
      "popularity" : 0,
      "type" : "artist",
      "uri" : "spotify:artist:1hTJhrUatTJBP8HdiB2PPg"
    }, {
      "external_urls" : {
        "spotify" : "https://open.spotify.com/artist/26GQaAoTAPAGfRHyv71toz"
      },
      "followers" : {
        "href" : null,
        "total" : 8
      },
      "genres" : [ ],
      "href" : "https://api.spotify.com/v1/artists/26GQaAoTAPAGfRHyv71toz",
      "id" : "26GQaAoTAPAGfRHyv71toz",
      "images" : [ {
        "height" : 640,
        "url" : "https://i.scdn.co/image/ab67616d0000b2739e0543e31c59e19445a1d605",
        "width" : 640
      }, {
        "height" : 300,
        "url" : "https://i.scdn.co/image/ab67616d00001e029e0543e31c59e19445a1d605",
        "width" : 300
      }, {
        "height" : 64,
        "url" : "https://i.scdn.co/image/ab67616d000048519e0543e31c59e19445a1d605",
        "width" : 64
      } ],
      "name" : "Steve Lacy, Joelle Leandre",
      "popularity" : 0,
      "type" : "artist",
      "uri" : "spotify:artist:26GQaAoTAPAGfRHyv71toz"
    } ],
    "limit" : 20,
    "next" : "https://api.spotify.com/v1/search?query=+Steve+Lacy&type=artist&market=US&offset=20&limit=20",
    "offset" : 0,
    "previous" : null,
    "total" : 22
  }
}