{
  "artists" : {
    "href" : "https://api.spotify.com/v1/search?query=BIG+BOI&type=artist&market=US&offset=0&limit=20",
    "items" : [ {
      "external_urls" : {
        "spotify" : "https://open.spotify.com/artist/2ht3wxeT69CzyKFChNnNAB"
      },
      "followers" : {
        "href" : null,
        "total" : 382036
      },
      "genres" : [ "alternative hip hop", "atl hip hop", "dirty south rap", "gangster rap", "hip hop", "southern hip hop", "trap" ],
      "href" : "https://api.spotify.com/v1/artists/2ht3wxeT69CzyKFChNnNAB",
      "id" : "2ht3wxeT69CzyKFChNnNAB",
      "images" : [ {
        "height" : 640,
        "url" : "https://i.scdn.co/image/ab6761610000e5eb7f3c0dffb5229c8734ff60b2",
        "width" : 640
      }, {
        "height" : 320,
        "url" : "https://i.scdn.co/image/ab676161000051747f3c0dffb5229c8734ff60b2",
        "width" : 320
      }, {
        "height" : 160,
        "url" : "https://i.scdn.co/image/ab6761610000f1787f3c0dffb5229c8734ff60b2",
        "width" : 160
      } ],
      "name" : "Big Boi",
      "popularity" : 63,
      "type" : "artist",
      "uri" : "spotify:artist:2ht3wxeT69CzyKFChNnNAB"
    }, {
      "external_urls" : {
        "spotify" : "https://open.spotify.com/artist/22xy6sNTr6YjtsoV9Mh6S6"
      },
      "followers" : {
        "href" : null,
        "total" : 22510
      },
      "genres" : [ "desi pop", "punjabi pop" ],
      "href" : "https://api.spotify.com/v1/artists/22xy6sNTr6YjtsoV9Mh6S6",
      "id" : "22xy6sNTr6YjtsoV9Mh6S6",
      "images" : [ {
        "height" : 640,
        "url" : "https://i.scdn.co/image/ab6761610000e5eb408f8f36359e688cdf6940e7",
        "width" : 640
      }, {
        "height" : 320,
        "url" : "https://i.scdn.co/image/ab67616100005174408f8f36359e688cdf6940e7",
        "width" : 320
      }, {
        "height" : 160,
        "url" : "https://i.scdn.co/image/ab6761610000f178408f8f36359e688cdf6940e7",
        "width" : 160
      } ],
      "name" : "Big Boi Deep",
      "popularity" : 44,
      "type" : "artist",
      "uri" : "spotify:artist:22xy6sNTr6YjtsoV9Mh6S6"
    }, {
      "external_urls" : {
        "spotify" : "https://open.spotify.com/artist/5vGgp8BFe4lv5iKQoJMs4o"
      },
      "followers" : {
        "href" : null,
        "total" : 10
      },
      "genres" : [ ],
      "href" : "https://api.spotify.com/v1/artists/5vGgp8BFe4lv5iKQoJMs4o",
      "id" : "5vGgp8BFe4lv5iKQoJMs4o",
      "images" : [ {
        "height" : 640,
        "url" : "https://i.scdn.co/image/ab67616d0000b2737b5b640f5b2eef76ca55675e",
        "width" : 640
      }, {
        "height" : 300,
        "url" : "https://i.scdn.co/image/ab67616d00001e027b5b640f5b2eef76ca55675e",
        "width" : 300
      }, {
        "height" : 64,
        "url" : "https://i.scdn.co/image/ab67616d000048517b5b640f5b2eef76ca55675e",
        "width" : 64
      } ],
      "name" : "Big Boi Saint",
      "popularity" : 18,
      "type" : "artist",
      "uri" : "spotify:artist:5vGgp8BFe4lv5iKQoJMs4o"
    }, {
      "external_urls" : {
        "spotify" : "https://open.spotify.com/artist/2Cts8O9VbpdrQKzmOldnbx"
      },
      "followers" : {
        "href" : null,
        "total" : 5
      },
      "genres" : [ ],
      "href" : "https://api.spotify.com/v1/artists/2Cts8O9VbpdrQKzmOldnbx",
      "id" : "2Cts8O9VbpdrQKzmOldnbx",
      "images" : [ ],
      "name" : "Big Boi Deep",
      "popularity" : 26,
      "type" : "artist",
      "uri" : "spotify:artist:2Cts8O9VbpdrQKzmOldnbx"
    }, {
      "external_urls" : {
        "spotify" : "https://open.spotify.com/artist/56ZGtR1DKWljqcnDH3heEx"
      },
      "followers" : {
        "href" : null,
        "total" : 12
      },
      "genres" : [ ],
      "href" : "https://api.spotify.com/v1/artists/56ZGtR1DKWljqcnDH3heEx",
      "id" : "56ZGtR1DKWljqcnDH3heEx",
      "images" : [ {
        "height" : 640,
        "url" : "https://i.scdn.co/image/ab67616d0000b2738daeee97bc63cee5a04031fa",
        "width" : 640
      }, {
        "height" : 300,
        "url" : "https://i.scdn.co/image/ab67616d00001e028daeee97bc63cee5a04031fa",
        "width" : 300
      }, {
        "height" : 64,
        "url" : "https://i.scdn.co/image/ab67616d000048518daeee97bc63cee5a04031fa",
        "width" : 64
      } ],
      "name" : "Big Boi",
      "popularity" : 0,
      "type" : "artist",
      "uri" : "spotify:artist:56ZGtR1DKWljqcnDH3heEx"
    }, {
      "external_urls" : {
        "spotify" : "https://open.spotify.com/artist/6VrXFtzZQbJoN21XSUhnd2"
      },
      "followers" : {
        "href" : null,
        "total" : 9
      },
      "genres" : [ ],
      "href" : "https://api.spotify.com/v1/artists/6VrXFtzZQbJoN21XSUhnd2",
      "id" : "6VrXFtzZQbJoN21XSUhnd2",
      "images" : [ ],
      "name" : "Dungeon Family feat. Big Boi, Witchdoctor, Goodie Mob",
      "popularity" : 16,
      "type" : "artist",
      "uri" : "spotify:artist:6VrXFtzZQbJoN21XSUhnd2"
    }, {
      "external_urls" : {
        "spotify" : "https://open.spotify.com/artist/5RVvUQFBSqIz3l70V5vtja"
      },
      "followers" : {
        "href" : null,
        "total" : 26
      },
      "genres" : [ ],
      "href" : "https://api.spotify.com/v1/artists/5RVvUQFBSqIz3l70V5vtja",
      "id" : "5RVvUQFBSqIz3l70V5vtja",
      "images" : [ ],
      "name" : "Boi Big",
      "popularity" : 7,
      "type" : "artist",
      "uri" : "spotify:artist:5RVvUQFBSqIz3l70V5vtja"
    }, {
      "external_urls" : {
        "spotify" : "https://open.spotify.com/artist/5YN0m2CcyBN8qz9EOnkTDz"
      },
      "followers" : {
        "href" : null,
        "total" : 0
      },
      "genres" : [ ],
      "href" : "https://api.spotify.com/v1/artists/5YN0m2CcyBN8qz9EOnkTDz",
      "id" : "5YN0m2CcyBN8qz9EOnkTDz",
      "images" : [ ],
      "name" : "Big Boi",
      "popularity" : 0,
      "type" : "artist",
      "uri" : "spotify:artist:5YN0m2CcyBN8qz9EOnkTDz"
    }, {
      "external_urls" : {
        "spotify" : "https://open.spotify.com/artist/2u05NLKvi2m8FmlI3OknOR"
      },
      "followers" : {
        "href" : null,
        "total" : 13
      },
      "genres" : [ ],
      "href" : "https://api.spotify.com/v1/artists/2u05NLKvi2m8FmlI3OknOR",
      "id" : "2u05NLKvi2m8FmlI3OknOR",
      "images" : [ {
        "height" : 640,
        "url" : "https://i.scdn.co/image/ab6761610000e5ebb39f2647aa055566e61bce88",
        "width" : 640
      }, {
        "height" : 320,
        "url" : "https://i.scdn.co/image/ab67616100005174b39f2647aa055566e61bce88",
        "width" : 320
      }, {
        "height" : 160,
        "url" : "https://i.scdn.co/image/ab6761610000f178b39f2647aa055566e61bce88",
        "width" : 160
      } ],
      "name" : "Dat Boi Biggie",
      "popularity" : 3,
      "type" : "artist",
      "uri" : "spotify:artist:2u05NLKvi2m8FmlI3OknOR"
    }, {
      "external_urls" : {
        "spotify" : "https://open.spotify.com/artist/6NzgW4sh7Xh1Be7Z3V1q3l"
      },
      "followers" : {
        "href" : null,
        "total" : 0
      },
      "genres" : [ ],
      "href" : "https://api.spotify.com/v1/artists/6NzgW4sh7Xh1Be7Z3V1q3l",
      "id" : "6NzgW4sh7Xh1Be7Z3V1q3l",
      "images" : [ ],
      "name" : "Big Boi SA",
      "popularity" : 0,
      "type" : "artist",
      "uri" : "spotify:artist:6NzgW4sh7Xh1Be7Z3V1q3l"
    }, {
      "external_urls" : {
        "spotify" : "https://open.spotify.com/artist/0XRO5LIQgL0FRnaEkPD9xu"
      },
      "followers" : {
        "href" : null,
        "total" : 1
      },
      "genres" : [ ],
      "href" : "https://api.spotify.com/v1/artists/0XRO5LIQgL0FRnaEkPD9xu",
      "id" : "0XRO5LIQgL0FRnaEkPD9xu",
      "images" : [ ],
      "name" : "BIG Bois",
      "popularity" : 0,
      "type" : "artist",
      "uri" : "spotify:artist:0XRO5LIQgL0FRnaEkPD9xu"
    }, {
      "external_urls" : {
        "spotify" : "https://open.spotify.com/artist/26yZg17j6Zz0MdR4yprrSL"
      },
      "followers" : {
        "href" : null,
        "total" : 0
      },
      "genres" : [ ],
      "href" : "https://api.spotify.com/v1/artists/26yZg17j6Zz0MdR4yprrSL",
      "id" : "26yZg17j6Zz0MdR4yprrSL",
      "images" : [ ],
      "name" : "Big boi slim",
      "popularity" : 0,
      "type" : "artist",
      "uri" : "spotify:artist:26yZg17j6Zz0MdR4yprrSL"
    }, {
      "external_urls" : {
        "spotify" : "https://open.spotify.com/artist/1xtdPtEmm9PAo5tQCMp6mL"
      },
      "followers" : {
        "href" : null,
        "total" : 2
      },
      "genres" : [ ],
      "href" : "https://api.spotify.com/v1/artists/1xtdPtEmm9PAo5tQCMp6mL",
      "id" : "1xtdPtEmm9PAo5tQCMp6mL",
      "images" : [ ],
      "name" : "Big Boi",
      "popularity" : 0,
      "type" : "artist",
      "uri" : "spotify:artist:1xtdPtEmm9PAo5tQCMp6mL"
    }, {
      "external_urls" : {
        "spotify" : "https://open.spotify.com/artist/0hsTLGdQYoKsImx3od2ois"
      },
      "followers" : {
        "href" : null,
        "total" : 1
      },
      "genres" : [ ],
      "href" : "https://api.spotify.com/v1/artists/0hsTLGdQYoKsImx3od2ois",
      "id" : "0hsTLGdQYoKsImx3od2ois",
      "images" : [ ],
      "name" : "Big Boi Nang",
      "popularity" : 5,
      "type" : "artist",
      "uri" : "spotify:artist:0hsTLGdQYoKsImx3od2ois"
    }, {
      "external_urls" : {
        "spotify" : "https://open.spotify.com/artist/1KcvynQSl900GLhkfAFnqJ"
      },
      "followers" : {
        "href" : null,
        "total" : 1
      },
      "genres" : [ ],
      "href" : "https://api.spotify.com/v1/artists/1KcvynQSl900GLhkfAFnqJ",
      "id" : "1KcvynQSl900GLhkfAFnqJ",
      "images" : [ {
        "height" : 640,
        "url" : "https://i.scdn.co/image/ab67616d0000b27314ce1f56d1794726a6c1a34b",
        "width" : 640
      }, {
        "height" : 300,
        "url" : "https://i.scdn.co/image/ab67616d00001e0214ce1f56d1794726a6c1a34b",
        "width" : 300
      }, {
        "height" : 64,
        "url" : "https://i.scdn.co/image/ab67616d0000485114ce1f56d1794726a6c1a34b",
        "width" : 64
      } ],
      "name" : "BIG BOII",
      "popularity" : 0,
      "type" : "artist",
      "uri" : "spotify:artist:1KcvynQSl900GLhkfAFnqJ"
    }, {
      "external_urls" : {
        "spotify" : "https://open.spotify.com/artist/1l0jSWuLxTAMn6Wdm2qTFT"
      },
      "followers" : {
        "href" : null,
        "total" : 2
      },
      "genres" : [ ],
      "href" : "https://api.spotify.com/v1/artists/1l0jSWuLxTAMn6Wdm2qTFT",
      "id" : "1l0jSWuLxTAMn6Wdm2qTFT",
      "images" : [ {
        "height" : 640,
        "url" : "https://i.scdn.co/image/ab6761610000e5eb91874e37563852a59356acb6",
        "width" : 640
      }, {
        "height" : 320,
        "url" : "https://i.scdn.co/image/ab6761610000517491874e37563852a59356acb6",
        "width" : 320
      }, {
        "height" : 160,
        "url" : "https://i.scdn.co/image/ab6761610000f17891874e37563852a59356acb6",
        "width" : 160
      } ],
      "name" : "BIG BOI DRE",
      "popularity" : 0,
      "type" : "artist",
      "uri" : "spotify:artist:1l0jSWuLxTAMn6Wdm2qTFT"
    }, {
      "external_urls" : {
        "spotify" : "https://open.spotify.com/artist/6vqE3ubyElPm4118JGNdlh"
      },
      "followers" : {
        "href" : null,
        "total" : 0
      },
      "genres" : [ ],
      "href" : "https://api.spotify.com/v1/artists/6vqE3ubyElPm4118JGNdlh",
      "id" : "6vqE3ubyElPm4118JGNdlh",
      "images" : [ ],
      "name" : ".BIG Bois",
      "popularity" : 0,
      "type" : "artist",
      "uri" : "spotify:artist:6vqE3ubyElPm4118JGNdlh"
    }, {
      "external_urls" : {
        "spotify" : "https://open.spotify.com/artist/5VG3SHqD3uIDS0OJ67QzNx"
      },
      "followers" : {
        "href" : null,
        "total" : 3
      },
      "genres" : [ ],
      "href" : "https://api.spotify.com/v1/artists/5VG3SHqD3uIDS0OJ67QzNx",
      "id" : "5VG3SHqD3uIDS0OJ67QzNx",
      "images" : [ {
        "height" : 640,
        "url" : "https://i.scdn.co/image/ab67616d0000b27331baea832317ad6c9a6902e5",
        "width" : 640
      }, {
        "height" : 300,
        "url" : "https://i.scdn.co/image/ab67616d00001e0231baea832317ad6c9a6902e5",
        "width" : 300
      }, {
        "height" : 64,
        "url" : "https://i.scdn.co/image/ab67616d0000485131baea832317ad6c9a6902e5",
        "width" : 64
      } ],
      "name" : "Big Boize Makin Noize",
      "popularity" : 0,
      "type" : "artist",
      "uri" : "spotify:artist:5VG3SHqD3uIDS0OJ67QzNx"
    }, {
      "external_urls" : {
        "spotify" : "https://open.spotify.com/artist/6EhuEaIRGnmyWLavqAbfr8"
      },
      "followers" : {
        "href" : null,
        "total" : 0
      },
      "genres" : [ ],
      "href" : "https://api.spotify.com/v1/artists/6EhuEaIRGnmyWLavqAbfr8",
      "id" : "6EhuEaIRGnmyWLavqAbfr8",
      "images" : [ ],
      "name" : "Big Boi_MTB",
      "popularity" : 0,
      "type" : "artist",
      "uri" : "spotify:artist:6EhuEaIRGnmyWLavqAbfr8"
    }, {
      "external_urls" : {
        "spotify" : "https://open.spotify.com/artist/7g6G66XStUd2azAV1WpFq4"
      },
      "followers" : {
        "href" : null,
        "total" : 0
      },
      "genres" : [ ],
      "href" : "https://api.spotify.com/v1/artists/7g6G66XStUd2azAV1WpFq4",
      "id" : "7g6G66XStUd2azAV1WpFq4",
      "images" : [ ],
      "name" : "Big Boi Ostepop",
      "popularity" : 0,
      "type" : "artist",
      "uri" : "spotify:artist:7g6G66XStUd2azAV1WpFq4"
    } ],
    "limit" : 20,
    "next" : "https://api.spotify.com/v1/search?query=BIG+BOI&type=artist&market=US&offset=20&limit=20",
    "offset" : 0,
    "previous" : null,
    "total" : 113
  }
}