{
  "artists" : {
    "href" : "https://api.spotify.com/v1/search?query=BOB+MOSES&type=artist&market=US&offset=0&limit=20",
    "items" : [ {
      "external_urls" : {
        "spotify" : "https://open.spotify.com/artist/6LHsnRBUYhFyt01PdKXAF5"
      },
      "followers" : {
        "href" : null,
        "total" : 287882
      },
      "genres" : [ "canadian electronic", "canadian house" ],
      "href" : "https://api.spotify.com/v1/artists/6LHsnRBUYhFyt01PdKXAF5",
      "id" : "6LHsnRBUYhFyt01PdKXAF5",
      "images" : [ {
        "height" : 640,
        "url" : "https://i.scdn.co/image/ab6761610000e5eb05160aec0fc3da915f1230ab",
        "width" : 640
      }, {
        "height" : 320,
        "url" : "https://i.scdn.co/image/ab6761610000517405160aec0fc3da915f1230ab",
        "width" : 320
      }, {
        "height" : 160,
        "url" : "https://i.scdn.co/image/ab6761610000f17805160aec0fc3da915f1230ab",
        "width" : 160
      } ],
      "name" : "Bob Moses",
      "popularity" : 65,
      "type" : "artist",
      "uri" : "spotify:artist:6LHsnRBUYhFyt01PdKXAF5"
    }, {
      "external_urls" : {
        "spotify" : "https://open.spotify.com/artist/1KxSiuu474QxeIzkFzK3EP"
      },
      "followers" : {
        "href" : null,
        "total" : 808
      },
      "genres" : [ ],
      "href" : "https://api.spotify.com/v1/artists/1KxSiuu474QxeIzkFzK3EP",
      "id" : "1KxSiuu474QxeIzkFzK3EP",
      "images" : [ {
        "height" : 664,
        "url" : "https://i.scdn.co/image/2c6b719eb813c5ecd3cd805beed76103200d4e2c",
        "width" : 1000
      }, {
        "height" : 425,
        "url" : "https://i.scdn.co/image/6488f1fc0a3497cb7cc24f78febdfda69fa735b8",
        "width" : 640
      }, {
        "height" : 133,
        "url" : "https://i.scdn.co/image/70fc785d47f929c4d34eb3b7879635e3c5afa9a3",
        "width" : 200
      }, {
        "height" : 42,
        "url" : "https://i.scdn.co/image/80a421ec20db82f1a71eec4b476ff4d26c8275cb",
        "width" : 63
      } ],
      "name" : "Bob Moses",
      "popularity" : 12,
      "type" : "artist",
      "uri" : "spotify:artist:1KxSiuu474QxeIzkFzK3EP"
    }, {
      "external_urls" : {
        "spotify" : "https://open.spotify.com/artist/5teGcskDKvg00p3ad2NQOD"
      },
      "followers" : {
        "href" : null,
        "total" : 237
      },
      "genres" : [ ],
      "href" : "https://api.spotify.com/v1/artists/5teGcskDKvg00p3ad2NQOD",
      "id" : "5teGcskDKvg00p3ad2NQOD",
      "images" : [ {
        "height" : 640,
        "url" : "https://i.scdn.co/image/ab67616d0000b273401fae01d2b7d9bf9a85b223",
        "width" : 640
      }, {
        "height" : 300,
        "url" : "https://i.scdn.co/image/ab67616d00001e02401fae01d2b7d9bf9a85b223",
        "width" : 300
      }, {
        "height" : 64,
        "url" : "https://i.scdn.co/image/ab67616d00004851401fae01d2b7d9bf9a85b223",
        "width" : 64
      } ],
      "name" : "Bob Moses",
      "popularity" : 11,
      "type" : "artist",
      "uri" : "spotify:artist:5teGcskDKvg00p3ad2NQOD"
    }, {
      "external_urls" : {
        "spotify" : "https://open.spotify.com/artist/4FfQbJDxR35wc0kotwHeyc"
      },
      "followers" : {
        "href" : null,
        "total" : 299
      },
      "genres" : [ ],
      "href" : "https://api.spotify.com/v1/artists/4FfQbJDxR35wc0kotwHeyc",
      "id" : "4FfQbJDxR35wc0kotwHeyc",
      "images" : [ {
        "height" : 640,
        "url" : "https://i.scdn.co/image/ab67616d0000b2733c5fb944ba9b004e31a0968b",
        "width" : 640
      }, {
        "height" : 300,
        "url" : "https://i.scdn.co/image/ab67616d00001e023c5fb944ba9b004e31a0968b",
        "width" : 300
      }, {
        "height" : 64,
        "url" : "https://i.scdn.co/image/ab67616d000048513c5fb944ba9b004e31a0968b",
        "width" : 64
      } ],
      "name" : "Bob Moses",
      "popularity" : 18,
      "type" : "artist",
      "uri" : "spotify:artist:4FfQbJDxR35wc0kotwHeyc"
    }, {
      "external_urls" : {
        "spotify" : "https://open.spotify.com/artist/1YarDX5fZVtaZlXlKVDWoB"
      },
      "followers" : {
        "href" : null,
        "total" : 2
      },
      "genres" : [ ],
      "href" : "https://api.spotify.com/v1/artists/1YarDX5fZVtaZlXlKVDWoB",
      "id" : "1YarDX5fZVtaZlXlKVDWoB",
      "images" : [ ],
      "name" : "Bob Moses",
      "popularity" : 0,
      "type" : "artist",
      "uri" : "spotify:artist:1YarDX5fZVtaZlXlKVDWoB"
    }, {
      "external_urls" : {
        "spotify" : "https://open.spotify.com/artist/1BE1V1N7jLcJZIgIm3RpM2"
      },
      "followers" : {
        "href" : null,
        "total" : 11
      },
      "genres" : [ ],
      "href" : "https://api.spotify.com/v1/artists/1BE1V1N7jLcJZIgIm3RpM2",
      "id" : "1BE1V1N7jLcJZIgIm3RpM2",
      "images" : [ ],
      "name" : "Bobby Moses",
      "popularity" : 1,
      "type" : "artist",
      "uri" : "spotify:artist:1BE1V1N7jLcJZIgIm3RpM2"
    }, {
      "external_urls" : {
        "spotify" : "https://open.spotify.com/artist/4EHbi348R869slanDeSQiF"
      },
      "followers" : {
        "href" : null,
        "total" : 206
      },
      "genres" : [ ],
      "href" : "https://api.spotify.com/v1/artists/4EHbi348R869slanDeSQiF",
      "id" : "4EHbi348R869slanDeSQiF",
      "images" : [ {
        "height" : 640,
        "url" : "https://i.scdn.co/image/ab67616d0000b273c6f911a59daad511577f2b8e",
        "width" : 640
      }, {
        "height" : 300,
        "url" : "https://i.scdn.co/image/ab67616d00001e02c6f911a59daad511577f2b8e",
        "width" : 300
      }, {
        "height" : 64,
        "url" : "https://i.scdn.co/image/ab67616d00004851c6f911a59daad511577f2b8e",
        "width" : 64
      } ],
      "name" : "Ra-Kalam Bob Moses",
      "popularity" : 6,
      "type" : "artist",
      "uri" : "spotify:artist:4EHbi348R869slanDeSQiF"
    }, {
      "external_urls" : {
        "spotify" : "https://open.spotify.com/artist/340HC3Sz3ayIJsP1wcbmYr"
      },
      "followers" : {
        "href" : null,
        "total" : 1
      },
      "genres" : [ ],
      "href" : "https://api.spotify.com/v1/artists/340HC3Sz3ayIJsP1wcbmYr",
      "id" : "340HC3Sz3ayIJsP1wcbmYr",
      "images" : [ ],
      "name" : "Bob Moses",
      "popularity" : 0,
      "type" : "artist",
      "uri" : "spotify:artist:340HC3Sz3ayIJsP1wcbmYr"
    }, {
      "external_urls" : {
        "spotify" : "https://open.spotify.com/artist/3NskS8oxngKifcxf89rOD4"
      },
      "followers" : {
        "href" : null,
        "total" : 8
      },
      "genres" : [ ],
      "href" : "https://api.spotify.com/v1/artists/3NskS8oxngKifcxf89rOD4",
      "id" : "3NskS8oxngKifcxf89rOD4",
      "images" : [ {
        "height" : 640,
        "url" : "https://i.scdn.co/image/ab67616d0000b2733c7fcde34e4f2700b830fc17",
        "width" : 640
      }, {
        "height" : 300,
        "url" : "https://i.scdn.co/image/ab67616d00001e023c7fcde34e4f2700b830fc17",
        "width" : 300
      }, {
        "height" : 64,
        "url" : "https://i.scdn.co/image/ab67616d000048513c7fcde34e4f2700b830fc17",
        "width" : 64
      } ],
      "name" : "Ra Kalam Bob Moses",
      "popularity" : 0,
      "type" : "artist",
      "uri" : "spotify:artist:3NskS8oxngKifcxf89rOD4"
    }, {
      "external_urls" : {
        "spotify" : "https://open.spotify.com/artist/2NoAJBrdU03lXPsuCo48yw"
      },
      "followers" : {
        "href" : null,
        "total" : 55
      },
      "genres" : [ ],
      "href" : "https://api.spotify.com/v1/artists/2NoAJBrdU03lXPsuCo48yw",
      "id" : "2NoAJBrdU03lXPsuCo48yw",
      "images" : [ ],
      "name" : "Bob Moses",
      "popularity" : 0,
      "type" : "artist",
      "uri" : "spotify:artist:2NoAJBrdU03lXPsuCo48yw"
    }, {
      "external_urls" : {
        "spotify" : "https://open.spotify.com/artist/2AWrHCuMJnLLDrVO9KLoCx"
      },
      "followers" : {
        "href" : null,
        "total" : 6
      },
      "genres" : [ ],
      "href" : "https://api.spotify.com/v1/artists/2AWrHCuMJnLLDrVO9KLoCx",
      "id" : "2AWrHCuMJnLLDrVO9KLoCx",
      "images" : [ {
        "height" : 640,
        "url" : "https://i.scdn.co/image/ab67616d0000b2733ef77dec890e7a5d34d715d9",
        "width" : 640
      }, {
        "height" : 300,
        "url" : "https://i.scdn.co/image/ab67616d00001e023ef77dec890e7a5d34d715d9",
        "width" : 300
      }, {
        "height" : 64,
        "url" : "https://i.scdn.co/image/ab67616d000048513ef77dec890e7a5d34d715d9",
        "width" : 64
      } ],
      "name" : "Ra Kalam Bob Moses",
      "popularity" : 0,
      "type" : "artist",
      "uri" : "spotify:artist:2AWrHCuMJnLLDrVO9KLoCx"
    }, {
      "external_urls" : {
        "spotify" : "https://open.spotify.com/artist/46t08AV7HLlzmltLZX4SjT"
      },
      "followers" : {
        "href" : null,
        "total" : 2
      },
      "genres" : [ "microtonal" ],
      "href" : "https://api.spotify.com/v1/artists/46t08AV7HLlzmltLZX4SjT",
      "id" : "46t08AV7HLlzmltLZX4SjT",
      "images" : [ ],
      "name" : "Jon Catler and Ra Kalam Bob Moses",
      "popularity" : 0,
      "type" : "artist",
      "uri" : "spotify:artist:46t08AV7HLlzmltLZX4SjT"
    }, {
      "external_urls" : {
        "spotify" : "https://open.spotify.com/artist/1pun13djjbqSZzezAiCtsp"
      },
      "followers" : {
        "href" : null,
        "total" : 43
      },
      "genres" : [ ],
      "href" : "https://api.spotify.com/v1/artists/1pun13djjbqSZzezAiCtsp",
      "id" : "1pun13djjbqSZzezAiCtsp",
      "images" : [ {
        "height" : 640,
        "url" : "https://i.scdn.co/image/ab67616d0000b2730d9d3d2cd9bd93407b205a2b",
        "width" : 640
      }, {
        "height" : 300,
        "url" : "https://i.scdn.co/image/ab67616d00001e020d9d3d2cd9bd93407b205a2b",
        "width" : 300
      }, {
        "height" : 64,
        "url" : "https://i.scdn.co/image/ab67616d000048510d9d3d2cd9bd93407b205a2b",
        "width" : 64
      } ],
      "name" : "Bob Black Moses",
      "popularity" : 0,
      "type" : "artist",
      "uri" : "spotify:artist:1pun13djjbqSZzezAiCtsp"
    }, {
      "external_urls" : {
        "spotify" : "https://open.spotify.com/artist/13h0l9xIQmtBC9PVlZ4zGy"
      },
      "followers" : {
        "href" : null,
        "total" : 18
      },
      "genres" : [ ],
      "href" : "https://api.spotify.com/v1/artists/13h0l9xIQmtBC9PVlZ4zGy",
      "id" : "13h0l9xIQmtBC9PVlZ4zGy",
      "images" : [ {
        "height" : 640,
        "url" : "https://i.scdn.co/image/ab67616d0000b2738c1d6d6c4431d7d58bb10fba",
        "width" : 640
      }, {
        "height" : 300,
        "url" : "https://i.scdn.co/image/ab67616d00001e028c1d6d6c4431d7d58bb10fba",
        "width" : 300
      }, {
        "height" : 64,
        "url" : "https://i.scdn.co/image/ab67616d000048518c1d6d6c4431d7d58bb10fba",
        "width" : 64
      } ],
      "name" : "Rakalam Bob Moses",
      "popularity" : 0,
      "type" : "artist",
      "uri" : "spotify:artist:13h0l9xIQmtBC9PVlZ4zGy"
    }, {
      "external_urls" : {
        "spotify" : "https://open.spotify.com/artist/5GDZuvAO8C8r3oTp3GF3hp"
      },
      "followers" : {
        "href" : null,
        "total" : 0
      },
      "genres" : [ ],
      "href" : "https://api.spotify.com/v1/artists/5GDZuvAO8C8r3oTp3GF3hp",
      "id" : "5GDZuvAO8C8r3oTp3GF3hp",
      "images" : [ ],
      "name" : "Moses Bob Lennon",
      "popularity" : 0,
      "type" : "artist",
      "uri" : "spotify:artist:5GDZuvAO8C8r3oTp3GF3hp"
    }, {
      "external_urls" : {
        "spotify" : "https://open.spotify.com/artist/1TfcrtgF0Rp4I2a67hwPBO"
      },
      "followers" : {
        "href" : null,
        "total" : 0
      },
      "genres" : [ ],
      "href" : "https://api.spotify.com/v1/artists/1TfcrtgF0Rp4I2a67hwPBO",
      "id" : "1TfcrtgF0Rp4I2a67hwPBO",
      "images" : [ ],
      "name" : "WILLIAM MARTIN, Bob Moses",
      "popularity" : 0,
      "type" : "artist",
      "uri" : "spotify:artist:1TfcrtgF0Rp4I2a67hwPBO"
    }, {
      "external_urls" : {
        "spotify" : "https://open.spotify.com/artist/3RfDAvDvwNAZf4qtEAKwBe"
      },
      "followers" : {
        "href" : null,
        "total" : 4
      },
      "genres" : [ ],
      "href" : "https://api.spotify.com/v1/artists/3RfDAvDvwNAZf4qtEAKwBe",
      "id" : "3RfDAvDvwNAZf4qtEAKwBe",
      "images" : [ {
        "height" : 640,
        "url" : "https://i.scdn.co/image/ab67616d0000b2737b79ab447dc42e5cb678477b",
        "width" : 640
      }, {
        "height" : 300,
        "url" : "https://i.scdn.co/image/ab67616d00001e027b79ab447dc42e5cb678477b",
        "width" : 300
      }, {
        "height" : 64,
        "url" : "https://i.scdn.co/image/ab67616d000048517b79ab447dc42e5cb678477b",
        "width" : 64
      } ],
      "name" : "Andy Bianco & Bob Moses Duo",
      "popularity" : 0,
      "type" : "artist",
      "uri" : "spotify:artist:3RfDAvDvwNAZf4qtEAKwBe"
    }, {
      "external_urls" : {
        "spotify" : "https://open.spotify.com/artist/4VYBxzbI2jCnN8zeZgMsK1"
      },
      "followers" : {
        "href" : null,
        "total" : 2
      },
      "genres" : [ ],
      "href" : "https://api.spotify.com/v1/artists/4VYBxzbI2jCnN8zeZgMsK1",
      "id" : "4VYBxzbI2jCnN8zeZgMsK1",
      "images" : [ ],
      "name" : "George Garzone, John Lockwood & Bob Moses",
      "popularity" : 0,
      "type" : "artist",
      "uri" : "spotify:artist:4VYBxzbI2jCnN8zeZgMsK1"
    }, {
      "external_urls" : {
        "spotify" : "https://open.spotify.com/artist/4dPTKMJgf9Vh7meYVsuWhf"
      },
      "followers" : {
        "href" : null,
        "total" : 2
      },
      "genres" : [ ],
      "href" : "https://api.spotify.com/v1/artists/4dPTKMJgf9Vh7meYVsuWhf",
      "id" : "4dPTKMJgf9Vh7meYVsuWhf",
      "images" : [ {
        "height" : 640,
        "url" : "https://i.scdn.co/image/ab67616d0000b2737b9d511276a2704de914bf1b",
        "width" : 640
      }, {
        "height" : 300,
        "url" : "https://i.scdn.co/image/ab67616d00001e027b9d511276a2704de914bf1b",
        "width" : 300
      }, {
        "height" : 64,
        "url" : "https://i.scdn.co/image/ab67616d000048517b9d511276a2704de914bf1b",
        "width" : 64
      } ],
      "name" : "D.Moses & Bobby N",
      "popularity" : 0,
      "type" : "artist",
      "uri" : "spotify:artist:4dPTKMJgf9Vh7meYVsuWhf"
    }, {
      "external_urls" : {
        "spotify" : "https://open.spotify.com/artist/0OGhDzfDaycqHFuQ1Nnj6e"
      },
      "followers" : {
        "href" : null,
        "total" : 38
      },
      "genres" : [ ],
      "href" : "https://api.spotify.com/v1/artists/0OGhDzfDaycqHFuQ1Nnj6e",
      "id" : "0OGhDzfDaycqHFuQ1Nnj6e",
      "images" : [ {
        "height" : 640,
        "url" : "https://i.scdn.co/image/ab67616d0000b273f333d88824d45fca2173f50d",
        "width" : 640
      }, {
        "height" : 300,
        "url" : "https://i.scdn.co/image/ab67616d00001e02f333d88824d45fca2173f50d",
        "width" : 300
      }, {
        "height" : 64,
        "url" : "https://i.scdn.co/image/ab67616d00004851f333d88824d45fca2173f50d",
        "width" : 64
      } ],
      "name" : "Spirits in the Rock with special guests Billy Martin + Bob Moses",
      "popularity" : 0,
      "type" : "artist",
      "uri" : "spotify:artist:0OGhDzfDaycqHFuQ1Nnj6e"
    } ],
    "limit" : 20,
    "next" : "https://api.spotify.com/v1/search?query=BOB+MOSES&type=artist&market=US&offset=20&limit=20",
    "offset" : 0,
    "previous" : null,
    "total" : 21
  }
}