{
  "artists" : {
    "href" : "https://api.spotify.com/v1/search?query=CASSIAN&type=artist&market=US&offset=0&limit=20",
    "items" : [ {
      "external_urls" : {
        "spotify" : "https://open.spotify.com/artist/1ChtRJ3f4rbv4vtz87i6CD"
      },
      "followers" : {
        "href" : null,
        "total" : 23080
      },
      "genres" : [ "nu disco" ],
      "href" : "https://api.spotify.com/v1/artists/1ChtRJ3f4rbv4vtz87i6CD",
      "id" : "1ChtRJ3f4rbv4vtz87i6CD",
      "images" : [ {
        "height" : 640,
        "url" : "https://i.scdn.co/image/ab6761610000e5ebe8312fc6491d27707607f6ea",
        "width" : 640
      }, {
        "height" : 320,
        "url" : "https://i.scdn.co/image/ab67616100005174e8312fc6491d27707607f6ea",
        "width" : 320
      }, {
        "height" : 160,
        "url" : "https://i.scdn.co/image/ab6761610000f178e8312fc6491d27707607f6ea",
        "width" : 160
      } ],
      "name" : "Cassian",
      "popularity" : 57,
      "type" : "artist",
      "uri" : "spotify:artist:1ChtRJ3f4rbv4vtz87i6CD"
    }, {
      "external_urls" : {
        "spotify" : "https://open.spotify.com/artist/6MQhMvMTFK4nAQzoOKrwY3"
      },
      "followers" : {
        "href" : null,
        "total" : 1457799
      },
      "genres" : [ "adoracao", "brazilian gospel" ],
      "href" : "https://api.spotify.com/v1/artists/6MQhMvMTFK4nAQzoOKrwY3",
      "id" : "6MQhMvMTFK4nAQzoOKrwY3",
      "images" : [ {
        "height" : 640,
        "url" : "https://i.scdn.co/image/ab6761610000e5eb92d07766999b032bb7ac07e7",
        "width" : 640
      }, {
        "height" : 320,
        "url" : "https://i.scdn.co/image/ab6761610000517492d07766999b032bb7ac07e7",
        "width" : 320
      }, {
        "height" : 160,
        "url" : "https://i.scdn.co/image/ab6761610000f17892d07766999b032bb7ac07e7",
        "width" : 160
      } ],
      "name" : "Cassiane",
      "popularity" : 59,
      "type" : "artist",
      "uri" : "spotify:artist:6MQhMvMTFK4nAQzoOKrwY3"
    }, {
      "external_urls" : {
        "spotify" : "https://open.spotify.com/artist/23E2hrdvZnKUYpNZRIxhjx"
      },
      "followers" : {
        "href" : null,
        "total" : 50412
      },
      "genres" : [ "brazilian boogie", "brazilian hip hop", "brazilian soul", "mpb", "samba" ],
      "href" : "https://api.spotify.com/v1/artists/23E2hrdvZnKUYpNZRIxhjx",
      "id" : "23E2hrdvZnKUYpNZRIxhjx",
      "images" : [ {
        "height" : 640,
        "url" : "https://i.scdn.co/image/ab67616d0000b2730dae627739c5fdc02c98d525",
        "width" : 640
      }, {
        "height" : 300,
        "url" : "https://i.scdn.co/image/ab67616d00001e020dae627739c5fdc02c98d525",
        "width" : 300
      }, {
        "height" : 64,
        "url" : "https://i.scdn.co/image/ab67616d000048510dae627739c5fdc02c98d525",
        "width" : 64
      } ],
      "name" : "Cassiano",
      "popularity" : 43,
      "type" : "artist",
      "uri" : "spotify:artist:23E2hrdvZnKUYpNZRIxhjx"
    }, {
      "external_urls" : {
        "spotify" : "https://open.spotify.com/artist/754GsjALc0WkYIDzrf6e7H"
      },
      "followers" : {
        "href" : null,
        "total" : 231701
      },
      "genres" : [ "brazilian gospel", "gospel antigas" ],
      "href" : "https://api.spotify.com/v1/artists/754GsjALc0WkYIDzrf6e7H",
      "id" : "754GsjALc0WkYIDzrf6e7H",
      "images" : [ {
        "height" : 640,
        "url" : "https://i.scdn.co/image/ab6761610000e5ebc090046dfe9b3b54082a8591",
        "width" : 640
      }, {
        "height" : 320,
        "url" : "https://i.scdn.co/image/ab67616100005174c090046dfe9b3b54082a8591",
        "width" : 320
      }, {
        "height" : 160,
        "url" : "https://i.scdn.co/image/ab6761610000f178c090046dfe9b3b54082a8591",
        "width" : 160
      } ],
      "name" : "Cassiane e Jairinho",
      "popularity" : 32,
      "type" : "artist",
      "uri" : "spotify:artist:754GsjALc0WkYIDzrf6e7H"
    }, {
      "external_urls" : {
        "spotify" : "https://open.spotify.com/artist/2WudAiVdH6sqWPD9JgUoT1"
      },
      "followers" : {
        "href" : null,
        "total" : 3744
      },
      "genres" : [ ],
      "href" : "https://api.spotify.com/v1/artists/2WudAiVdH6sqWPD9JgUoT1",
      "id" : "2WudAiVdH6sqWPD9JgUoT1",
      "images" : [ {
        "height" : 640,
        "url" : "https://i.scdn.co/image/ab67616d0000b2738cb80a019c351f40b852254f",
        "width" : 640
      }, {
        "height" : 300,
        "url" : "https://i.scdn.co/image/ab67616d00001e028cb80a019c351f40b852254f",
        "width" : 300
      }, {
        "height" : 64,
        "url" : "https://i.scdn.co/image/ab67616d000048518cb80a019c351f40b852254f",
        "width" : 64
      } ],
      "name" : "Mateo Cassiani Pastor",
      "popularity" : 24,
      "type" : "artist",
      "uri" : "spotify:artist:2WudAiVdH6sqWPD9JgUoT1"
    }, {
      "external_urls" : {
        "spotify" : "https://open.spotify.com/artist/3DQ8dNQWta0hOs6TT8JCnV"
      },
      "followers" : {
        "href" : null,
        "total" : 2
      },
      "genres" : [ ],
      "href" : "https://api.spotify.com/v1/artists/3DQ8dNQWta0hOs6TT8JCnV",
      "id" : "3DQ8dNQWta0hOs6TT8JCnV",
      "images" : [ ],
      "name" : "Cassian",
      "popularity" : 8,
      "type" : "artist",
      "uri" : "spotify:artist:3DQ8dNQWta0hOs6TT8JCnV"
    }, {
      "external_urls" : {
        "spotify" : "https://open.spotify.com/artist/7JX0XIhzQs1qaor0QrPZxY"
      },
      "followers" : {
        "href" : null,
        "total" : 91152
      },
      "genres" : [ "funk carioca", "funk consciente", "funk ostentacao", "funk paulista" ],
      "href" : "https://api.spotify.com/v1/artists/7JX0XIhzQs1qaor0QrPZxY",
      "id" : "7JX0XIhzQs1qaor0QrPZxY",
      "images" : [ {
        "height" : 640,
        "url" : "https://i.scdn.co/image/ab6761610000e5ebd93a003daa0a48827ddb92b3",
        "width" : 640
      }, {
        "height" : 320,
        "url" : "https://i.scdn.co/image/ab67616100005174d93a003daa0a48827ddb92b3",
        "width" : 320
      }, {
        "height" : 160,
        "url" : "https://i.scdn.co/image/ab6761610000f178d93a003daa0a48827ddb92b3",
        "width" : 160
      } ],
      "name" : "MC Cassiano",
      "popularity" : 47,
      "type" : "artist",
      "uri" : "spotify:artist:7JX0XIhzQs1qaor0QrPZxY"
    }, {
      "external_urls" : {
        "spotify" : "https://open.spotify.com/artist/0ycyQwunHypLPzq8se2To5"
      },
      "followers" : {
        "href" : null,
        "total" : 4
      },
      "genres" : [ ],
      "href" : "https://api.spotify.com/v1/artists/0ycyQwunHypLPzq8se2To5",
      "id" : "0ycyQwunHypLPzq8se2To5",
      "images" : [ {
        "height" : 640,
        "url" : "https://i.scdn.co/image/ab67616d0000b2738bb0a4dde00ba4714e7ef73b",
        "width" : 640
      }, {
        "height" : 300,
        "url" : "https://i.scdn.co/image/ab67616d00001e028bb0a4dde00ba4714e7ef73b",
        "width" : 300
      }, {
        "height" : 64,
        "url" : "https://i.scdn.co/image/ab67616d000048518bb0a4dde00ba4714e7ef73b",
        "width" : 64
      } ],
      "name" : "Cassiano Junioh",
      "popularity" : 11,
      "type" : "artist",
      "uri" : "spotify:artist:0ycyQwunHypLPzq8se2To5"
    }, {
      "external_urls" : {
        "spotify" : "https://open.spotify.com/artist/5nIi0AK9fVmPRjy7Zqg5Up"
      },
      "followers" : {
        "href" : null,
        "total" : 15
      },
      "genres" : [ ],
      "href" : "https://api.spotify.com/v1/artists/5nIi0AK9fVmPRjy7Zqg5Up",
      "id" : "5nIi0AK9fVmPRjy7Zqg5Up",
      "images" : [ ],
      "name" : "Rafael Cassiani Cassiani",
      "popularity" : 12,
      "type" : "artist",
      "uri" : "spotify:artist:5nIi0AK9fVmPRjy7Zqg5Up"
    }, {
      "external_urls" : {
        "spotify" : "https://open.spotify.com/artist/6zpu0t9nfePmnwBBlw63xl"
      },
      "followers" : {
        "href" : null,
        "total" : 903
      },
      "genres" : [ ],
      "href" : "https://api.spotify.com/v1/artists/6zpu0t9nfePmnwBBlw63xl",
      "id" : "6zpu0t9nfePmnwBBlw63xl",
      "images" : [ {
        "height" : 640,
        "url" : "https://i.scdn.co/image/ab6761610000e5eba63bd8f620ca5bc10f06aa05",
        "width" : 640
      }, {
        "height" : 320,
        "url" : "https://i.scdn.co/image/ab67616100005174a63bd8f620ca5bc10f06aa05",
        "width" : 320
      }, {
        "height" : 160,
        "url" : "https://i.scdn.co/image/ab6761610000f178a63bd8f620ca5bc10f06aa05",
        "width" : 160
      } ],
      "name" : "Cassiano Andrade",
      "popularity" : 32,
      "type" : "artist",
      "uri" : "spotify:artist:6zpu0t9nfePmnwBBlw63xl"
    }, {
      "external_urls" : {
        "spotify" : "https://open.spotify.com/artist/57sY7JOEDPFk4FO7cLaEBW"
      },
      "followers" : {
        "href" : null,
        "total" : 13
      },
      "genres" : [ ],
      "href" : "https://api.spotify.com/v1/artists/57sY7JOEDPFk4FO7cLaEBW",
      "id" : "57sY7JOEDPFk4FO7cLaEBW",
      "images" : [ {
        "height" : 640,
        "url" : "https://i.scdn.co/image/ab6761610000e5eb20dbd9c50412533326065476",
        "width" : 640
      }, {
        "height" : 320,
        "url" : "https://i.scdn.co/image/ab6761610000517420dbd9c50412533326065476",
        "width" : 320
      }, {
        "height" : 160,
        "url" : "https://i.scdn.co/image/ab6761610000f17820dbd9c50412533326065476",
        "width" : 160
      } ],
      "name" : "Cassiano Vieira",
      "popularity" : 4,
      "type" : "artist",
      "uri" : "spotify:artist:57sY7JOEDPFk4FO7cLaEBW"
    }, {
      "external_urls" : {
        "spotify" : "https://open.spotify.com/artist/31LMahtvyCUt9OeiuOHO2O"
      },
      "followers" : {
        "href" : null,
        "total" : 24038
      },
      "genres" : [ "sertanejo", "sertanejo tradicional", "viola caipira" ],
      "href" : "https://api.spotify.com/v1/artists/31LMahtvyCUt9OeiuOHO2O",
      "id" : "31LMahtvyCUt9OeiuOHO2O",
      "images" : [ {
        "height" : 640,
        "url" : "https://i.scdn.co/image/ab67616d0000b2732ffd01b7614292017731a564",
        "width" : 640
      }, {
        "height" : 300,
        "url" : "https://i.scdn.co/image/ab67616d00001e022ffd01b7614292017731a564",
        "width" : 300
      }, {
        "height" : 64,
        "url" : "https://i.scdn.co/image/ab67616d000048512ffd01b7614292017731a564",
        "width" : 64
      } ],
      "name" : "Zé Mulato & Cassiano",
      "popularity" : 35,
      "type" : "artist",
      "uri" : "spotify:artist:31LMahtvyCUt9OeiuOHO2O"
    }, {
      "external_urls" : {
        "spotify" : "https://open.spotify.com/artist/749liqUrfpcjEFsIaXa7Sd"
      },
      "followers" : {
        "href" : null,
        "total" : 2670
      },
      "genres" : [ ],
      "href" : "https://api.spotify.com/v1/artists/749liqUrfpcjEFsIaXa7Sd",
      "id" : "749liqUrfpcjEFsIaXa7Sd",
      "images" : [ {
        "height" : 640,
        "url" : "https://i.scdn.co/image/ab6761610000e5ebf90b716398e3a23f5530465a",
        "width" : 640
      }, {
        "height" : 320,
        "url" : "https://i.scdn.co/image/ab67616100005174f90b716398e3a23f5530465a",
        "width" : 320
      }, {
        "height" : 160,
        "url" : "https://i.scdn.co/image/ab6761610000f178f90b716398e3a23f5530465a",
        "width" : 160
      } ],
      "name" : "Cassiano Meirelles",
      "popularity" : 25,
      "type" : "artist",
      "uri" : "spotify:artist:749liqUrfpcjEFsIaXa7Sd"
    }, {
      "external_urls" : {
        "spotify" : "https://open.spotify.com/artist/6Xq5020kBucXtJD1dLXSGZ"
      },
      "followers" : {
        "href" : null,
        "total" : 0
      },
      "genres" : [ ],
      "href" : "https://api.spotify.com/v1/artists/6Xq5020kBucXtJD1dLXSGZ",
      "id" : "6Xq5020kBucXtJD1dLXSGZ",
      "images" : [ ],
      "name" : "Cassiano da Paula Santos",
      "popularity" : 2,
      "type" : "artist",
      "uri" : "spotify:artist:6Xq5020kBucXtJD1dLXSGZ"
    }, {
      "external_urls" : {
        "spotify" : "https://open.spotify.com/artist/6XEVCyhWv960rTzOHTkcv1"
      },
      "followers" : {
        "href" : null,
        "total" : 498
      },
      "genres" : [ ],
      "href" : "https://api.spotify.com/v1/artists/6XEVCyhWv960rTzOHTkcv1",
      "id" : "6XEVCyhWv960rTzOHTkcv1",
      "images" : [ {
        "height" : 640,
        "url" : "https://i.scdn.co/image/ab6761610000e5eb9c9af91e7c16ad6908e7973c",
        "width" : 640
      }, {
        "height" : 320,
        "url" : "https://i.scdn.co/image/ab676161000051749c9af91e7c16ad6908e7973c",
        "width" : 320
      }, {
        "height" : 160,
        "url" : "https://i.scdn.co/image/ab6761610000f1789c9af91e7c16ad6908e7973c",
        "width" : 160
      } ],
      "name" : "Cassiano Menke",
      "popularity" : 24,
      "type" : "artist",
      "uri" : "spotify:artist:6XEVCyhWv960rTzOHTkcv1"
    }, {
      "external_urls" : {
        "spotify" : "https://open.spotify.com/artist/4i4x1dg1DgvAmC9b7mtHE9"
      },
      "followers" : {
        "href" : null,
        "total" : 0
      },
      "genres" : [ ],
      "href" : "https://api.spotify.com/v1/artists/4i4x1dg1DgvAmC9b7mtHE9",
      "id" : "4i4x1dg1DgvAmC9b7mtHE9",
      "images" : [ {
        "height" : 640,
        "url" : "https://i.scdn.co/image/ab67616d0000b27324bd8e3c2936deec11007949",
        "width" : 640
      }, {
        "height" : 300,
        "url" : "https://i.scdn.co/image/ab67616d00001e0224bd8e3c2936deec11007949",
        "width" : 300
      }, {
        "height" : 64,
        "url" : "https://i.scdn.co/image/ab67616d0000485124bd8e3c2936deec11007949",
        "width" : 64
      } ],
      "name" : "Cassianomariasss",
      "popularity" : 0,
      "type" : "artist",
      "uri" : "spotify:artist:4i4x1dg1DgvAmC9b7mtHE9"
    }, {
      "external_urls" : {
        "spotify" : "https://open.spotify.com/artist/2yhzF2ZdGdv0ZO01pPLzcV"
      },
      "followers" : {
        "href" : null,
        "total" : 42
      },
      "genres" : [ ],
      "href" : "https://api.spotify.com/v1/artists/2yhzF2ZdGdv0ZO01pPLzcV",
      "id" : "2yhzF2ZdGdv0ZO01pPLzcV",
      "images" : [ {
        "height" : 640,
        "url" : "https://i.scdn.co/image/ab67616d0000b273bff297a3802c2da90bb6bed5",
        "width" : 640
      }, {
        "height" : 300,
        "url" : "https://i.scdn.co/image/ab67616d00001e02bff297a3802c2da90bb6bed5",
        "width" : 300
      }, {
        "height" : 64,
        "url" : "https://i.scdn.co/image/ab67616d00004851bff297a3802c2da90bb6bed5",
        "width" : 64
      } ],
      "name" : "Cassiano Mendes",
      "popularity" : 2,
      "type" : "artist",
      "uri" : "spotify:artist:2yhzF2ZdGdv0ZO01pPLzcV"
    }, {
      "external_urls" : {
        "spotify" : "https://open.spotify.com/artist/2JD5z4szrAnq8BrrbADEtT"
      },
      "followers" : {
        "href" : null,
        "total" : 0
      },
      "genres" : [ ],
      "href" : "https://api.spotify.com/v1/artists/2JD5z4szrAnq8BrrbADEtT",
      "id" : "2JD5z4szrAnq8BrrbADEtT",
      "images" : [ ],
      "name" : "Cassianx",
      "popularity" : 0,
      "type" : "artist",
      "uri" : "spotify:artist:2JD5z4szrAnq8BrrbADEtT"
    }, {
      "external_urls" : {
        "spotify" : "https://open.spotify.com/artist/6fUlk5ncJyD5eEihahYB1P"
      },
      "followers" : {
        "href" : null,
        "total" : 28
      },
      "genres" : [ ],
      "href" : "https://api.spotify.com/v1/artists/6fUlk5ncJyD5eEihahYB1P",
      "id" : "6fUlk5ncJyD5eEihahYB1P",
      "images" : [ ],
      "name" : "Cassiane e Coral Renasom",
      "popularity" : 16,
      "type" : "artist",
      "uri" : "spotify:artist:6fUlk5ncJyD5eEihahYB1P"
    }, {
      "external_urls" : {
        "spotify" : "https://open.spotify.com/artist/5qRDNjMJQRoe5gmJxAvwj7"
      },
      "followers" : {
        "href" : null,
        "total" : 1
      },
      "genres" : [ ],
      "href" : "https://api.spotify.com/v1/artists/5qRDNjMJQRoe5gmJxAvwj7",
      "id" : "5qRDNjMJQRoe5gmJxAvwj7",
      "images" : [ {
        "height" : 640,
        "url" : "https://i.scdn.co/image/ab67616d0000b2730661a0b6ba9646d75627b660",
        "width" : 640
      }, {
        "height" : 300,
        "url" : "https://i.scdn.co/image/ab67616d00001e020661a0b6ba9646d75627b660",
        "width" : 300
      }, {
        "height" : 64,
        "url" : "https://i.scdn.co/image/ab67616d000048510661a0b6ba9646d75627b660",
        "width" : 64
      } ],
      "name" : "cassiano",
      "popularity" : 0,
      "type" : "artist",
      "uri" : "spotify:artist:5qRDNjMJQRoe5gmJxAvwj7"
    } ],
    "limit" : 20,
    "next" : "https://api.spotify.com/v1/search?query=CASSIAN&type=artist&market=US&offset=20&limit=20",
    "offset" : 0,
    "previous" : null,
    "total" : 186
  }
}