{
  "artists" : {
    "href" : "https://api.spotify.com/v1/search?query=COCHISE&type=artist&market=US&offset=0&limit=20",
    "items" : [ {
      "external_urls" : {
        "spotify" : "https://open.spotify.com/artist/46HzS7yz0c9udVwtbHk1sx"
      },
      "followers" : {
        "href" : null,
        "total" : 335104
      },
      "genres" : [ "plugg", "pluggnb" ],
      "href" : "https://api.spotify.com/v1/artists/46HzS7yz0c9udVwtbHk1sx",
      "id" : "46HzS7yz0c9udVwtbHk1sx",
      "images" : [ {
        "height" : 640,
        "url" : "https://i.scdn.co/image/ab6761610000e5eb30e3f7354f4053d67ff002a9",
        "width" : 640
      }, {
        "height" : 320,
        "url" : "https://i.scdn.co/image/ab6761610000517430e3f7354f4053d67ff002a9",
        "width" : 320
      }, {
        "height" : 160,
        "url" : "https://i.scdn.co/image/ab6761610000f17830e3f7354f4053d67ff002a9",
        "width" : 160
      } ],
      "name" : "Cochise",
      "popularity" : 75,
      "type" : "artist",
      "uri" : "spotify:artist:46HzS7yz0c9udVwtbHk1sx"
    }, {
      "external_urls" : {
        "spotify" : "https://open.spotify.com/artist/5emKG4a77KUGHPEqionCid"
      },
      "followers" : {
        "href" : null,
        "total" : 60
      },
      "genres" : [ ],
      "href" : "https://api.spotify.com/v1/artists/5emKG4a77KUGHPEqionCid",
      "id" : "5emKG4a77KUGHPEqionCid",
      "images" : [ {
        "height" : 640,
        "url" : "https://i.scdn.co/image/ab67616d0000b27371ef70fc7c1fe57e9e2ef150",
        "width" : 640
      }, {
        "height" : 300,
        "url" : "https://i.scdn.co/image/ab67616d00001e0271ef70fc7c1fe57e9e2ef150",
        "width" : 300
      }, {
        "height" : 64,
        "url" : "https://i.scdn.co/image/ab67616d0000485171ef70fc7c1fe57e9e2ef150",
        "width" : 64
      } ],
      "name" : "Cochise",
      "popularity" : 15,
      "type" : "artist",
      "uri" : "spotify:artist:5emKG4a77KUGHPEqionCid"
    }, {
      "external_urls" : {
        "spotify" : "https://open.spotify.com/artist/0Yr4BBpK2dkCp2UsrJ9LZN"
      },
      "followers" : {
        "href" : null,
        "total" : 443607
      },
      "genres" : [ "melodic rap", "social media pop" ],
      "href" : "https://api.spotify.com/v1/artists/0Yr4BBpK2dkCp2UsrJ9LZN",
      "id" : "0Yr4BBpK2dkCp2UsrJ9LZN",
      "images" : [ {
        "height" : 640,
        "url" : "https://i.scdn.co/image/ab6761610000e5eb8c96e958884153baa1360349",
        "width" : 640
      }, {
        "height" : 320,
        "url" : "https://i.scdn.co/image/ab676161000051748c96e958884153baa1360349",
        "width" : 320
      }, {
        "height" : 160,
        "url" : "https://i.scdn.co/image/ab6761610000f1788c96e958884153baa1360349",
        "width" : 160
      } ],
      "name" : "Bankrol Hayden",
      "popularity" : 70,
      "type" : "artist",
      "uri" : "spotify:artist:0Yr4BBpK2dkCp2UsrJ9LZN"
    }, {
      "external_urls" : {
        "spotify" : "https://open.spotify.com/artist/0ppKyKGBdEBO6NPr0kML7G"
      },
      "followers" : {
        "href" : null,
        "total" : 78
      },
      "genres" : [ ],
      "href" : "https://api.spotify.com/v1/artists/0ppKyKGBdEBO6NPr0kML7G",
      "id" : "0ppKyKGBdEBO6NPr0kML7G",
      "images" : [ {
        "height" : 640,
        "url" : "https://i.scdn.co/image/ab67616d0000b2731bb0225ad156ff5a7cbb0d76",
        "width" : 640
      }, {
        "height" : 300,
        "url" : "https://i.scdn.co/image/ab67616d00001e021bb0225ad156ff5a7cbb0d76",
        "width" : 300
      }, {
        "height" : 64,
        "url" : "https://i.scdn.co/image/ab67616d000048511bb0225ad156ff5a7cbb0d76",
        "width" : 64
      } ],
      "name" : "Cochise Plug",
      "popularity" : 7,
      "type" : "artist",
      "uri" : "spotify:artist:0ppKyKGBdEBO6NPr0kML7G"
    }, {
      "external_urls" : {
        "spotify" : "https://open.spotify.com/artist/1cDYe8uiYnPx4s7d2we5Zl"
      },
      "followers" : {
        "href" : null,
        "total" : 1
      },
      "genres" : [ ],
      "href" : "https://api.spotify.com/v1/artists/1cDYe8uiYnPx4s7d2we5Zl",
      "id" : "1cDYe8uiYnPx4s7d2we5Zl",
      "images" : [ ],
      "name" : "Cochisee",
      "popularity" : 14,
      "type" : "artist",
      "uri" : "spotify:artist:1cDYe8uiYnPx4s7d2we5Zl"
    }, {
      "external_urls" : {
        "spotify" : "https://open.spotify.com/artist/17wp12HbTWHuX6F8BTYfFm"
      },
      "followers" : {
        "href" : null,
        "total" : 15
      },
      "genres" : [ ],
      "href" : "https://api.spotify.com/v1/artists/17wp12HbTWHuX6F8BTYfFm",
      "id" : "17wp12HbTWHuX6F8BTYfFm",
      "images" : [ {
        "height" : 640,
        "url" : "https://i.scdn.co/image/ab67616d0000b2734b28209a2f2cf332e91c8908",
        "width" : 640
      }, {
        "height" : 300,
        "url" : "https://i.scdn.co/image/ab67616d00001e024b28209a2f2cf332e91c8908",
        "width" : 300
      }, {
        "height" : 64,
        "url" : "https://i.scdn.co/image/ab67616d000048514b28209a2f2cf332e91c8908",
        "width" : 64
      } ],
      "name" : "Cochise GLT",
      "popularity" : 1,
      "type" : "artist",
      "uri" : "spotify:artist:17wp12HbTWHuX6F8BTYfFm"
    }, {
      "external_urls" : {
        "spotify" : "https://open.spotify.com/artist/7xmEyj5L5nSCuL0wDO1YlK"
      },
      "followers" : {
        "href" : null,
        "total" : 356
      },
      "genres" : [ ],
      "href" : "https://api.spotify.com/v1/artists/7xmEyj5L5nSCuL0wDO1YlK",
      "id" : "7xmEyj5L5nSCuL0wDO1YlK",
      "images" : [ {
        "height" : 640,
        "url" : "https://i.scdn.co/image/ab6761610000e5ebffe111c61730d192ec9040e7",
        "width" : 640
      }, {
        "height" : 320,
        "url" : "https://i.scdn.co/image/ab67616100005174ffe111c61730d192ec9040e7",
        "width" : 320
      }, {
        "height" : 160,
        "url" : "https://i.scdn.co/image/ab6761610000f178ffe111c61730d192ec9040e7",
        "width" : 160
      } ],
      "name" : "Gino-Cochise",
      "popularity" : 15,
      "type" : "artist",
      "uri" : "spotify:artist:7xmEyj5L5nSCuL0wDO1YlK"
    }, {
      "external_urls" : {
        "spotify" : "https://open.spotify.com/artist/0Ky35HnYS8u1gedM0prf0N"
      },
      "followers" : {
        "href" : null,
        "total" : 120
      },
      "genres" : [ ],
      "href" : "https://api.spotify.com/v1/artists/0Ky35HnYS8u1gedM0prf0N",
      "id" : "0Ky35HnYS8u1gedM0prf0N",
      "images" : [ {
        "height" : 640,
        "url" : "https://i.scdn.co/image/ab67616d0000b27354b47169ed7e0a503c0db32c",
        "width" : 640
      }, {
        "height" : 300,
        "url" : "https://i.scdn.co/image/ab67616d00001e0254b47169ed7e0a503c0db32c",
        "width" : 300
      }, {
        "height" : 64,
        "url" : "https://i.scdn.co/image/ab67616d0000485154b47169ed7e0a503c0db32c",
        "width" : 64
      } ],
      "name" : "Cochise",
      "popularity" : 3,
      "type" : "artist",
      "uri" : "spotify:artist:0Ky35HnYS8u1gedM0prf0N"
    }, {
      "external_urls" : {
        "spotify" : "https://open.spotify.com/artist/7CrLUUK2jVUyJBsY0H1Gnz"
      },
      "followers" : {
        "href" : null,
        "total" : 3
      },
      "genres" : [ ],
      "href" : "https://api.spotify.com/v1/artists/7CrLUUK2jVUyJBsY0H1Gnz",
      "id" : "7CrLUUK2jVUyJBsY0H1Gnz",
      "images" : [ ],
      "name" : "Cochise",
      "popularity" : 0,
      "type" : "artist",
      "uri" : "spotify:artist:7CrLUUK2jVUyJBsY0H1Gnz"
    }, {
      "external_urls" : {
        "spotify" : "https://open.spotify.com/artist/5Q0cDPJ3HZe1upPxmwhEkF"
      },
      "followers" : {
        "href" : null,
        "total" : 35
      },
      "genres" : [ ],
      "href" : "https://api.spotify.com/v1/artists/5Q0cDPJ3HZe1upPxmwhEkF",
      "id" : "5Q0cDPJ3HZe1upPxmwhEkF",
      "images" : [ {
        "height" : 640,
        "url" : "https://i.scdn.co/image/ab6761610000e5eb351dcc6cf6934088b9c2d06e",
        "width" : 640
      }, {
        "height" : 320,
        "url" : "https://i.scdn.co/image/ab67616100005174351dcc6cf6934088b9c2d06e",
        "width" : 320
      }, {
        "height" : 160,
        "url" : "https://i.scdn.co/image/ab6761610000f178351dcc6cf6934088b9c2d06e",
        "width" : 160
      } ],
      "name" : "Cochise MC",
      "popularity" : 1,
      "type" : "artist",
      "uri" : "spotify:artist:5Q0cDPJ3HZe1upPxmwhEkF"
    }, {
      "external_urls" : {
        "spotify" : "https://open.spotify.com/artist/1f1ve7PdPTeCR2fSXdJCkc"
      },
      "followers" : {
        "href" : null,
        "total" : 0
      },
      "genres" : [ ],
      "href" : "https://api.spotify.com/v1/artists/1f1ve7PdPTeCR2fSXdJCkc",
      "id" : "1f1ve7PdPTeCR2fSXdJCkc",
      "images" : [ ],
      "name" : "COCHISE",
      "popularity" : 0,
      "type" : "artist",
      "uri" : "spotify:artist:1f1ve7PdPTeCR2fSXdJCkc"
    }, {
      "external_urls" : {
        "spotify" : "https://open.spotify.com/artist/0QWBGJwU7WK0DJM7b06ptY"
      },
      "followers" : {
        "href" : null,
        "total" : 0
      },
      "genres" : [ ],
      "href" : "https://api.spotify.com/v1/artists/0QWBGJwU7WK0DJM7b06ptY",
      "id" : "0QWBGJwU7WK0DJM7b06ptY",
      "images" : [ ],
      "name" : "CochiseMC",
      "popularity" : 0,
      "type" : "artist",
      "uri" : "spotify:artist:0QWBGJwU7WK0DJM7b06ptY"
    }, {
      "external_urls" : {
        "spotify" : "https://open.spotify.com/artist/1SeQ1wyC5M8i8Cecvn11Vf"
      },
      "followers" : {
        "href" : null,
        "total" : 23
      },
      "genres" : [ ],
      "href" : "https://api.spotify.com/v1/artists/1SeQ1wyC5M8i8Cecvn11Vf",
      "id" : "1SeQ1wyC5M8i8Cecvn11Vf",
      "images" : [ {
        "height" : 640,
        "url" : "https://i.scdn.co/image/ab6761610000e5eba15d3bcbfaf902e58bcc01f4",
        "width" : 640
      }, {
        "height" : 320,
        "url" : "https://i.scdn.co/image/ab67616100005174a15d3bcbfaf902e58bcc01f4",
        "width" : 320
      }, {
        "height" : 160,
        "url" : "https://i.scdn.co/image/ab6761610000f178a15d3bcbfaf902e58bcc01f4",
        "width" : 160
      } ],
      "name" : "Cochise",
      "popularity" : 0,
      "type" : "artist",
      "uri" : "spotify:artist:1SeQ1wyC5M8i8Cecvn11Vf"
    }, {
      "external_urls" : {
        "spotify" : "https://open.spotify.com/artist/5mAEG0QE5fDrZW37RluNNY"
      },
      "followers" : {
        "href" : null,
        "total" : 0
      },
      "genres" : [ ],
      "href" : "https://api.spotify.com/v1/artists/5mAEG0QE5fDrZW37RluNNY",
      "id" : "5mAEG0QE5fDrZW37RluNNY",
      "images" : [ ],
      "name" : "Cochise Instrumental",
      "popularity" : 0,
      "type" : "artist",
      "uri" : "spotify:artist:5mAEG0QE5fDrZW37RluNNY"
    }, {
      "external_urls" : {
        "spotify" : "https://open.spotify.com/artist/4RJp5vwsYgFszM3vVH3I9s"
      },
      "followers" : {
        "href" : null,
        "total" : 533
      },
      "genres" : [ ],
      "href" : "https://api.spotify.com/v1/artists/4RJp5vwsYgFszM3vVH3I9s",
      "id" : "4RJp5vwsYgFszM3vVH3I9s",
      "images" : [ {
        "height" : 640,
        "url" : "https://i.scdn.co/image/ab67616d0000b273f932d777ebc2cbfced2a16ce",
        "width" : 640
      }, {
        "height" : 300,
        "url" : "https://i.scdn.co/image/ab67616d00001e02f932d777ebc2cbfced2a16ce",
        "width" : 300
      }, {
        "height" : 64,
        "url" : "https://i.scdn.co/image/ab67616d00004851f932d777ebc2cbfced2a16ce",
        "width" : 64
      } ],
      "name" : "Cochise",
      "popularity" : 6,
      "type" : "artist",
      "uri" : "spotify:artist:4RJp5vwsYgFszM3vVH3I9s"
    }, {
      "external_urls" : {
        "spotify" : "https://open.spotify.com/artist/5OVa9YQofeQkzTCq2MtUxQ"
      },
      "followers" : {
        "href" : null,
        "total" : 1152
      },
      "genres" : [ ],
      "href" : "https://api.spotify.com/v1/artists/5OVa9YQofeQkzTCq2MtUxQ",
      "id" : "5OVa9YQofeQkzTCq2MtUxQ",
      "images" : [ {
        "height" : 640,
        "url" : "https://i.scdn.co/image/ab67616d0000b27364b743180a1d24728d367f7c",
        "width" : 640
      }, {
        "height" : 300,
        "url" : "https://i.scdn.co/image/ab67616d00001e0264b743180a1d24728d367f7c",
        "width" : 300
      }, {
        "height" : 64,
        "url" : "https://i.scdn.co/image/ab67616d0000485164b743180a1d24728d367f7c",
        "width" : 64
      } ],
      "name" : "Cochise",
      "popularity" : 12,
      "type" : "artist",
      "uri" : "spotify:artist:5OVa9YQofeQkzTCq2MtUxQ"
    }, {
      "external_urls" : {
        "spotify" : "https://open.spotify.com/artist/1nHwCxinKrNIrw92kxr0T1"
      },
      "followers" : {
        "href" : null,
        "total" : 18
      },
      "genres" : [ ],
      "href" : "https://api.spotify.com/v1/artists/1nHwCxinKrNIrw92kxr0T1",
      "id" : "1nHwCxinKrNIrw92kxr0T1",
      "images" : [ {
        "height" : 640,
        "url" : "https://i.scdn.co/image/ab6761610000e5eb8f43f2a1604ae00eec8c86bd",
        "width" : 640
      }, {
        "height" : 320,
        "url" : "https://i.scdn.co/image/ab676161000051748f43f2a1604ae00eec8c86bd",
        "width" : 320
      }, {
        "height" : 160,
        "url" : "https://i.scdn.co/image/ab6761610000f1788f43f2a1604ae00eec8c86bd",
        "width" : 160
      } ],
      "name" : "CochiseRogers",
      "popularity" : 0,
      "type" : "artist",
      "uri" : "spotify:artist:1nHwCxinKrNIrw92kxr0T1"
    }, {
      "external_urls" : {
        "spotify" : "https://open.spotify.com/artist/0IaSEmBGDxQeFROjde9Dqb"
      },
      "followers" : {
        "href" : null,
        "total" : 21
      },
      "genres" : [ ],
      "href" : "https://api.spotify.com/v1/artists/0IaSEmBGDxQeFROjde9Dqb",
      "id" : "0IaSEmBGDxQeFROjde9Dqb",
      "images" : [ {
        "height" : 640,
        "url" : "https://i.scdn.co/image/ab67616d0000b27339be83a2341491a011c93c05",
        "width" : 640
      }, {
        "height" : 300,
        "url" : "https://i.scdn.co/image/ab67616d00001e0239be83a2341491a011c93c05",
        "width" : 300
      }, {
        "height" : 64,
        "url" : "https://i.scdn.co/image/ab67616d0000485139be83a2341491a011c93c05",
        "width" : 64
      } ],
      "name" : "Cochise",
      "popularity" : 0,
      "type" : "artist",
      "uri" : "spotify:artist:0IaSEmBGDxQeFROjde9Dqb"
    }, {
      "external_urls" : {
        "spotify" : "https://open.spotify.com/artist/574OLHTtzZIvs0be5EcmIs"
      },
      "followers" : {
        "href" : null,
        "total" : 448
      },
      "genres" : [ ],
      "href" : "https://api.spotify.com/v1/artists/574OLHTtzZIvs0be5EcmIs",
      "id" : "574OLHTtzZIvs0be5EcmIs",
      "images" : [ {
        "height" : 640,
        "url" : "https://i.scdn.co/image/ab6761610000e5ebc03a7e8f507241bbe4b75b55",
        "width" : 640
      }, {
        "height" : 320,
        "url" : "https://i.scdn.co/image/ab67616100005174c03a7e8f507241bbe4b75b55",
        "width" : 320
      }, {
        "height" : 160,
        "url" : "https://i.scdn.co/image/ab6761610000f178c03a7e8f507241bbe4b75b55",
        "width" : 160
      } ],
      "name" : "Cochise Soulstar",
      "popularity" : 0,
      "type" : "artist",
      "uri" : "spotify:artist:574OLHTtzZIvs0be5EcmIs"
    }, {
      "external_urls" : {
        "spotify" : "https://open.spotify.com/artist/2Lt7Vwwse6F0V3RUwDoyqN"
      },
      "followers" : {
        "href" : null,
        "total" : 0
      },
      "genres" : [ ],
      "href" : "https://api.spotify.com/v1/artists/2Lt7Vwwse6F0V3RUwDoyqN",
      "id" : "2Lt7Vwwse6F0V3RUwDoyqN",
      "images" : [ {
        "height" : 640,
        "url" : "https://i.scdn.co/image/ab67616d0000b2732fb3bea8710a089ccd0cae3a",
        "width" : 640
      }, {
        "height" : 300,
        "url" : "https://i.scdn.co/image/ab67616d00001e022fb3bea8710a089ccd0cae3a",
        "width" : 300
      }, {
        "height" : 64,
        "url" : "https://i.scdn.co/image/ab67616d000048512fb3bea8710a089ccd0cae3a",
        "width" : 64
      } ],
      "name" : "Cochise",
      "popularity" : 0,
      "type" : "artist",
      "uri" : "spotify:artist:2Lt7Vwwse6F0V3RUwDoyqN"
    } ],
    "limit" : 20,
    "next" : "https://api.spotify.com/v1/search?query=COCHISE&type=artist&market=US&offset=20&limit=20",
    "offset" : 0,
    "previous" : null,
    "total" : 47
  }
}