{
  "artists" : {
    "href" : "https://api.spotify.com/v1/search?query=DABIN&type=artist&market=US&offset=0&limit=20",
    "items" : [ {
      "external_urls" : {
        "spotify" : "https://open.spotify.com/artist/7lZauDnRoAC3kmaYae2opv"
      },
      "followers" : {
        "href" : null,
        "total" : 128289
      },
      "genres" : [ "canadian electronic", "edm", "electropop", "future bass", "melodic dubstep", "pop dance", "pop edm" ],
      "href" : "https://api.spotify.com/v1/artists/7lZauDnRoAC3kmaYae2opv",
      "id" : "7lZauDnRoAC3kmaYae2opv",
      "images" : [ {
        "height" : 640,
        "url" : "https://i.scdn.co/image/ab6761610000e5ebdb691c4e0aff20504f6b6033",
        "width" : 640
      }, {
        "height" : 320,
        "url" : "https://i.scdn.co/image/ab67616100005174db691c4e0aff20504f6b6033",
        "width" : 320
      }, {
        "height" : 160,
        "url" : "https://i.scdn.co/image/ab6761610000f178db691c4e0aff20504f6b6033",
        "width" : 160
      } ],
      "name" : "Dabin",
      "popularity" : 62,
      "type" : "artist",
      "uri" : "spotify:artist:7lZauDnRoAC3kmaYae2opv"
    }, {
      "external_urls" : {
        "spotify" : "https://open.spotify.com/artist/6iH4y6aJL4w9uhJkrb2ufz"
      },
      "followers" : {
        "href" : null,
        "total" : 3
      },
      "genres" : [ ],
      "href" : "https://api.spotify.com/v1/artists/6iH4y6aJL4w9uhJkrb2ufz",
      "id" : "6iH4y6aJL4w9uhJkrb2ufz",
      "images" : [ ],
      "name" : "Dabin",
      "popularity" : 2,
      "type" : "artist",
      "uri" : "spotify:artist:6iH4y6aJL4w9uhJkrb2ufz"
    }, {
      "external_urls" : {
        "spotify" : "https://open.spotify.com/artist/1db6ATa5Yc14sLmWqaahEm"
      },
      "followers" : {
        "href" : null,
        "total" : 2207
      },
      "genres" : [ ],
      "href" : "https://api.spotify.com/v1/artists/1db6ATa5Yc14sLmWqaahEm",
      "id" : "1db6ATa5Yc14sLmWqaahEm",
      "images" : [ {
        "height" : 640,
        "url" : "https://i.scdn.co/image/ab67616d0000b273f8680d07af8083e56ef46ea7",
        "width" : 640
      }, {
        "height" : 300,
        "url" : "https://i.scdn.co/image/ab67616d00001e02f8680d07af8083e56ef46ea7",
        "width" : 300
      }, {
        "height" : 64,
        "url" : "https://i.scdn.co/image/ab67616d00004851f8680d07af8083e56ef46ea7",
        "width" : 64
      } ],
      "name" : "Jang Dabin",
      "popularity" : 18,
      "type" : "artist",
      "uri" : "spotify:artist:1db6ATa5Yc14sLmWqaahEm"
    }, {
      "external_urls" : {
        "spotify" : "https://open.spotify.com/artist/79BM6La0dOmgLzqfbgExy5"
      },
      "followers" : {
        "href" : null,
        "total" : 65
      },
      "genres" : [ ],
      "href" : "https://api.spotify.com/v1/artists/79BM6La0dOmgLzqfbgExy5",
      "id" : "79BM6La0dOmgLzqfbgExy5",
      "images" : [ {
        "height" : 640,
        "url" : "https://i.scdn.co/image/ab67616d0000b27391d075383fe85ff1142395ea",
        "width" : 640
      }, {
        "height" : 300,
        "url" : "https://i.scdn.co/image/ab67616d00001e0291d075383fe85ff1142395ea",
        "width" : 300
      }, {
        "height" : 64,
        "url" : "https://i.scdn.co/image/ab67616d0000485191d075383fe85ff1142395ea",
        "width" : 64
      } ],
      "name" : "Dabin Ryu",
      "popularity" : 1,
      "type" : "artist",
      "uri" : "spotify:artist:79BM6La0dOmgLzqfbgExy5"
    }, {
      "external_urls" : {
        "spotify" : "https://open.spotify.com/artist/3GIQkXeXAkYiRNogT9LbXT"
      },
      "followers" : {
        "href" : null,
        "total" : 0
      },
      "genres" : [ ],
      "href" : "https://api.spotify.com/v1/artists/3GIQkXeXAkYiRNogT9LbXT",
      "id" : "3GIQkXeXAkYiRNogT9LbXT",
      "images" : [ {
        "height" : 640,
        "url" : "https://i.scdn.co/image/ab67616d0000b27379ccbe77cc8cad998628afec",
        "width" : 640
      }, {
        "height" : 300,
        "url" : "https://i.scdn.co/image/ab67616d00001e0279ccbe77cc8cad998628afec",
        "width" : 300
      }, {
        "height" : 64,
        "url" : "https://i.scdn.co/image/ab67616d0000485179ccbe77cc8cad998628afec",
        "width" : 64
      } ],
      "name" : "DaBinge",
      "popularity" : 0,
      "type" : "artist",
      "uri" : "spotify:artist:3GIQkXeXAkYiRNogT9LbXT"
    }, {
      "external_urls" : {
        "spotify" : "https://open.spotify.com/artist/6WuJfkhb71tCwkUjo1Mxsq"
      },
      "followers" : {
        "href" : null,
        "total" : 355
      },
      "genres" : [ ],
      "href" : "https://api.spotify.com/v1/artists/6WuJfkhb71tCwkUjo1Mxsq",
      "id" : "6WuJfkhb71tCwkUjo1Mxsq",
      "images" : [ {
        "height" : 640,
        "url" : "https://i.scdn.co/image/ab6761610000e5eb5f9fc00101b14ef99d87e389",
        "width" : 640
      }, {
        "height" : 320,
        "url" : "https://i.scdn.co/image/ab676161000051745f9fc00101b14ef99d87e389",
        "width" : 320
      }, {
        "height" : 160,
        "url" : "https://i.scdn.co/image/ab6761610000f1785f9fc00101b14ef99d87e389",
        "width" : 160
      } ],
      "name" : "Dabin Shit",
      "popularity" : 1,
      "type" : "artist",
      "uri" : "spotify:artist:6WuJfkhb71tCwkUjo1Mxsq"
    }, {
      "external_urls" : {
        "spotify" : "https://open.spotify.com/artist/2pLKI0qGIJhYAjylcgVr3A"
      },
      "followers" : {
        "href" : null,
        "total" : 0
      },
      "genres" : [ ],
      "href" : "https://api.spotify.com/v1/artists/2pLKI0qGIJhYAjylcgVr3A",
      "id" : "2pLKI0qGIJhYAjylcgVr3A",
      "images" : [ ],
      "name" : "dabinhan",
      "popularity" : 0,
      "type" : "artist",
      "uri" : "spotify:artist:2pLKI0qGIJhYAjylcgVr3A"
    }, {
      "external_urls" : {
        "spotify" : "https://open.spotify.com/artist/4glFyiGgEB9wHJsQhBlIR4"
      },
      "followers" : {
        "href" : null,
        "total" : 269
      },
      "genres" : [ ],
      "href" : "https://api.spotify.com/v1/artists/4glFyiGgEB9wHJsQhBlIR4",
      "id" : "4glFyiGgEB9wHJsQhBlIR4",
      "images" : [ {
        "height" : 640,
        "url" : "https://i.scdn.co/image/ab6761610000e5eb5f85386f5f890d069b59e7cd",
        "width" : 640
      }, {
        "height" : 320,
        "url" : "https://i.scdn.co/image/ab676161000051745f85386f5f890d069b59e7cd",
        "width" : 320
      }, {
        "height" : 160,
        "url" : "https://i.scdn.co/image/ab6761610000f1785f85386f5f890d069b59e7cd",
        "width" : 160
      } ],
      "name" : "Dabin Rim",
      "popularity" : 1,
      "type" : "artist",
      "uri" : "spotify:artist:4glFyiGgEB9wHJsQhBlIR4"
    }, {
      "external_urls" : {
        "spotify" : "https://open.spotify.com/artist/19JTveOoe2hWHQplFJsGUQ"
      },
      "followers" : {
        "href" : null,
        "total" : 0
      },
      "genres" : [ ],
      "href" : "https://api.spotify.com/v1/artists/19JTveOoe2hWHQplFJsGUQ",
      "id" : "19JTveOoe2hWHQplFJsGUQ",
      "images" : [ {
        "height" : 640,
        "url" : "https://i.scdn.co/image/ab67616d0000b2734599ee329ea8aa601d49cb31",
        "width" : 640
      }, {
        "height" : 300,
        "url" : "https://i.scdn.co/image/ab67616d00001e024599ee329ea8aa601d49cb31",
        "width" : 300
      }, {
        "height" : 64,
        "url" : "https://i.scdn.co/image/ab67616d000048516d0f9b8a4b3fc8156dfddb3e",
        "width" : 64
      } ],
      "name" : "DABINCHI",
      "popularity" : 0,
      "type" : "artist",
      "uri" : "spotify:artist:19JTveOoe2hWHQplFJsGUQ"
    }, {
      "external_urls" : {
        "spotify" : "https://open.spotify.com/artist/1xIg0q12boZwhw7QgpRLTM"
      },
      "followers" : {
        "href" : null,
        "total" : 15
      },
      "genres" : [ ],
      "href" : "https://api.spotify.com/v1/artists/1xIg0q12boZwhw7QgpRLTM",
      "id" : "1xIg0q12boZwhw7QgpRLTM",
      "images" : [ {
        "height" : 640,
        "url" : "https://i.scdn.co/image/ab6761610000e5eb127f42aa3d753f6cc5c8460e",
        "width" : 640
      }, {
        "height" : 320,
        "url" : "https://i.scdn.co/image/ab67616100005174127f42aa3d753f6cc5c8460e",
        "width" : 320
      }, {
        "height" : 160,
        "url" : "https://i.scdn.co/image/ab6761610000f178127f42aa3d753f6cc5c8460e",
        "width" : 160
      } ],
      "name" : "DaBinciCode",
      "popularity" : 2,
      "type" : "artist",
      "uri" : "spotify:artist:1xIg0q12boZwhw7QgpRLTM"
    }, {
      "external_urls" : {
        "spotify" : "https://open.spotify.com/artist/2eLeyvTcvZzxaq3FGpbAho"
      },
      "followers" : {
        "href" : null,
        "total" : 0
      },
      "genres" : [ ],
      "href" : "https://api.spotify.com/v1/artists/2eLeyvTcvZzxaq3FGpbAho",
      "id" : "2eLeyvTcvZzxaq3FGpbAho",
      "images" : [ ],
      "name" : "Dabino",
      "popularity" : 0,
      "type" : "artist",
      "uri" : "spotify:artist:2eLeyvTcvZzxaq3FGpbAho"
    }, {
      "external_urls" : {
        "spotify" : "https://open.spotify.com/artist/3viiIGEp9jn0sKz4K0D6HT"
      },
      "followers" : {
        "href" : null,
        "total" : 5392
      },
      "genres" : [ ],
      "href" : "https://api.spotify.com/v1/artists/3viiIGEp9jn0sKz4K0D6HT",
      "id" : "3viiIGEp9jn0sKz4K0D6HT",
      "images" : [ {
        "height" : 640,
        "url" : "https://i.scdn.co/image/ab6761610000e5eb366a385cc1744449f78e9485",
        "width" : 640
      }, {
        "height" : 320,
        "url" : "https://i.scdn.co/image/ab67616100005174366a385cc1744449f78e9485",
        "width" : 320
      }, {
        "height" : 160,
        "url" : "https://i.scdn.co/image/ab6761610000f178366a385cc1744449f78e9485",
        "width" : 160
      } ],
      "name" : "DAVINHOR",
      "popularity" : 45,
      "type" : "artist",
      "uri" : "spotify:artist:3viiIGEp9jn0sKz4K0D6HT"
    }, {
      "external_urls" : {
        "spotify" : "https://open.spotify.com/artist/2ZT5j2v9opnnqb2SqV34f6"
      },
      "followers" : {
        "href" : null,
        "total" : 9
      },
      "genres" : [ ],
      "href" : "https://api.spotify.com/v1/artists/2ZT5j2v9opnnqb2SqV34f6",
      "id" : "2ZT5j2v9opnnqb2SqV34f6",
      "images" : [ {
        "height" : 640,
        "url" : "https://i.scdn.co/image/ab67616d0000b273786040e73088d67bfd53912e",
        "width" : 640
      }, {
        "height" : 300,
        "url" : "https://i.scdn.co/image/ab67616d00001e02786040e73088d67bfd53912e",
        "width" : 300
      }, {
        "height" : 64,
        "url" : "https://i.scdn.co/image/ab67616d00004851786040e73088d67bfd53912e",
        "width" : 64
      } ],
      "name" : "Dabinett",
      "popularity" : 0,
      "type" : "artist",
      "uri" : "spotify:artist:2ZT5j2v9opnnqb2SqV34f6"
    }, {
      "external_urls" : {
        "spotify" : "https://open.spotify.com/artist/0FJ2KvWnk0pZfJnzf7xkOM"
      },
      "followers" : {
        "href" : null,
        "total" : 96
      },
      "genres" : [ ],
      "href" : "https://api.spotify.com/v1/artists/0FJ2KvWnk0pZfJnzf7xkOM",
      "id" : "0FJ2KvWnk0pZfJnzf7xkOM",
      "images" : [ ],
      "name" : "Dabin",
      "popularity" : 1,
      "type" : "artist",
      "uri" : "spotify:artist:0FJ2KvWnk0pZfJnzf7xkOM"
    }, {
      "external_urls" : {
        "spotify" : "https://open.spotify.com/artist/687vmQnu4KUoBLzBymfdR6"
      },
      "followers" : {
        "href" : null,
        "total" : 12
      },
      "genres" : [ ],
      "href" : "https://api.spotify.com/v1/artists/687vmQnu4KUoBLzBymfdR6",
      "id" : "687vmQnu4KUoBLzBymfdR6",
      "images" : [ {
        "height" : 640,
        "url" : "https://i.scdn.co/image/ab67616d0000b27324792873804351569d28136c",
        "width" : 640
      }, {
        "height" : 300,
        "url" : "https://i.scdn.co/image/ab67616d00001e0224792873804351569d28136c",
        "width" : 300
      }, {
        "height" : 64,
        "url" : "https://i.scdn.co/image/ab67616d0000485124792873804351569d28136c",
        "width" : 64
      } ],
      "name" : "Dabin",
      "popularity" : 0,
      "type" : "artist",
      "uri" : "spotify:artist:687vmQnu4KUoBLzBymfdR6"
    }, {
      "external_urls" : {
        "spotify" : "https://open.spotify.com/artist/0bDXcnhvDXxvYWU7GAZddx"
      },
      "followers" : {
        "href" : null,
        "total" : 3
      },
      "genres" : [ ],
      "href" : "https://api.spotify.com/v1/artists/0bDXcnhvDXxvYWU7GAZddx",
      "id" : "0bDXcnhvDXxvYWU7GAZddx",
      "images" : [ ],
      "name" : "Dabin Yu",
      "popularity" : 1,
      "type" : "artist",
      "uri" : "spotify:artist:0bDXcnhvDXxvYWU7GAZddx"
    }, {
      "external_urls" : {
        "spotify" : "https://open.spotify.com/artist/685RaY9pbbElJuLfXfSUso"
      },
      "followers" : {
        "href" : null,
        "total" : 5
      },
      "genres" : [ ],
      "href" : "https://api.spotify.com/v1/artists/685RaY9pbbElJuLfXfSUso",
      "id" : "685RaY9pbbElJuLfXfSUso",
      "images" : [ {
        "height" : 640,
        "url" : "https://i.scdn.co/image/ab67616d0000b27378568f987c0785d6bd1f4631",
        "width" : 640
      }, {
        "height" : 300,
        "url" : "https://i.scdn.co/image/ab67616d00001e0278568f987c0785d6bd1f4631",
        "width" : 300
      }, {
        "height" : 64,
        "url" : "https://i.scdn.co/image/ab67616d0000485178568f987c0785d6bd1f4631",
        "width" : 64
      } ],
      "name" : "DABIN",
      "popularity" : 0,
      "type" : "artist",
      "uri" : "spotify:artist:685RaY9pbbElJuLfXfSUso"
    }, {
      "external_urls" : {
        "spotify" : "https://open.spotify.com/artist/4S56vSBgQjyXGAUc4X3wnw"
      },
      "followers" : {
        "href" : null,
        "total" : 6
      },
      "genres" : [ ],
      "href" : "https://api.spotify.com/v1/artists/4S56vSBgQjyXGAUc4X3wnw",
      "id" : "4S56vSBgQjyXGAUc4X3wnw",
      "images" : [ {
        "height" : 640,
        "url" : "https://i.scdn.co/image/ab67616d0000b2730860442a078c5f3a77b38a23",
        "width" : 640
      }, {
        "height" : 300,
        "url" : "https://i.scdn.co/image/ab67616d00001e020860442a078c5f3a77b38a23",
        "width" : 300
      }, {
        "height" : 64,
        "url" : "https://i.scdn.co/image/ab67616d000048510860442a078c5f3a77b38a23",
        "width" : 64
      } ],
      "name" : "Hwang Dabin",
      "popularity" : 1,
      "type" : "artist",
      "uri" : "spotify:artist:4S56vSBgQjyXGAUc4X3wnw"
    }, {
      "external_urls" : {
        "spotify" : "https://open.spotify.com/artist/6ZPSRkH0aNMQdcyBJfwUCE"
      },
      "followers" : {
        "href" : null,
        "total" : 0
      },
      "genres" : [ ],
      "href" : "https://api.spotify.com/v1/artists/6ZPSRkH0aNMQdcyBJfwUCE",
      "id" : "6ZPSRkH0aNMQdcyBJfwUCE",
      "images" : [ {
        "height" : 640,
        "url" : "https://i.scdn.co/image/ab67616d0000b273e372752c71d9d0de49228832",
        "width" : 640
      }, {
        "height" : 300,
        "url" : "https://i.scdn.co/image/ab67616d00001e02e372752c71d9d0de49228832",
        "width" : 300
      }, {
        "height" : 64,
        "url" : "https://i.scdn.co/image/ab67616d00004851e372752c71d9d0de49228832",
        "width" : 64
      } ],
      "name" : "Afrez Dabinoz",
      "popularity" : 0,
      "type" : "artist",
      "uri" : "spotify:artist:6ZPSRkH0aNMQdcyBJfwUCE"
    }, {
      "external_urls" : {
        "spotify" : "https://open.spotify.com/artist/7mL1ktkyr8KCJmSyTg0G1v"
      },
      "followers" : {
        "href" : null,
        "total" : 1
      },
      "genres" : [ ],
      "href" : "https://api.spotify.com/v1/artists/7mL1ktkyr8KCJmSyTg0G1v",
      "id" : "7mL1ktkyr8KCJmSyTg0G1v",
      "images" : [ ],
      "name" : "Burchard Dabinnus",
      "popularity" : 3,
      "type" : "artist",
      "uri" : "spotify:artist:7mL1ktkyr8KCJmSyTg0G1v"
    } ],
    "limit" : 20,
    "next" : "https://api.spotify.com/v1/search?query=DABIN&type=artist&market=US&offset=20&limit=20",
    "offset" : 0,
    "previous" : null,
    "total" : 35
  }
}