{
  "artists" : {
    "href" : "https://api.spotify.com/v1/search?query=GRANDSON&type=artist&market=US&offset=0&limit=20",
    "items" : [ {
      "external_urls" : {
        "spotify" : "https://open.spotify.com/artist/4ZgQDCtRqZlhLswVS6MHN4"
      },
      "followers" : {
        "href" : null,
        "total" : 1000730
      },
      "genres" : [ "modern alternative rock", "modern rock", "rock" ],
      "href" : "https://api.spotify.com/v1/artists/4ZgQDCtRqZlhLswVS6MHN4",
      "id" : "4ZgQDCtRqZlhLswVS6MHN4",
      "images" : [ {
        "height" : 640,
        "url" : "https://i.scdn.co/image/ab6761610000e5ebac99a0d19e9ce4a4fb0e013d",
        "width" : 640
      }, {
        "height" : 320,
        "url" : "https://i.scdn.co/image/ab67616100005174ac99a0d19e9ce4a4fb0e013d",
        "width" : 320
      }, {
        "height" : 160,
        "url" : "https://i.scdn.co/image/ab6761610000f178ac99a0d19e9ce4a4fb0e013d",
        "width" : 160
      } ],
      "name" : "grandson",
      "popularity" : 74,
      "type" : "artist",
      "uri" : "spotify:artist:4ZgQDCtRqZlhLswVS6MHN4"
    }, {
      "external_urls" : {
        "spotify" : "https://open.spotify.com/artist/5sl4jqpnsgkKmZouJfmr0h"
      },
      "followers" : {
        "href" : null,
        "total" : 79
      },
      "genres" : [ ],
      "href" : "https://api.spotify.com/v1/artists/5sl4jqpnsgkKmZouJfmr0h",
      "id" : "5sl4jqpnsgkKmZouJfmr0h",
      "images" : [ {
        "height" : 640,
        "url" : "https://i.scdn.co/image/ab6761610000e5eb330962ae098b5b313cef8d9b",
        "width" : 640
      }, {
        "height" : 320,
        "url" : "https://i.scdn.co/image/ab67616100005174330962ae098b5b313cef8d9b",
        "width" : 320
      }, {
        "height" : 160,
        "url" : "https://i.scdn.co/image/ab6761610000f178330962ae098b5b313cef8d9b",
        "width" : 160
      } ],
      "name" : "Your Grandmas Favorite Grandsons",
      "popularity" : 23,
      "type" : "artist",
      "uri" : "spotify:artist:5sl4jqpnsgkKmZouJfmr0h"
    }, {
      "external_urls" : {
        "spotify" : "https://open.spotify.com/artist/6f5Se5ti1ygN6C8UhHEkqV"
      },
      "followers" : {
        "href" : null,
        "total" : 285
      },
      "genres" : [ ],
      "href" : "https://api.spotify.com/v1/artists/6f5Se5ti1ygN6C8UhHEkqV",
      "id" : "6f5Se5ti1ygN6C8UhHEkqV",
      "images" : [ {
        "height" : 640,
        "url" : "https://i.scdn.co/image/ab67616d0000b273d2e3ea6683f4bc122134e8e2",
        "width" : 640
      }, {
        "height" : 300,
        "url" : "https://i.scdn.co/image/ab67616d00001e02d2e3ea6683f4bc122134e8e2",
        "width" : 300
      }, {
        "height" : 64,
        "url" : "https://i.scdn.co/image/ab67616d00004851d2e3ea6683f4bc122134e8e2",
        "width" : 64
      } ],
      "name" : "grandson",
      "popularity" : 2,
      "type" : "artist",
      "uri" : "spotify:artist:6f5Se5ti1ygN6C8UhHEkqV"
    }, {
      "external_urls" : {
        "spotify" : "https://open.spotify.com/artist/6EAmqCYjcypPy7Sa5mJfz8"
      },
      "followers" : {
        "href" : null,
        "total" : 3
      },
      "genres" : [ ],
      "href" : "https://api.spotify.com/v1/artists/6EAmqCYjcypPy7Sa5mJfz8",
      "id" : "6EAmqCYjcypPy7Sa5mJfz8",
      "images" : [ ],
      "name" : "Totti Grandson",
      "popularity" : 5,
      "type" : "artist",
      "uri" : "spotify:artist:6EAmqCYjcypPy7Sa5mJfz8"
    }, {
      "external_urls" : {
        "spotify" : "https://open.spotify.com/artist/4xxhssGWXXPNuRcNwynaaA"
      },
      "followers" : {
        "href" : null,
        "total" : 85
      },
      "genres" : [ ],
      "href" : "https://api.spotify.com/v1/artists/4xxhssGWXXPNuRcNwynaaA",
      "id" : "4xxhssGWXXPNuRcNwynaaA",
      "images" : [ ],
      "name" : "grandson",
      "popularity" : 2,
      "type" : "artist",
      "uri" : "spotify:artist:4xxhssGWXXPNuRcNwynaaA"
    }, {
      "external_urls" : {
        "spotify" : "https://open.spotify.com/artist/1uJ1UVUIuTB4dbomkIK0qN"
      },
      "followers" : {
        "href" : null,
        "total" : 0
      },
      "genres" : [ ],
      "href" : "https://api.spotify.com/v1/artists/1uJ1UVUIuTB4dbomkIK0qN",
      "id" : "1uJ1UVUIuTB4dbomkIK0qN",
      "images" : [ {
        "height" : 640,
        "url" : "https://i.scdn.co/image/ab67616d0000b2735c3f93cbfa609f25f91135bc",
        "width" : 640
      }, {
        "height" : 300,
        "url" : "https://i.scdn.co/image/ab67616d00001e025c3f93cbfa609f25f91135bc",
        "width" : 300
      }, {
        "height" : 64,
        "url" : "https://i.scdn.co/image/ab67616d000048515c3f93cbfa609f25f91135bc",
        "width" : 64
      } ],
      "name" : "Grandson80",
      "popularity" : 0,
      "type" : "artist",
      "uri" : "spotify:artist:1uJ1UVUIuTB4dbomkIK0qN"
    }, {
      "external_urls" : {
        "spotify" : "https://open.spotify.com/artist/6eJXzoJmsByfOId4dqRuA1"
      },
      "followers" : {
        "href" : null,
        "total" : 23
      },
      "genres" : [ ],
      "href" : "https://api.spotify.com/v1/artists/6eJXzoJmsByfOId4dqRuA1",
      "id" : "6eJXzoJmsByfOId4dqRuA1",
      "images" : [ ],
      "name" : "grandson",
      "popularity" : 1,
      "type" : "artist",
      "uri" : "spotify:artist:6eJXzoJmsByfOId4dqRuA1"
    }, {
      "external_urls" : {
        "spotify" : "https://open.spotify.com/artist/3rXxgV7Y1uEkrL8sW2Usnz"
      },
      "followers" : {
        "href" : null,
        "total" : 0
      },
      "genres" : [ ],
      "href" : "https://api.spotify.com/v1/artists/3rXxgV7Y1uEkrL8sW2Usnz",
      "id" : "3rXxgV7Y1uEkrL8sW2Usnz",
      "images" : [ ],
      "name" : "Grandsonbandz",
      "popularity" : 0,
      "type" : "artist",
      "uri" : "spotify:artist:3rXxgV7Y1uEkrL8sW2Usnz"
    }, {
      "external_urls" : {
        "spotify" : "https://open.spotify.com/artist/4492hqUysLxEoUxicUa46k"
      },
      "followers" : {
        "href" : null,
        "total" : 49
      },
      "genres" : [ ],
      "href" : "https://api.spotify.com/v1/artists/4492hqUysLxEoUxicUa46k",
      "id" : "4492hqUysLxEoUxicUa46k",
      "images" : [ ],
      "name" : "grandson",
      "popularity" : 1,
      "type" : "artist",
      "uri" : "spotify:artist:4492hqUysLxEoUxicUa46k"
    }, {
      "external_urls" : {
        "spotify" : "https://open.spotify.com/artist/6Tq6OFSpgbJ627DIPyn2Oo"
      },
      "followers" : {
        "href" : null,
        "total" : 13
      },
      "genres" : [ ],
      "href" : "https://api.spotify.com/v1/artists/6Tq6OFSpgbJ627DIPyn2Oo",
      "id" : "6Tq6OFSpgbJ627DIPyn2Oo",
      "images" : [ {
        "height" : 640,
        "url" : "https://i.scdn.co/image/ab6761610000e5eb37c041542b5e8f1a04d73b78",
        "width" : 640
      }, {
        "height" : 320,
        "url" : "https://i.scdn.co/image/ab6761610000517437c041542b5e8f1a04d73b78",
        "width" : 320
      }, {
        "height" : 160,
        "url" : "https://i.scdn.co/image/ab6761610000f17837c041542b5e8f1a04d73b78",
        "width" : 160
      } ],
      "name" : "Grandsonrd",
      "popularity" : 0,
      "type" : "artist",
      "uri" : "spotify:artist:6Tq6OFSpgbJ627DIPyn2Oo"
    }, {
      "external_urls" : {
        "spotify" : "https://open.spotify.com/artist/2F5XT2q8hdmzcG5zTrdsiN"
      },
      "followers" : {
        "href" : null,
        "total" : 59
      },
      "genres" : [ ],
      "href" : "https://api.spotify.com/v1/artists/2F5XT2q8hdmzcG5zTrdsiN",
      "id" : "2F5XT2q8hdmzcG5zTrdsiN",
      "images" : [ ],
      "name" : "grandson",
      "popularity" : 0,
      "type" : "artist",
      "uri" : "spotify:artist:2F5XT2q8hdmzcG5zTrdsiN"
    }, {
      "external_urls" : {
        "spotify" : "https://open.spotify.com/artist/4gzFw29iLRUaum161s9aLx"
      },
      "followers" : {
        "href" : null,
        "total" : 19
      },
      "genres" : [ ],
      "href" : "https://api.spotify.com/v1/artists/4gzFw29iLRUaum161s9aLx",
      "id" : "4gzFw29iLRUaum161s9aLx",
      "images" : [ ],
      "name" : "grandson",
      "popularity" : 0,
      "type" : "artist",
      "uri" : "spotify:artist:4gzFw29iLRUaum161s9aLx"
    }, {
      "external_urls" : {
        "spotify" : "https://open.spotify.com/artist/6na9ZHMQkKtTQ5YgS4IbNt"
      },
      "followers" : {
        "href" : null,
        "total" : 280
      },
      "genres" : [ ],
      "href" : "https://api.spotify.com/v1/artists/6na9ZHMQkKtTQ5YgS4IbNt",
      "id" : "6na9ZHMQkKtTQ5YgS4IbNt",
      "images" : [ {
        "height" : 640,
        "url" : "https://i.scdn.co/image/ab67616d0000b273d70e2b144ed4b56d1a908044",
        "width" : 640
      }, {
        "height" : 300,
        "url" : "https://i.scdn.co/image/ab67616d00001e02d70e2b144ed4b56d1a908044",
        "width" : 300
      }, {
        "height" : 64,
        "url" : "https://i.scdn.co/image/ab67616d00004851d70e2b144ed4b56d1a908044",
        "width" : 64
      } ],
      "name" : "Grandson on the Wall",
      "popularity" : 4,
      "type" : "artist",
      "uri" : "spotify:artist:6na9ZHMQkKtTQ5YgS4IbNt"
    }, {
      "external_urls" : {
        "spotify" : "https://open.spotify.com/artist/6aZkZ1L18u4IPySluawu3q"
      },
      "followers" : {
        "href" : null,
        "total" : 1
      },
      "genres" : [ ],
      "href" : "https://api.spotify.com/v1/artists/6aZkZ1L18u4IPySluawu3q",
      "id" : "6aZkZ1L18u4IPySluawu3q",
      "images" : [ ],
      "name" : "grandson",
      "popularity" : 0,
      "type" : "artist",
      "uri" : "spotify:artist:6aZkZ1L18u4IPySluawu3q"
    }, {
      "external_urls" : {
        "spotify" : "https://open.spotify.com/artist/1mwgX08fkkypMYXrskd5z2"
      },
      "followers" : {
        "href" : null,
        "total" : 47
      },
      "genres" : [ ],
      "href" : "https://api.spotify.com/v1/artists/1mwgX08fkkypMYXrskd5z2",
      "id" : "1mwgX08fkkypMYXrskd5z2",
      "images" : [ ],
      "name" : "grandson",
      "popularity" : 0,
      "type" : "artist",
      "uri" : "spotify:artist:1mwgX08fkkypMYXrskd5z2"
    }, {
      "external_urls" : {
        "spotify" : "https://open.spotify.com/artist/5jvDtpEYoiyr2tcIiSg77F"
      },
      "followers" : {
        "href" : null,
        "total" : 928
      },
      "genres" : [ ],
      "href" : "https://api.spotify.com/v1/artists/5jvDtpEYoiyr2tcIiSg77F",
      "id" : "5jvDtpEYoiyr2tcIiSg77F",
      "images" : [ {
        "height" : 640,
        "url" : "https://i.scdn.co/image/ab67616d0000b273288f110ab7a014daa6285085",
        "width" : 640
      }, {
        "height" : 300,
        "url" : "https://i.scdn.co/image/ab67616d00001e02288f110ab7a014daa6285085",
        "width" : 300
      }, {
        "height" : 64,
        "url" : "https://i.scdn.co/image/ab67616d00004851288f110ab7a014daa6285085",
        "width" : 64
      } ],
      "name" : "The Grandsons",
      "popularity" : 1,
      "type" : "artist",
      "uri" : "spotify:artist:5jvDtpEYoiyr2tcIiSg77F"
    }, {
      "external_urls" : {
        "spotify" : "https://open.spotify.com/artist/66XfPsmTR9EQEOwG9yzn22"
      },
      "followers" : {
        "href" : null,
        "total" : 136
      },
      "genres" : [ ],
      "href" : "https://api.spotify.com/v1/artists/66XfPsmTR9EQEOwG9yzn22",
      "id" : "66XfPsmTR9EQEOwG9yzn22",
      "images" : [ {
        "height" : 640,
        "url" : "https://i.scdn.co/image/ab67616d0000b2731a7c5f44f09f095230a486d2",
        "width" : 640
      }, {
        "height" : 300,
        "url" : "https://i.scdn.co/image/ab67616d00001e021a7c5f44f09f095230a486d2",
        "width" : 300
      }, {
        "height" : 64,
        "url" : "https://i.scdn.co/image/ab67616d000048511a7c5f44f09f095230a486d2",
        "width" : 64
      } ],
      "name" : "Grandson",
      "popularity" : 0,
      "type" : "artist",
      "uri" : "spotify:artist:66XfPsmTR9EQEOwG9yzn22"
    }, {
      "external_urls" : {
        "spotify" : "https://open.spotify.com/artist/0ok35yfy6JZwEOdzBubiWN"
      },
      "followers" : {
        "href" : null,
        "total" : 24
      },
      "genres" : [ ],
      "href" : "https://api.spotify.com/v1/artists/0ok35yfy6JZwEOdzBubiWN",
      "id" : "0ok35yfy6JZwEOdzBubiWN",
      "images" : [ {
        "height" : 640,
        "url" : "https://i.scdn.co/image/ab67616d0000b273107f4fa6244909dd86ee42f1",
        "width" : 640
      }, {
        "height" : 300,
        "url" : "https://i.scdn.co/image/ab67616d00001e02107f4fa6244909dd86ee42f1",
        "width" : 300
      }, {
        "height" : 64,
        "url" : "https://i.scdn.co/image/ab67616d00004851107f4fa6244909dd86ee42f1",
        "width" : 64
      } ],
      "name" : "Grandson House",
      "popularity" : 0,
      "type" : "artist",
      "uri" : "spotify:artist:0ok35yfy6JZwEOdzBubiWN"
    }, {
      "external_urls" : {
        "spotify" : "https://open.spotify.com/artist/4M6tqwvxuBw7D76aM1rUSp"
      },
      "followers" : {
        "href" : null,
        "total" : 0
      },
      "genres" : [ ],
      "href" : "https://api.spotify.com/v1/artists/4M6tqwvxuBw7D76aM1rUSp",
      "id" : "4M6tqwvxuBw7D76aM1rUSp",
      "images" : [ ],
      "name" : "Grandson Bandz",
      "popularity" : 0,
      "type" : "artist",
      "uri" : "spotify:artist:4M6tqwvxuBw7D76aM1rUSp"
    }, {
      "external_urls" : {
        "spotify" : "https://open.spotify.com/artist/4cy1548nHrzpOXxmV8jaAj"
      },
      "followers" : {
        "href" : null,
        "total" : 1081
      },
      "genres" : [ "belgian pop" ],
      "href" : "https://api.spotify.com/v1/artists/4cy1548nHrzpOXxmV8jaAj",
      "id" : "4cy1548nHrzpOXxmV8jaAj",
      "images" : [ {
        "height" : 640,
        "url" : "https://i.scdn.co/image/ab6761610000e5eb264defb417407e229f963c59",
        "width" : 640
      }, {
        "height" : 320,
        "url" : "https://i.scdn.co/image/ab67616100005174264defb417407e229f963c59",
        "width" : 320
      }, {
        "height" : 160,
        "url" : "https://i.scdn.co/image/ab6761610000f178264defb417407e229f963c59",
        "width" : 160
      } ],
      "name" : "St. Grandson",
      "popularity" : 10,
      "type" : "artist",
      "uri" : "spotify:artist:4cy1548nHrzpOXxmV8jaAj"
    } ],
    "limit" : 20,
    "next" : "https://api.spotify.com/v1/search?query=GRANDSON&type=artist&market=US&offset=20&limit=20",
    "offset" : 0,
    "previous" : null,
    "total" : 75
  }
}