{
  "artists" : {
    "href" : "https://api.spotify.com/v1/search?query=JERRO&type=artist&market=US&offset=0&limit=20",
    "items" : [ {
      "external_urls" : {
        "spotify" : "https://open.spotify.com/artist/0RKP52f5PNDCRZ9Luq2Sr7"
      },
      "followers" : {
        "href" : null,
        "total" : 458573
      },
      "genres" : [ "contemporary country", "country", "country road", "modern country rock" ],
      "href" : "https://api.spotify.com/v1/artists/0RKP52f5PNDCRZ9Luq2Sr7",
      "id" : "0RKP52f5PNDCRZ9Luq2Sr7",
      "images" : [ {
        "height" : 640,
        "url" : "https://i.scdn.co/image/ab6761610000e5eb23ad93772765db490cffb551",
        "width" : 640
      }, {
        "height" : 320,
        "url" : "https://i.scdn.co/image/ab6761610000517423ad93772765db490cffb551",
        "width" : 320
      }, {
        "height" : 160,
        "url" : "https://i.scdn.co/image/ab6761610000f17823ad93772765db490cffb551",
        "width" : 160
      } ],
      "name" : "Jerrod Niemann",
      "popularity" : 58,
      "type" : "artist",
      "uri" : "spotify:artist:0RKP52f5PNDCRZ9Luq2Sr7"
    }, {
      "external_urls" : {
        "spotify" : "https://open.spotify.com/artist/1WHFu22zN1C6F11Z1rt12K"
      },
      "followers" : {
        "href" : null,
        "total" : 14757
      },
      "genres" : [ "tropical house" ],
      "href" : "https://api.spotify.com/v1/artists/1WHFu22zN1C6F11Z1rt12K",
      "id" : "1WHFu22zN1C6F11Z1rt12K",
      "images" : [ {
        "height" : 640,
        "url" : "https://i.scdn.co/image/ab6761610000e5ebd200b7beba28ddbb702e2ca0",
        "width" : 640
      }, {
        "height" : 320,
        "url" : "https://i.scdn.co/image/ab67616100005174d200b7beba28ddbb702e2ca0",
        "width" : 320
      }, {
        "height" : 160,
        "url" : "https://i.scdn.co/image/ab6761610000f178d200b7beba28ddbb702e2ca0",
        "width" : 160
      } ],
      "name" : "Jerro",
      "popularity" : 56,
      "type" : "artist",
      "uri" : "spotify:artist:1WHFu22zN1C6F11Z1rt12K"
    }, {
      "external_urls" : {
        "spotify" : "https://open.spotify.com/artist/02UwmGSlq6g9s8CHZ70h7C"
      },
      "followers" : {
        "href" : null,
        "total" : 156
      },
      "genres" : [ ],
      "href" : "https://api.spotify.com/v1/artists/02UwmGSlq6g9s8CHZ70h7C",
      "id" : "02UwmGSlq6g9s8CHZ70h7C",
      "images" : [ {
        "height" : 640,
        "url" : "https://i.scdn.co/image/ab6761610000e5ebc2ed4db83646fced1b605544",
        "width" : 640
      }, {
        "height" : 320,
        "url" : "https://i.scdn.co/image/ab67616100005174c2ed4db83646fced1b605544",
        "width" : 320
      }, {
        "height" : 160,
        "url" : "https://i.scdn.co/image/ab6761610000f178c2ed4db83646fced1b605544",
        "width" : 160
      } ],
      "name" : "Jerrod Azaad",
      "popularity" : 22,
      "type" : "artist",
      "uri" : "spotify:artist:02UwmGSlq6g9s8CHZ70h7C"
    }, {
      "external_urls" : {
        "spotify" : "https://open.spotify.com/artist/6UjmSUS82bBSEjsybZkVc2"
      },
      "followers" : {
        "href" : null,
        "total" : 4466
      },
      "genres" : [ "modern old-time" ],
      "href" : "https://api.spotify.com/v1/artists/6UjmSUS82bBSEjsybZkVc2",
      "id" : "6UjmSUS82bBSEjsybZkVc2",
      "images" : [ {
        "height" : 640,
        "url" : "https://i.scdn.co/image/ab6761610000e5ebbfeccd94f7f7004670367e03",
        "width" : 640
      }, {
        "height" : 320,
        "url" : "https://i.scdn.co/image/ab67616100005174bfeccd94f7f7004670367e03",
        "width" : 320
      }, {
        "height" : 160,
        "url" : "https://i.scdn.co/image/ab6761610000f178bfeccd94f7f7004670367e03",
        "width" : 160
      } ],
      "name" : "Blind Boy Paxton",
      "popularity" : 26,
      "type" : "artist",
      "uri" : "spotify:artist:6UjmSUS82bBSEjsybZkVc2"
    }, {
      "external_urls" : {
        "spotify" : "https://open.spotify.com/artist/70tSBUIr9n3sV431t90M5H"
      },
      "followers" : {
        "href" : null,
        "total" : 12
      },
      "genres" : [ ],
      "href" : "https://api.spotify.com/v1/artists/70tSBUIr9n3sV431t90M5H",
      "id" : "70tSBUIr9n3sV431t90M5H",
      "images" : [ ],
      "name" : "Jerrod Jixx",
      "popularity" : 10,
      "type" : "artist",
      "uri" : "spotify:artist:70tSBUIr9n3sV431t90M5H"
    }, {
      "external_urls" : {
        "spotify" : "https://open.spotify.com/artist/5YGYWdXVlUYcwiwFxcY7C8"
      },
      "followers" : {
        "href" : null,
        "total" : 388
      },
      "genres" : [ ],
      "href" : "https://api.spotify.com/v1/artists/5YGYWdXVlUYcwiwFxcY7C8",
      "id" : "5YGYWdXVlUYcwiwFxcY7C8",
      "images" : [ {
        "height" : 640,
        "url" : "https://i.scdn.co/image/ab6761610000e5ebd41737ddad3f3568c9a35362",
        "width" : 640
      }, {
        "height" : 320,
        "url" : "https://i.scdn.co/image/ab67616100005174d41737ddad3f3568c9a35362",
        "width" : 320
      }, {
        "height" : 160,
        "url" : "https://i.scdn.co/image/ab6761610000f178d41737ddad3f3568c9a35362",
        "width" : 160
      } ],
      "name" : "Jerrod Flusche",
      "popularity" : 9,
      "type" : "artist",
      "uri" : "spotify:artist:5YGYWdXVlUYcwiwFxcY7C8"
    }, {
      "external_urls" : {
        "spotify" : "https://open.spotify.com/artist/1SAy0dPUaT6fyPs5JuJIQN"
      },
      "followers" : {
        "href" : null,
        "total" : 417
      },
      "genres" : [ ],
      "href" : "https://api.spotify.com/v1/artists/1SAy0dPUaT6fyPs5JuJIQN",
      "id" : "1SAy0dPUaT6fyPs5JuJIQN",
      "images" : [ {
        "height" : 640,
        "url" : "https://i.scdn.co/image/ab6761610000e5eb3fb7f8332933f6e9ab167562",
        "width" : 640
      }, {
        "height" : 320,
        "url" : "https://i.scdn.co/image/ab676161000051743fb7f8332933f6e9ab167562",
        "width" : 320
      }, {
        "height" : 160,
        "url" : "https://i.scdn.co/image/ab6761610000f1783fb7f8332933f6e9ab167562",
        "width" : 160
      } ],
      "name" : "Jerrod Medulla",
      "popularity" : 8,
      "type" : "artist",
      "uri" : "spotify:artist:1SAy0dPUaT6fyPs5JuJIQN"
    }, {
      "external_urls" : {
        "spotify" : "https://open.spotify.com/artist/4wVbZ5NiJMNMsUYn42p4cB"
      },
      "followers" : {
        "href" : null,
        "total" : 1
      },
      "genres" : [ ],
      "href" : "https://api.spotify.com/v1/artists/4wVbZ5NiJMNMsUYn42p4cB",
      "id" : "4wVbZ5NiJMNMsUYn42p4cB",
      "images" : [ ],
      "name" : "Jerrold Held",
      "popularity" : 5,
      "type" : "artist",
      "uri" : "spotify:artist:4wVbZ5NiJMNMsUYn42p4cB"
    }, {
      "external_urls" : {
        "spotify" : "https://open.spotify.com/artist/2teijNn1isOyUmnSWq9YAI"
      },
      "followers" : {
        "href" : null,
        "total" : 102
      },
      "genres" : [ ],
      "href" : "https://api.spotify.com/v1/artists/2teijNn1isOyUmnSWq9YAI",
      "id" : "2teijNn1isOyUmnSWq9YAI",
      "images" : [ {
        "height" : 640,
        "url" : "https://i.scdn.co/image/ab6761610000e5eb29e9ebcb68ae807a70a6c005",
        "width" : 640
      }, {
        "height" : 320,
        "url" : "https://i.scdn.co/image/ab6761610000517429e9ebcb68ae807a70a6c005",
        "width" : 320
      }, {
        "height" : 160,
        "url" : "https://i.scdn.co/image/ab6761610000f17829e9ebcb68ae807a70a6c005",
        "width" : 160
      } ],
      "name" : "Erik Jerrod",
      "popularity" : 6,
      "type" : "artist",
      "uri" : "spotify:artist:2teijNn1isOyUmnSWq9YAI"
    }, {
      "external_urls" : {
        "spotify" : "https://open.spotify.com/artist/2CujBcs3jIWY9yxuHWVYSr"
      },
      "followers" : {
        "href" : null,
        "total" : 444
      },
      "genres" : [ ],
      "href" : "https://api.spotify.com/v1/artists/2CujBcs3jIWY9yxuHWVYSr",
      "id" : "2CujBcs3jIWY9yxuHWVYSr",
      "images" : [ {
        "height" : 640,
        "url" : "https://i.scdn.co/image/ab6761610000e5eb5cd04a0fa587df2ad4e695ae",
        "width" : 640
      }, {
        "height" : 320,
        "url" : "https://i.scdn.co/image/ab676161000051745cd04a0fa587df2ad4e695ae",
        "width" : 320
      }, {
        "height" : 160,
        "url" : "https://i.scdn.co/image/ab6761610000f1785cd04a0fa587df2ad4e695ae",
        "width" : 160
      } ],
      "name" : "Jerrold Angeles",
      "popularity" : 15,
      "type" : "artist",
      "uri" : "spotify:artist:2CujBcs3jIWY9yxuHWVYSr"
    }, {
      "external_urls" : {
        "spotify" : "https://open.spotify.com/artist/6y4CH9VrhzQnJbK1NDmdcI"
      },
      "followers" : {
        "href" : null,
        "total" : 308
      },
      "genres" : [ ],
      "href" : "https://api.spotify.com/v1/artists/6y4CH9VrhzQnJbK1NDmdcI",
      "id" : "6y4CH9VrhzQnJbK1NDmdcI",
      "images" : [ ],
      "name" : "Jerrod Carmichael",
      "popularity" : 2,
      "type" : "artist",
      "uri" : "spotify:artist:6y4CH9VrhzQnJbK1NDmdcI"
    }, {
      "external_urls" : {
        "spotify" : "https://open.spotify.com/artist/3kiOTo9KHeWG52792Bw3Je"
      },
      "followers" : {
        "href" : null,
        "total" : 2
      },
      "genres" : [ ],
      "href" : "https://api.spotify.com/v1/artists/3kiOTo9KHeWG52792Bw3Je",
      "id" : "3kiOTo9KHeWG52792Bw3Je",
      "images" : [ ],
      "name" : "Jerror",
      "popularity" : 0,
      "type" : "artist",
      "uri" : "spotify:artist:3kiOTo9KHeWG52792Bw3Je"
    }, {
      "external_urls" : {
        "spotify" : "https://open.spotify.com/artist/6cvK0zgGuEO4xuBfaBqaOb"
      },
      "followers" : {
        "href" : null,
        "total" : 42
      },
      "genres" : [ ],
      "href" : "https://api.spotify.com/v1/artists/6cvK0zgGuEO4xuBfaBqaOb",
      "id" : "6cvK0zgGuEO4xuBfaBqaOb",
      "images" : [ {
        "height" : 640,
        "url" : "https://i.scdn.co/image/ab67616d0000b273cefd4c07eeb50aa02c65c683",
        "width" : 640
      }, {
        "height" : 300,
        "url" : "https://i.scdn.co/image/ab67616d00001e02cefd4c07eeb50aa02c65c683",
        "width" : 300
      }, {
        "height" : 64,
        "url" : "https://i.scdn.co/image/ab67616d00004851cefd4c07eeb50aa02c65c683",
        "width" : 64
      } ],
      "name" : "JerronTheDon",
      "popularity" : 1,
      "type" : "artist",
      "uri" : "spotify:artist:6cvK0zgGuEO4xuBfaBqaOb"
    }, {
      "external_urls" : {
        "spotify" : "https://open.spotify.com/artist/5b6qdeweRXPhDz6eW0gA6S"
      },
      "followers" : {
        "href" : null,
        "total" : 0
      },
      "genres" : [ ],
      "href" : "https://api.spotify.com/v1/artists/5b6qdeweRXPhDz6eW0gA6S",
      "id" : "5b6qdeweRXPhDz6eW0gA6S",
      "images" : [ ],
      "name" : "Jerrod",
      "popularity" : 0,
      "type" : "artist",
      "uri" : "spotify:artist:5b6qdeweRXPhDz6eW0gA6S"
    }, {
      "external_urls" : {
        "spotify" : "https://open.spotify.com/artist/46X0rbNRSiBRPK3rBpujeG"
      },
      "followers" : {
        "href" : null,
        "total" : 52
      },
      "genres" : [ ],
      "href" : "https://api.spotify.com/v1/artists/46X0rbNRSiBRPK3rBpujeG",
      "id" : "46X0rbNRSiBRPK3rBpujeG",
      "images" : [ {
        "height" : 640,
        "url" : "https://i.scdn.co/image/ab6761610000e5eb13552b6457d760da03787f8b",
        "width" : 640
      }, {
        "height" : 320,
        "url" : "https://i.scdn.co/image/ab6761610000517413552b6457d760da03787f8b",
        "width" : 320
      }, {
        "height" : 160,
        "url" : "https://i.scdn.co/image/ab6761610000f17813552b6457d760da03787f8b",
        "width" : 160
      } ],
      "name" : "Jerrod Smith",
      "popularity" : 4,
      "type" : "artist",
      "uri" : "spotify:artist:46X0rbNRSiBRPK3rBpujeG"
    }, {
      "external_urls" : {
        "spotify" : "https://open.spotify.com/artist/6dbL9K7x8zNT8wvwS8mkIi"
      },
      "followers" : {
        "href" : null,
        "total" : 0
      },
      "genres" : [ ],
      "href" : "https://api.spotify.com/v1/artists/6dbL9K7x8zNT8wvwS8mkIi",
      "id" : "6dbL9K7x8zNT8wvwS8mkIi",
      "images" : [ ],
      "name" : "J'errol",
      "popularity" : 0,
      "type" : "artist",
      "uri" : "spotify:artist:6dbL9K7x8zNT8wvwS8mkIi"
    }, {
      "external_urls" : {
        "spotify" : "https://open.spotify.com/artist/3ifX8qTlAU7uGTQYDOOOQL"
      },
      "followers" : {
        "href" : null,
        "total" : 115
      },
      "genres" : [ ],
      "href" : "https://api.spotify.com/v1/artists/3ifX8qTlAU7uGTQYDOOOQL",
      "id" : "3ifX8qTlAU7uGTQYDOOOQL",
      "images" : [ {
        "height" : 640,
        "url" : "https://i.scdn.co/image/ab6761610000e5ebfdb3c1b1eb25b0be34a1dbf6",
        "width" : 640
      }, {
        "height" : 320,
        "url" : "https://i.scdn.co/image/ab67616100005174fdb3c1b1eb25b0be34a1dbf6",
        "width" : 320
      }, {
        "height" : 160,
        "url" : "https://i.scdn.co/image/ab6761610000f178fdb3c1b1eb25b0be34a1dbf6",
        "width" : 160
      } ],
      "name" : "Jer'rod",
      "popularity" : 2,
      "type" : "artist",
      "uri" : "spotify:artist:3ifX8qTlAU7uGTQYDOOOQL"
    }, {
      "external_urls" : {
        "spotify" : "https://open.spotify.com/artist/0tAS3k3V91xFGtaTZ5UXuB"
      },
      "followers" : {
        "href" : null,
        "total" : 0
      },
      "genres" : [ ],
      "href" : "https://api.spotify.com/v1/artists/0tAS3k3V91xFGtaTZ5UXuB",
      "id" : "0tAS3k3V91xFGtaTZ5UXuB",
      "images" : [ ],
      "name" : "Jerrod",
      "popularity" : 0,
      "type" : "artist",
      "uri" : "spotify:artist:0tAS3k3V91xFGtaTZ5UXuB"
    }, {
      "external_urls" : {
        "spotify" : "https://open.spotify.com/artist/3oL5CpaC5cBSVmERMXuV7d"
      },
      "followers" : {
        "href" : null,
        "total" : 231
      },
      "genres" : [ ],
      "href" : "https://api.spotify.com/v1/artists/3oL5CpaC5cBSVmERMXuV7d",
      "id" : "3oL5CpaC5cBSVmERMXuV7d",
      "images" : [ {
        "height" : 640,
        "url" : "https://i.scdn.co/image/ab67616d0000b273240b8552e67c7dfbd367606d",
        "width" : 640
      }, {
        "height" : 300,
        "url" : "https://i.scdn.co/image/ab67616d00001e02240b8552e67c7dfbd367606d",
        "width" : 300
      }, {
        "height" : 64,
        "url" : "https://i.scdn.co/image/ab67616d00004851240b8552e67c7dfbd367606d",
        "width" : 64
      } ],
      "name" : "Jerry Leiber",
      "popularity" : 35,
      "type" : "artist",
      "uri" : "spotify:artist:3oL5CpaC5cBSVmERMXuV7d"
    }, {
      "external_urls" : {
        "spotify" : "https://open.spotify.com/artist/1vJ4dO905qYEHIsk1qyU7r"
      },
      "followers" : {
        "href" : null,
        "total" : 0
      },
      "genres" : [ ],
      "href" : "https://api.spotify.com/v1/artists/1vJ4dO905qYEHIsk1qyU7r",
      "id" : "1vJ4dO905qYEHIsk1qyU7r",
      "images" : [ {
        "height" : 640,
        "url" : "https://i.scdn.co/image/ab67616d0000b27319255fe74078780f39abfa3d",
        "width" : 640
      }, {
        "height" : 300,
        "url" : "https://i.scdn.co/image/ab67616d00001e0219255fe74078780f39abfa3d",
        "width" : 300
      }, {
        "height" : 64,
        "url" : "https://i.scdn.co/image/ab67616d0000485119255fe74078780f39abfa3d",
        "width" : 64
      } ],
      "name" : "JerrodCorey",
      "popularity" : 0,
      "type" : "artist",
      "uri" : "spotify:artist:1vJ4dO905qYEHIsk1qyU7r"
    } ],
    "limit" : 20,
    "next" : "https://api.spotify.com/v1/search?query=JERRO&type=artist&market=US&offset=20&limit=20",
    "offset" : 0,
    "previous" : null,
    "total" : 143
  }
}