{
  "artists" : {
    "href" : "https://api.spotify.com/v1/search?query=JUNGLE&type=artist&market=US&offset=0&limit=20",
    "items" : [ {
      "external_urls" : {
        "spotify" : "https://open.spotify.com/artist/59oA5WbbQvomJz2BuRG071"
      },
      "followers" : {
        "href" : null,
        "total" : 728259
      },
      "genres" : [ "indie soul", "uk contemporary r&b" ],
      "href" : "https://api.spotify.com/v1/artists/59oA5WbbQvomJz2BuRG071",
      "id" : "59oA5WbbQvomJz2BuRG071",
      "images" : [ {
        "height" : 640,
        "url" : "https://i.scdn.co/image/ab6761610000e5eb8bb1c41fc079f9df4b472a2b",
        "width" : 640
      }, {
        "height" : 320,
        "url" : "https://i.scdn.co/image/ab676161000051748bb1c41fc079f9df4b472a2b",
        "width" : 320
      }, {
        "height" : 160,
        "url" : "https://i.scdn.co/image/ab6761610000f1788bb1c41fc079f9df4b472a2b",
        "width" : 160
      } ],
      "name" : "Jungle",
      "popularity" : 70,
      "type" : "artist",
      "uri" : "spotify:artist:59oA5WbbQvomJz2BuRG071"
    }, {
      "external_urls" : {
        "spotify" : "https://open.spotify.com/artist/2GlREW1Dd5KF6Iry1ne7Zo"
      },
      "followers" : {
        "href" : null,
        "total" : 11
      },
      "genres" : [ ],
      "href" : "https://api.spotify.com/v1/artists/2GlREW1Dd5KF6Iry1ne7Zo",
      "id" : "2GlREW1Dd5KF6Iry1ne7Zo",
      "images" : [ {
        "height" : 640,
        "url" : "https://i.scdn.co/image/ab67616d0000b2730f863687a4e774dca79ae238",
        "width" : 640
      }, {
        "height" : 300,
        "url" : "https://i.scdn.co/image/ab67616d00001e020f863687a4e774dca79ae238",
        "width" : 300
      }, {
        "height" : 64,
        "url" : "https://i.scdn.co/image/ab67616d000048510f863687a4e774dca79ae238",
        "width" : 64
      } ],
      "name" : "JUNGLE",
      "popularity" : 0,
      "type" : "artist",
      "uri" : "spotify:artist:2GlREW1Dd5KF6Iry1ne7Zo"
    }, {
      "external_urls" : {
        "spotify" : "https://open.spotify.com/artist/6atGQM99IrRfUefJFore1B"
      },
      "followers" : {
        "href" : null,
        "total" : 155147
      },
      "genres" : [ "alternative r&b", "escape room", "trap queen" ],
      "href" : "https://api.spotify.com/v1/artists/6atGQM99IrRfUefJFore1B",
      "id" : "6atGQM99IrRfUefJFore1B",
      "images" : [ {
        "height" : 640,
        "url" : "https://i.scdn.co/image/ab6761610000e5ebe0496cad536079eb35e8ac7e",
        "width" : 640
      }, {
        "height" : 320,
        "url" : "https://i.scdn.co/image/ab67616100005174e0496cad536079eb35e8ac7e",
        "width" : 320
      }, {
        "height" : 160,
        "url" : "https://i.scdn.co/image/ab6761610000f178e0496cad536079eb35e8ac7e",
        "width" : 160
      } ],
      "name" : "Junglepussy",
      "popularity" : 51,
      "type" : "artist",
      "uri" : "spotify:artist:6atGQM99IrRfUefJFore1B"
    }, {
      "external_urls" : {
        "spotify" : "https://open.spotify.com/artist/6wFwvxJkurQPU2UdeD4qVt"
      },
      "followers" : {
        "href" : null,
        "total" : 228894
      },
      "genres" : [ "australian indie" ],
      "href" : "https://api.spotify.com/v1/artists/6wFwvxJkurQPU2UdeD4qVt",
      "id" : "6wFwvxJkurQPU2UdeD4qVt",
      "images" : [ {
        "height" : 640,
        "url" : "https://i.scdn.co/image/ab6761610000e5eb275078dfa555ec3b02cfc1ae",
        "width" : 640
      }, {
        "height" : 320,
        "url" : "https://i.scdn.co/image/ab67616100005174275078dfa555ec3b02cfc1ae",
        "width" : 320
      }, {
        "height" : 160,
        "url" : "https://i.scdn.co/image/ab6761610000f178275078dfa555ec3b02cfc1ae",
        "width" : 160
      } ],
      "name" : "The Jungle Giants",
      "popularity" : 63,
      "type" : "artist",
      "uri" : "spotify:artist:6wFwvxJkurQPU2UdeD4qVt"
    }, {
      "external_urls" : {
        "spotify" : "https://open.spotify.com/artist/5ybU1P0ufoGH5CMclUKebd"
      },
      "followers" : {
        "href" : null,
        "total" : 20742
      },
      "genres" : [ ],
      "href" : "https://api.spotify.com/v1/artists/5ybU1P0ufoGH5CMclUKebd",
      "id" : "5ybU1P0ufoGH5CMclUKebd",
      "images" : [ {
        "height" : 640,
        "url" : "https://i.scdn.co/image/ab6761610000e5ebe029306c06d5670b672b3145",
        "width" : 640
      }, {
        "height" : 320,
        "url" : "https://i.scdn.co/image/ab67616100005174e029306c06d5670b672b3145",
        "width" : 320
      }, {
        "height" : 160,
        "url" : "https://i.scdn.co/image/ab6761610000f178e029306c06d5670b672b3145",
        "width" : 160
      } ],
      "name" : "Ruby Waters",
      "popularity" : 49,
      "type" : "artist",
      "uri" : "spotify:artist:5ybU1P0ufoGH5CMclUKebd"
    }, {
      "external_urls" : {
        "spotify" : "https://open.spotify.com/artist/2iclO3rlyF0YVNE46ctYRj"
      },
      "followers" : {
        "href" : null,
        "total" : 142351
      },
      "genres" : [ "alternative hip hop", "east coast hip hop", "golden age hip hop", "hardcore hip hop", "hip hop", "hip house", "jazz rap", "old school hip hop", "turntablism" ],
      "href" : "https://api.spotify.com/v1/artists/2iclO3rlyF0YVNE46ctYRj",
      "id" : "2iclO3rlyF0YVNE46ctYRj",
      "images" : [ {
        "height" : 640,
        "url" : "https://i.scdn.co/image/ab6761610000e5eb98fe192abf4473b242538551",
        "width" : 640
      }, {
        "height" : 320,
        "url" : "https://i.scdn.co/image/ab6761610000517498fe192abf4473b242538551",
        "width" : 320
      }, {
        "height" : 160,
        "url" : "https://i.scdn.co/image/ab6761610000f17898fe192abf4473b242538551",
        "width" : 160
      } ],
      "name" : "Jungle Brothers",
      "popularity" : 48,
      "type" : "artist",
      "uri" : "spotify:artist:2iclO3rlyF0YVNE46ctYRj"
    }, {
      "external_urls" : {
        "spotify" : "https://open.spotify.com/artist/1igVsxmGxt1VTKPulM0EuA"
      },
      "followers" : {
        "href" : null,
        "total" : 2505
      },
      "genres" : [ ],
      "href" : "https://api.spotify.com/v1/artists/1igVsxmGxt1VTKPulM0EuA",
      "id" : "1igVsxmGxt1VTKPulM0EuA",
      "images" : [ {
        "height" : 640,
        "url" : "https://i.scdn.co/image/ab6761610000e5eba22e6abeabfcf08928c63296",
        "width" : 640
      }, {
        "height" : 320,
        "url" : "https://i.scdn.co/image/ab67616100005174a22e6abeabfcf08928c63296",
        "width" : 320
      }, {
        "height" : 160,
        "url" : "https://i.scdn.co/image/ab6761610000f178a22e6abeabfcf08928c63296",
        "width" : 160
      } ],
      "name" : "Jungleboi",
      "popularity" : 53,
      "type" : "artist",
      "uri" : "spotify:artist:1igVsxmGxt1VTKPulM0EuA"
    }, {
      "external_urls" : {
        "spotify" : "https://open.spotify.com/artist/2PtNrkYFq2PCmvDItRzUdz"
      },
      "followers" : {
        "href" : null,
        "total" : 2999
      },
      "genres" : [ ],
      "href" : "https://api.spotify.com/v1/artists/2PtNrkYFq2PCmvDItRzUdz",
      "id" : "2PtNrkYFq2PCmvDItRzUdz",
      "images" : [ {
        "height" : 640,
        "url" : "https://i.scdn.co/image/ab6761610000e5eb3bb5ea58b2e81229bdf35566",
        "width" : 640
      }, {
        "height" : 320,
        "url" : "https://i.scdn.co/image/ab676161000051743bb5ea58b2e81229bdf35566",
        "width" : 320
      }, {
        "height" : 160,
        "url" : "https://i.scdn.co/image/ab6761610000f1783bb5ea58b2e81229bdf35566",
        "width" : 160
      } ],
      "name" : "JUNGLE",
      "popularity" : 1,
      "type" : "artist",
      "uri" : "spotify:artist:2PtNrkYFq2PCmvDItRzUdz"
    }, {
      "external_urls" : {
        "spotify" : "https://open.spotify.com/artist/3gVC68xFogCXS5AeSBnLSP"
      },
      "followers" : {
        "href" : null,
        "total" : 2379
      },
      "genres" : [ ],
      "href" : "https://api.spotify.com/v1/artists/3gVC68xFogCXS5AeSBnLSP",
      "id" : "3gVC68xFogCXS5AeSBnLSP",
      "images" : [ {
        "height" : 640,
        "url" : "https://i.scdn.co/image/ab6761610000e5ebb7171f5f678877f33f2b4e9e",
        "width" : 640
      }, {
        "height" : 320,
        "url" : "https://i.scdn.co/image/ab67616100005174b7171f5f678877f33f2b4e9e",
        "width" : 320
      }, {
        "height" : 160,
        "url" : "https://i.scdn.co/image/ab6761610000f178b7171f5f678877f33f2b4e9e",
        "width" : 160
      } ],
      "name" : "Retro Jungle",
      "popularity" : 46,
      "type" : "artist",
      "uri" : "spotify:artist:3gVC68xFogCXS5AeSBnLSP"
    }, {
      "external_urls" : {
        "spotify" : "https://open.spotify.com/artist/2OOLZKc1j4FoOCHOgGbtRl"
      },
      "followers" : {
        "href" : null,
        "total" : 2923
      },
      "genres" : [ ],
      "href" : "https://api.spotify.com/v1/artists/2OOLZKc1j4FoOCHOgGbtRl",
      "id" : "2OOLZKc1j4FoOCHOgGbtRl",
      "images" : [ {
        "height" : 640,
        "url" : "https://i.scdn.co/image/ab6761610000e5eb0fc7f881c105a34159c9c08c",
        "width" : 640
      }, {
        "height" : 320,
        "url" : "https://i.scdn.co/image/ab676161000051740fc7f881c105a34159c9c08c",
        "width" : 320
      }, {
        "height" : 160,
        "url" : "https://i.scdn.co/image/ab6761610000f1780fc7f881c105a34159c9c08c",
        "width" : 160
      } ],
      "name" : "jungle bobby",
      "popularity" : 43,
      "type" : "artist",
      "uri" : "spotify:artist:2OOLZKc1j4FoOCHOgGbtRl"
    }, {
      "external_urls" : {
        "spotify" : "https://open.spotify.com/artist/13JAi6QRXqwdDSK4jY60Zh"
      },
      "followers" : {
        "href" : null,
        "total" : 571
      },
      "genres" : [ "environmental" ],
      "href" : "https://api.spotify.com/v1/artists/13JAi6QRXqwdDSK4jY60Zh",
      "id" : "13JAi6QRXqwdDSK4jY60Zh",
      "images" : [ {
        "height" : 640,
        "url" : "https://i.scdn.co/image/ab67616d0000b2736deca3cb9496450ac6103257",
        "width" : 640
      }, {
        "height" : 300,
        "url" : "https://i.scdn.co/image/ab67616d00001e026deca3cb9496450ac6103257",
        "width" : 300
      }, {
        "height" : 64,
        "url" : "https://i.scdn.co/image/ab67616d000048516deca3cb9496450ac6103257",
        "width" : 64
      } ],
      "name" : "Sounds of the Jungle",
      "popularity" : 46,
      "type" : "artist",
      "uri" : "spotify:artist:13JAi6QRXqwdDSK4jY60Zh"
    }, {
      "external_urls" : {
        "spotify" : "https://open.spotify.com/artist/6zMsK4j9ppsNd4hry9P1bd"
      },
      "followers" : {
        "href" : null,
        "total" : 37
      },
      "genres" : [ "lo-fi jazzhop" ],
      "href" : "https://api.spotify.com/v1/artists/6zMsK4j9ppsNd4hry9P1bd",
      "id" : "6zMsK4j9ppsNd4hry9P1bd",
      "images" : [ {
        "height" : 640,
        "url" : "https://i.scdn.co/image/ab67616d0000b273b919c59ad822fd1f25e99070",
        "width" : 640
      }, {
        "height" : 300,
        "url" : "https://i.scdn.co/image/ab67616d00001e02b919c59ad822fd1f25e99070",
        "width" : 300
      }, {
        "height" : 64,
        "url" : "https://i.scdn.co/image/ab67616d00004851b919c59ad822fd1f25e99070",
        "width" : 64
      } ],
      "name" : "Jungle Hit",
      "popularity" : 37,
      "type" : "artist",
      "uri" : "spotify:artist:6zMsK4j9ppsNd4hry9P1bd"
    }, {
      "external_urls" : {
        "spotify" : "https://open.spotify.com/artist/4fN32efNcPfJXVJ151noby"
      },
      "followers" : {
        "href" : null,
        "total" : 13256
      },
      "genres" : [ "afrobeat", "latin afrobeat", "nu-cumbia" ],
      "href" : "https://api.spotify.com/v1/artists/4fN32efNcPfJXVJ151noby",
      "id" : "4fN32efNcPfJXVJ151noby",
      "images" : [ {
        "height" : 640,
        "url" : "https://i.scdn.co/image/ab6761610000e5eb303b37b9d1b8dbe43ebd3081",
        "width" : 640
      }, {
        "height" : 320,
        "url" : "https://i.scdn.co/image/ab67616100005174303b37b9d1b8dbe43ebd3081",
        "width" : 320
      }, {
        "height" : 160,
        "url" : "https://i.scdn.co/image/ab6761610000f178303b37b9d1b8dbe43ebd3081",
        "width" : 160
      } ],
      "name" : "Jungle Fire",
      "popularity" : 39,
      "type" : "artist",
      "uri" : "spotify:artist:4fN32efNcPfJXVJ151noby"
    }, {
      "external_urls" : {
        "spotify" : "https://open.spotify.com/artist/252vo3u1Pb524Jx7rmcVdh"
      },
      "followers" : {
        "href" : null,
        "total" : 4738
      },
      "genres" : [ ],
      "href" : "https://api.spotify.com/v1/artists/252vo3u1Pb524Jx7rmcVdh",
      "id" : "252vo3u1Pb524Jx7rmcVdh",
      "images" : [ {
        "height" : 640,
        "url" : "https://i.scdn.co/image/ab6761610000e5eb4e478fdeb3e86385ac410f12",
        "width" : 640
      }, {
        "height" : 320,
        "url" : "https://i.scdn.co/image/ab676161000051744e478fdeb3e86385ac410f12",
        "width" : 320
      }, {
        "height" : 160,
        "url" : "https://i.scdn.co/image/ab6761610000f1784e478fdeb3e86385ac410f12",
        "width" : 160
      } ],
      "name" : "Jungleboy Boss",
      "popularity" : 28,
      "type" : "artist",
      "uri" : "spotify:artist:252vo3u1Pb524Jx7rmcVdh"
    }, {
      "external_urls" : {
        "spotify" : "https://open.spotify.com/artist/7ofvDzzumewLcN4apfxAxS"
      },
      "followers" : {
        "href" : null,
        "total" : 200
      },
      "genres" : [ ],
      "href" : "https://api.spotify.com/v1/artists/7ofvDzzumewLcN4apfxAxS",
      "id" : "7ofvDzzumewLcN4apfxAxS",
      "images" : [ {
        "height" : 640,
        "url" : "https://i.scdn.co/image/ab6761610000e5eb0b81df2fa387582440d6e358",
        "width" : 640
      }, {
        "height" : 320,
        "url" : "https://i.scdn.co/image/ab676161000051740b81df2fa387582440d6e358",
        "width" : 320
      }, {
        "height" : 160,
        "url" : "https://i.scdn.co/image/ab6761610000f1780b81df2fa387582440d6e358",
        "width" : 160
      } ],
      "name" : "Johannes Jungleson",
      "popularity" : 50,
      "type" : "artist",
      "uri" : "spotify:artist:7ofvDzzumewLcN4apfxAxS"
    }, {
      "external_urls" : {
        "spotify" : "https://open.spotify.com/artist/6DuzYGNQcx6sJNgi36tr7Z"
      },
      "followers" : {
        "href" : null,
        "total" : 209
      },
      "genres" : [ ],
      "href" : "https://api.spotify.com/v1/artists/6DuzYGNQcx6sJNgi36tr7Z",
      "id" : "6DuzYGNQcx6sJNgi36tr7Z",
      "images" : [ {
        "height" : 640,
        "url" : "https://i.scdn.co/image/ab6761610000e5eb66d4614faac07fa65d39ec1f",
        "width" : 640
      }, {
        "height" : 320,
        "url" : "https://i.scdn.co/image/ab6761610000517466d4614faac07fa65d39ec1f",
        "width" : 320
      }, {
        "height" : 160,
        "url" : "https://i.scdn.co/image/ab6761610000f17866d4614faac07fa65d39ec1f",
        "width" : 160
      } ],
      "name" : "Jungle Jonsson",
      "popularity" : 45,
      "type" : "artist",
      "uri" : "spotify:artist:6DuzYGNQcx6sJNgi36tr7Z"
    }, {
      "external_urls" : {
        "spotify" : "https://open.spotify.com/artist/2kIYZ2eHRnAbaPYE860qNx"
      },
      "followers" : {
        "href" : null,
        "total" : 32687
      },
      "genres" : [ "brutal death metal", "death metal", "wisconsin metal" ],
      "href" : "https://api.spotify.com/v1/artists/2kIYZ2eHRnAbaPYE860qNx",
      "id" : "2kIYZ2eHRnAbaPYE860qNx",
      "images" : [ {
        "height" : 640,
        "url" : "https://i.scdn.co/image/ab6761610000e5eb6c98edecae48cd415b9a0b98",
        "width" : 640
      }, {
        "height" : 320,
        "url" : "https://i.scdn.co/image/ab676161000051746c98edecae48cd415b9a0b98",
        "width" : 320
      }, {
        "height" : 160,
        "url" : "https://i.scdn.co/image/ab6761610000f1786c98edecae48cd415b9a0b98",
        "width" : 160
      } ],
      "name" : "Jungle Rot",
      "popularity" : 33,
      "type" : "artist",
      "uri" : "spotify:artist:2kIYZ2eHRnAbaPYE860qNx"
    }, {
      "external_urls" : {
        "spotify" : "https://open.spotify.com/artist/6NgoCJo1fefWokHewJDp6F"
      },
      "followers" : {
        "href" : null,
        "total" : 1478
      },
      "genres" : [ "sound" ],
      "href" : "https://api.spotify.com/v1/artists/6NgoCJo1fefWokHewJDp6F",
      "id" : "6NgoCJo1fefWokHewJDp6F",
      "images" : [ {
        "height" : 640,
        "url" : "https://i.scdn.co/image/ab67616d0000b27369bfce80f692a21f0bb35abf",
        "width" : 640
      }, {
        "height" : 300,
        "url" : "https://i.scdn.co/image/ab67616d00001e0269bfce80f692a21f0bb35abf",
        "width" : 300
      }, {
        "height" : 64,
        "url" : "https://i.scdn.co/image/ab67616d0000485169bfce80f692a21f0bb35abf",
        "width" : 64
      } ],
      "name" : "Jungle Sounds",
      "popularity" : 29,
      "type" : "artist",
      "uri" : "spotify:artist:6NgoCJo1fefWokHewJDp6F"
    }, {
      "external_urls" : {
        "spotify" : "https://open.spotify.com/artist/6bO5jPyOy8WmDqDfB5EQ6X"
      },
      "followers" : {
        "href" : null,
        "total" : 1307
      },
      "genres" : [ ],
      "href" : "https://api.spotify.com/v1/artists/6bO5jPyOy8WmDqDfB5EQ6X",
      "id" : "6bO5jPyOy8WmDqDfB5EQ6X",
      "images" : [ {
        "height" : 640,
        "url" : "https://i.scdn.co/image/ab67616d0000b27340f4c491520f62a41617a84e",
        "width" : 640
      }, {
        "height" : 300,
        "url" : "https://i.scdn.co/image/ab67616d00001e0240f4c491520f62a41617a84e",
        "width" : 300
      }, {
        "height" : 64,
        "url" : "https://i.scdn.co/image/ab67616d0000485140f4c491520f62a41617a84e",
        "width" : 64
      } ],
      "name" : "Jungle Jam",
      "popularity" : 24,
      "type" : "artist",
      "uri" : "spotify:artist:6bO5jPyOy8WmDqDfB5EQ6X"
    }, {
      "external_urls" : {
        "spotify" : "https://open.spotify.com/artist/2StcyX3fmelae5agBHIkDO"
      },
      "followers" : {
        "href" : null,
        "total" : 35363
      },
      "genres" : [ "dutch indie", "dutch pop", "dutch rock" ],
      "href" : "https://api.spotify.com/v1/artists/2StcyX3fmelae5agBHIkDO",
      "id" : "2StcyX3fmelae5agBHIkDO",
      "images" : [ {
        "height" : 640,
        "url" : "https://i.scdn.co/image/ab6761610000e5ebafb5d98f1ee1686bd2f617f7",
        "width" : 640
      }, {
        "height" : 320,
        "url" : "https://i.scdn.co/image/ab67616100005174afb5d98f1ee1686bd2f617f7",
        "width" : 320
      }, {
        "height" : 160,
        "url" : "https://i.scdn.co/image/ab6761610000f178afb5d98f1ee1686bd2f617f7",
        "width" : 160
      } ],
      "name" : "Jungle by Night",
      "popularity" : 42,
      "type" : "artist",
      "uri" : "spotify:artist:2StcyX3fmelae5agBHIkDO"
    } ],
    "limit" : 20,
    "next" : "https://api.spotify.com/v1/search?query=JUNGLE&type=artist&market=US&offset=20&limit=20",
    "offset" : 0,
    "previous" : null,
    "total" : 1157
  }
}