{
  "artists" : {
    "href" : "https://api.spotify.com/v1/search?query=MIGOS&type=artist&market=US&offset=0&limit=20",
    "items" : [ {
      "external_urls" : {
        "spotify" : "https://open.spotify.com/artist/6oMuImdp5ZcFhWP0ESe6mG"
      },
      "followers" : {
        "href" : null,
        "total" : 12223048
      },
      "genres" : [ "atl hip hop", "hip hop", "pop rap", "rap", "trap" ],
      "href" : "https://api.spotify.com/v1/artists/6oMuImdp5ZcFhWP0ESe6mG",
      "id" : "6oMuImdp5ZcFhWP0ESe6mG",
      "images" : [ {
        "height" : 640,
        "url" : "https://i.scdn.co/image/ab6761610000e5ebf4593f7b778219838d858c34",
        "width" : 640
      }, {
        "height" : 320,
        "url" : "https://i.scdn.co/image/ab67616100005174f4593f7b778219838d858c34",
        "width" : 320
      }, {
        "height" : 160,
        "url" : "https://i.scdn.co/image/ab6761610000f178f4593f7b778219838d858c34",
        "width" : 160
      } ],
      "name" : "Migos",
      "popularity" : 82,
      "type" : "artist",
      "uri" : "spotify:artist:6oMuImdp5ZcFhWP0ESe6mG"
    }, {
      "external_urls" : {
        "spotify" : "https://open.spotify.com/artist/3dn4XHZRNPUxC2UkepJmxy"
      },
      "followers" : {
        "href" : null,
        "total" : 15873
      },
      "genres" : [ ],
      "href" : "https://api.spotify.com/v1/artists/3dn4XHZRNPUxC2UkepJmxy",
      "id" : "3dn4XHZRNPUxC2UkepJmxy",
      "images" : [ {
        "height" : 640,
        "url" : "https://i.scdn.co/image/ab67616d0000b2733e7bd1ba4cb33063d5b90aff",
        "width" : 640
      }, {
        "height" : 300,
        "url" : "https://i.scdn.co/image/ab67616d00001e023e7bd1ba4cb33063d5b90aff",
        "width" : 300
      }, {
        "height" : 64,
        "url" : "https://i.scdn.co/image/ab67616d000048513e7bd1ba4cb33063d5b90aff",
        "width" : 64
      } ],
      "name" : "Migos",
      "popularity" : 14,
      "type" : "artist",
      "uri" : "spotify:artist:3dn4XHZRNPUxC2UkepJmxy"
    }, {
      "external_urls" : {
        "spotify" : "https://open.spotify.com/artist/63IauXHro11N10lWfvEVhm"
      },
      "followers" : {
        "href" : null,
        "total" : 143
      },
      "genres" : [ ],
      "href" : "https://api.spotify.com/v1/artists/63IauXHro11N10lWfvEVhm",
      "id" : "63IauXHro11N10lWfvEVhm",
      "images" : [ {
        "height" : 640,
        "url" : "https://i.scdn.co/image/ab67616d0000b273b9b4fc3a6492951f6c28f2a1",
        "width" : 640
      }, {
        "height" : 300,
        "url" : "https://i.scdn.co/image/ab67616d00001e02b9b4fc3a6492951f6c28f2a1",
        "width" : 300
      }, {
        "height" : 64,
        "url" : "https://i.scdn.co/image/ab67616d00004851b9b4fc3a6492951f6c28f2a1",
        "width" : 64
      } ],
      "name" : "Migos Brown",
      "popularity" : 20,
      "type" : "artist",
      "uri" : "spotify:artist:63IauXHro11N10lWfvEVhm"
    }, {
      "external_urls" : {
        "spotify" : "https://open.spotify.com/artist/0kosVkIU2FabJHBe7PWJPg"
      },
      "followers" : {
        "href" : null,
        "total" : 308
      },
      "genres" : [ ],
      "href" : "https://api.spotify.com/v1/artists/0kosVkIU2FabJHBe7PWJPg",
      "id" : "0kosVkIU2FabJHBe7PWJPg",
      "images" : [ {
        "height" : 640,
        "url" : "https://i.scdn.co/image/ab67616d0000b27377b8bf7d96c09db76c71700c",
        "width" : 640
      }, {
        "height" : 300,
        "url" : "https://i.scdn.co/image/ab67616d00001e0277b8bf7d96c09db76c71700c",
        "width" : 300
      }, {
        "height" : 64,
        "url" : "https://i.scdn.co/image/ab67616d0000485177b8bf7d96c09db76c71700c",
        "width" : 64
      } ],
      "name" : "Migosy",
      "popularity" : 5,
      "type" : "artist",
      "uri" : "spotify:artist:0kosVkIU2FabJHBe7PWJPg"
    }, {
      "external_urls" : {
        "spotify" : "https://open.spotify.com/artist/1MSU5Nx7FeocAlphSr8OZH"
      },
      "followers" : {
        "href" : null,
        "total" : 181
      },
      "genres" : [ ],
      "href" : "https://api.spotify.com/v1/artists/1MSU5Nx7FeocAlphSr8OZH",
      "id" : "1MSU5Nx7FeocAlphSr8OZH",
      "images" : [ ],
      "name" : "Young Migos",
      "popularity" : 5,
      "type" : "artist",
      "uri" : "spotify:artist:1MSU5Nx7FeocAlphSr8OZH"
    }, {
      "external_urls" : {
        "spotify" : "https://open.spotify.com/artist/5CoaHxNnTDcHHYfZyqr2Zj"
      },
      "followers" : {
        "href" : null,
        "total" : 12
      },
      "genres" : [ ],
      "href" : "https://api.spotify.com/v1/artists/5CoaHxNnTDcHHYfZyqr2Zj",
      "id" : "5CoaHxNnTDcHHYfZyqr2Zj",
      "images" : [ {
        "height" : 640,
        "url" : "https://i.scdn.co/image/ab67616d0000b273ddb26ccbda1cd4233ee215b7",
        "width" : 640
      }, {
        "height" : 300,
        "url" : "https://i.scdn.co/image/ab67616d00001e02ddb26ccbda1cd4233ee215b7",
        "width" : 300
      }, {
        "height" : 64,
        "url" : "https://i.scdn.co/image/ab67616d00004851ddb26ccbda1cd4233ee215b7",
        "width" : 64
      } ],
      "name" : "Migos Plugz",
      "popularity" : 0,
      "type" : "artist",
      "uri" : "spotify:artist:5CoaHxNnTDcHHYfZyqr2Zj"
    }, {
      "external_urls" : {
        "spotify" : "https://open.spotify.com/artist/0UA3DS6MF4O2KjaaSfsRpN"
      },
      "followers" : {
        "href" : null,
        "total" : 7625
      },
      "genres" : [ ],
      "href" : "https://api.spotify.com/v1/artists/0UA3DS6MF4O2KjaaSfsRpN",
      "id" : "0UA3DS6MF4O2KjaaSfsRpN",
      "images" : [ ],
      "name" : "Trap Migos",
      "popularity" : 5,
      "type" : "artist",
      "uri" : "spotify:artist:0UA3DS6MF4O2KjaaSfsRpN"
    }, {
      "external_urls" : {
        "spotify" : "https://open.spotify.com/artist/2AAUNCJsbgDz6LoyTrPHbU"
      },
      "followers" : {
        "href" : null,
        "total" : 135
      },
      "genres" : [ ],
      "href" : "https://api.spotify.com/v1/artists/2AAUNCJsbgDz6LoyTrPHbU",
      "id" : "2AAUNCJsbgDz6LoyTrPHbU",
      "images" : [ ],
      "name" : "Migos Skippa Da Flippa",
      "popularity" : 0,
      "type" : "artist",
      "uri" : "spotify:artist:2AAUNCJsbgDz6LoyTrPHbU"
    }, {
      "external_urls" : {
        "spotify" : "https://open.spotify.com/artist/5S747pbiafNnZw3VwBICzD"
      },
      "followers" : {
        "href" : null,
        "total" : 3
      },
      "genres" : [ ],
      "href" : "https://api.spotify.com/v1/artists/5S747pbiafNnZw3VwBICzD",
      "id" : "5S747pbiafNnZw3VwBICzD",
      "images" : [ ],
      "name" : "Migosmoove",
      "popularity" : 0,
      "type" : "artist",
      "uri" : "spotify:artist:5S747pbiafNnZw3VwBICzD"
    }, {
      "external_urls" : {
        "spotify" : "https://open.spotify.com/artist/6CgeTXfVVcbpmL5tvaVReE"
      },
      "followers" : {
        "href" : null,
        "total" : 4
      },
      "genres" : [ ],
      "href" : "https://api.spotify.com/v1/artists/6CgeTXfVVcbpmL5tvaVReE",
      "id" : "6CgeTXfVVcbpmL5tvaVReE",
      "images" : [ {
        "height" : 640,
        "url" : "https://i.scdn.co/image/ab67616d0000b273e8b4f3d106d76f1e4125cb41",
        "width" : 640
      }, {
        "height" : 300,
        "url" : "https://i.scdn.co/image/ab67616d00001e02e8b4f3d106d76f1e4125cb41",
        "width" : 300
      }, {
        "height" : 64,
        "url" : "https://i.scdn.co/image/ab67616d00004851e8b4f3d106d76f1e4125cb41",
        "width" : 64
      } ],
      "name" : "Migososa",
      "popularity" : 0,
      "type" : "artist",
      "uri" : "spotify:artist:6CgeTXfVVcbpmL5tvaVReE"
    }, {
      "external_urls" : {
        "spotify" : "https://open.spotify.com/artist/12FaxlG6vNby01P6ZXn59H"
      },
      "followers" : {
        "href" : null,
        "total" : 0
      },
      "genres" : [ ],
      "href" : "https://api.spotify.com/v1/artists/12FaxlG6vNby01P6ZXn59H",
      "id" : "12FaxlG6vNby01P6ZXn59H",
      "images" : [ ],
      "name" : "MigoShaq",
      "popularity" : 0,
      "type" : "artist",
      "uri" : "spotify:artist:12FaxlG6vNby01P6ZXn59H"
    }, {
      "external_urls" : {
        "spotify" : "https://open.spotify.com/artist/1gDTtQ0jWZTwSrVolCWF88"
      },
      "followers" : {
        "href" : null,
        "total" : 33
      },
      "genres" : [ ],
      "href" : "https://api.spotify.com/v1/artists/1gDTtQ0jWZTwSrVolCWF88",
      "id" : "1gDTtQ0jWZTwSrVolCWF88",
      "images" : [ {
        "height" : 640,
        "url" : "https://i.scdn.co/image/ab6761610000e5eb9508eb17b3e8fad5ad518444",
        "width" : 640
      }, {
        "height" : 320,
        "url" : "https://i.scdn.co/image/ab676161000051749508eb17b3e8fad5ad518444",
        "width" : 320
      }, {
        "height" : 160,
        "url" : "https://i.scdn.co/image/ab6761610000f1789508eb17b3e8fad5ad518444",
        "width" : 160
      } ],
      "name" : "LO$ Migos",
      "popularity" : 1,
      "type" : "artist",
      "uri" : "spotify:artist:1gDTtQ0jWZTwSrVolCWF88"
    }, {
      "external_urls" : {
        "spotify" : "https://open.spotify.com/artist/2c3MuEgw7QnRioajoUqm8X"
      },
      "followers" : {
        "href" : null,
        "total" : 1
      },
      "genres" : [ ],
      "href" : "https://api.spotify.com/v1/artists/2c3MuEgw7QnRioajoUqm8X",
      "id" : "2c3MuEgw7QnRioajoUqm8X",
      "images" : [ ],
      "name" : "Migoshi",
      "popularity" : 0,
      "type" : "artist",
      "uri" : "spotify:artist:2c3MuEgw7QnRioajoUqm8X"
    }, {
      "external_urls" : {
        "spotify" : "https://open.spotify.com/artist/4cjSBfP5aDTbiZnLOa3Kiq"
      },
      "followers" : {
        "href" : null,
        "total" : 2
      },
      "genres" : [ ],
      "href" : "https://api.spotify.com/v1/artists/4cjSBfP5aDTbiZnLOa3Kiq",
      "id" : "4cjSBfP5aDTbiZnLOa3Kiq",
      "images" : [ {
        "height" : 640,
        "url" : "https://i.scdn.co/image/ab67616d0000b27309f888c67c1ac1b7ee822c41",
        "width" : 640
      }, {
        "height" : 300,
        "url" : "https://i.scdn.co/image/ab67616d00001e0209f888c67c1ac1b7ee822c41",
        "width" : 300
      }, {
        "height" : 64,
        "url" : "https://i.scdn.co/image/ab67616d0000485109f888c67c1ac1b7ee822c41",
        "width" : 64
      } ],
      "name" : "Migossia",
      "popularity" : 0,
      "type" : "artist",
      "uri" : "spotify:artist:4cjSBfP5aDTbiZnLOa3Kiq"
    }, {
      "external_urls" : {
        "spotify" : "https://open.spotify.com/artist/6ojAwdxCQlGdDQ01PE8HmJ"
      },
      "followers" : {
        "href" : null,
        "total" : 0
      },
      "genres" : [ ],
      "href" : "https://api.spotify.com/v1/artists/6ojAwdxCQlGdDQ01PE8HmJ",
      "id" : "6ojAwdxCQlGdDQ01PE8HmJ",
      "images" : [ {
        "height" : 640,
        "url" : "https://i.scdn.co/image/ab67616d0000b2738ff4dd63618b12aceecd01de",
        "width" : 640
      }, {
        "height" : 300,
        "url" : "https://i.scdn.co/image/ab67616d00001e028ff4dd63618b12aceecd01de",
        "width" : 300
      }, {
        "height" : 64,
        "url" : "https://i.scdn.co/image/ab67616d000048518ff4dd63618b12aceecd01de",
        "width" : 64
      } ],
      "name" : "migos",
      "popularity" : 0,
      "type" : "artist",
      "uri" : "spotify:artist:6ojAwdxCQlGdDQ01PE8HmJ"
    }, {
      "external_urls" : {
        "spotify" : "https://open.spotify.com/artist/2fHdRV05N73wA1HxVeuy5R"
      },
      "followers" : {
        "href" : null,
        "total" : 209
      },
      "genres" : [ ],
      "href" : "https://api.spotify.com/v1/artists/2fHdRV05N73wA1HxVeuy5R",
      "id" : "2fHdRV05N73wA1HxVeuy5R",
      "images" : [ ],
      "name" : "Takeoff of Migos",
      "popularity" : 0,
      "type" : "artist",
      "uri" : "spotify:artist:2fHdRV05N73wA1HxVeuy5R"
    }, {
      "external_urls" : {
        "spotify" : "https://open.spotify.com/artist/5S5Lc5bWsN3dq5uKjCm0LI"
      },
      "followers" : {
        "href" : null,
        "total" : 9
      },
      "genres" : [ ],
      "href" : "https://api.spotify.com/v1/artists/5S5Lc5bWsN3dq5uKjCm0LI",
      "id" : "5S5Lc5bWsN3dq5uKjCm0LI",
      "images" : [ {
        "height" : 640,
        "url" : "https://i.scdn.co/image/ab67616d0000b2739ad1654da00a39468783a1d7",
        "width" : 640
      }, {
        "height" : 300,
        "url" : "https://i.scdn.co/image/ab67616d00001e029ad1654da00a39468783a1d7",
        "width" : 300
      }, {
        "height" : 64,
        "url" : "https://i.scdn.co/image/ab67616d000048519ad1654da00a39468783a1d7",
        "width" : 64
      } ],
      "name" : "MigosisDaMoonChild",
      "popularity" : 0,
      "type" : "artist",
      "uri" : "spotify:artist:5S5Lc5bWsN3dq5uKjCm0LI"
    }, {
      "external_urls" : {
        "spotify" : "https://open.spotify.com/artist/34KUuG9f4nynlS7X18oa0E"
      },
      "followers" : {
        "href" : null,
        "total" : 475
      },
      "genres" : [ ],
      "href" : "https://api.spotify.com/v1/artists/34KUuG9f4nynlS7X18oa0E",
      "id" : "34KUuG9f4nynlS7X18oa0E",
      "images" : [ {
        "height" : 640,
        "url" : "https://i.scdn.co/image/ab67616d0000b273a5111c0bcc1abf740b52d4c4",
        "width" : 640
      }, {
        "height" : 300,
        "url" : "https://i.scdn.co/image/ab67616d00001e02a5111c0bcc1abf740b52d4c4",
        "width" : 300
      }, {
        "height" : 64,
        "url" : "https://i.scdn.co/image/ab67616d00004851a5111c0bcc1abf740b52d4c4",
        "width" : 64
      } ],
      "name" : "Die B-migos",
      "popularity" : 21,
      "type" : "artist",
      "uri" : "spotify:artist:34KUuG9f4nynlS7X18oa0E"
    }, {
      "external_urls" : {
        "spotify" : "https://open.spotify.com/artist/6oaIMC8E7iemi5SQfkvTfQ"
      },
      "followers" : {
        "href" : null,
        "total" : 213
      },
      "genres" : [ ],
      "href" : "https://api.spotify.com/v1/artists/6oaIMC8E7iemi5SQfkvTfQ",
      "id" : "6oaIMC8E7iemi5SQfkvTfQ",
      "images" : [ {
        "height" : 640,
        "url" : "https://i.scdn.co/image/ab67616d0000b27303a999511cd38040877f793c",
        "width" : 640
      }, {
        "height" : 300,
        "url" : "https://i.scdn.co/image/ab67616d00001e0203a999511cd38040877f793c",
        "width" : 300
      }, {
        "height" : 64,
        "url" : "https://i.scdn.co/image/ab67616d0000485103a999511cd38040877f793c",
        "width" : 64
      } ],
      "name" : "Migos",
      "popularity" : 12,
      "type" : "artist",
      "uri" : "spotify:artist:6oaIMC8E7iemi5SQfkvTfQ"
    }, {
      "external_urls" : {
        "spotify" : "https://open.spotify.com/artist/7j4DVAyiIuYWeaffOMM5xs"
      },
      "followers" : {
        "href" : null,
        "total" : 120
      },
      "genres" : [ ],
      "href" : "https://api.spotify.com/v1/artists/7j4DVAyiIuYWeaffOMM5xs",
      "id" : "7j4DVAyiIuYWeaffOMM5xs",
      "images" : [ {
        "height" : 640,
        "url" : "https://i.scdn.co/image/ab67616d0000b27306e4b859680e571733af26ed",
        "width" : 640
      }, {
        "height" : 300,
        "url" : "https://i.scdn.co/image/ab67616d00001e0206e4b859680e571733af26ed",
        "width" : 300
      }, {
        "height" : 64,
        "url" : "https://i.scdn.co/image/ab67616d0000485106e4b859680e571733af26ed",
        "width" : 64
      } ],
      "name" : "QC Migos",
      "popularity" : 0,
      "type" : "artist",
      "uri" : "spotify:artist:7j4DVAyiIuYWeaffOMM5xs"
    } ],
    "limit" : 20,
    "next" : "https://api.spotify.com/v1/search?query=MIGOS&type=artist&market=US&offset=20&limit=20",
    "offset" : 0,
    "previous" : null,
    "total" : 57
  }
}