{
  "artists" : {
    "href" : "https://api.spotify.com/v1/search?query=PALACE&type=artist&market=US&offset=0&limit=20",
    "items" : [ {
      "external_urls" : {
        "spotify" : "https://open.spotify.com/artist/48vDIufGC8ujPuBiTxY8dm"
      },
      "followers" : {
        "href" : null,
        "total" : 181547
      },
      "genres" : [ "english indie rock" ],
      "href" : "https://api.spotify.com/v1/artists/48vDIufGC8ujPuBiTxY8dm",
      "id" : "48vDIufGC8ujPuBiTxY8dm",
      "images" : [ {
        "height" : 640,
        "url" : "https://i.scdn.co/image/ab6761610000e5ebe18e02fa35631c00252a5204",
        "width" : 640
      }, {
        "height" : 320,
        "url" : "https://i.scdn.co/image/ab67616100005174e18e02fa35631c00252a5204",
        "width" : 320
      }, {
        "height" : 160,
        "url" : "https://i.scdn.co/image/ab6761610000f178e18e02fa35631c00252a5204",
        "width" : 160
      } ],
      "name" : "Palace",
      "popularity" : 64,
      "type" : "artist",
      "uri" : "spotify:artist:48vDIufGC8ujPuBiTxY8dm"
    }, {
      "external_urls" : {
        "spotify" : "https://open.spotify.com/artist/1uU27K4D96Hn0ws2lULjHp"
      },
      "followers" : {
        "href" : null,
        "total" : 37
      },
      "genres" : [ ],
      "href" : "https://api.spotify.com/v1/artists/1uU27K4D96Hn0ws2lULjHp",
      "id" : "1uU27K4D96Hn0ws2lULjHp",
      "images" : [ {
        "height" : 640,
        "url" : "https://i.scdn.co/image/ab67616d0000b273ae377ae0822d296e2d79ae6c",
        "width" : 640
      }, {
        "height" : 300,
        "url" : "https://i.scdn.co/image/ab67616d00001e02ae377ae0822d296e2d79ae6c",
        "width" : 300
      }, {
        "height" : 64,
        "url" : "https://i.scdn.co/image/ab67616d00004851ae377ae0822d296e2d79ae6c",
        "width" : 64
      } ],
      "name" : "Palace Flower",
      "popularity" : 45,
      "type" : "artist",
      "uri" : "spotify:artist:1uU27K4D96Hn0ws2lULjHp"
    }, {
      "external_urls" : {
        "spotify" : "https://open.spotify.com/artist/37J1PlAkhRK7yrZUtqaUpQ"
      },
      "followers" : {
        "href" : null,
        "total" : 897153
      },
      "genres" : [ "electro swing", "nu jazz" ],
      "href" : "https://api.spotify.com/v1/artists/37J1PlAkhRK7yrZUtqaUpQ",
      "id" : "37J1PlAkhRK7yrZUtqaUpQ",
      "images" : [ {
        "height" : 640,
        "url" : "https://i.scdn.co/image/ab6761610000e5ebdedbe7030797b73b6a77e39f",
        "width" : 640
      }, {
        "height" : 320,
        "url" : "https://i.scdn.co/image/ab67616100005174dedbe7030797b73b6a77e39f",
        "width" : 320
      }, {
        "height" : 160,
        "url" : "https://i.scdn.co/image/ab6761610000f178dedbe7030797b73b6a77e39f",
        "width" : 160
      } ],
      "name" : "Caravan Palace",
      "popularity" : 66,
      "type" : "artist",
      "uri" : "spotify:artist:37J1PlAkhRK7yrZUtqaUpQ"
    }, {
      "external_urls" : {
        "spotify" : "https://open.spotify.com/artist/650oFcZBeehWFGjxFzwLg2"
      },
      "followers" : {
        "href" : null,
        "total" : 6
      },
      "genres" : [ ],
      "href" : "https://api.spotify.com/v1/artists/650oFcZBeehWFGjxFzwLg2",
      "id" : "650oFcZBeehWFGjxFzwLg2",
      "images" : [ {
        "height" : 640,
        "url" : "https://i.scdn.co/image/ab6761610000e5eb049577e22a2f58b9cac165cd",
        "width" : 640
      }, {
        "height" : 320,
        "url" : "https://i.scdn.co/image/ab67616100005174049577e22a2f58b9cac165cd",
        "width" : 320
      }, {
        "height" : 160,
        "url" : "https://i.scdn.co/image/ab6761610000f178049577e22a2f58b9cac165cd",
        "width" : 160
      } ],
      "name" : "PALACE",
      "popularity" : 0,
      "type" : "artist",
      "uri" : "spotify:artist:650oFcZBeehWFGjxFzwLg2"
    }, {
      "external_urls" : {
        "spotify" : "https://open.spotify.com/artist/72BLFmprLtjupyPrNzig4J"
      },
      "followers" : {
        "href" : null,
        "total" : 43
      },
      "genres" : [ "rain" ],
      "href" : "https://api.spotify.com/v1/artists/72BLFmprLtjupyPrNzig4J",
      "id" : "72BLFmprLtjupyPrNzig4J",
      "images" : [ {
        "height" : 640,
        "url" : "https://i.scdn.co/image/ab67616d0000b27369c82ec208dae18441f64513",
        "width" : 640
      }, {
        "height" : 300,
        "url" : "https://i.scdn.co/image/ab67616d00001e0269c82ec208dae18441f64513",
        "width" : 300
      }, {
        "height" : 64,
        "url" : "https://i.scdn.co/image/ab67616d0000485169c82ec208dae18441f64513",
        "width" : 64
      } ],
      "name" : "Rain Palace",
      "popularity" : 48,
      "type" : "artist",
      "uri" : "spotify:artist:72BLFmprLtjupyPrNzig4J"
    }, {
      "external_urls" : {
        "spotify" : "https://open.spotify.com/artist/5yd54ZSX0MIv3vrdaqYkrK"
      },
      "followers" : {
        "href" : null,
        "total" : 1
      },
      "genres" : [ ],
      "href" : "https://api.spotify.com/v1/artists/5yd54ZSX0MIv3vrdaqYkrK",
      "id" : "5yd54ZSX0MIv3vrdaqYkrK",
      "images" : [ ],
      "name" : "PALACE",
      "popularity" : 0,
      "type" : "artist",
      "uri" : "spotify:artist:5yd54ZSX0MIv3vrdaqYkrK"
    }, {
      "external_urls" : {
        "spotify" : "https://open.spotify.com/artist/6PDfI9buTAd56UWdBHxif9"
      },
      "followers" : {
        "href" : null,
        "total" : 7
      },
      "genres" : [ ],
      "href" : "https://api.spotify.com/v1/artists/6PDfI9buTAd56UWdBHxif9",
      "id" : "6PDfI9buTAd56UWdBHxif9",
      "images" : [ {
        "height" : 640,
        "url" : "https://i.scdn.co/image/ab67616d0000b27384efbd62a40de29af849f236",
        "width" : 640
      }, {
        "height" : 300,
        "url" : "https://i.scdn.co/image/ab67616d00001e0284efbd62a40de29af849f236",
        "width" : 300
      }, {
        "height" : 64,
        "url" : "https://i.scdn.co/image/ab67616d0000485184efbd62a40de29af849f236",
        "width" : 64
      } ],
      "name" : "Palace Crimes",
      "popularity" : 31,
      "type" : "artist",
      "uri" : "spotify:artist:6PDfI9buTAd56UWdBHxif9"
    }, {
      "external_urls" : {
        "spotify" : "https://open.spotify.com/artist/6C403AR4y6PjN0xNNGh42m"
      },
      "followers" : {
        "href" : null,
        "total" : 112352
      },
      "genres" : [ "afrofuturism", "alternative hip hop", "cascadia psych", "escape room", "experimental hip hop", "psychedelic hip hop", "seattle hip hop", "wonky" ],
      "href" : "https://api.spotify.com/v1/artists/6C403AR4y6PjN0xNNGh42m",
      "id" : "6C403AR4y6PjN0xNNGh42m",
      "images" : [ {
        "height" : 640,
        "url" : "https://i.scdn.co/image/ab6761610000e5eb3533ae416f92932247cc67dd",
        "width" : 640
      }, {
        "height" : 320,
        "url" : "https://i.scdn.co/image/ab676161000051743533ae416f92932247cc67dd",
        "width" : 320
      }, {
        "height" : 160,
        "url" : "https://i.scdn.co/image/ab6761610000f1783533ae416f92932247cc67dd",
        "width" : 160
      } ],
      "name" : "Shabazz Palaces",
      "popularity" : 42,
      "type" : "artist",
      "uri" : "spotify:artist:6C403AR4y6PjN0xNNGh42m"
    }, {
      "external_urls" : {
        "spotify" : "https://open.spotify.com/artist/3Mv5Ybyuqv0Q0ikIPNYz5l"
      },
      "followers" : {
        "href" : null,
        "total" : 10
      },
      "genres" : [ ],
      "href" : "https://api.spotify.com/v1/artists/3Mv5Ybyuqv0Q0ikIPNYz5l",
      "id" : "3Mv5Ybyuqv0Q0ikIPNYz5l",
      "images" : [ {
        "height" : 640,
        "url" : "https://i.scdn.co/image/ab6761610000e5eb494446b837804ce14a1aaeee",
        "width" : 640
      }, {
        "height" : 320,
        "url" : "https://i.scdn.co/image/ab67616100005174494446b837804ce14a1aaeee",
        "width" : 320
      }, {
        "height" : 160,
        "url" : "https://i.scdn.co/image/ab6761610000f178494446b837804ce14a1aaeee",
        "width" : 160
      } ],
      "name" : "PALACE",
      "popularity" : 1,
      "type" : "artist",
      "uri" : "spotify:artist:3Mv5Ybyuqv0Q0ikIPNYz5l"
    }, {
      "external_urls" : {
        "spotify" : "https://open.spotify.com/artist/2l7DkzVuYJW700mR7r43un"
      },
      "followers" : {
        "href" : null,
        "total" : 16925
      },
      "genres" : [ "alternative country" ],
      "href" : "https://api.spotify.com/v1/artists/2l7DkzVuYJW700mR7r43un",
      "id" : "2l7DkzVuYJW700mR7r43un",
      "images" : [ {
        "height" : 640,
        "url" : "https://i.scdn.co/image/ab6761610000e5ebb76cfea26565d94f93141de4",
        "width" : 640
      }, {
        "height" : 320,
        "url" : "https://i.scdn.co/image/ab67616100005174b76cfea26565d94f93141de4",
        "width" : 320
      }, {
        "height" : 160,
        "url" : "https://i.scdn.co/image/ab6761610000f178b76cfea26565d94f93141de4",
        "width" : 160
      } ],
      "name" : "Palace Music",
      "popularity" : 34,
      "type" : "artist",
      "uri" : "spotify:artist:2l7DkzVuYJW700mR7r43un"
    }, {
      "external_urls" : {
        "spotify" : "https://open.spotify.com/artist/3L5sVm0hPCYzoGTI4jegBW"
      },
      "followers" : {
        "href" : null,
        "total" : 1
      },
      "genres" : [ ],
      "href" : "https://api.spotify.com/v1/artists/3L5sVm0hPCYzoGTI4jegBW",
      "id" : "3L5sVm0hPCYzoGTI4jegBW",
      "images" : [ ],
      "name" : "PALACE",
      "popularity" : 0,
      "type" : "artist",
      "uri" : "spotify:artist:3L5sVm0hPCYzoGTI4jegBW"
    }, {
      "external_urls" : {
        "spotify" : "https://open.spotify.com/artist/3Mrls4ikRK9qMjdQDkD5ve"
      },
      "followers" : {
        "href" : null,
        "total" : 507
      },
      "genres" : [ ],
      "href" : "https://api.spotify.com/v1/artists/3Mrls4ikRK9qMjdQDkD5ve",
      "id" : "3Mrls4ikRK9qMjdQDkD5ve",
      "images" : [ {
        "height" : 640,
        "url" : "https://i.scdn.co/image/ab6761610000e5ebe5fbbb4881421c2afacea68d",
        "width" : 640
      }, {
        "height" : 320,
        "url" : "https://i.scdn.co/image/ab67616100005174e5fbbb4881421c2afacea68d",
        "width" : 320
      }, {
        "height" : 160,
        "url" : "https://i.scdn.co/image/ab6761610000f178e5fbbb4881421c2afacea68d",
        "width" : 160
      } ],
      "name" : "Palace",
      "popularity" : 18,
      "type" : "artist",
      "uri" : "spotify:artist:3Mrls4ikRK9qMjdQDkD5ve"
    }, {
      "external_urls" : {
        "spotify" : "https://open.spotify.com/artist/4QnuZOyl4C9d1keyOZXJ21"
      },
      "followers" : {
        "href" : null,
        "total" : 12769
      },
      "genres" : [ "german post-hardcore" ],
      "href" : "https://api.spotify.com/v1/artists/4QnuZOyl4C9d1keyOZXJ21",
      "id" : "4QnuZOyl4C9d1keyOZXJ21",
      "images" : [ {
        "height" : 640,
        "url" : "https://i.scdn.co/image/ab6761610000e5eb03b8733493d0b6f07cf9b2ca",
        "width" : 640
      }, {
        "height" : 320,
        "url" : "https://i.scdn.co/image/ab6761610000517403b8733493d0b6f07cf9b2ca",
        "width" : 320
      }, {
        "height" : 160,
        "url" : "https://i.scdn.co/image/ab6761610000f17803b8733493d0b6f07cf9b2ca",
        "width" : 160
      } ],
      "name" : "Future Palace",
      "popularity" : 45,
      "type" : "artist",
      "uri" : "spotify:artist:4QnuZOyl4C9d1keyOZXJ21"
    }, {
      "external_urls" : {
        "spotify" : "https://open.spotify.com/artist/6kaLx3343VGLZAW94uSWSq"
      },
      "followers" : {
        "href" : null,
        "total" : 0
      },
      "genres" : [ ],
      "href" : "https://api.spotify.com/v1/artists/6kaLx3343VGLZAW94uSWSq",
      "id" : "6kaLx3343VGLZAW94uSWSq",
      "images" : [ ],
      "name" : "Palace",
      "popularity" : 24,
      "type" : "artist",
      "uri" : "spotify:artist:6kaLx3343VGLZAW94uSWSq"
    }, {
      "external_urls" : {
        "spotify" : "https://open.spotify.com/artist/4FwoFiKgBKWrDftS9tm0oa"
      },
      "followers" : {
        "href" : null,
        "total" : 37845
      },
      "genres" : [ "indie garage rock" ],
      "href" : "https://api.spotify.com/v1/artists/4FwoFiKgBKWrDftS9tm0oa",
      "id" : "4FwoFiKgBKWrDftS9tm0oa",
      "images" : [ {
        "height" : 640,
        "url" : "https://i.scdn.co/image/ab6761610000e5ebef96e5ed8f975999d95295f1",
        "width" : 640
      }, {
        "height" : 320,
        "url" : "https://i.scdn.co/image/ab67616100005174ef96e5ed8f975999d95295f1",
        "width" : 320
      }, {
        "height" : 160,
        "url" : "https://i.scdn.co/image/ab6761610000f178ef96e5ed8f975999d95295f1",
        "width" : 160
      } ],
      "name" : "Spendtime Palace",
      "popularity" : 38,
      "type" : "artist",
      "uri" : "spotify:artist:4FwoFiKgBKWrDftS9tm0oa"
    }, {
      "external_urls" : {
        "spotify" : "https://open.spotify.com/artist/2F7aahPvKUVxfBQ19d0JLK"
      },
      "followers" : {
        "href" : null,
        "total" : 11493
      },
      "genres" : [ "chamber psych", "danish alternative rock" ],
      "href" : "https://api.spotify.com/v1/artists/2F7aahPvKUVxfBQ19d0JLK",
      "id" : "2F7aahPvKUVxfBQ19d0JLK",
      "images" : [ {
        "height" : 640,
        "url" : "https://i.scdn.co/image/ab6761610000e5eb258400eaffe0affef2dd3b73",
        "width" : 640
      }, {
        "height" : 320,
        "url" : "https://i.scdn.co/image/ab67616100005174258400eaffe0affef2dd3b73",
        "width" : 320
      }, {
        "height" : 160,
        "url" : "https://i.scdn.co/image/ab6761610000f178258400eaffe0affef2dd3b73",
        "width" : 160
      } ],
      "name" : "Palace Winter",
      "popularity" : 32,
      "type" : "artist",
      "uri" : "spotify:artist:2F7aahPvKUVxfBQ19d0JLK"
    }, {
      "external_urls" : {
        "spotify" : "https://open.spotify.com/artist/6Jg1WSoV27sDj7N2WRFPqo"
      },
      "followers" : {
        "href" : null,
        "total" : 6654
      },
      "genres" : [ "alternative country" ],
      "href" : "https://api.spotify.com/v1/artists/6Jg1WSoV27sDj7N2WRFPqo",
      "id" : "6Jg1WSoV27sDj7N2WRFPqo",
      "images" : [ {
        "height" : 640,
        "url" : "https://i.scdn.co/image/ab6761610000e5eb571305c8a0767aea6da0146f",
        "width" : 640
      }, {
        "height" : 320,
        "url" : "https://i.scdn.co/image/ab67616100005174571305c8a0767aea6da0146f",
        "width" : 320
      }, {
        "height" : 160,
        "url" : "https://i.scdn.co/image/ab6761610000f178571305c8a0767aea6da0146f",
        "width" : 160
      } ],
      "name" : "Palace Brothers",
      "popularity" : 19,
      "type" : "artist",
      "uri" : "spotify:artist:6Jg1WSoV27sDj7N2WRFPqo"
    }, {
      "external_urls" : {
        "spotify" : "https://open.spotify.com/artist/3jF2ypAAgPGDrMya2J4sHM"
      },
      "followers" : {
        "href" : null,
        "total" : 5091
      },
      "genres" : [ ],
      "href" : "https://api.spotify.com/v1/artists/3jF2ypAAgPGDrMya2J4sHM",
      "id" : "3jF2ypAAgPGDrMya2J4sHM",
      "images" : [ {
        "height" : 640,
        "url" : "https://i.scdn.co/image/ab6761610000e5eb0f477ec760cc98a9a1f24b45",
        "width" : 640
      }, {
        "height" : 320,
        "url" : "https://i.scdn.co/image/ab676161000051740f477ec760cc98a9a1f24b45",
        "width" : 320
      }, {
        "height" : 160,
        "url" : "https://i.scdn.co/image/ab6761610000f1780f477ec760cc98a9a1f24b45",
        "width" : 160
      } ],
      "name" : "Valley Palace",
      "popularity" : 32,
      "type" : "artist",
      "uri" : "spotify:artist:3jF2ypAAgPGDrMya2J4sHM"
    }, {
      "external_urls" : {
        "spotify" : "https://open.spotify.com/artist/2SJfNysMUF0tEtp5j2cP4i"
      },
      "followers" : {
        "href" : null,
        "total" : 1409
      },
      "genres" : [ ],
      "href" : "https://api.spotify.com/v1/artists/2SJfNysMUF0tEtp5j2cP4i",
      "id" : "2SJfNysMUF0tEtp5j2cP4i",
      "images" : [ {
        "height" : 640,
        "url" : "https://i.scdn.co/image/ab67616d0000b2733bd07a8e81cf06f132f07f42",
        "width" : 640
      }, {
        "height" : 300,
        "url" : "https://i.scdn.co/image/ab67616d00001e023bd07a8e81cf06f132f07f42",
        "width" : 300
      }, {
        "height" : 64,
        "url" : "https://i.scdn.co/image/ab67616d000048513bd07a8e81cf06f132f07f42",
        "width" : 64
      } ],
      "name" : "Palace",
      "popularity" : 26,
      "type" : "artist",
      "uri" : "spotify:artist:2SJfNysMUF0tEtp5j2cP4i"
    }, {
      "external_urls" : {
        "spotify" : "https://open.spotify.com/artist/52FzcYdR52cgukrg4A3Tyv"
      },
      "followers" : {
        "href" : null,
        "total" : 65
      },
      "genres" : [ ],
      "href" : "https://api.spotify.com/v1/artists/52FzcYdR52cgukrg4A3Tyv",
      "id" : "52FzcYdR52cgukrg4A3Tyv",
      "images" : [ {
        "height" : 640,
        "url" : "https://i.scdn.co/image/ab67616d0000b273bd3844e0038c13cfde678bfb",
        "width" : 640
      }, {
        "height" : 300,
        "url" : "https://i.scdn.co/image/ab67616d00001e02bd3844e0038c13cfde678bfb",
        "width" : 300
      }, {
        "height" : 64,
        "url" : "https://i.scdn.co/image/ab67616d00004851bd3844e0038c13cfde678bfb",
        "width" : 64
      } ],
      "name" : "Jade Palace",
      "popularity" : 35,
      "type" : "artist",
      "uri" : "spotify:artist:52FzcYdR52cgukrg4A3Tyv"
    } ],
    "limit" : 20,
    "next" : "https://api.spotify.com/v1/search?query=PALACE&type=artist&market=US&offset=20&limit=20",
    "offset" : 0,
    "previous" : null,
    "total" : 623
  }
}