{
  "artists" : {
    "href" : "https://api.spotify.com/v1/search?query=WALKER+&type=artist&market=US&offset=0&limit=20",
    "items" : [ {
      "external_urls" : {
        "spotify" : "https://open.spotify.com/artist/7sKxqpSqbIzphAKAhrqvlf"
      },
      "followers" : {
        "href" : null,
        "total" : 431055
      },
      "genres" : [ "contemporary country", "country", "country road", "modern country rock" ],
      "href" : "https://api.spotify.com/v1/artists/7sKxqpSqbIzphAKAhrqvlf",
      "id" : "7sKxqpSqbIzphAKAhrqvlf",
      "images" : [ {
        "height" : 640,
        "url" : "https://i.scdn.co/image/ab6761610000e5eb82b152c11ea660272383e87b",
        "width" : 640
      }, {
        "height" : 320,
        "url" : "https://i.scdn.co/image/ab6761610000517482b152c11ea660272383e87b",
        "width" : 320
      }, {
        "height" : 160,
        "url" : "https://i.scdn.co/image/ab6761610000f17882b152c11ea660272383e87b",
        "width" : 160
      } ],
      "name" : "Walker Hayes",
      "popularity" : 72,
      "type" : "artist",
      "uri" : "spotify:artist:7sKxqpSqbIzphAKAhrqvlf"
    }, {
      "external_urls" : {
        "spotify" : "https://open.spotify.com/artist/57LYzLEk2LcFghVwuWbcuS"
      },
      "followers" : {
        "href" : null,
        "total" : 3370231
      },
      "genres" : [ "pop", "r&b" ],
      "href" : "https://api.spotify.com/v1/artists/57LYzLEk2LcFghVwuWbcuS",
      "id" : "57LYzLEk2LcFghVwuWbcuS",
      "images" : [ {
        "height" : 640,
        "url" : "https://i.scdn.co/image/ab6761610000e5eb4714179bf23941c0aec4b474",
        "width" : 640
      }, {
        "height" : 320,
        "url" : "https://i.scdn.co/image/ab676161000051744714179bf23941c0aec4b474",
        "width" : 320
      }, {
        "height" : 160,
        "url" : "https://i.scdn.co/image/ab6761610000f1784714179bf23941c0aec4b474",
        "width" : 160
      } ],
      "name" : "Summer Walker",
      "popularity" : 82,
      "type" : "artist",
      "uri" : "spotify:artist:57LYzLEk2LcFghVwuWbcuS"
    }, {
      "external_urls" : {
        "spotify" : "https://open.spotify.com/artist/7vk5e3vY1uw9plTHJAMwjN"
      },
      "followers" : {
        "href" : null,
        "total" : 33146717
      },
      "genres" : [ "electro house" ],
      "href" : "https://api.spotify.com/v1/artists/7vk5e3vY1uw9plTHJAMwjN",
      "id" : "7vk5e3vY1uw9plTHJAMwjN",
      "images" : [ {
        "height" : 640,
        "url" : "https://i.scdn.co/image/ab6761610000e5ebc02d416c309a68b04dc94576",
        "width" : 640
      }, {
        "height" : 320,
        "url" : "https://i.scdn.co/image/ab67616100005174c02d416c309a68b04dc94576",
        "width" : 320
      }, {
        "height" : 160,
        "url" : "https://i.scdn.co/image/ab6761610000f178c02d416c309a68b04dc94576",
        "width" : 160
      } ],
      "name" : "Alan Walker",
      "popularity" : 85,
      "type" : "artist",
      "uri" : "spotify:artist:7vk5e3vY1uw9plTHJAMwjN"
    }, {
      "external_urls" : {
        "spotify" : "https://open.spotify.com/artist/6jDzxywOhu6CcmS8MVzWlL"
      },
      "followers" : {
        "href" : null,
        "total" : 33709
      },
      "genres" : [ "contemporary country", "country pop" ],
      "href" : "https://api.spotify.com/v1/artists/6jDzxywOhu6CcmS8MVzWlL",
      "id" : "6jDzxywOhu6CcmS8MVzWlL",
      "images" : [ {
        "height" : 640,
        "url" : "https://i.scdn.co/image/ab6761610000e5eb07851b91309678421dcaea49",
        "width" : 640
      }, {
        "height" : 320,
        "url" : "https://i.scdn.co/image/ab6761610000517407851b91309678421dcaea49",
        "width" : 320
      }, {
        "height" : 160,
        "url" : "https://i.scdn.co/image/ab6761610000f17807851b91309678421dcaea49",
        "width" : 160
      } ],
      "name" : "Walker McGuire",
      "popularity" : 47,
      "type" : "artist",
      "uri" : "spotify:artist:6jDzxywOhu6CcmS8MVzWlL"
    }, {
      "external_urls" : {
        "spotify" : "https://open.spotify.com/artist/4MPkNgar5uTd8Sqvrr7par"
      },
      "followers" : {
        "href" : null,
        "total" : 979188
      },
      "genres" : [ "contemporary country", "country", "country road", "country rock", "modern country rock" ],
      "href" : "https://api.spotify.com/v1/artists/4MPkNgar5uTd8Sqvrr7par",
      "id" : "4MPkNgar5uTd8Sqvrr7par",
      "images" : [ {
        "height" : 640,
        "url" : "https://i.scdn.co/image/ab6761610000e5eb5c61c1a97a9cdc15f74abd3a",
        "width" : 640
      }, {
        "height" : 320,
        "url" : "https://i.scdn.co/image/ab676161000051745c61c1a97a9cdc15f74abd3a",
        "width" : 320
      }, {
        "height" : 160,
        "url" : "https://i.scdn.co/image/ab6761610000f1785c61c1a97a9cdc15f74abd3a",
        "width" : 160
      } ],
      "name" : "Clay Walker",
      "popularity" : 61,
      "type" : "artist",
      "uri" : "spotify:artist:4MPkNgar5uTd8Sqvrr7par"
    }, {
      "external_urls" : {
        "spotify" : "https://open.spotify.com/artist/1lAwVq9MxNJkB0dEY6xNoV"
      },
      "followers" : {
        "href" : null,
        "total" : 45107
      },
      "genres" : [ "bass house", "deep disco house", "edm", "electro house", "house" ],
      "href" : "https://api.spotify.com/v1/artists/1lAwVq9MxNJkB0dEY6xNoV",
      "id" : "1lAwVq9MxNJkB0dEY6xNoV",
      "images" : [ {
        "height" : 640,
        "url" : "https://i.scdn.co/image/ab6761610000e5eb0f12dd6de9cc96890181011a",
        "width" : 640
      }, {
        "height" : 320,
        "url" : "https://i.scdn.co/image/ab676161000051740f12dd6de9cc96890181011a",
        "width" : 320
      }, {
        "height" : 160,
        "url" : "https://i.scdn.co/image/ab6761610000f1780f12dd6de9cc96890181011a",
        "width" : 160
      } ],
      "name" : "Walker & Royce",
      "popularity" : 48,
      "type" : "artist",
      "uri" : "spotify:artist:1lAwVq9MxNJkB0dEY6xNoV"
    }, {
      "external_urls" : {
        "spotify" : "https://open.spotify.com/artist/6PjV05LlULv9XmFu7HeAia"
      },
      "followers" : {
        "href" : null,
        "total" : 244555
      },
      "genres" : [ "outlaw country", "redneck" ],
      "href" : "https://api.spotify.com/v1/artists/6PjV05LlULv9XmFu7HeAia",
      "id" : "6PjV05LlULv9XmFu7HeAia",
      "images" : [ {
        "height" : 640,
        "url" : "https://i.scdn.co/image/ab6761610000e5eb794ea4ad136553ef4338d9da",
        "width" : 640
      }, {
        "height" : 320,
        "url" : "https://i.scdn.co/image/ab67616100005174794ea4ad136553ef4338d9da",
        "width" : 320
      }, {
        "height" : 160,
        "url" : "https://i.scdn.co/image/ab6761610000f178794ea4ad136553ef4338d9da",
        "width" : 160
      } ],
      "name" : "Wheeler Walker Jr.",
      "popularity" : 60,
      "type" : "artist",
      "uri" : "spotify:artist:6PjV05LlULv9XmFu7HeAia"
    }, {
      "external_urls" : {
        "spotify" : "https://open.spotify.com/artist/5vAB5nEXC8gfRxudmFF9jl"
      },
      "followers" : {
        "href" : null,
        "total" : 15634
      },
      "genres" : [ "contemporary country", "country pop" ],
      "href" : "https://api.spotify.com/v1/artists/5vAB5nEXC8gfRxudmFF9jl",
      "id" : "5vAB5nEXC8gfRxudmFF9jl",
      "images" : [ {
        "height" : 640,
        "url" : "https://i.scdn.co/image/ab6761610000e5eb9e7289871029113711606d93",
        "width" : 640
      }, {
        "height" : 320,
        "url" : "https://i.scdn.co/image/ab676161000051749e7289871029113711606d93",
        "width" : 320
      }, {
        "height" : 160,
        "url" : "https://i.scdn.co/image/ab6761610000f1789e7289871029113711606d93",
        "width" : 160
      } ],
      "name" : "Walker Montgomery",
      "popularity" : 44,
      "type" : "artist",
      "uri" : "spotify:artist:5vAB5nEXC8gfRxudmFF9jl"
    }, {
      "external_urls" : {
        "spotify" : "https://open.spotify.com/artist/4leTWyczsXYGlzUh8sFGSz"
      },
      "followers" : {
        "href" : null,
        "total" : 376471
      },
      "genres" : [ "anthem worship", "ccm", "christian music", "deep ccm", "world worship", "worship" ],
      "href" : "https://api.spotify.com/v1/artists/4leTWyczsXYGlzUh8sFGSz",
      "id" : "4leTWyczsXYGlzUh8sFGSz",
      "images" : [ {
        "height" : 640,
        "url" : "https://i.scdn.co/image/ab6761610000e5ebc6ec9a29038b0dfdf7a3425b",
        "width" : 640
      }, {
        "height" : 320,
        "url" : "https://i.scdn.co/image/ab67616100005174c6ec9a29038b0dfdf7a3425b",
        "width" : 320
      }, {
        "height" : 160,
        "url" : "https://i.scdn.co/image/ab6761610000f178c6ec9a29038b0dfdf7a3425b",
        "width" : 160
      } ],
      "name" : "Kim Walker-Smith",
      "popularity" : 62,
      "type" : "artist",
      "uri" : "spotify:artist:4leTWyczsXYGlzUh8sFGSz"
    }, {
      "external_urls" : {
        "spotify" : "https://open.spotify.com/artist/7z2avKuuiMAT4XZJFv8Rvh"
      },
      "followers" : {
        "href" : null,
        "total" : 926369
      },
      "genres" : [ "indie anthem-folk", "modern rock", "pop", "uk pop" ],
      "href" : "https://api.spotify.com/v1/artists/7z2avKuuiMAT4XZJFv8Rvh",
      "id" : "7z2avKuuiMAT4XZJFv8Rvh",
      "images" : [ {
        "height" : 640,
        "url" : "https://i.scdn.co/image/ab6761610000e5eb76b94ef622e91b1a44c6f883",
        "width" : 640
      }, {
        "height" : 320,
        "url" : "https://i.scdn.co/image/ab6761610000517476b94ef622e91b1a44c6f883",
        "width" : 320
      }, {
        "height" : 160,
        "url" : "https://i.scdn.co/image/ab6761610000f17876b94ef622e91b1a44c6f883",
        "width" : 160
      } ],
      "name" : "Tom Walker",
      "popularity" : 70,
      "type" : "artist",
      "uri" : "spotify:artist:7z2avKuuiMAT4XZJFv8Rvh"
    }, {
      "external_urls" : {
        "spotify" : "https://open.spotify.com/artist/4O8A9zKc4TrSgV0RQp0cRg"
      },
      "followers" : {
        "href" : null,
        "total" : 4082
      },
      "genres" : [ "country pop" ],
      "href" : "https://api.spotify.com/v1/artists/4O8A9zKc4TrSgV0RQp0cRg",
      "id" : "4O8A9zKc4TrSgV0RQp0cRg",
      "images" : [ {
        "height" : 640,
        "url" : "https://i.scdn.co/image/ab6761610000e5ebe2ead74f3a6d8fe142c95395",
        "width" : 640
      }, {
        "height" : 320,
        "url" : "https://i.scdn.co/image/ab67616100005174e2ead74f3a6d8fe142c95395",
        "width" : 320
      }, {
        "height" : 160,
        "url" : "https://i.scdn.co/image/ab6761610000f178e2ead74f3a6d8fe142c95395",
        "width" : 160
      } ],
      "name" : "Walker County",
      "popularity" : 35,
      "type" : "artist",
      "uri" : "spotify:artist:4O8A9zKc4TrSgV0RQp0cRg"
    }, {
      "external_urls" : {
        "spotify" : "https://open.spotify.com/artist/6rcE30MaP92XafelMNZ2Sq"
      },
      "followers" : {
        "href" : null,
        "total" : 70312
      },
      "genres" : [ "edm", "pop dance", "pop edm", "tropical house" ],
      "href" : "https://api.spotify.com/v1/artists/6rcE30MaP92XafelMNZ2Sq",
      "id" : "6rcE30MaP92XafelMNZ2Sq",
      "images" : [ {
        "height" : 640,
        "url" : "https://i.scdn.co/image/ab6761610000e5eb58c06f9cad2cad43d14b8432",
        "width" : 640
      }, {
        "height" : 320,
        "url" : "https://i.scdn.co/image/ab6761610000517458c06f9cad2cad43d14b8432",
        "width" : 320
      }, {
        "height" : 160,
        "url" : "https://i.scdn.co/image/ab6761610000f17858c06f9cad2cad43d14b8432",
        "width" : 160
      } ],
      "name" : "Frank Walker",
      "popularity" : 62,
      "type" : "artist",
      "uri" : "spotify:artist:6rcE30MaP92XafelMNZ2Sq"
    }, {
      "external_urls" : {
        "spotify" : "https://open.spotify.com/artist/1PN1wQSUA0IxfjX6CZy0q4"
      },
      "followers" : {
        "href" : null,
        "total" : 6113
      },
      "genres" : [ "austindie" ],
      "href" : "https://api.spotify.com/v1/artists/1PN1wQSUA0IxfjX6CZy0q4",
      "id" : "1PN1wQSUA0IxfjX6CZy0q4",
      "images" : [ {
        "height" : 640,
        "url" : "https://i.scdn.co/image/ab6761610000e5eb34cc473218c0af61e4ff7349",
        "width" : 640
      }, {
        "height" : 320,
        "url" : "https://i.scdn.co/image/ab6761610000517434cc473218c0af61e4ff7349",
        "width" : 320
      }, {
        "height" : 160,
        "url" : "https://i.scdn.co/image/ab6761610000f17834cc473218c0af61e4ff7349",
        "width" : 160
      } ],
      "name" : "Walker Lukens",
      "popularity" : 32,
      "type" : "artist",
      "uri" : "spotify:artist:1PN1wQSUA0IxfjX6CZy0q4"
    }, {
      "external_urls" : {
        "spotify" : "https://open.spotify.com/artist/0HjYETXAvcL6mzaKjAmH2K"
      },
      "followers" : {
        "href" : null,
        "total" : 15962
      },
      "genres" : [ "viral trap" ],
      "href" : "https://api.spotify.com/v1/artists/0HjYETXAvcL6mzaKjAmH2K",
      "id" : "0HjYETXAvcL6mzaKjAmH2K",
      "images" : [ {
        "height" : 640,
        "url" : "https://i.scdn.co/image/ab6761610000e5eb0ab906016d156894de6315d3",
        "width" : 640
      }, {
        "height" : 320,
        "url" : "https://i.scdn.co/image/ab676161000051740ab906016d156894de6315d3",
        "width" : 320
      }, {
        "height" : 160,
        "url" : "https://i.scdn.co/image/ab6761610000f1780ab906016d156894de6315d3",
        "width" : 160
      } ],
      "name" : "Wes Walker",
      "popularity" : 52,
      "type" : "artist",
      "uri" : "spotify:artist:0HjYETXAvcL6mzaKjAmH2K"
    }, {
      "external_urls" : {
        "spotify" : "https://open.spotify.com/artist/5vssQp6TyMHsx4mihKVAsC"
      },
      "followers" : {
        "href" : null,
        "total" : 12174
      },
      "genres" : [ "uk pop" ],
      "href" : "https://api.spotify.com/v1/artists/5vssQp6TyMHsx4mihKVAsC",
      "id" : "5vssQp6TyMHsx4mihKVAsC",
      "images" : [ {
        "height" : 640,
        "url" : "https://i.scdn.co/image/ab6761610000e5eb4b1aa4ef55bdfd93595464a4",
        "width" : 640
      }, {
        "height" : 320,
        "url" : "https://i.scdn.co/image/ab676161000051744b1aa4ef55bdfd93595464a4",
        "width" : 320
      }, {
        "height" : 160,
        "url" : "https://i.scdn.co/image/ab6761610000f1784b1aa4ef55bdfd93595464a4",
        "width" : 160
      } ],
      "name" : "Holly Walker",
      "popularity" : 63,
      "type" : "artist",
      "uri" : "spotify:artist:5vssQp6TyMHsx4mihKVAsC"
    }, {
      "external_urls" : {
        "spotify" : "https://open.spotify.com/artist/0pXt4sMs2oRnt528LTYgyd"
      },
      "followers" : {
        "href" : null,
        "total" : 400214
      },
      "genres" : [ "gospel", "israelite hip hop" ],
      "href" : "https://api.spotify.com/v1/artists/0pXt4sMs2oRnt528LTYgyd",
      "id" : "0pXt4sMs2oRnt528LTYgyd",
      "images" : [ {
        "height" : 1500,
        "url" : "https://i.scdn.co/image/0b1f0c25e1606d5c1acbd581d529656c8d431665",
        "width" : 1000
      }, {
        "height" : 960,
        "url" : "https://i.scdn.co/image/437c38a73df432c9712478d3ff0af25181c3f4dc",
        "width" : 640
      }, {
        "height" : 300,
        "url" : "https://i.scdn.co/image/9bfc808998611c629b653d6dff36763b9d0a3711",
        "width" : 200
      }, {
        "height" : 96,
        "url" : "https://i.scdn.co/image/04d159704be977b412cbf7a5c6dcd5c9605d67a6",
        "width" : 64
      } ],
      "name" : "Hezekiah Walker",
      "popularity" : 51,
      "type" : "artist",
      "uri" : "spotify:artist:0pXt4sMs2oRnt528LTYgyd"
    }, {
      "external_urls" : {
        "spotify" : "https://open.spotify.com/artist/4lzIbJIXBkGuxDBZFlGi4n"
      },
      "followers" : {
        "href" : null,
        "total" : 3426
      },
      "genres" : [ ],
      "href" : "https://api.spotify.com/v1/artists/4lzIbJIXBkGuxDBZFlGi4n",
      "id" : "4lzIbJIXBkGuxDBZFlGi4n",
      "images" : [ {
        "height" : 640,
        "url" : "https://i.scdn.co/image/ab6761610000e5eb67a449c5c945319bb0a22d76",
        "width" : 640
      }, {
        "height" : 320,
        "url" : "https://i.scdn.co/image/ab6761610000517467a449c5c945319bb0a22d76",
        "width" : 320
      }, {
        "height" : 160,
        "url" : "https://i.scdn.co/image/ab6761610000f17867a449c5c945319bb0a22d76",
        "width" : 160
      } ],
      "name" : "Walker and Wylde",
      "popularity" : 31,
      "type" : "artist",
      "uri" : "spotify:artist:4lzIbJIXBkGuxDBZFlGi4n"
    }, {
      "external_urls" : {
        "spotify" : "https://open.spotify.com/artist/4ImxhwjNOz0es0voxGHCoP"
      },
      "followers" : {
        "href" : null,
        "total" : 60564
      },
      "genres" : [ "anthem worship", "ccm", "christian alternative rock", "christian music", "worship" ],
      "href" : "https://api.spotify.com/v1/artists/4ImxhwjNOz0es0voxGHCoP",
      "id" : "4ImxhwjNOz0es0voxGHCoP",
      "images" : [ {
        "height" : 640,
        "url" : "https://i.scdn.co/image/ab6761610000e5eb587b5a5ab65899e6abf7bdcc",
        "width" : 640
      }, {
        "height" : 320,
        "url" : "https://i.scdn.co/image/ab67616100005174587b5a5ab65899e6abf7bdcc",
        "width" : 320
      }, {
        "height" : 160,
        "url" : "https://i.scdn.co/image/ab6761610000f178587b5a5ab65899e6abf7bdcc",
        "width" : 160
      } ],
      "name" : "Rhett Walker",
      "popularity" : 50,
      "type" : "artist",
      "uri" : "spotify:artist:4ImxhwjNOz0es0voxGHCoP"
    }, {
      "external_urls" : {
        "spotify" : "https://open.spotify.com/artist/5jEGjnI2WdRyJSUICQQIrK"
      },
      "followers" : {
        "href" : null,
        "total" : 2840
      },
      "genres" : [ "neo-classical" ],
      "href" : "https://api.spotify.com/v1/artists/5jEGjnI2WdRyJSUICQQIrK",
      "id" : "5jEGjnI2WdRyJSUICQQIrK",
      "images" : [ {
        "height" : 640,
        "url" : "https://i.scdn.co/image/ab6761610000e5ebc9a580f8860007251be693d0",
        "width" : 640
      }, {
        "height" : 320,
        "url" : "https://i.scdn.co/image/ab67616100005174c9a580f8860007251be693d0",
        "width" : 320
      }, {
        "height" : 160,
        "url" : "https://i.scdn.co/image/ab6761610000f178c9a580f8860007251be693d0",
        "width" : 160
      } ],
      "name" : "Simeon Walker",
      "popularity" : 54,
      "type" : "artist",
      "uri" : "spotify:artist:5jEGjnI2WdRyJSUICQQIrK"
    }, {
      "external_urls" : {
        "spotify" : "https://open.spotify.com/artist/763opp15PhfHpEaiVjM6m7"
      },
      "followers" : {
        "href" : null,
        "total" : 104153
      },
      "genres" : [ "country rock", "folk", "outlaw country", "roots rock", "texas country" ],
      "href" : "https://api.spotify.com/v1/artists/763opp15PhfHpEaiVjM6m7",
      "id" : "763opp15PhfHpEaiVjM6m7",
      "images" : [ {
        "height" : 1255,
        "url" : "https://i.scdn.co/image/1fdfda434761bb935cd0894189e203fc197e1904",
        "width" : 1000
      }, {
        "height" : 803,
        "url" : "https://i.scdn.co/image/57ad2f32c8362c6cd1ffb4798380d0b931025bb5",
        "width" : 640
      }, {
        "height" : 251,
        "url" : "https://i.scdn.co/image/e1b857a327766a3f03e3bf947226eb8c92926818",
        "width" : 200
      }, {
        "height" : 80,
        "url" : "https://i.scdn.co/image/0acbc394c913f883fe7785554f8b339eb607b13b",
        "width" : 64
      } ],
      "name" : "Jerry Jeff Walker",
      "popularity" : 49,
      "type" : "artist",
      "uri" : "spotify:artist:763opp15PhfHpEaiVjM6m7"
    } ],
    "limit" : 20,
    "next" : "https://api.spotify.com/v1/search?query=WALKER+&type=artist&market=US&offset=20&limit=20",
    "offset" : 0,
    "previous" : null,
    "total" : 3384
  }
}