{
  "artists" : {
    "href" : "https://api.spotify.com/v1/search?query=andrea+domanick&type=artist&market=US&offset=0&limit=20",
    "items" : [ {
      "external_urls" : {
        "spotify" : "https://open.spotify.com/artist/5wrepn6BBAgrIp1cEgxy6d"
      },
      "followers" : {
        "href" : null,
        "total" : 0
      },
      "genres" : [ ],
      "href" : "https://api.spotify.com/v1/artists/5wrepn6BBAgrIp1cEgxy6d",
      "id" : "5wrepn6BBAgrIp1cEgxy6d",
      "images" : [ ],
      "name" : "Andrea Domanick",
      "popularity" : 0,
      "type" : "artist",
      "uri" : "spotify:artist:5wrepn6BBAgrIp1cEgxy6d"
    }, {
      "external_urls" : {
        "spotify" : "https://open.spotify.com/artist/25YZT94TGT0kKiLaTybU3O"
      },
      "followers" : {
        "href" : null,
        "total" : 52
      },
      "genres" : [ ],
      "href" : "https://api.spotify.com/v1/artists/25YZT94TGT0kKiLaTybU3O",
      "id" : "25YZT94TGT0kKiLaTybU3O",
      "images" : [ ],
      "name" : "Andrea Dominguez",
      "popularity" : 21,
      "type" : "artist",
      "uri" : "spotify:artist:25YZT94TGT0kKiLaTybU3O"
    }, {
      "external_urls" : {
        "spotify" : "https://open.spotify.com/artist/0gbuucBkbjRCdPV2XZlit4"
      },
      "followers" : {
        "href" : null,
        "total" : 597
      },
      "genres" : [ "classical guitar" ],
      "href" : "https://api.spotify.com/v1/artists/0gbuucBkbjRCdPV2XZlit4",
      "id" : "0gbuucBkbjRCdPV2XZlit4",
      "images" : [ {
        "height" : 640,
        "url" : "https://i.scdn.co/image/ab6761610000e5eb6676256fa93ef68ffc1a765b",
        "width" : 640
      }, {
        "height" : 320,
        "url" : "https://i.scdn.co/image/ab676161000051746676256fa93ef68ffc1a765b",
        "width" : 320
      }, {
        "height" : 160,
        "url" : "https://i.scdn.co/image/ab6761610000f1786676256fa93ef68ffc1a765b",
        "width" : 160
      } ],
      "name" : "Andrea Dieci",
      "popularity" : 19,
      "type" : "artist",
      "uri" : "spotify:artist:0gbuucBkbjRCdPV2XZlit4"
    }, {
      "external_urls" : {
        "spotify" : "https://open.spotify.com/artist/6LgSivOZVfHs4mY4TYobQa"
      },
      "followers" : {
        "href" : null,
        "total" : 3486
      },
      "genres" : [ ],
      "href" : "https://api.spotify.com/v1/artists/6LgSivOZVfHs4mY4TYobQa",
      "id" : "6LgSivOZVfHs4mY4TYobQa",
      "images" : [ {
        "height" : 640,
        "url" : "https://i.scdn.co/image/ab6761610000e5eb22ce3cad0506942a3b568ce8",
        "width" : 640
      }, {
        "height" : 320,
        "url" : "https://i.scdn.co/image/ab6761610000517422ce3cad0506942a3b568ce8",
        "width" : 320
      }, {
        "height" : 160,
        "url" : "https://i.scdn.co/image/ab6761610000f17822ce3cad0506942a3b568ce8",
        "width" : 160
      } ],
      "name" : "Andrea Di Giovanni",
      "popularity" : 28,
      "type" : "artist",
      "uri" : "spotify:artist:6LgSivOZVfHs4mY4TYobQa"
    }, {
      "external_urls" : {
        "spotify" : "https://open.spotify.com/artist/0NZCNObxYB5k1IDkSNZyc0"
      },
      "followers" : {
        "href" : null,
        "total" : 53
      },
      "genres" : [ ],
      "href" : "https://api.spotify.com/v1/artists/0NZCNObxYB5k1IDkSNZyc0",
      "id" : "0NZCNObxYB5k1IDkSNZyc0",
      "images" : [ {
        "height" : 640,
        "url" : "https://i.scdn.co/image/ab67616d0000b27379db738028ec9cb772313e24",
        "width" : 640
      }, {
        "height" : 300,
        "url" : "https://i.scdn.co/image/ab67616d00001e0279db738028ec9cb772313e24",
        "width" : 300
      }, {
        "height" : 64,
        "url" : "https://i.scdn.co/image/ab67616d0000485179db738028ec9cb772313e24",
        "width" : 64
      } ],
      "name" : "Andrea Donati",
      "popularity" : 7,
      "type" : "artist",
      "uri" : "spotify:artist:0NZCNObxYB5k1IDkSNZyc0"
    }, {
      "external_urls" : {
        "spotify" : "https://open.spotify.com/artist/3PekPUlmxdNbnqmDBwsubL"
      },
      "followers" : {
        "href" : null,
        "total" : 974
      },
      "genres" : [ "louisville indie" ],
      "href" : "https://api.spotify.com/v1/artists/3PekPUlmxdNbnqmDBwsubL",
      "id" : "3PekPUlmxdNbnqmDBwsubL",
      "images" : [ {
        "height" : 640,
        "url" : "https://i.scdn.co/image/ab6761610000e5ebb5865a4fb8eed7de4e70fd37",
        "width" : 640
      }, {
        "height" : 320,
        "url" : "https://i.scdn.co/image/ab67616100005174b5865a4fb8eed7de4e70fd37",
        "width" : 320
      }, {
        "height" : 160,
        "url" : "https://i.scdn.co/image/ab6761610000f178b5865a4fb8eed7de4e70fd37",
        "width" : 160
      } ],
      "name" : "Andrea Davidson",
      "popularity" : 5,
      "type" : "artist",
      "uri" : "spotify:artist:3PekPUlmxdNbnqmDBwsubL"
    }, {
      "external_urls" : {
        "spotify" : "https://open.spotify.com/artist/69WoYYmIfHGiuYORsjSgil"
      },
      "followers" : {
        "href" : null,
        "total" : 23
      },
      "genres" : [ ],
      "href" : "https://api.spotify.com/v1/artists/69WoYYmIfHGiuYORsjSgil",
      "id" : "69WoYYmIfHGiuYORsjSgil",
      "images" : [ {
        "height" : 640,
        "url" : "https://i.scdn.co/image/ab67616d0000b273f41123f6cd619886d8c43cd0",
        "width" : 640
      }, {
        "height" : 300,
        "url" : "https://i.scdn.co/image/ab67616d00001e02f41123f6cd619886d8c43cd0",
        "width" : 300
      }, {
        "height" : 64,
        "url" : "https://i.scdn.co/image/ab67616d00004851f41123f6cd619886d8c43cd0",
        "width" : 64
      } ],
      "name" : "Andrea Dindo",
      "popularity" : 5,
      "type" : "artist",
      "uri" : "spotify:artist:69WoYYmIfHGiuYORsjSgil"
    }, {
      "external_urls" : {
        "spotify" : "https://open.spotify.com/artist/7Bt1Lb5Eh3R95P6P6n9y29"
      },
      "followers" : {
        "href" : null,
        "total" : 20
      },
      "genres" : [ ],
      "href" : "https://api.spotify.com/v1/artists/7Bt1Lb5Eh3R95P6P6n9y29",
      "id" : "7Bt1Lb5Eh3R95P6P6n9y29",
      "images" : [ ],
      "name" : "Andrea Doreen",
      "popularity" : 6,
      "type" : "artist",
      "uri" : "spotify:artist:7Bt1Lb5Eh3R95P6P6n9y29"
    }, {
      "external_urls" : {
        "spotify" : "https://open.spotify.com/artist/2e26VUPiAM28AXzIyZTou5"
      },
      "followers" : {
        "href" : null,
        "total" : 62
      },
      "genres" : [ "lute" ],
      "href" : "https://api.spotify.com/v1/artists/2e26VUPiAM28AXzIyZTou5",
      "id" : "2e26VUPiAM28AXzIyZTou5",
      "images" : [ {
        "height" : 640,
        "url" : "https://i.scdn.co/image/ab67616d0000b2732b4ca9e615d1ceb55ad7c7b6",
        "width" : 640
      }, {
        "height" : 300,
        "url" : "https://i.scdn.co/image/ab67616d00001e022b4ca9e615d1ceb55ad7c7b6",
        "width" : 300
      }, {
        "height" : 64,
        "url" : "https://i.scdn.co/image/ab67616d000048512b4ca9e615d1ceb55ad7c7b6",
        "width" : 64
      } ],
      "name" : "Andrea Damiani",
      "popularity" : 8,
      "type" : "artist",
      "uri" : "spotify:artist:2e26VUPiAM28AXzIyZTou5"
    }, {
      "external_urls" : {
        "spotify" : "https://open.spotify.com/artist/4Us0lxpZsV9EzSIsxe4opD"
      },
      "followers" : {
        "href" : null,
        "total" : 512
      },
      "genres" : [ ],
      "href" : "https://api.spotify.com/v1/artists/4Us0lxpZsV9EzSIsxe4opD",
      "id" : "4Us0lxpZsV9EzSIsxe4opD",
      "images" : [ {
        "height" : 640,
        "url" : "https://i.scdn.co/image/ab67616d0000b273fccc61d366a52dd359fd6af8",
        "width" : 640
      }, {
        "height" : 300,
        "url" : "https://i.scdn.co/image/ab67616d00001e02fccc61d366a52dd359fd6af8",
        "width" : 300
      }, {
        "height" : 64,
        "url" : "https://i.scdn.co/image/ab67616d00004851fccc61d366a52dd359fd6af8",
        "width" : 64
      } ],
      "name" : "Andrea Doria",
      "popularity" : 7,
      "type" : "artist",
      "uri" : "spotify:artist:4Us0lxpZsV9EzSIsxe4opD"
    }, {
      "external_urls" : {
        "spotify" : "https://open.spotify.com/artist/6UiZ6rLcOzlNP18ArywRxM"
      },
      "followers" : {
        "href" : null,
        "total" : 205
      },
      "genres" : [ "hangoskonyvek" ],
      "href" : "https://api.spotify.com/v1/artists/6UiZ6rLcOzlNP18ArywRxM",
      "id" : "6UiZ6rLcOzlNP18ArywRxM",
      "images" : [ {
        "height" : 640,
        "url" : "https://i.scdn.co/image/ab67616d0000b2731882c2b943b405019e0ca0bb",
        "width" : 640
      }, {
        "height" : 300,
        "url" : "https://i.scdn.co/image/ab67616d00001e021882c2b943b405019e0ca0bb",
        "width" : 300
      }, {
        "height" : 64,
        "url" : "https://i.scdn.co/image/ab67616d000048511882c2b943b405019e0ca0bb",
        "width" : 64
      } ],
      "name" : "Andrea Dóka",
      "popularity" : 11,
      "type" : "artist",
      "uri" : "spotify:artist:6UiZ6rLcOzlNP18ArywRxM"
    }, {
      "external_urls" : {
        "spotify" : "https://open.spotify.com/artist/69ltACr4s4zAQY8XoQTISx"
      },
      "followers" : {
        "href" : null,
        "total" : 0
      },
      "genres" : [ ],
      "href" : "https://api.spotify.com/v1/artists/69ltACr4s4zAQY8XoQTISx",
      "id" : "69ltACr4s4zAQY8XoQTISx",
      "images" : [ ],
      "name" : "Andrea Diano",
      "popularity" : 1,
      "type" : "artist",
      "uri" : "spotify:artist:69ltACr4s4zAQY8XoQTISx"
    }, {
      "external_urls" : {
        "spotify" : "https://open.spotify.com/artist/2xVaAnVRWW3hCkSN979bPv"
      },
      "followers" : {
        "href" : null,
        "total" : 4
      },
      "genres" : [ ],
      "href" : "https://api.spotify.com/v1/artists/2xVaAnVRWW3hCkSN979bPv",
      "id" : "2xVaAnVRWW3hCkSN979bPv",
      "images" : [ {
        "height" : 640,
        "url" : "https://i.scdn.co/image/ab67616d0000b273dcc49a26aa00157ca82dbd87",
        "width" : 640
      }, {
        "height" : 300,
        "url" : "https://i.scdn.co/image/ab67616d00001e02fbfc55d4d2b704129f24c4d2",
        "width" : 300
      }, {
        "height" : 64,
        "url" : "https://i.scdn.co/image/ab67616d00004851dcc49a26aa00157ca82dbd87",
        "width" : 64
      } ],
      "name" : "Andrea D'Amato",
      "popularity" : 16,
      "type" : "artist",
      "uri" : "spotify:artist:2xVaAnVRWW3hCkSN979bPv"
    }, {
      "external_urls" : {
        "spotify" : "https://open.spotify.com/artist/73gcgUOR4QhgKiE6dn1ycN"
      },
      "followers" : {
        "href" : null,
        "total" : 0
      },
      "genres" : [ ],
      "href" : "https://api.spotify.com/v1/artists/73gcgUOR4QhgKiE6dn1ycN",
      "id" : "73gcgUOR4QhgKiE6dn1ycN",
      "images" : [ ],
      "name" : "Andrea Dora",
      "popularity" : 2,
      "type" : "artist",
      "uri" : "spotify:artist:73gcgUOR4QhgKiE6dn1ycN"
    }, {
      "external_urls" : {
        "spotify" : "https://open.spotify.com/artist/2BzKv8hQW6odF0rTAOJ99n"
      },
      "followers" : {
        "href" : null,
        "total" : 34
      },
      "genres" : [ ],
      "href" : "https://api.spotify.com/v1/artists/2BzKv8hQW6odF0rTAOJ99n",
      "id" : "2BzKv8hQW6odF0rTAOJ99n",
      "images" : [ {
        "height" : 640,
        "url" : "https://i.scdn.co/image/ab67616d0000b2734566876f213c6877d87f6eb4",
        "width" : 640
      }, {
        "height" : 300,
        "url" : "https://i.scdn.co/image/ab67616d00001e024566876f213c6877d87f6eb4",
        "width" : 300
      }, {
        "height" : 64,
        "url" : "https://i.scdn.co/image/ab67616d000048514566876f213c6877d87f6eb4",
        "width" : 64
      } ],
      "name" : "Andrea Dameri",
      "popularity" : 18,
      "type" : "artist",
      "uri" : "spotify:artist:2BzKv8hQW6odF0rTAOJ99n"
    }, {
      "external_urls" : {
        "spotify" : "https://open.spotify.com/artist/07RYjvwAiRqNgO1ZO8GpZS"
      },
      "followers" : {
        "href" : null,
        "total" : 450
      },
      "genres" : [ ],
      "href" : "https://api.spotify.com/v1/artists/07RYjvwAiRqNgO1ZO8GpZS",
      "id" : "07RYjvwAiRqNgO1ZO8GpZS",
      "images" : [ {
        "height" : 640,
        "url" : "https://i.scdn.co/image/ab6761610000e5ebb242da54f4e6319aa56bb74d",
        "width" : 640
      }, {
        "height" : 320,
        "url" : "https://i.scdn.co/image/ab67616100005174b242da54f4e6319aa56bb74d",
        "width" : 320
      }, {
        "height" : 160,
        "url" : "https://i.scdn.co/image/ab6761610000f178b242da54f4e6319aa56bb74d",
        "width" : 160
      } ],
      "name" : "Andrea Dawson",
      "popularity" : 5,
      "type" : "artist",
      "uri" : "spotify:artist:07RYjvwAiRqNgO1ZO8GpZS"
    }, {
      "external_urls" : {
        "spotify" : "https://open.spotify.com/artist/7HjxIuw6VBEjQLTdg3l4Rg"
      },
      "followers" : {
        "href" : null,
        "total" : 384
      },
      "genres" : [ "montenegrin pop" ],
      "href" : "https://api.spotify.com/v1/artists/7HjxIuw6VBEjQLTdg3l4Rg",
      "id" : "7HjxIuw6VBEjQLTdg3l4Rg",
      "images" : [ {
        "height" : 640,
        "url" : "https://i.scdn.co/image/ab67616d0000b2733ca174213472e043e7cdcf78",
        "width" : 640
      }, {
        "height" : 300,
        "url" : "https://i.scdn.co/image/ab67616d00001e023ca174213472e043e7cdcf78",
        "width" : 300
      }, {
        "height" : 64,
        "url" : "https://i.scdn.co/image/ab67616d000048513ca174213472e043e7cdcf78",
        "width" : 64
      } ],
      "name" : "Andrea Demirović",
      "popularity" : 6,
      "type" : "artist",
      "uri" : "spotify:artist:7HjxIuw6VBEjQLTdg3l4Rg"
    }, {
      "external_urls" : {
        "spotify" : "https://open.spotify.com/artist/41D29d2dMglYiMmtg7MVLd"
      },
      "followers" : {
        "href" : null,
        "total" : 3634
      },
      "genres" : [ ],
      "href" : "https://api.spotify.com/v1/artists/41D29d2dMglYiMmtg7MVLd",
      "id" : "41D29d2dMglYiMmtg7MVLd",
      "images" : [ {
        "height" : 640,
        "url" : "https://i.scdn.co/image/ab67616d0000b273b78c8a60dd3fa307a06be595",
        "width" : 640
      }, {
        "height" : 300,
        "url" : "https://i.scdn.co/image/ab67616d00001e02b78c8a60dd3fa307a06be595",
        "width" : 300
      }, {
        "height" : 64,
        "url" : "https://i.scdn.co/image/ab67616d00004851b78c8a60dd3fa307a06be595",
        "width" : 64
      } ],
      "name" : "Andrea Diprè",
      "popularity" : 18,
      "type" : "artist",
      "uri" : "spotify:artist:41D29d2dMglYiMmtg7MVLd"
    }, {
      "external_urls" : {
        "spotify" : "https://open.spotify.com/artist/47j9ee1yLXTvis8iWy28Od"
      },
      "followers" : {
        "href" : null,
        "total" : 1
      },
      "genres" : [ ],
      "href" : "https://api.spotify.com/v1/artists/47j9ee1yLXTvis8iWy28Od",
      "id" : "47j9ee1yLXTvis8iWy28Od",
      "images" : [ ],
      "name" : "Andrea Duka",
      "popularity" : 0,
      "type" : "artist",
      "uri" : "spotify:artist:47j9ee1yLXTvis8iWy28Od"
    }, {
      "external_urls" : {
        "spotify" : "https://open.spotify.com/artist/4vSnTvc4KsBLjfuhMZX0ji"
      },
      "followers" : {
        "href" : null,
        "total" : 23
      },
      "genres" : [ ],
      "href" : "https://api.spotify.com/v1/artists/4vSnTvc4KsBLjfuhMZX0ji",
      "id" : "4vSnTvc4KsBLjfuhMZX0ji",
      "images" : [ {
        "height" : 640,
        "url" : "https://i.scdn.co/image/ab67616d0000b273b60106d9260e3e47aaa327be",
        "width" : 640
      }, {
        "height" : 300,
        "url" : "https://i.scdn.co/image/ab67616d00001e02b60106d9260e3e47aaa327be",
        "width" : 300
      }, {
        "height" : 64,
        "url" : "https://i.scdn.co/image/ab67616d00004851b60106d9260e3e47aaa327be",
        "width" : 64
      } ],
      "name" : "Andrea Di Pietro",
      "popularity" : 1,
      "type" : "artist",
      "uri" : "spotify:artist:4vSnTvc4KsBLjfuhMZX0ji"
    } ],
    "limit" : 20,
    "next" : "https://api.spotify.com/v1/search?query=andrea+domanick&type=artist&market=US&offset=20&limit=20",
    "offset" : 0,
    "previous" : null,
    "total" : 28
  }
}