{
  "artists" : {
    "href" : "https://api.spotify.com/v1/search?query=elkka&type=artist&market=US&offset=0&limit=20",
    "items" : [ {
      "external_urls" : {
        "spotify" : "https://open.spotify.com/artist/5Ly0z60jjgsY4rkmjRFtPS"
      },
      "followers" : {
        "href" : null,
        "total" : 12757
      },
      "genres" : [ "electra", "electronica", "float house" ],
      "href" : "https://api.spotify.com/v1/artists/5Ly0z60jjgsY4rkmjRFtPS",
      "id" : "5Ly0z60jjgsY4rkmjRFtPS",
      "images" : [ {
        "height" : 640,
        "url" : "https://i.scdn.co/image/ab6761610000e5eb0b1015b14d90885e67c06b13",
        "width" : 640
      }, {
        "height" : 320,
        "url" : "https://i.scdn.co/image/ab676161000051740b1015b14d90885e67c06b13",
        "width" : 320
      }, {
        "height" : 160,
        "url" : "https://i.scdn.co/image/ab6761610000f1780b1015b14d90885e67c06b13",
        "width" : 160
      } ],
      "name" : "Elkka",
      "popularity" : 41,
      "type" : "artist",
      "uri" : "spotify:artist:5Ly0z60jjgsY4rkmjRFtPS"
    }, {
      "external_urls" : {
        "spotify" : "https://open.spotify.com/artist/3ZqEiUaMAy1Gk1MdQR7dvs"
      },
      "followers" : {
        "href" : null,
        "total" : 39
      },
      "genres" : [ ],
      "href" : "https://api.spotify.com/v1/artists/3ZqEiUaMAy1Gk1MdQR7dvs",
      "id" : "3ZqEiUaMAy1Gk1MdQR7dvs",
      "images" : [ ],
      "name" : "Elkka",
      "popularity" : 23,
      "type" : "artist",
      "uri" : "spotify:artist:3ZqEiUaMAy1Gk1MdQR7dvs"
    }, {
      "external_urls" : {
        "spotify" : "https://open.spotify.com/artist/0DqR5aQYPz1s2M3YbycLMJ"
      },
      "followers" : {
        "href" : null,
        "total" : 13245
      },
      "genres" : [ ],
      "href" : "https://api.spotify.com/v1/artists/0DqR5aQYPz1s2M3YbycLMJ",
      "id" : "0DqR5aQYPz1s2M3YbycLMJ",
      "images" : [ {
        "height" : 640,
        "url" : "https://i.scdn.co/image/ab6761610000e5eb7b151a097a45a2dd9fd6f2b6",
        "width" : 640
      }, {
        "height" : 320,
        "url" : "https://i.scdn.co/image/ab676161000051747b151a097a45a2dd9fd6f2b6",
        "width" : 320
      }, {
        "height" : 160,
        "url" : "https://i.scdn.co/image/ab6761610000f1787b151a097a45a2dd9fd6f2b6",
        "width" : 160
      } ],
      "name" : "jamesjamesjames",
      "popularity" : 49,
      "type" : "artist",
      "uri" : "spotify:artist:0DqR5aQYPz1s2M3YbycLMJ"
    }, {
      "external_urls" : {
        "spotify" : "https://open.spotify.com/artist/4PRhpvNBYt7YURb5VhEDox"
      },
      "followers" : {
        "href" : null,
        "total" : 2578
      },
      "genres" : [ ],
      "href" : "https://api.spotify.com/v1/artists/4PRhpvNBYt7YURb5VhEDox",
      "id" : "4PRhpvNBYt7YURb5VhEDox",
      "images" : [ {
        "height" : 640,
        "url" : "https://i.scdn.co/image/ab6761610000e5eb3110a9b40a538e513d230b6d",
        "width" : 640
      }, {
        "height" : 320,
        "url" : "https://i.scdn.co/image/ab676161000051743110a9b40a538e513d230b6d",
        "width" : 320
      }, {
        "height" : 160,
        "url" : "https://i.scdn.co/image/ab6761610000f1783110a9b40a538e513d230b6d",
        "width" : 160
      } ],
      "name" : "DJ Holographic",
      "popularity" : 16,
      "type" : "artist",
      "uri" : "spotify:artist:4PRhpvNBYt7YURb5VhEDox"
    }, {
      "external_urls" : {
        "spotify" : "https://open.spotify.com/artist/4pUwtnbS6FdBniLp410AOu"
      },
      "followers" : {
        "href" : null,
        "total" : 21582
      },
      "genres" : [ ],
      "href" : "https://api.spotify.com/v1/artists/4pUwtnbS6FdBniLp410AOu",
      "id" : "4pUwtnbS6FdBniLp410AOu",
      "images" : [ {
        "height" : 640,
        "url" : "https://i.scdn.co/image/ab6761610000e5eb03b4758d71020f0645db00f6",
        "width" : 640
      }, {
        "height" : 320,
        "url" : "https://i.scdn.co/image/ab6761610000517403b4758d71020f0645db00f6",
        "width" : 320
      }, {
        "height" : 160,
        "url" : "https://i.scdn.co/image/ab6761610000f17803b4758d71020f0645db00f6",
        "width" : 160
      } ],
      "name" : "Godford",
      "popularity" : 45,
      "type" : "artist",
      "uri" : "spotify:artist:4pUwtnbS6FdBniLp410AOu"
    }, {
      "external_urls" : {
        "spotify" : "https://open.spotify.com/artist/6mM9a86Nrw0y7f9MaJGbpU"
      },
      "followers" : {
        "href" : null,
        "total" : 126911
      },
      "genres" : [ ],
      "href" : "https://api.spotify.com/v1/artists/6mM9a86Nrw0y7f9MaJGbpU",
      "id" : "6mM9a86Nrw0y7f9MaJGbpU",
      "images" : [ {
        "height" : 640,
        "url" : "https://i.scdn.co/image/ab6761610000e5eb9a58939b4a27ec1395bd39ce",
        "width" : 640
      }, {
        "height" : 320,
        "url" : "https://i.scdn.co/image/ab676161000051749a58939b4a27ec1395bd39ce",
        "width" : 320
      }, {
        "height" : 160,
        "url" : "https://i.scdn.co/image/ab6761610000f1789a58939b4a27ec1395bd39ce",
        "width" : 160
      } ],
      "name" : "Giolì & Assia",
      "popularity" : 52,
      "type" : "artist",
      "uri" : "spotify:artist:6mM9a86Nrw0y7f9MaJGbpU"
    }, {
      "external_urls" : {
        "spotify" : "https://open.spotify.com/artist/3X2DdnmoANw8Rg8luHyZQb"
      },
      "followers" : {
        "href" : null,
        "total" : 29682
      },
      "genres" : [ ],
      "href" : "https://api.spotify.com/v1/artists/3X2DdnmoANw8Rg8luHyZQb",
      "id" : "3X2DdnmoANw8Rg8luHyZQb",
      "images" : [ {
        "height" : 640,
        "url" : "https://i.scdn.co/image/ab6761610000e5eb3011768f39814825f8842ceb",
        "width" : 640
      }, {
        "height" : 320,
        "url" : "https://i.scdn.co/image/ab676161000051743011768f39814825f8842ceb",
        "width" : 320
      }, {
        "height" : 160,
        "url" : "https://i.scdn.co/image/ab6761610000f1783011768f39814825f8842ceb",
        "width" : 160
      } ],
      "name" : "Romy",
      "popularity" : 53,
      "type" : "artist",
      "uri" : "spotify:artist:3X2DdnmoANw8Rg8luHyZQb"
    }, {
      "external_urls" : {
        "spotify" : "https://open.spotify.com/artist/6mK0vAO13gT8jWYANyoXAl"
      },
      "followers" : {
        "href" : null,
        "total" : 58029
      },
      "genres" : [ "aussietronica", "indie soul" ],
      "href" : "https://api.spotify.com/v1/artists/6mK0vAO13gT8jWYANyoXAl",
      "id" : "6mK0vAO13gT8jWYANyoXAl",
      "images" : [ {
        "height" : 640,
        "url" : "https://i.scdn.co/image/ab6761610000e5ebd41f7a07fd1cffb2200586f0",
        "width" : 640
      }, {
        "height" : 320,
        "url" : "https://i.scdn.co/image/ab67616100005174d41f7a07fd1cffb2200586f0",
        "width" : 320
      }, {
        "height" : 160,
        "url" : "https://i.scdn.co/image/ab6761610000f178d41f7a07fd1cffb2200586f0",
        "width" : 160
      } ],
      "name" : "Young Franco",
      "popularity" : 53,
      "type" : "artist",
      "uri" : "spotify:artist:6mK0vAO13gT8jWYANyoXAl"
    }, {
      "external_urls" : {
        "spotify" : "https://open.spotify.com/artist/3KOHpygRuo1ruQAbEneR3t"
      },
      "followers" : {
        "href" : null,
        "total" : 114441
      },
      "genres" : [ "electronica", "future garage", "uk bass" ],
      "href" : "https://api.spotify.com/v1/artists/3KOHpygRuo1ruQAbEneR3t",
      "id" : "3KOHpygRuo1ruQAbEneR3t",
      "images" : [ {
        "height" : 640,
        "url" : "https://i.scdn.co/image/ab6761610000e5ebbfca301b130d537f406d6603",
        "width" : 640
      }, {
        "height" : 320,
        "url" : "https://i.scdn.co/image/ab67616100005174bfca301b130d537f406d6603",
        "width" : 320
      }, {
        "height" : 160,
        "url" : "https://i.scdn.co/image/ab6761610000f178bfca301b130d537f406d6603",
        "width" : 160
      } ],
      "name" : "George FitzGerald",
      "popularity" : 50,
      "type" : "artist",
      "uri" : "spotify:artist:3KOHpygRuo1ruQAbEneR3t"
    }, {
      "external_urls" : {
        "spotify" : "https://open.spotify.com/artist/3BUpv2goO0OTzcj7yYkRZJ"
      },
      "followers" : {
        "href" : null,
        "total" : 5265
      },
      "genres" : [ ],
      "href" : "https://api.spotify.com/v1/artists/3BUpv2goO0OTzcj7yYkRZJ",
      "id" : "3BUpv2goO0OTzcj7yYkRZJ",
      "images" : [ {
        "height" : 640,
        "url" : "https://i.scdn.co/image/ab6761610000e5eb51ec3e0ad79f0407ed7df130",
        "width" : 640
      }, {
        "height" : 320,
        "url" : "https://i.scdn.co/image/ab6761610000517451ec3e0ad79f0407ed7df130",
        "width" : 320
      }, {
        "height" : 160,
        "url" : "https://i.scdn.co/image/ab6761610000f17851ec3e0ad79f0407ed7df130",
        "width" : 160
      } ],
      "name" : "JJUUJJUU",
      "popularity" : 11,
      "type" : "artist",
      "uri" : "spotify:artist:3BUpv2goO0OTzcj7yYkRZJ"
    }, {
      "external_urls" : {
        "spotify" : "https://open.spotify.com/artist/18SJLvRK2C84Ayo1owImsk"
      },
      "followers" : {
        "href" : null,
        "total" : 68
      },
      "genres" : [ ],
      "href" : "https://api.spotify.com/v1/artists/18SJLvRK2C84Ayo1owImsk",
      "id" : "18SJLvRK2C84Ayo1owImsk",
      "images" : [ {
        "height" : 640,
        "url" : "https://i.scdn.co/image/ab6761610000e5eb251081bb7b4eac9994ebe6aa",
        "width" : 640
      }, {
        "height" : 320,
        "url" : "https://i.scdn.co/image/ab67616100005174251081bb7b4eac9994ebe6aa",
        "width" : 320
      }, {
        "height" : 160,
        "url" : "https://i.scdn.co/image/ab6761610000f178251081bb7b4eac9994ebe6aa",
        "width" : 160
      } ],
      "name" : "Heads Are Heavy",
      "popularity" : 6,
      "type" : "artist",
      "uri" : "spotify:artist:18SJLvRK2C84Ayo1owImsk"
    }, {
      "external_urls" : {
        "spotify" : "https://open.spotify.com/artist/49nsDhtufKEYcLkIYv5cln"
      },
      "followers" : {
        "href" : null,
        "total" : 303
      },
      "genres" : [ ],
      "href" : "https://api.spotify.com/v1/artists/49nsDhtufKEYcLkIYv5cln",
      "id" : "49nsDhtufKEYcLkIYv5cln",
      "images" : [ {
        "height" : 640,
        "url" : "https://i.scdn.co/image/ab6761610000e5eb82d5586d9074fe6518b1fddc",
        "width" : 640
      }, {
        "height" : 320,
        "url" : "https://i.scdn.co/image/ab6761610000517482d5586d9074fe6518b1fddc",
        "width" : 320
      }, {
        "height" : 160,
        "url" : "https://i.scdn.co/image/ab6761610000f17882d5586d9074fe6518b1fddc",
        "width" : 160
      } ],
      "name" : "Thee Mike B",
      "popularity" : 7,
      "type" : "artist",
      "uri" : "spotify:artist:49nsDhtufKEYcLkIYv5cln"
    }, {
      "external_urls" : {
        "spotify" : "https://open.spotify.com/artist/1lsJmnN90u3KBvF3tGEWr3"
      },
      "followers" : {
        "href" : null,
        "total" : 54104
      },
      "genres" : [ "neo-psychedelic" ],
      "href" : "https://api.spotify.com/v1/artists/1lsJmnN90u3KBvF3tGEWr3",
      "id" : "1lsJmnN90u3KBvF3tGEWr3",
      "images" : [ {
        "height" : 640,
        "url" : "https://i.scdn.co/image/ab6761610000e5eb9d89d1b035a444eba397e87f",
        "width" : 640
      }, {
        "height" : 320,
        "url" : "https://i.scdn.co/image/ab676161000051749d89d1b035a444eba397e87f",
        "width" : 320
      }, {
        "height" : 160,
        "url" : "https://i.scdn.co/image/ab6761610000f1789d89d1b035a444eba397e87f",
        "width" : 160
      } ],
      "name" : "Mildlife",
      "popularity" : 39,
      "type" : "artist",
      "uri" : "spotify:artist:1lsJmnN90u3KBvF3tGEWr3"
    }, {
      "external_urls" : {
        "spotify" : "https://open.spotify.com/artist/0x9HCT7ZZlOEfLSVCDi5SO"
      },
      "followers" : {
        "href" : null,
        "total" : 43271
      },
      "genres" : [ "french garage rock", "french stoner rock", "neo-psychedelic", "rock alternatif francais" ],
      "href" : "https://api.spotify.com/v1/artists/0x9HCT7ZZlOEfLSVCDi5SO",
      "id" : "0x9HCT7ZZlOEfLSVCDi5SO",
      "images" : [ {
        "height" : 640,
        "url" : "https://i.scdn.co/image/ab6761610000e5eb247ab814d00c3ee319eb2055",
        "width" : 640
      }, {
        "height" : 320,
        "url" : "https://i.scdn.co/image/ab67616100005174247ab814d00c3ee319eb2055",
        "width" : 320
      }, {
        "height" : 160,
        "url" : "https://i.scdn.co/image/ab6761610000f178247ab814d00c3ee319eb2055",
        "width" : 160
      } ],
      "name" : "SLIFT",
      "popularity" : 32,
      "type" : "artist",
      "uri" : "spotify:artist:0x9HCT7ZZlOEfLSVCDi5SO"
    }, {
      "external_urls" : {
        "spotify" : "https://open.spotify.com/artist/587PA35pRGL1JwQr6idJbb"
      },
      "followers" : {
        "href" : null,
        "total" : 110124
      },
      "genres" : [ "indie soul" ],
      "href" : "https://api.spotify.com/v1/artists/587PA35pRGL1JwQr6idJbb",
      "id" : "587PA35pRGL1JwQr6idJbb",
      "images" : [ {
        "height" : 640,
        "url" : "https://i.scdn.co/image/ab6761610000e5ebd4290ba8a5b43d681242ed2b",
        "width" : 640
      }, {
        "height" : 320,
        "url" : "https://i.scdn.co/image/ab67616100005174d4290ba8a5b43d681242ed2b",
        "width" : 320
      }, {
        "height" : 160,
        "url" : "https://i.scdn.co/image/ab6761610000f178d4290ba8a5b43d681242ed2b",
        "width" : 160
      } ],
      "name" : "NEIL FRANCES",
      "popularity" : 62,
      "type" : "artist",
      "uri" : "spotify:artist:587PA35pRGL1JwQr6idJbb"
    }, {
      "external_urls" : {
        "spotify" : "https://open.spotify.com/artist/4V5obzWMr7BHZrjOiQwB4K"
      },
      "followers" : {
        "href" : null,
        "total" : 30121
      },
      "genres" : [ "mathcore" ],
      "href" : "https://api.spotify.com/v1/artists/4V5obzWMr7BHZrjOiQwB4K",
      "id" : "4V5obzWMr7BHZrjOiQwB4K",
      "images" : [ {
        "height" : 640,
        "url" : "https://i.scdn.co/image/ab6761610000e5ebd92e0118bad05253ab058304",
        "width" : 640
      }, {
        "height" : 320,
        "url" : "https://i.scdn.co/image/ab67616100005174d92e0118bad05253ab058304",
        "width" : 320
      }, {
        "height" : 160,
        "url" : "https://i.scdn.co/image/ab6761610000f178d92e0118bad05253ab058304",
        "width" : 160
      } ],
      "name" : "The Armed",
      "popularity" : 39,
      "type" : "artist",
      "uri" : "spotify:artist:4V5obzWMr7BHZrjOiQwB4K"
    }, {
      "external_urls" : {
        "spotify" : "https://open.spotify.com/artist/4FN8WHqUbwkd97WEjoCu7B"
      },
      "followers" : {
        "href" : null,
        "total" : 57908
      },
      "genres" : [ "bass house", "house" ],
      "href" : "https://api.spotify.com/v1/artists/4FN8WHqUbwkd97WEjoCu7B",
      "id" : "4FN8WHqUbwkd97WEjoCu7B",
      "images" : [ {
        "height" : 640,
        "url" : "https://i.scdn.co/image/ab6761610000e5eb5899d87d69bd3d3bc46ccae3",
        "width" : 640
      }, {
        "height" : 320,
        "url" : "https://i.scdn.co/image/ab676161000051745899d87d69bd3d3bc46ccae3",
        "width" : 320
      }, {
        "height" : 160,
        "url" : "https://i.scdn.co/image/ab6761610000f1785899d87d69bd3d3bc46ccae3",
        "width" : 160
      } ],
      "name" : "Justin Martin",
      "popularity" : 42,
      "type" : "artist",
      "uri" : "spotify:artist:4FN8WHqUbwkd97WEjoCu7B"
    }, {
      "external_urls" : {
        "spotify" : "https://open.spotify.com/artist/5JWBow4ywgKNQ5HBxY8hcz"
      },
      "followers" : {
        "href" : null,
        "total" : 40949
      },
      "genres" : [ "alternative dance", "brooklyn indie" ],
      "href" : "https://api.spotify.com/v1/artists/5JWBow4ywgKNQ5HBxY8hcz",
      "id" : "5JWBow4ywgKNQ5HBxY8hcz",
      "images" : [ {
        "height" : 640,
        "url" : "https://i.scdn.co/image/ab6761610000e5eb8f6273f30a4fa5b2175bf047",
        "width" : 640
      }, {
        "height" : 320,
        "url" : "https://i.scdn.co/image/ab676161000051748f6273f30a4fa5b2175bf047",
        "width" : 320
      }, {
        "height" : 160,
        "url" : "https://i.scdn.co/image/ab6761610000f1788f6273f30a4fa5b2175bf047",
        "width" : 160
      } ],
      "name" : "Nation of Language",
      "popularity" : 45,
      "type" : "artist",
      "uri" : "spotify:artist:5JWBow4ywgKNQ5HBxY8hcz"
    }, {
      "external_urls" : {
        "spotify" : "https://open.spotify.com/artist/5J98YgDIx8RIyW5b7t6VD7"
      },
      "followers" : {
        "href" : null,
        "total" : 46
      },
      "genres" : [ ],
      "href" : "https://api.spotify.com/v1/artists/5J98YgDIx8RIyW5b7t6VD7",
      "id" : "5J98YgDIx8RIyW5b7t6VD7",
      "images" : [ {
        "height" : 640,
        "url" : "https://i.scdn.co/image/ab67616d0000b2734eb83037a074aedfdbfbf562",
        "width" : 640
      }, {
        "height" : 300,
        "url" : "https://i.scdn.co/image/ab67616d00001e024eb83037a074aedfdbfbf562",
        "width" : 300
      }, {
        "height" : 64,
        "url" : "https://i.scdn.co/image/ab67616d000048514eb83037a074aedfdbfbf562",
        "width" : 64
      } ],
      "name" : "Dials",
      "popularity" : 1,
      "type" : "artist",
      "uri" : "spotify:artist:5J98YgDIx8RIyW5b7t6VD7"
    }, {
      "external_urls" : {
        "spotify" : "https://open.spotify.com/artist/1Ma3pJzPIrAyYPNRkp3SUF"
      },
      "followers" : {
        "href" : null,
        "total" : 146023
      },
      "genres" : [ "deep house", "electronica", "float house", "lo-fi house" ],
      "href" : "https://api.spotify.com/v1/artists/1Ma3pJzPIrAyYPNRkp3SUF",
      "id" : "1Ma3pJzPIrAyYPNRkp3SUF",
      "images" : [ {
        "height" : 640,
        "url" : "https://i.scdn.co/image/ab6761610000e5eb220be919258c7391c5c0727b",
        "width" : 640
      }, {
        "height" : 320,
        "url" : "https://i.scdn.co/image/ab67616100005174220be919258c7391c5c0727b",
        "width" : 320
      }, {
        "height" : 160,
        "url" : "https://i.scdn.co/image/ab6761610000f178220be919258c7391c5c0727b",
        "width" : 160
      } ],
      "name" : "Ross from Friends",
      "popularity" : 47,
      "type" : "artist",
      "uri" : "spotify:artist:1Ma3pJzPIrAyYPNRkp3SUF"
    } ],
    "limit" : 20,
    "next" : "https://api.spotify.com/v1/search?query=elkka&type=artist&market=US&offset=20&limit=20",
    "offset" : 0,
    "previous" : null,
    "total" : 21
  }
}