{
  "artists" : {
    "href" : "https://api.spotify.com/v1/search?query=kid+606&type=artist&market=US&offset=0&limit=20",
    "items" : [ {
      "external_urls" : {
        "spotify" : "https://open.spotify.com/artist/6ZwyJW6O4dYMmDmUuMjOtX"
      },
      "followers" : {
        "href" : null,
        "total" : 30
      },
      "genres" : [ ],
      "href" : "https://api.spotify.com/v1/artists/6ZwyJW6O4dYMmDmUuMjOtX",
      "id" : "6ZwyJW6O4dYMmDmUuMjOtX",
      "images" : [ ],
      "name" : "Kid 606",
      "popularity" : 6,
      "type" : "artist",
      "uri" : "spotify:artist:6ZwyJW6O4dYMmDmUuMjOtX"
    }, {
      "external_urls" : {
        "spotify" : "https://open.spotify.com/artist/7kDf1ziRxPFtWbbZB1XmrM"
      },
      "followers" : {
        "href" : null,
        "total" : 10275
      },
      "genres" : [ "breakcore", "deep idm", "drill and bass", "glitch", "intelligent dance music", "plunderphonics" ],
      "href" : "https://api.spotify.com/v1/artists/7kDf1ziRxPFtWbbZB1XmrM",
      "id" : "7kDf1ziRxPFtWbbZB1XmrM",
      "images" : [ {
        "height" : 600,
        "url" : "https://i.scdn.co/image/2e2dd52def89c9e902cb4c986974f418565b2f0d",
        "width" : 900
      }, {
        "height" : 427,
        "url" : "https://i.scdn.co/image/264d610868ea6133a598adce811442055d00c3da",
        "width" : 640
      }, {
        "height" : 133,
        "url" : "https://i.scdn.co/image/b1c3091a06e4f3deaac3430c176eb2d26fec9aeb",
        "width" : 200
      }, {
        "height" : 43,
        "url" : "https://i.scdn.co/image/0f1815d307c4e80187d474e36c5e427cf2f75e7d",
        "width" : 64
      } ],
      "name" : "Kid606",
      "popularity" : 21,
      "type" : "artist",
      "uri" : "spotify:artist:7kDf1ziRxPFtWbbZB1XmrM"
    }, {
      "external_urls" : {
        "spotify" : "https://open.spotify.com/artist/53N4oJpWtmnB0KGLLserGC"
      },
      "followers" : {
        "href" : null,
        "total" : 82904
      },
      "genres" : [ "drill and bass", "electronica", "glitch", "intelligent dance music" ],
      "href" : "https://api.spotify.com/v1/artists/53N4oJpWtmnB0KGLLserGC",
      "id" : "53N4oJpWtmnB0KGLLserGC",
      "images" : [ {
        "height" : 640,
        "url" : "https://i.scdn.co/image/ab6761610000e5eb66dd628a7110d390385b3a47",
        "width" : 640
      }, {
        "height" : 320,
        "url" : "https://i.scdn.co/image/ab6761610000517466dd628a7110d390385b3a47",
        "width" : 320
      }, {
        "height" : 160,
        "url" : "https://i.scdn.co/image/ab6761610000f17866dd628a7110d390385b3a47",
        "width" : 160
      } ],
      "name" : "Telefon Tel Aviv",
      "popularity" : 32,
      "type" : "artist",
      "uri" : "spotify:artist:53N4oJpWtmnB0KGLLserGC"
    }, {
      "external_urls" : {
        "spotify" : "https://open.spotify.com/artist/2GDJp1Ij0ecOrm7KQOypDl"
      },
      "followers" : {
        "href" : null,
        "total" : 449
      },
      "genres" : [ ],
      "href" : "https://api.spotify.com/v1/artists/2GDJp1Ij0ecOrm7KQOypDl",
      "id" : "2GDJp1Ij0ecOrm7KQOypDl",
      "images" : [ {
        "height" : 640,
        "url" : "https://i.scdn.co/image/ab67616d0000b273b55e24ae46e4bc341a2de7f9",
        "width" : 640
      }, {
        "height" : 300,
        "url" : "https://i.scdn.co/image/ab67616d00001e02b55e24ae46e4bc341a2de7f9",
        "width" : 300
      }, {
        "height" : 64,
        "url" : "https://i.scdn.co/image/ab67616d00004851b55e24ae46e4bc341a2de7f9",
        "width" : 64
      } ],
      "name" : "KIDD 550",
      "popularity" : 21,
      "type" : "artist",
      "uri" : "spotify:artist:2GDJp1Ij0ecOrm7KQOypDl"
    }, {
      "external_urls" : {
        "spotify" : "https://open.spotify.com/artist/3oepqBam8hseLJzYctKBIN"
      },
      "followers" : {
        "href" : null,
        "total" : 57
      },
      "genres" : [ ],
      "href" : "https://api.spotify.com/v1/artists/3oepqBam8hseLJzYctKBIN",
      "id" : "3oepqBam8hseLJzYctKBIN",
      "images" : [ {
        "height" : 640,
        "url" : "https://i.scdn.co/image/ab67616d0000b2733ccbab18dc175795622be4a0",
        "width" : 640
      }, {
        "height" : 300,
        "url" : "https://i.scdn.co/image/ab67616d00001e023ccbab18dc175795622be4a0",
        "width" : 300
      }, {
        "height" : 64,
        "url" : "https://i.scdn.co/image/ab67616d000048513ccbab18dc175795622be4a0",
        "width" : 64
      } ],
      "name" : "Kid 606 Vs Dalek",
      "popularity" : 0,
      "type" : "artist",
      "uri" : "spotify:artist:3oepqBam8hseLJzYctKBIN"
    }, {
      "external_urls" : {
        "spotify" : "https://open.spotify.com/artist/0ZyDTo761WyZWf1uy6TTLr"
      },
      "followers" : {
        "href" : null,
        "total" : 0
      },
      "genres" : [ ],
      "href" : "https://api.spotify.com/v1/artists/0ZyDTo761WyZWf1uy6TTLr",
      "id" : "0ZyDTo761WyZWf1uy6TTLr",
      "images" : [ ],
      "name" : "Kid 606",
      "popularity" : 0,
      "type" : "artist",
      "uri" : "spotify:artist:0ZyDTo761WyZWf1uy6TTLr"
    }, {
      "external_urls" : {
        "spotify" : "https://open.spotify.com/artist/18SJLvRK2C84Ayo1owImsk"
      },
      "followers" : {
        "href" : null,
        "total" : 68
      },
      "genres" : [ ],
      "href" : "https://api.spotify.com/v1/artists/18SJLvRK2C84Ayo1owImsk",
      "id" : "18SJLvRK2C84Ayo1owImsk",
      "images" : [ {
        "height" : 640,
        "url" : "https://i.scdn.co/image/ab6761610000e5eb251081bb7b4eac9994ebe6aa",
        "width" : 640
      }, {
        "height" : 320,
        "url" : "https://i.scdn.co/image/ab67616100005174251081bb7b4eac9994ebe6aa",
        "width" : 320
      }, {
        "height" : 160,
        "url" : "https://i.scdn.co/image/ab6761610000f178251081bb7b4eac9994ebe6aa",
        "width" : 160
      } ],
      "name" : "Heads Are Heavy",
      "popularity" : 6,
      "type" : "artist",
      "uri" : "spotify:artist:18SJLvRK2C84Ayo1owImsk"
    }, {
      "external_urls" : {
        "spotify" : "https://open.spotify.com/artist/1YbCu887INXGrej7FkjYnW"
      },
      "followers" : {
        "href" : null,
        "total" : 41
      },
      "genres" : [ ],
      "href" : "https://api.spotify.com/v1/artists/1YbCu887INXGrej7FkjYnW",
      "id" : "1YbCu887INXGrej7FkjYnW",
      "images" : [ {
        "height" : 640,
        "url" : "https://i.scdn.co/image/ab67616d0000b273c00c28d7834292c6e430115b",
        "width" : 640
      }, {
        "height" : 300,
        "url" : "https://i.scdn.co/image/ab67616d00001e02c00c28d7834292c6e430115b",
        "width" : 300
      }, {
        "height" : 64,
        "url" : "https://i.scdn.co/image/ab67616d00004851c00c28d7834292c6e430115b",
        "width" : 64
      } ],
      "name" : "The 707 Kid",
      "popularity" : 6,
      "type" : "artist",
      "uri" : "spotify:artist:1YbCu887INXGrej7FkjYnW"
    }, {
      "external_urls" : {
        "spotify" : "https://open.spotify.com/artist/4V5obzWMr7BHZrjOiQwB4K"
      },
      "followers" : {
        "href" : null,
        "total" : 30121
      },
      "genres" : [ "mathcore" ],
      "href" : "https://api.spotify.com/v1/artists/4V5obzWMr7BHZrjOiQwB4K",
      "id" : "4V5obzWMr7BHZrjOiQwB4K",
      "images" : [ {
        "height" : 640,
        "url" : "https://i.scdn.co/image/ab6761610000e5ebd92e0118bad05253ab058304",
        "width" : 640
      }, {
        "height" : 320,
        "url" : "https://i.scdn.co/image/ab67616100005174d92e0118bad05253ab058304",
        "width" : 320
      }, {
        "height" : 160,
        "url" : "https://i.scdn.co/image/ab6761610000f178d92e0118bad05253ab058304",
        "width" : 160
      } ],
      "name" : "The Armed",
      "popularity" : 39,
      "type" : "artist",
      "uri" : "spotify:artist:4V5obzWMr7BHZrjOiQwB4K"
    }, {
      "external_urls" : {
        "spotify" : "https://open.spotify.com/artist/7FiPZvxmHmGNqOqfSFfluQ"
      },
      "followers" : {
        "href" : null,
        "total" : 2449
      },
      "genres" : [ "dutch hip hop" ],
      "href" : "https://api.spotify.com/v1/artists/7FiPZvxmHmGNqOqfSFfluQ",
      "id" : "7FiPZvxmHmGNqOqfSFfluQ",
      "images" : [ {
        "height" : 640,
        "url" : "https://i.scdn.co/image/ab6761610000e5ebaa6fe87e21ea503bee057a33",
        "width" : 640
      }, {
        "height" : 320,
        "url" : "https://i.scdn.co/image/ab67616100005174aa6fe87e21ea503bee057a33",
        "width" : 320
      }, {
        "height" : 160,
        "url" : "https://i.scdn.co/image/ab6761610000f178aa6fe87e21ea503bee057a33",
        "width" : 160
      } ],
      "name" : "Kid Tha 6",
      "popularity" : 14,
      "type" : "artist",
      "uri" : "spotify:artist:7FiPZvxmHmGNqOqfSFfluQ"
    }, {
      "external_urls" : {
        "spotify" : "https://open.spotify.com/artist/1Q3GAlqy0FVpIU0HDHmT51"
      },
      "followers" : {
        "href" : null,
        "total" : 2
      },
      "genres" : [ ],
      "href" : "https://api.spotify.com/v1/artists/1Q3GAlqy0FVpIU0HDHmT51",
      "id" : "1Q3GAlqy0FVpIU0HDHmT51",
      "images" : [ ],
      "name" : "Kid606, Doshy",
      "popularity" : 0,
      "type" : "artist",
      "uri" : "spotify:artist:1Q3GAlqy0FVpIU0HDHmT51"
    }, {
      "external_urls" : {
        "spotify" : "https://open.spotify.com/artist/5Ly0z60jjgsY4rkmjRFtPS"
      },
      "followers" : {
        "href" : null,
        "total" : 12757
      },
      "genres" : [ "electra", "electronica", "float house" ],
      "href" : "https://api.spotify.com/v1/artists/5Ly0z60jjgsY4rkmjRFtPS",
      "id" : "5Ly0z60jjgsY4rkmjRFtPS",
      "images" : [ {
        "height" : 640,
        "url" : "https://i.scdn.co/image/ab6761610000e5eb0b1015b14d90885e67c06b13",
        "width" : 640
      }, {
        "height" : 320,
        "url" : "https://i.scdn.co/image/ab676161000051740b1015b14d90885e67c06b13",
        "width" : 320
      }, {
        "height" : 160,
        "url" : "https://i.scdn.co/image/ab6761610000f1780b1015b14d90885e67c06b13",
        "width" : 160
      } ],
      "name" : "Elkka",
      "popularity" : 41,
      "type" : "artist",
      "uri" : "spotify:artist:5Ly0z60jjgsY4rkmjRFtPS"
    }, {
      "external_urls" : {
        "spotify" : "https://open.spotify.com/artist/25MzkqSiZyqtKe5On7pkM2"
      },
      "followers" : {
        "href" : null,
        "total" : 1
      },
      "genres" : [ ],
      "href" : "https://api.spotify.com/v1/artists/25MzkqSiZyqtKe5On7pkM2",
      "id" : "25MzkqSiZyqtKe5On7pkM2",
      "images" : [ ],
      "name" : "MIffy, Kid606",
      "popularity" : 0,
      "type" : "artist",
      "uri" : "spotify:artist:25MzkqSiZyqtKe5On7pkM2"
    }, {
      "external_urls" : {
        "spotify" : "https://open.spotify.com/artist/3BUpv2goO0OTzcj7yYkRZJ"
      },
      "followers" : {
        "href" : null,
        "total" : 5265
      },
      "genres" : [ ],
      "href" : "https://api.spotify.com/v1/artists/3BUpv2goO0OTzcj7yYkRZJ",
      "id" : "3BUpv2goO0OTzcj7yYkRZJ",
      "images" : [ {
        "height" : 640,
        "url" : "https://i.scdn.co/image/ab6761610000e5eb51ec3e0ad79f0407ed7df130",
        "width" : 640
      }, {
        "height" : 320,
        "url" : "https://i.scdn.co/image/ab6761610000517451ec3e0ad79f0407ed7df130",
        "width" : 320
      }, {
        "height" : 160,
        "url" : "https://i.scdn.co/image/ab6761610000f17851ec3e0ad79f0407ed7df130",
        "width" : 160
      } ],
      "name" : "JJUUJJUU",
      "popularity" : 11,
      "type" : "artist",
      "uri" : "spotify:artist:3BUpv2goO0OTzcj7yYkRZJ"
    }, {
      "external_urls" : {
        "spotify" : "https://open.spotify.com/artist/1lZmHHeN8QvYEuzxMFTY8Y"
      },
      "followers" : {
        "href" : null,
        "total" : 1
      },
      "genres" : [ ],
      "href" : "https://api.spotify.com/v1/artists/1lZmHHeN8QvYEuzxMFTY8Y",
      "id" : "1lZmHHeN8QvYEuzxMFTY8Y",
      "images" : [ ],
      "name" : "Kid606, Kidz on acid",
      "popularity" : 0,
      "type" : "artist",
      "uri" : "spotify:artist:1lZmHHeN8QvYEuzxMFTY8Y"
    }, {
      "external_urls" : {
        "spotify" : "https://open.spotify.com/artist/5jh7sgXW2njALiIh0aPXjB"
      },
      "followers" : {
        "href" : null,
        "total" : 75936
      },
      "genres" : [ "noise punk" ],
      "href" : "https://api.spotify.com/v1/artists/5jh7sgXW2njALiIh0aPXjB",
      "id" : "5jh7sgXW2njALiIh0aPXjB",
      "images" : [ {
        "height" : 640,
        "url" : "https://i.scdn.co/image/ab6761610000e5eb2dc23250ce8a742f9d095e50",
        "width" : 640
      }, {
        "height" : 320,
        "url" : "https://i.scdn.co/image/ab676161000051742dc23250ce8a742f9d095e50",
        "width" : 320
      }, {
        "height" : 160,
        "url" : "https://i.scdn.co/image/ab6761610000f1782dc23250ce8a742f9d095e50",
        "width" : 160
      } ],
      "name" : "Show Me the Body",
      "popularity" : 45,
      "type" : "artist",
      "uri" : "spotify:artist:5jh7sgXW2njALiIh0aPXjB"
    }, {
      "external_urls" : {
        "spotify" : "https://open.spotify.com/artist/7bAXWBE511nEc4yeHIo0wF"
      },
      "followers" : {
        "href" : null,
        "total" : 3
      },
      "genres" : [ ],
      "href" : "https://api.spotify.com/v1/artists/7bAXWBE511nEc4yeHIo0wF",
      "id" : "7bAXWBE511nEc4yeHIo0wF",
      "images" : [ ],
      "name" : "Kid606, Obi Blanche",
      "popularity" : 0,
      "type" : "artist",
      "uri" : "spotify:artist:7bAXWBE511nEc4yeHIo0wF"
    }, {
      "external_urls" : {
        "spotify" : "https://open.spotify.com/artist/3ni9LX95aVQksOuoHFEbEx"
      },
      "followers" : {
        "href" : null,
        "total" : 67534
      },
      "genres" : [ "comic" ],
      "href" : "https://api.spotify.com/v1/artists/3ni9LX95aVQksOuoHFEbEx",
      "id" : "3ni9LX95aVQksOuoHFEbEx",
      "images" : [ {
        "height" : 667,
        "url" : "https://i.scdn.co/image/957a9f60f2c72597d29294d896bc38035f3e3012",
        "width" : 1000
      }, {
        "height" : 427,
        "url" : "https://i.scdn.co/image/6ae423a882b7de3407b491ec3befacaffb86c11d",
        "width" : 640
      }, {
        "height" : 133,
        "url" : "https://i.scdn.co/image/fcbd9799cec0d31bc1434e3b05e788290557e317",
        "width" : 200
      }, {
        "height" : 43,
        "url" : "https://i.scdn.co/image/167641be3f8de4f3cae307490ba94d3434fca74e",
        "width" : 64
      } ],
      "name" : "Reggie Watts",
      "popularity" : 37,
      "type" : "artist",
      "uri" : "spotify:artist:3ni9LX95aVQksOuoHFEbEx"
    }, {
      "external_urls" : {
        "spotify" : "https://open.spotify.com/artist/6tIJd2jgUGLG8RpGJ6GbG9"
      },
      "followers" : {
        "href" : null,
        "total" : 2
      },
      "genres" : [ ],
      "href" : "https://api.spotify.com/v1/artists/6tIJd2jgUGLG8RpGJ6GbG9",
      "id" : "6tIJd2jgUGLG8RpGJ6GbG9",
      "images" : [ ],
      "name" : "Dolby Anol, Kid606",
      "popularity" : 0,
      "type" : "artist",
      "uri" : "spotify:artist:6tIJd2jgUGLG8RpGJ6GbG9"
    }, {
      "external_urls" : {
        "spotify" : "https://open.spotify.com/artist/0x9HCT7ZZlOEfLSVCDi5SO"
      },
      "followers" : {
        "href" : null,
        "total" : 43271
      },
      "genres" : [ "french garage rock", "french stoner rock", "neo-psychedelic", "rock alternatif francais" ],
      "href" : "https://api.spotify.com/v1/artists/0x9HCT7ZZlOEfLSVCDi5SO",
      "id" : "0x9HCT7ZZlOEfLSVCDi5SO",
      "images" : [ {
        "height" : 640,
        "url" : "https://i.scdn.co/image/ab6761610000e5eb247ab814d00c3ee319eb2055",
        "width" : 640
      }, {
        "height" : 320,
        "url" : "https://i.scdn.co/image/ab67616100005174247ab814d00c3ee319eb2055",
        "width" : 320
      }, {
        "height" : 160,
        "url" : "https://i.scdn.co/image/ab6761610000f178247ab814d00c3ee319eb2055",
        "width" : 160
      } ],
      "name" : "SLIFT",
      "popularity" : 32,
      "type" : "artist",
      "uri" : "spotify:artist:0x9HCT7ZZlOEfLSVCDi5SO"
    } ],
    "limit" : 20,
    "next" : "https://api.spotify.com/v1/search?query=kid+606&type=artist&market=US&offset=20&limit=20",
    "offset" : 0,
    "previous" : null,
    "total" : 36
  }
}