{
  "artists" : {
    "href" : "https://api.spotify.com/v1/search?query=lady+wray&type=artist&market=US&offset=0&limit=20",
    "items" : [ {
      "external_urls" : {
        "spotify" : "https://open.spotify.com/artist/1plioVQ0mcgAO7uhvWkJJy"
      },
      "followers" : {
        "href" : null,
        "total" : 67738
      },
      "genres" : [ "alternative r&b", "funk", "indie soul", "neo soul", "soul" ],
      "href" : "https://api.spotify.com/v1/artists/1plioVQ0mcgAO7uhvWkJJy",
      "id" : "1plioVQ0mcgAO7uhvWkJJy",
      "images" : [ {
        "height" : 640,
        "url" : "https://i.scdn.co/image/ab6761610000e5eb99b304bfd6eb8acdb9a1eea2",
        "width" : 640
      }, {
        "height" : 320,
        "url" : "https://i.scdn.co/image/ab6761610000517499b304bfd6eb8acdb9a1eea2",
        "width" : 320
      }, {
        "height" : 160,
        "url" : "https://i.scdn.co/image/ab6761610000f17899b304bfd6eb8acdb9a1eea2",
        "width" : 160
      } ],
      "name" : "Lady Wray",
      "popularity" : 51,
      "type" : "artist",
      "uri" : "spotify:artist:1plioVQ0mcgAO7uhvWkJJy"
    }, {
      "external_urls" : {
        "spotify" : "https://open.spotify.com/artist/02gKLQAt9HSDx2SfNBHOiG"
      },
      "followers" : {
        "href" : null,
        "total" : 10
      },
      "genres" : [ ],
      "href" : "https://api.spotify.com/v1/artists/02gKLQAt9HSDx2SfNBHOiG",
      "id" : "02gKLQAt9HSDx2SfNBHOiG",
      "images" : [ ],
      "name" : "Lady Wray",
      "popularity" : 0,
      "type" : "artist",
      "uri" : "spotify:artist:02gKLQAt9HSDx2SfNBHOiG"
    }, {
      "external_urls" : {
        "spotify" : "https://open.spotify.com/artist/7lbPStlnlzWEoQYtzT8i6I"
      },
      "followers" : {
        "href" : null,
        "total" : 2
      },
      "genres" : [ ],
      "href" : "https://api.spotify.com/v1/artists/7lbPStlnlzWEoQYtzT8i6I",
      "id" : "7lbPStlnlzWEoQYtzT8i6I",
      "images" : [ ],
      "name" : "Lady Wray",
      "popularity" : 0,
      "type" : "artist",
      "uri" : "spotify:artist:7lbPStlnlzWEoQYtzT8i6I"
    }, {
      "external_urls" : {
        "spotify" : "https://open.spotify.com/artist/4V5obzWMr7BHZrjOiQwB4K"
      },
      "followers" : {
        "href" : null,
        "total" : 30121
      },
      "genres" : [ "mathcore" ],
      "href" : "https://api.spotify.com/v1/artists/4V5obzWMr7BHZrjOiQwB4K",
      "id" : "4V5obzWMr7BHZrjOiQwB4K",
      "images" : [ {
        "height" : 640,
        "url" : "https://i.scdn.co/image/ab6761610000e5ebd92e0118bad05253ab058304",
        "width" : 640
      }, {
        "height" : 320,
        "url" : "https://i.scdn.co/image/ab67616100005174d92e0118bad05253ab058304",
        "width" : 320
      }, {
        "height" : 160,
        "url" : "https://i.scdn.co/image/ab6761610000f178d92e0118bad05253ab058304",
        "width" : 160
      } ],
      "name" : "The Armed",
      "popularity" : 39,
      "type" : "artist",
      "uri" : "spotify:artist:4V5obzWMr7BHZrjOiQwB4K"
    }, {
      "external_urls" : {
        "spotify" : "https://open.spotify.com/artist/0F1sGGOrJ0762Id0ES4KHj"
      },
      "followers" : {
        "href" : null,
        "total" : 6790
      },
      "genres" : [ "breakbeat", "nu skool breaks" ],
      "href" : "https://api.spotify.com/v1/artists/0F1sGGOrJ0762Id0ES4KHj",
      "id" : "0F1sGGOrJ0762Id0ES4KHj",
      "images" : [ {
        "height" : 640,
        "url" : "https://i.scdn.co/image/ab6761610000e5ebc82802019fd3467e754393eb",
        "width" : 640
      }, {
        "height" : 320,
        "url" : "https://i.scdn.co/image/ab67616100005174c82802019fd3467e754393eb",
        "width" : 320
      }, {
        "height" : 160,
        "url" : "https://i.scdn.co/image/ab6761610000f178c82802019fd3467e754393eb",
        "width" : 160
      } ],
      "name" : "Lady Waks",
      "popularity" : 17,
      "type" : "artist",
      "uri" : "spotify:artist:0F1sGGOrJ0762Id0ES4KHj"
    }, {
      "external_urls" : {
        "spotify" : "https://open.spotify.com/artist/09kXLeOXRyfNQMXRaDO4qA"
      },
      "followers" : {
        "href" : null,
        "total" : 137212
      },
      "genres" : [ "art pop", "uk alternative pop" ],
      "href" : "https://api.spotify.com/v1/artists/09kXLeOXRyfNQMXRaDO4qA",
      "id" : "09kXLeOXRyfNQMXRaDO4qA",
      "images" : [ {
        "height" : 640,
        "url" : "https://i.scdn.co/image/ab6761610000e5eb1772815fafe2bdda56ce532d",
        "width" : 640
      }, {
        "height" : 320,
        "url" : "https://i.scdn.co/image/ab676161000051741772815fafe2bdda56ce532d",
        "width" : 320
      }, {
        "height" : 160,
        "url" : "https://i.scdn.co/image/ab6761610000f1781772815fafe2bdda56ce532d",
        "width" : 160
      } ],
      "name" : "Nilüfer Yanya",
      "popularity" : 51,
      "type" : "artist",
      "uri" : "spotify:artist:09kXLeOXRyfNQMXRaDO4qA"
    }, {
      "external_urls" : {
        "spotify" : "https://open.spotify.com/artist/2Ks1Z1scmEDZfaYaCS7Osj"
      },
      "followers" : {
        "href" : null,
        "total" : 35745
      },
      "genres" : [ "indie jazz", "indie soul", "neo-psychedelic" ],
      "href" : "https://api.spotify.com/v1/artists/2Ks1Z1scmEDZfaYaCS7Osj",
      "id" : "2Ks1Z1scmEDZfaYaCS7Osj",
      "images" : [ {
        "height" : 640,
        "url" : "https://i.scdn.co/image/ab6761610000e5eb0eb5e8b89aa79f62e1bef593",
        "width" : 640
      }, {
        "height" : 320,
        "url" : "https://i.scdn.co/image/ab676161000051740eb5e8b89aa79f62e1bef593",
        "width" : 320
      }, {
        "height" : 160,
        "url" : "https://i.scdn.co/image/ab6761610000f1780eb5e8b89aa79f62e1bef593",
        "width" : 160
      } ],
      "name" : "Surprise Chef",
      "popularity" : 46,
      "type" : "artist",
      "uri" : "spotify:artist:2Ks1Z1scmEDZfaYaCS7Osj"
    }, {
      "external_urls" : {
        "spotify" : "https://open.spotify.com/artist/5JWBow4ywgKNQ5HBxY8hcz"
      },
      "followers" : {
        "href" : null,
        "total" : 40949
      },
      "genres" : [ "alternative dance", "brooklyn indie" ],
      "href" : "https://api.spotify.com/v1/artists/5JWBow4ywgKNQ5HBxY8hcz",
      "id" : "5JWBow4ywgKNQ5HBxY8hcz",
      "images" : [ {
        "height" : 640,
        "url" : "https://i.scdn.co/image/ab6761610000e5eb8f6273f30a4fa5b2175bf047",
        "width" : 640
      }, {
        "height" : 320,
        "url" : "https://i.scdn.co/image/ab676161000051748f6273f30a4fa5b2175bf047",
        "width" : 320
      }, {
        "height" : 160,
        "url" : "https://i.scdn.co/image/ab6761610000f1788f6273f30a4fa5b2175bf047",
        "width" : 160
      } ],
      "name" : "Nation of Language",
      "popularity" : 45,
      "type" : "artist",
      "uri" : "spotify:artist:5JWBow4ywgKNQ5HBxY8hcz"
    }, {
      "external_urls" : {
        "spotify" : "https://open.spotify.com/artist/7iKleRyjLc8sVDN551vyiX"
      },
      "followers" : {
        "href" : null,
        "total" : 24580
      },
      "genres" : [ "neo-psychedelic", "swiss alternative rock" ],
      "href" : "https://api.spotify.com/v1/artists/7iKleRyjLc8sVDN551vyiX",
      "id" : "7iKleRyjLc8sVDN551vyiX",
      "images" : [ {
        "height" : 640,
        "url" : "https://i.scdn.co/image/ab6761610000e5ebf9e198a751f3fc6b43843c29",
        "width" : 640
      }, {
        "height" : 320,
        "url" : "https://i.scdn.co/image/ab67616100005174f9e198a751f3fc6b43843c29",
        "width" : 320
      }, {
        "height" : 160,
        "url" : "https://i.scdn.co/image/ab6761610000f178f9e198a751f3fc6b43843c29",
        "width" : 160
      } ],
      "name" : "L'éclair",
      "popularity" : 37,
      "type" : "artist",
      "uri" : "spotify:artist:7iKleRyjLc8sVDN551vyiX"
    }, {
      "external_urls" : {
        "spotify" : "https://open.spotify.com/artist/4IeWU3NYBI9mISFVhzXG8f"
      },
      "followers" : {
        "href" : null,
        "total" : 126854
      },
      "genres" : [ "chamber psych", "indie rock", "modern alternative rock", "modern rock", "uk post-punk revival" ],
      "href" : "https://api.spotify.com/v1/artists/4IeWU3NYBI9mISFVhzXG8f",
      "id" : "4IeWU3NYBI9mISFVhzXG8f",
      "images" : [ {
        "height" : 640,
        "url" : "https://i.scdn.co/image/ab6761610000e5eb1f4c82dd5578030a1bcbd601",
        "width" : 640
      }, {
        "height" : 320,
        "url" : "https://i.scdn.co/image/ab676161000051741f4c82dd5578030a1bcbd601",
        "width" : 320
      }, {
        "height" : 160,
        "url" : "https://i.scdn.co/image/ab6761610000f1781f4c82dd5578030a1bcbd601",
        "width" : 160
      } ],
      "name" : "shame",
      "popularity" : 42,
      "type" : "artist",
      "uri" : "spotify:artist:4IeWU3NYBI9mISFVhzXG8f"
    }, {
      "external_urls" : {
        "spotify" : "https://open.spotify.com/artist/34ji1NPhqjImjXwOb2kwg4"
      },
      "followers" : {
        "href" : null,
        "total" : 11127
      },
      "genres" : [ "indie punk", "la indie" ],
      "href" : "https://api.spotify.com/v1/artists/34ji1NPhqjImjXwOb2kwg4",
      "id" : "34ji1NPhqjImjXwOb2kwg4",
      "images" : [ {
        "height" : 640,
        "url" : "https://i.scdn.co/image/ab6761610000e5eba22d6458aa98abcd0b427889",
        "width" : 640
      }, {
        "height" : 320,
        "url" : "https://i.scdn.co/image/ab67616100005174a22d6458aa98abcd0b427889",
        "width" : 320
      }, {
        "height" : 160,
        "url" : "https://i.scdn.co/image/ab6761610000f178a22d6458aa98abcd0b427889",
        "width" : 160
      } ],
      "name" : "The Paranoyds",
      "popularity" : 31,
      "type" : "artist",
      "uri" : "spotify:artist:34ji1NPhqjImjXwOb2kwg4"
    }, {
      "external_urls" : {
        "spotify" : "https://open.spotify.com/artist/1GQur7dDvAWhKT9u9YwBJZ"
      },
      "followers" : {
        "href" : null,
        "total" : 36165
      },
      "genres" : [ "afrobeat", "afropop", "world" ],
      "href" : "https://api.spotify.com/v1/artists/1GQur7dDvAWhKT9u9YwBJZ",
      "id" : "1GQur7dDvAWhKT9u9YwBJZ",
      "images" : [ {
        "height" : 640,
        "url" : "https://i.scdn.co/image/ab6761610000e5eb7361c1c60adf83e3d66352ef",
        "width" : 640
      }, {
        "height" : 320,
        "url" : "https://i.scdn.co/image/ab676161000051747361c1c60adf83e3d66352ef",
        "width" : 320
      }, {
        "height" : 160,
        "url" : "https://i.scdn.co/image/ab6761610000f1787361c1c60adf83e3d66352ef",
        "width" : 160
      } ],
      "name" : "Seun Kuti",
      "popularity" : 37,
      "type" : "artist",
      "uri" : "spotify:artist:1GQur7dDvAWhKT9u9YwBJZ"
    }, {
      "external_urls" : {
        "spotify" : "https://open.spotify.com/artist/0Vll0SNLozOGHbfHbjY4pv"
      },
      "followers" : {
        "href" : null,
        "total" : 17987
      },
      "genres" : [ "art punk" ],
      "href" : "https://api.spotify.com/v1/artists/0Vll0SNLozOGHbfHbjY4pv",
      "id" : "0Vll0SNLozOGHbfHbjY4pv",
      "images" : [ {
        "height" : 640,
        "url" : "https://i.scdn.co/image/ab6761610000e5eb965cefd6fda173748730f748",
        "width" : 640
      }, {
        "height" : 320,
        "url" : "https://i.scdn.co/image/ab67616100005174965cefd6fda173748730f748",
        "width" : 320
      }, {
        "height" : 160,
        "url" : "https://i.scdn.co/image/ab6761610000f178965cefd6fda173748730f748",
        "width" : 160
      } ],
      "name" : "Sloppy Jane",
      "popularity" : 36,
      "type" : "artist",
      "uri" : "spotify:artist:0Vll0SNLozOGHbfHbjY4pv"
    }, {
      "external_urls" : {
        "spotify" : "https://open.spotify.com/artist/0EqBE2VOwsHgSOrjsQCs5j"
      },
      "followers" : {
        "href" : null,
        "total" : 21910
      },
      "genres" : [ "socal indie", "souldies" ],
      "href" : "https://api.spotify.com/v1/artists/0EqBE2VOwsHgSOrjsQCs5j",
      "id" : "0EqBE2VOwsHgSOrjsQCs5j",
      "images" : [ {
        "height" : 640,
        "url" : "https://i.scdn.co/image/ab6761610000e5eb62716b11650e047e1a698e4a",
        "width" : 640
      }, {
        "height" : 320,
        "url" : "https://i.scdn.co/image/ab6761610000517462716b11650e047e1a698e4a",
        "width" : 320
      }, {
        "height" : 160,
        "url" : "https://i.scdn.co/image/ab6761610000f17862716b11650e047e1a698e4a",
        "width" : 160
      } ],
      "name" : "Brainstory",
      "popularity" : 44,
      "type" : "artist",
      "uri" : "spotify:artist:0EqBE2VOwsHgSOrjsQCs5j"
    }, {
      "external_urls" : {
        "spotify" : "https://open.spotify.com/artist/1lsJmnN90u3KBvF3tGEWr3"
      },
      "followers" : {
        "href" : null,
        "total" : 54104
      },
      "genres" : [ "neo-psychedelic" ],
      "href" : "https://api.spotify.com/v1/artists/1lsJmnN90u3KBvF3tGEWr3",
      "id" : "1lsJmnN90u3KBvF3tGEWr3",
      "images" : [ {
        "height" : 640,
        "url" : "https://i.scdn.co/image/ab6761610000e5eb9d89d1b035a444eba397e87f",
        "width" : 640
      }, {
        "height" : 320,
        "url" : "https://i.scdn.co/image/ab676161000051749d89d1b035a444eba397e87f",
        "width" : 320
      }, {
        "height" : 160,
        "url" : "https://i.scdn.co/image/ab6761610000f1789d89d1b035a444eba397e87f",
        "width" : 160
      } ],
      "name" : "Mildlife",
      "popularity" : 39,
      "type" : "artist",
      "uri" : "spotify:artist:1lsJmnN90u3KBvF3tGEWr3"
    }, {
      "external_urls" : {
        "spotify" : "https://open.spotify.com/artist/2kRFetyCeU3r24DVyTZVFx"
      },
      "followers" : {
        "href" : null,
        "total" : 23280
      },
      "genres" : [ ],
      "href" : "https://api.spotify.com/v1/artists/2kRFetyCeU3r24DVyTZVFx",
      "id" : "2kRFetyCeU3r24DVyTZVFx",
      "images" : [ {
        "height" : 640,
        "url" : "https://i.scdn.co/image/ab6761610000e5ebe6610137da69dcbf94266ef0",
        "width" : 640
      }, {
        "height" : 320,
        "url" : "https://i.scdn.co/image/ab67616100005174e6610137da69dcbf94266ef0",
        "width" : 320
      }, {
        "height" : 160,
        "url" : "https://i.scdn.co/image/ab6761610000f178e6610137da69dcbf94266ef0",
        "width" : 160
      } ],
      "name" : "Surfbort",
      "popularity" : 33,
      "type" : "artist",
      "uri" : "spotify:artist:2kRFetyCeU3r24DVyTZVFx"
    }, {
      "external_urls" : {
        "spotify" : "https://open.spotify.com/artist/3BUpv2goO0OTzcj7yYkRZJ"
      },
      "followers" : {
        "href" : null,
        "total" : 5265
      },
      "genres" : [ ],
      "href" : "https://api.spotify.com/v1/artists/3BUpv2goO0OTzcj7yYkRZJ",
      "id" : "3BUpv2goO0OTzcj7yYkRZJ",
      "images" : [ {
        "height" : 640,
        "url" : "https://i.scdn.co/image/ab6761610000e5eb51ec3e0ad79f0407ed7df130",
        "width" : 640
      }, {
        "height" : 320,
        "url" : "https://i.scdn.co/image/ab6761610000517451ec3e0ad79f0407ed7df130",
        "width" : 320
      }, {
        "height" : 160,
        "url" : "https://i.scdn.co/image/ab6761610000f17851ec3e0ad79f0407ed7df130",
        "width" : 160
      } ],
      "name" : "JJUUJJUU",
      "popularity" : 11,
      "type" : "artist",
      "uri" : "spotify:artist:3BUpv2goO0OTzcj7yYkRZJ"
    }, {
      "external_urls" : {
        "spotify" : "https://open.spotify.com/artist/0mWrp0C4ShdOjs7P29Gzan"
      },
      "followers" : {
        "href" : null,
        "total" : 29026
      },
      "genres" : [ "art pop", "escape room", "scream rap" ],
      "href" : "https://api.spotify.com/v1/artists/0mWrp0C4ShdOjs7P29Gzan",
      "id" : "0mWrp0C4ShdOjs7P29Gzan",
      "images" : [ {
        "height" : 640,
        "url" : "https://i.scdn.co/image/ab6761610000e5eb9a277645bcc34a7b96d00add",
        "width" : 640
      }, {
        "height" : 320,
        "url" : "https://i.scdn.co/image/ab676161000051749a277645bcc34a7b96d00add",
        "width" : 320
      }, {
        "height" : 160,
        "url" : "https://i.scdn.co/image/ab6761610000f1789a277645bcc34a7b96d00add",
        "width" : 160
      } ],
      "name" : "Soul Glo",
      "popularity" : 38,
      "type" : "artist",
      "uri" : "spotify:artist:0mWrp0C4ShdOjs7P29Gzan"
    }, {
      "external_urls" : {
        "spotify" : "https://open.spotify.com/artist/0x9HCT7ZZlOEfLSVCDi5SO"
      },
      "followers" : {
        "href" : null,
        "total" : 43271
      },
      "genres" : [ "french garage rock", "french stoner rock", "neo-psychedelic", "rock alternatif francais" ],
      "href" : "https://api.spotify.com/v1/artists/0x9HCT7ZZlOEfLSVCDi5SO",
      "id" : "0x9HCT7ZZlOEfLSVCDi5SO",
      "images" : [ {
        "height" : 640,
        "url" : "https://i.scdn.co/image/ab6761610000e5eb247ab814d00c3ee319eb2055",
        "width" : 640
      }, {
        "height" : 320,
        "url" : "https://i.scdn.co/image/ab67616100005174247ab814d00c3ee319eb2055",
        "width" : 320
      }, {
        "height" : 160,
        "url" : "https://i.scdn.co/image/ab6761610000f178247ab814d00c3ee319eb2055",
        "width" : 160
      } ],
      "name" : "SLIFT",
      "popularity" : 32,
      "type" : "artist",
      "uri" : "spotify:artist:0x9HCT7ZZlOEfLSVCDi5SO"
    }, {
      "external_urls" : {
        "spotify" : "https://open.spotify.com/artist/6A5Ns1SpGWTt8SzXPwiqVE"
      },
      "followers" : {
        "href" : null,
        "total" : 112266
      },
      "genres" : [ "bay area indie", "garage pop", "indie garage rock", "oakland indie", "power-pop punk" ],
      "href" : "https://api.spotify.com/v1/artists/6A5Ns1SpGWTt8SzXPwiqVE",
      "id" : "6A5Ns1SpGWTt8SzXPwiqVE",
      "images" : [ {
        "height" : 640,
        "url" : "https://i.scdn.co/image/ab6761610000e5eb2a8721bf74d6ce8682d9795b",
        "width" : 640
      }, {
        "height" : 320,
        "url" : "https://i.scdn.co/image/ab676161000051742a8721bf74d6ce8682d9795b",
        "width" : 320
      }, {
        "height" : 160,
        "url" : "https://i.scdn.co/image/ab6761610000f1782a8721bf74d6ce8682d9795b",
        "width" : 160
      } ],
      "name" : "Shannon & The Clams",
      "popularity" : 44,
      "type" : "artist",
      "uri" : "spotify:artist:6A5Ns1SpGWTt8SzXPwiqVE"
    } ],
    "limit" : 20,
    "next" : "https://api.spotify.com/v1/search?query=lady+wray&type=artist&market=US&offset=20&limit=20",
    "offset" : 0,
    "previous" : null,
    "total" : 23
  }
}