{
  "artists" : {
    "href" : "https://api.spotify.com/v1/search?query=mildlife&type=artist&market=US&offset=0&limit=20",
    "items" : [ {
      "external_urls" : {
        "spotify" : "https://open.spotify.com/artist/1lsJmnN90u3KBvF3tGEWr3"
      },
      "followers" : {
        "href" : null,
        "total" : 54104
      },
      "genres" : [ "neo-psychedelic" ],
      "href" : "https://api.spotify.com/v1/artists/1lsJmnN90u3KBvF3tGEWr3",
      "id" : "1lsJmnN90u3KBvF3tGEWr3",
      "images" : [ {
        "height" : 640,
        "url" : "https://i.scdn.co/image/ab6761610000e5eb9d89d1b035a444eba397e87f",
        "width" : 640
      }, {
        "height" : 320,
        "url" : "https://i.scdn.co/image/ab676161000051749d89d1b035a444eba397e87f",
        "width" : 320
      }, {
        "height" : 160,
        "url" : "https://i.scdn.co/image/ab6761610000f1789d89d1b035a444eba397e87f",
        "width" : 160
      } ],
      "name" : "Mildlife",
      "popularity" : 39,
      "type" : "artist",
      "uri" : "spotify:artist:1lsJmnN90u3KBvF3tGEWr3"
    }, {
      "external_urls" : {
        "spotify" : "https://open.spotify.com/artist/2gOyvuwUXVtY02wC3hRS1T"
      },
      "followers" : {
        "href" : null,
        "total" : 15
      },
      "genres" : [ ],
      "href" : "https://api.spotify.com/v1/artists/2gOyvuwUXVtY02wC3hRS1T",
      "id" : "2gOyvuwUXVtY02wC3hRS1T",
      "images" : [ {
        "height" : 640,
        "url" : "https://i.scdn.co/image/ab6761610000e5eb167570e159eadfa4278dfc75",
        "width" : 640
      }, {
        "height" : 320,
        "url" : "https://i.scdn.co/image/ab67616100005174167570e159eadfa4278dfc75",
        "width" : 320
      }, {
        "height" : 160,
        "url" : "https://i.scdn.co/image/ab6761610000f178167570e159eadfa4278dfc75",
        "width" : 160
      } ],
      "name" : "national mildlife refuge",
      "popularity" : 0,
      "type" : "artist",
      "uri" : "spotify:artist:2gOyvuwUXVtY02wC3hRS1T"
    }, {
      "external_urls" : {
        "spotify" : "https://open.spotify.com/artist/30SwC5wesPbvJ6ZRQI5CgX"
      },
      "followers" : {
        "href" : null,
        "total" : 34
      },
      "genres" : [ ],
      "href" : "https://api.spotify.com/v1/artists/30SwC5wesPbvJ6ZRQI5CgX",
      "id" : "30SwC5wesPbvJ6ZRQI5CgX",
      "images" : [ {
        "height" : 640,
        "url" : "https://i.scdn.co/image/ab67616d0000b2732bbeb6275529372ea4086bef",
        "width" : 640
      }, {
        "height" : 300,
        "url" : "https://i.scdn.co/image/ab67616d00001e022bbeb6275529372ea4086bef",
        "width" : 300
      }, {
        "height" : 64,
        "url" : "https://i.scdn.co/image/ab67616d000048512bbeb6275529372ea4086bef",
        "width" : 64
      } ],
      "name" : "Mildlife",
      "popularity" : 0,
      "type" : "artist",
      "uri" : "spotify:artist:30SwC5wesPbvJ6ZRQI5CgX"
    }, {
      "external_urls" : {
        "spotify" : "https://open.spotify.com/artist/3BUpv2goO0OTzcj7yYkRZJ"
      },
      "followers" : {
        "href" : null,
        "total" : 5265
      },
      "genres" : [ ],
      "href" : "https://api.spotify.com/v1/artists/3BUpv2goO0OTzcj7yYkRZJ",
      "id" : "3BUpv2goO0OTzcj7yYkRZJ",
      "images" : [ {
        "height" : 640,
        "url" : "https://i.scdn.co/image/ab6761610000e5eb51ec3e0ad79f0407ed7df130",
        "width" : 640
      }, {
        "height" : 320,
        "url" : "https://i.scdn.co/image/ab6761610000517451ec3e0ad79f0407ed7df130",
        "width" : 320
      }, {
        "height" : 160,
        "url" : "https://i.scdn.co/image/ab6761610000f17851ec3e0ad79f0407ed7df130",
        "width" : 160
      } ],
      "name" : "JJUUJJUU",
      "popularity" : 11,
      "type" : "artist",
      "uri" : "spotify:artist:3BUpv2goO0OTzcj7yYkRZJ"
    }, {
      "external_urls" : {
        "spotify" : "https://open.spotify.com/artist/5Ly0z60jjgsY4rkmjRFtPS"
      },
      "followers" : {
        "href" : null,
        "total" : 12757
      },
      "genres" : [ "electra", "electronica", "float house" ],
      "href" : "https://api.spotify.com/v1/artists/5Ly0z60jjgsY4rkmjRFtPS",
      "id" : "5Ly0z60jjgsY4rkmjRFtPS",
      "images" : [ {
        "height" : 640,
        "url" : "https://i.scdn.co/image/ab6761610000e5eb0b1015b14d90885e67c06b13",
        "width" : 640
      }, {
        "height" : 320,
        "url" : "https://i.scdn.co/image/ab676161000051740b1015b14d90885e67c06b13",
        "width" : 320
      }, {
        "height" : 160,
        "url" : "https://i.scdn.co/image/ab6761610000f1780b1015b14d90885e67c06b13",
        "width" : 160
      } ],
      "name" : "Elkka",
      "popularity" : 41,
      "type" : "artist",
      "uri" : "spotify:artist:5Ly0z60jjgsY4rkmjRFtPS"
    }, {
      "external_urls" : {
        "spotify" : "https://open.spotify.com/artist/0x9HCT7ZZlOEfLSVCDi5SO"
      },
      "followers" : {
        "href" : null,
        "total" : 43271
      },
      "genres" : [ "french garage rock", "french stoner rock", "neo-psychedelic", "rock alternatif francais" ],
      "href" : "https://api.spotify.com/v1/artists/0x9HCT7ZZlOEfLSVCDi5SO",
      "id" : "0x9HCT7ZZlOEfLSVCDi5SO",
      "images" : [ {
        "height" : 640,
        "url" : "https://i.scdn.co/image/ab6761610000e5eb247ab814d00c3ee319eb2055",
        "width" : 640
      }, {
        "height" : 320,
        "url" : "https://i.scdn.co/image/ab67616100005174247ab814d00c3ee319eb2055",
        "width" : 320
      }, {
        "height" : 160,
        "url" : "https://i.scdn.co/image/ab6761610000f178247ab814d00c3ee319eb2055",
        "width" : 160
      } ],
      "name" : "SLIFT",
      "popularity" : 32,
      "type" : "artist",
      "uri" : "spotify:artist:0x9HCT7ZZlOEfLSVCDi5SO"
    }, {
      "external_urls" : {
        "spotify" : "https://open.spotify.com/artist/0hrb5WRiNlj8vh3WnCgXFq"
      },
      "followers" : {
        "href" : null,
        "total" : 211730
      },
      "genres" : [ "instrumental stoner rock", "japanese psychedelic", "japanese psychedelic rock", "neo-psychedelic" ],
      "href" : "https://api.spotify.com/v1/artists/0hrb5WRiNlj8vh3WnCgXFq",
      "id" : "0hrb5WRiNlj8vh3WnCgXFq",
      "images" : [ {
        "height" : 640,
        "url" : "https://i.scdn.co/image/ab6761610000e5eb952b074c07607f6b8afc3f93",
        "width" : 640
      }, {
        "height" : 320,
        "url" : "https://i.scdn.co/image/ab67616100005174952b074c07607f6b8afc3f93",
        "width" : 320
      }, {
        "height" : 160,
        "url" : "https://i.scdn.co/image/ab6761610000f178952b074c07607f6b8afc3f93",
        "width" : 160
      } ],
      "name" : "Kikagaku Moyo",
      "popularity" : 46,
      "type" : "artist",
      "uri" : "spotify:artist:0hrb5WRiNlj8vh3WnCgXFq"
    }, {
      "external_urls" : {
        "spotify" : "https://open.spotify.com/artist/7iKleRyjLc8sVDN551vyiX"
      },
      "followers" : {
        "href" : null,
        "total" : 24580
      },
      "genres" : [ "neo-psychedelic", "swiss alternative rock" ],
      "href" : "https://api.spotify.com/v1/artists/7iKleRyjLc8sVDN551vyiX",
      "id" : "7iKleRyjLc8sVDN551vyiX",
      "images" : [ {
        "height" : 640,
        "url" : "https://i.scdn.co/image/ab6761610000e5ebf9e198a751f3fc6b43843c29",
        "width" : 640
      }, {
        "height" : 320,
        "url" : "https://i.scdn.co/image/ab67616100005174f9e198a751f3fc6b43843c29",
        "width" : 320
      }, {
        "height" : 160,
        "url" : "https://i.scdn.co/image/ab6761610000f178f9e198a751f3fc6b43843c29",
        "width" : 160
      } ],
      "name" : "L'éclair",
      "popularity" : 37,
      "type" : "artist",
      "uri" : "spotify:artist:7iKleRyjLc8sVDN551vyiX"
    }, {
      "external_urls" : {
        "spotify" : "https://open.spotify.com/artist/18SJLvRK2C84Ayo1owImsk"
      },
      "followers" : {
        "href" : null,
        "total" : 68
      },
      "genres" : [ ],
      "href" : "https://api.spotify.com/v1/artists/18SJLvRK2C84Ayo1owImsk",
      "id" : "18SJLvRK2C84Ayo1owImsk",
      "images" : [ {
        "height" : 640,
        "url" : "https://i.scdn.co/image/ab6761610000e5eb251081bb7b4eac9994ebe6aa",
        "width" : 640
      }, {
        "height" : 320,
        "url" : "https://i.scdn.co/image/ab67616100005174251081bb7b4eac9994ebe6aa",
        "width" : 320
      }, {
        "height" : 160,
        "url" : "https://i.scdn.co/image/ab6761610000f178251081bb7b4eac9994ebe6aa",
        "width" : 160
      } ],
      "name" : "Heads Are Heavy",
      "popularity" : 6,
      "type" : "artist",
      "uri" : "spotify:artist:18SJLvRK2C84Ayo1owImsk"
    }, {
      "external_urls" : {
        "spotify" : "https://open.spotify.com/artist/5JWBow4ywgKNQ5HBxY8hcz"
      },
      "followers" : {
        "href" : null,
        "total" : 40949
      },
      "genres" : [ "alternative dance", "brooklyn indie" ],
      "href" : "https://api.spotify.com/v1/artists/5JWBow4ywgKNQ5HBxY8hcz",
      "id" : "5JWBow4ywgKNQ5HBxY8hcz",
      "images" : [ {
        "height" : 640,
        "url" : "https://i.scdn.co/image/ab6761610000e5eb8f6273f30a4fa5b2175bf047",
        "width" : 640
      }, {
        "height" : 320,
        "url" : "https://i.scdn.co/image/ab676161000051748f6273f30a4fa5b2175bf047",
        "width" : 320
      }, {
        "height" : 160,
        "url" : "https://i.scdn.co/image/ab6761610000f1788f6273f30a4fa5b2175bf047",
        "width" : 160
      } ],
      "name" : "Nation of Language",
      "popularity" : 45,
      "type" : "artist",
      "uri" : "spotify:artist:5JWBow4ywgKNQ5HBxY8hcz"
    }, {
      "external_urls" : {
        "spotify" : "https://open.spotify.com/artist/2Ks1Z1scmEDZfaYaCS7Osj"
      },
      "followers" : {
        "href" : null,
        "total" : 35745
      },
      "genres" : [ "indie jazz", "indie soul", "neo-psychedelic" ],
      "href" : "https://api.spotify.com/v1/artists/2Ks1Z1scmEDZfaYaCS7Osj",
      "id" : "2Ks1Z1scmEDZfaYaCS7Osj",
      "images" : [ {
        "height" : 640,
        "url" : "https://i.scdn.co/image/ab6761610000e5eb0eb5e8b89aa79f62e1bef593",
        "width" : 640
      }, {
        "height" : 320,
        "url" : "https://i.scdn.co/image/ab676161000051740eb5e8b89aa79f62e1bef593",
        "width" : 320
      }, {
        "height" : 160,
        "url" : "https://i.scdn.co/image/ab6761610000f1780eb5e8b89aa79f62e1bef593",
        "width" : 160
      } ],
      "name" : "Surprise Chef",
      "popularity" : 46,
      "type" : "artist",
      "uri" : "spotify:artist:2Ks1Z1scmEDZfaYaCS7Osj"
    }, {
      "external_urls" : {
        "spotify" : "https://open.spotify.com/artist/4V5obzWMr7BHZrjOiQwB4K"
      },
      "followers" : {
        "href" : null,
        "total" : 30121
      },
      "genres" : [ "mathcore" ],
      "href" : "https://api.spotify.com/v1/artists/4V5obzWMr7BHZrjOiQwB4K",
      "id" : "4V5obzWMr7BHZrjOiQwB4K",
      "images" : [ {
        "height" : 640,
        "url" : "https://i.scdn.co/image/ab6761610000e5ebd92e0118bad05253ab058304",
        "width" : 640
      }, {
        "height" : 320,
        "url" : "https://i.scdn.co/image/ab67616100005174d92e0118bad05253ab058304",
        "width" : 320
      }, {
        "height" : 160,
        "url" : "https://i.scdn.co/image/ab6761610000f178d92e0118bad05253ab058304",
        "width" : 160
      } ],
      "name" : "The Armed",
      "popularity" : 39,
      "type" : "artist",
      "uri" : "spotify:artist:4V5obzWMr7BHZrjOiQwB4K"
    }, {
      "external_urls" : {
        "spotify" : "https://open.spotify.com/artist/2nAKP6etu8wXNnezKXgqgg"
      },
      "followers" : {
        "href" : null,
        "total" : 171883
      },
      "genres" : [ "egg punk", "stockholm indie" ],
      "href" : "https://api.spotify.com/v1/artists/2nAKP6etu8wXNnezKXgqgg",
      "id" : "2nAKP6etu8wXNnezKXgqgg",
      "images" : [ {
        "height" : 640,
        "url" : "https://i.scdn.co/image/ab6761610000e5ebf309aa1b63929627f6be0697",
        "width" : 640
      }, {
        "height" : 320,
        "url" : "https://i.scdn.co/image/ab67616100005174f309aa1b63929627f6be0697",
        "width" : 320
      }, {
        "height" : 160,
        "url" : "https://i.scdn.co/image/ab6761610000f178f309aa1b63929627f6be0697",
        "width" : 160
      } ],
      "name" : "Viagra Boys",
      "popularity" : 54,
      "type" : "artist",
      "uri" : "spotify:artist:2nAKP6etu8wXNnezKXgqgg"
    }, {
      "external_urls" : {
        "spotify" : "https://open.spotify.com/artist/1plioVQ0mcgAO7uhvWkJJy"
      },
      "followers" : {
        "href" : null,
        "total" : 67738
      },
      "genres" : [ "alternative r&b", "funk", "indie soul", "neo soul", "soul" ],
      "href" : "https://api.spotify.com/v1/artists/1plioVQ0mcgAO7uhvWkJJy",
      "id" : "1plioVQ0mcgAO7uhvWkJJy",
      "images" : [ {
        "height" : 640,
        "url" : "https://i.scdn.co/image/ab6761610000e5eb99b304bfd6eb8acdb9a1eea2",
        "width" : 640
      }, {
        "height" : 320,
        "url" : "https://i.scdn.co/image/ab6761610000517499b304bfd6eb8acdb9a1eea2",
        "width" : 320
      }, {
        "height" : 160,
        "url" : "https://i.scdn.co/image/ab6761610000f17899b304bfd6eb8acdb9a1eea2",
        "width" : 160
      } ],
      "name" : "Lady Wray",
      "popularity" : 51,
      "type" : "artist",
      "uri" : "spotify:artist:1plioVQ0mcgAO7uhvWkJJy"
    }, {
      "external_urls" : {
        "spotify" : "https://open.spotify.com/artist/6A5Ns1SpGWTt8SzXPwiqVE"
      },
      "followers" : {
        "href" : null,
        "total" : 112266
      },
      "genres" : [ "bay area indie", "garage pop", "indie garage rock", "oakland indie", "power-pop punk" ],
      "href" : "https://api.spotify.com/v1/artists/6A5Ns1SpGWTt8SzXPwiqVE",
      "id" : "6A5Ns1SpGWTt8SzXPwiqVE",
      "images" : [ {
        "height" : 640,
        "url" : "https://i.scdn.co/image/ab6761610000e5eb2a8721bf74d6ce8682d9795b",
        "width" : 640
      }, {
        "height" : 320,
        "url" : "https://i.scdn.co/image/ab676161000051742a8721bf74d6ce8682d9795b",
        "width" : 320
      }, {
        "height" : 160,
        "url" : "https://i.scdn.co/image/ab6761610000f1782a8721bf74d6ce8682d9795b",
        "width" : 160
      } ],
      "name" : "Shannon & The Clams",
      "popularity" : 44,
      "type" : "artist",
      "uri" : "spotify:artist:6A5Ns1SpGWTt8SzXPwiqVE"
    }, {
      "external_urls" : {
        "spotify" : "https://open.spotify.com/artist/1GQur7dDvAWhKT9u9YwBJZ"
      },
      "followers" : {
        "href" : null,
        "total" : 36165
      },
      "genres" : [ "afrobeat", "afropop", "world" ],
      "href" : "https://api.spotify.com/v1/artists/1GQur7dDvAWhKT9u9YwBJZ",
      "id" : "1GQur7dDvAWhKT9u9YwBJZ",
      "images" : [ {
        "height" : 640,
        "url" : "https://i.scdn.co/image/ab6761610000e5eb7361c1c60adf83e3d66352ef",
        "width" : 640
      }, {
        "height" : 320,
        "url" : "https://i.scdn.co/image/ab676161000051747361c1c60adf83e3d66352ef",
        "width" : 320
      }, {
        "height" : 160,
        "url" : "https://i.scdn.co/image/ab6761610000f1787361c1c60adf83e3d66352ef",
        "width" : 160
      } ],
      "name" : "Seun Kuti",
      "popularity" : 37,
      "type" : "artist",
      "uri" : "spotify:artist:1GQur7dDvAWhKT9u9YwBJZ"
    }, {
      "external_urls" : {
        "spotify" : "https://open.spotify.com/artist/09kXLeOXRyfNQMXRaDO4qA"
      },
      "followers" : {
        "href" : null,
        "total" : 137212
      },
      "genres" : [ "art pop", "uk alternative pop" ],
      "href" : "https://api.spotify.com/v1/artists/09kXLeOXRyfNQMXRaDO4qA",
      "id" : "09kXLeOXRyfNQMXRaDO4qA",
      "images" : [ {
        "height" : 640,
        "url" : "https://i.scdn.co/image/ab6761610000e5eb1772815fafe2bdda56ce532d",
        "width" : 640
      }, {
        "height" : 320,
        "url" : "https://i.scdn.co/image/ab676161000051741772815fafe2bdda56ce532d",
        "width" : 320
      }, {
        "height" : 160,
        "url" : "https://i.scdn.co/image/ab6761610000f1781772815fafe2bdda56ce532d",
        "width" : 160
      } ],
      "name" : "Nilüfer Yanya",
      "popularity" : 51,
      "type" : "artist",
      "uri" : "spotify:artist:09kXLeOXRyfNQMXRaDO4qA"
    }, {
      "external_urls" : {
        "spotify" : "https://open.spotify.com/artist/3VzyzR6DaEIfasrKKcJ8mI"
      },
      "followers" : {
        "href" : null,
        "total" : 381
      },
      "genres" : [ ],
      "href" : "https://api.spotify.com/v1/artists/3VzyzR6DaEIfasrKKcJ8mI",
      "id" : "3VzyzR6DaEIfasrKKcJ8mI",
      "images" : [ {
        "height" : 640,
        "url" : "https://i.scdn.co/image/ab6761610000e5eb097acabee78d95a7b040c831",
        "width" : 640
      }, {
        "height" : 320,
        "url" : "https://i.scdn.co/image/ab67616100005174097acabee78d95a7b040c831",
        "width" : 320
      }, {
        "height" : 160,
        "url" : "https://i.scdn.co/image/ab6761610000f178097acabee78d95a7b040c831",
        "width" : 160
      } ],
      "name" : "Wet Satin",
      "popularity" : 20,
      "type" : "artist",
      "uri" : "spotify:artist:3VzyzR6DaEIfasrKKcJ8mI"
    }, {
      "external_urls" : {
        "spotify" : "https://open.spotify.com/artist/3ni9LX95aVQksOuoHFEbEx"
      },
      "followers" : {
        "href" : null,
        "total" : 67534
      },
      "genres" : [ "comic" ],
      "href" : "https://api.spotify.com/v1/artists/3ni9LX95aVQksOuoHFEbEx",
      "id" : "3ni9LX95aVQksOuoHFEbEx",
      "images" : [ {
        "height" : 667,
        "url" : "https://i.scdn.co/image/957a9f60f2c72597d29294d896bc38035f3e3012",
        "width" : 1000
      }, {
        "height" : 427,
        "url" : "https://i.scdn.co/image/6ae423a882b7de3407b491ec3befacaffb86c11d",
        "width" : 640
      }, {
        "height" : 133,
        "url" : "https://i.scdn.co/image/fcbd9799cec0d31bc1434e3b05e788290557e317",
        "width" : 200
      }, {
        "height" : 43,
        "url" : "https://i.scdn.co/image/167641be3f8de4f3cae307490ba94d3434fca74e",
        "width" : 64
      } ],
      "name" : "Reggie Watts",
      "popularity" : 37,
      "type" : "artist",
      "uri" : "spotify:artist:3ni9LX95aVQksOuoHFEbEx"
    }, {
      "external_urls" : {
        "spotify" : "https://open.spotify.com/artist/2kRFetyCeU3r24DVyTZVFx"
      },
      "followers" : {
        "href" : null,
        "total" : 23280
      },
      "genres" : [ ],
      "href" : "https://api.spotify.com/v1/artists/2kRFetyCeU3r24DVyTZVFx",
      "id" : "2kRFetyCeU3r24DVyTZVFx",
      "images" : [ {
        "height" : 640,
        "url" : "https://i.scdn.co/image/ab6761610000e5ebe6610137da69dcbf94266ef0",
        "width" : 640
      }, {
        "height" : 320,
        "url" : "https://i.scdn.co/image/ab67616100005174e6610137da69dcbf94266ef0",
        "width" : 320
      }, {
        "height" : 160,
        "url" : "https://i.scdn.co/image/ab6761610000f178e6610137da69dcbf94266ef0",
        "width" : 160
      } ],
      "name" : "Surfbort",
      "popularity" : 33,
      "type" : "artist",
      "uri" : "spotify:artist:2kRFetyCeU3r24DVyTZVFx"
    } ],
    "limit" : 20,
    "next" : "https://api.spotify.com/v1/search?query=mildlife&type=artist&market=US&offset=20&limit=20",
    "offset" : 0,
    "previous" : null,
    "total" : 22
  }
}