{
  "artists" : {
    "href" : "https://api.spotify.com/v1/search?query=nilufer+yanya&type=artist&market=US&offset=0&limit=20",
    "items" : [ {
      "external_urls" : {
        "spotify" : "https://open.spotify.com/artist/09kXLeOXRyfNQMXRaDO4qA"
      },
      "followers" : {
        "href" : null,
        "total" : 137212
      },
      "genres" : [ "art pop", "uk alternative pop" ],
      "href" : "https://api.spotify.com/v1/artists/09kXLeOXRyfNQMXRaDO4qA",
      "id" : "09kXLeOXRyfNQMXRaDO4qA",
      "images" : [ {
        "height" : 640,
        "url" : "https://i.scdn.co/image/ab6761610000e5eb1772815fafe2bdda56ce532d",
        "width" : 640
      }, {
        "height" : 320,
        "url" : "https://i.scdn.co/image/ab676161000051741772815fafe2bdda56ce532d",
        "width" : 320
      }, {
        "height" : 160,
        "url" : "https://i.scdn.co/image/ab6761610000f1781772815fafe2bdda56ce532d",
        "width" : 160
      } ],
      "name" : "Nilüfer Yanya",
      "popularity" : 51,
      "type" : "artist",
      "uri" : "spotify:artist:09kXLeOXRyfNQMXRaDO4qA"
    }, {
      "external_urls" : {
        "spotify" : "https://open.spotify.com/artist/3iVIrcJmrV7GawrxVWsBUF"
      },
      "followers" : {
        "href" : null,
        "total" : 605031
      },
      "genres" : [ "turkish pop" ],
      "href" : "https://api.spotify.com/v1/artists/3iVIrcJmrV7GawrxVWsBUF",
      "id" : "3iVIrcJmrV7GawrxVWsBUF",
      "images" : [ {
        "height" : 640,
        "url" : "https://i.scdn.co/image/ab6761610000e5ebd50bf45a4e5affbca3b18b29",
        "width" : 640
      }, {
        "height" : 320,
        "url" : "https://i.scdn.co/image/ab67616100005174d50bf45a4e5affbca3b18b29",
        "width" : 320
      }, {
        "height" : 160,
        "url" : "https://i.scdn.co/image/ab6761610000f178d50bf45a4e5affbca3b18b29",
        "width" : 160
      } ],
      "name" : "Nilüfer",
      "popularity" : 58,
      "type" : "artist",
      "uri" : "spotify:artist:3iVIrcJmrV7GawrxVWsBUF"
    }, {
      "external_urls" : {
        "spotify" : "https://open.spotify.com/artist/4w9VlmbsG7pJMkQWthZxp4"
      },
      "followers" : {
        "href" : null,
        "total" : 6940
      },
      "genres" : [ "turkish folk" ],
      "href" : "https://api.spotify.com/v1/artists/4w9VlmbsG7pJMkQWthZxp4",
      "id" : "4w9VlmbsG7pJMkQWthZxp4",
      "images" : [ {
        "height" : 640,
        "url" : "https://i.scdn.co/image/ab6761610000e5ebf59f556de9660e1c6702ddde",
        "width" : 640
      }, {
        "height" : 320,
        "url" : "https://i.scdn.co/image/ab67616100005174f59f556de9660e1c6702ddde",
        "width" : 320
      }, {
        "height" : 160,
        "url" : "https://i.scdn.co/image/ab6761610000f178f59f556de9660e1c6702ddde",
        "width" : 160
      } ],
      "name" : "Nilüfer Sarıtaş",
      "popularity" : 27,
      "type" : "artist",
      "uri" : "spotify:artist:4w9VlmbsG7pJMkQWthZxp4"
    }, {
      "external_urls" : {
        "spotify" : "https://open.spotify.com/artist/32Luc8ATNQc8QYT7py1iF3"
      },
      "followers" : {
        "href" : null,
        "total" : 956
      },
      "genres" : [ ],
      "href" : "https://api.spotify.com/v1/artists/32Luc8ATNQc8QYT7py1iF3",
      "id" : "32Luc8ATNQc8QYT7py1iF3",
      "images" : [ {
        "height" : 640,
        "url" : "https://i.scdn.co/image/ab67616d0000b27374b655a435b6146ff37506a0",
        "width" : 640
      }, {
        "height" : 300,
        "url" : "https://i.scdn.co/image/ab67616d00001e0274b655a435b6146ff37506a0",
        "width" : 300
      }, {
        "height" : 64,
        "url" : "https://i.scdn.co/image/ab67616d0000485174b655a435b6146ff37506a0",
        "width" : 64
      } ],
      "name" : "Nilüfer Örer",
      "popularity" : 27,
      "type" : "artist",
      "uri" : "spotify:artist:32Luc8ATNQc8QYT7py1iF3"
    }, {
      "external_urls" : {
        "spotify" : "https://open.spotify.com/artist/2DxkAk0XxtTKQmQfnwwmyZ"
      },
      "followers" : {
        "href" : null,
        "total" : 443
      },
      "genres" : [ ],
      "href" : "https://api.spotify.com/v1/artists/2DxkAk0XxtTKQmQfnwwmyZ",
      "id" : "2DxkAk0XxtTKQmQfnwwmyZ",
      "images" : [ {
        "height" : 640,
        "url" : "https://i.scdn.co/image/ab6761610000e5ebaf63786ca74f2234e122754f",
        "width" : 640
      }, {
        "height" : 320,
        "url" : "https://i.scdn.co/image/ab67616100005174af63786ca74f2234e122754f",
        "width" : 320
      }, {
        "height" : 160,
        "url" : "https://i.scdn.co/image/ab6761610000f178af63786ca74f2234e122754f",
        "width" : 160
      } ],
      "name" : "Nilüfer Topcu",
      "popularity" : 1,
      "type" : "artist",
      "uri" : "spotify:artist:2DxkAk0XxtTKQmQfnwwmyZ"
    }, {
      "external_urls" : {
        "spotify" : "https://open.spotify.com/artist/6ENm5C44uW3ZZQriXb0a2v"
      },
      "followers" : {
        "href" : null,
        "total" : 5
      },
      "genres" : [ ],
      "href" : "https://api.spotify.com/v1/artists/6ENm5C44uW3ZZQriXb0a2v",
      "id" : "6ENm5C44uW3ZZQriXb0a2v",
      "images" : [ ],
      "name" : "Nilufar Saidova",
      "popularity" : 5,
      "type" : "artist",
      "uri" : "spotify:artist:6ENm5C44uW3ZZQriXb0a2v"
    }, {
      "external_urls" : {
        "spotify" : "https://open.spotify.com/artist/1tgfi3YYoeXKehnjKaMsOo"
      },
      "followers" : {
        "href" : null,
        "total" : 316590
      },
      "genres" : [ "turkish rock", "turkish singer-songwriter" ],
      "href" : "https://api.spotify.com/v1/artists/1tgfi3YYoeXKehnjKaMsOo",
      "id" : "1tgfi3YYoeXKehnjKaMsOo",
      "images" : [ {
        "height" : 640,
        "url" : "https://i.scdn.co/image/ab6761610000e5eb18fae6c7546959ad74606f1d",
        "width" : 640
      }, {
        "height" : 320,
        "url" : "https://i.scdn.co/image/ab6761610000517418fae6c7546959ad74606f1d",
        "width" : 320
      }, {
        "height" : 160,
        "url" : "https://i.scdn.co/image/ab6761610000f17818fae6c7546959ad74606f1d",
        "width" : 160
      } ],
      "name" : "Nilipek.",
      "popularity" : 47,
      "type" : "artist",
      "uri" : "spotify:artist:1tgfi3YYoeXKehnjKaMsOo"
    }, {
      "external_urls" : {
        "spotify" : "https://open.spotify.com/artist/4ekHurlfz7802M33fpRoTn"
      },
      "followers" : {
        "href" : null,
        "total" : 449
      },
      "genres" : [ ],
      "href" : "https://api.spotify.com/v1/artists/4ekHurlfz7802M33fpRoTn",
      "id" : "4ekHurlfz7802M33fpRoTn",
      "images" : [ {
        "height" : 640,
        "url" : "https://i.scdn.co/image/ab67616d0000b273615f50e395e06dfe7d05e824",
        "width" : 640
      }, {
        "height" : 300,
        "url" : "https://i.scdn.co/image/ab67616d00001e02615f50e395e06dfe7d05e824",
        "width" : 300
      }, {
        "height" : 64,
        "url" : "https://i.scdn.co/image/ab67616d00004851615f50e395e06dfe7d05e824",
        "width" : 64
      } ],
      "name" : "Nilufar Bintu Ulug'bek",
      "popularity" : 4,
      "type" : "artist",
      "uri" : "spotify:artist:4ekHurlfz7802M33fpRoTn"
    }, {
      "external_urls" : {
        "spotify" : "https://open.spotify.com/artist/0lbW9jgBiLNIIUTGvlzGYw"
      },
      "followers" : {
        "href" : null,
        "total" : 12850
      },
      "genres" : [ "kurdish folk", "kurdish pop" ],
      "href" : "https://api.spotify.com/v1/artists/0lbW9jgBiLNIIUTGvlzGYw",
      "id" : "0lbW9jgBiLNIIUTGvlzGYw",
      "images" : [ {
        "height" : 640,
        "url" : "https://i.scdn.co/image/ab67616d0000b27312e4f8c79e334f4a442abd10",
        "width" : 640
      }, {
        "height" : 300,
        "url" : "https://i.scdn.co/image/ab67616d00001e0212e4f8c79e334f4a442abd10",
        "width" : 300
      }, {
        "height" : 64,
        "url" : "https://i.scdn.co/image/ab67616d0000485112e4f8c79e334f4a442abd10",
        "width" : 64
      } ],
      "name" : "Nilüfer Akbal",
      "popularity" : 27,
      "type" : "artist",
      "uri" : "spotify:artist:0lbW9jgBiLNIIUTGvlzGYw"
    }, {
      "external_urls" : {
        "spotify" : "https://open.spotify.com/artist/3a8Gboc8HtnxLIfVZELlUC"
      },
      "followers" : {
        "href" : null,
        "total" : 7
      },
      "genres" : [ ],
      "href" : "https://api.spotify.com/v1/artists/3a8Gboc8HtnxLIfVZELlUC",
      "id" : "3a8Gboc8HtnxLIfVZELlUC",
      "images" : [ {
        "height" : 640,
        "url" : "https://i.scdn.co/image/ab67616d0000b2733877bdd9b9ec89a565ee03bb",
        "width" : 640
      }, {
        "height" : 300,
        "url" : "https://i.scdn.co/image/ab67616d00001e023877bdd9b9ec89a565ee03bb",
        "width" : 300
      }, {
        "height" : 64,
        "url" : "https://i.scdn.co/image/ab67616d000048513877bdd9b9ec89a565ee03bb",
        "width" : 64
      } ],
      "name" : "Nilüfer Şimşek",
      "popularity" : 5,
      "type" : "artist",
      "uri" : "spotify:artist:3a8Gboc8HtnxLIfVZELlUC"
    }, {
      "external_urls" : {
        "spotify" : "https://open.spotify.com/artist/04iDbY27hS8SKKr2toc0nD"
      },
      "followers" : {
        "href" : null,
        "total" : 577
      },
      "genres" : [ ],
      "href" : "https://api.spotify.com/v1/artists/04iDbY27hS8SKKr2toc0nD",
      "id" : "04iDbY27hS8SKKr2toc0nD",
      "images" : [ {
        "height" : 640,
        "url" : "https://i.scdn.co/image/ab6761610000e5eb45bf5b5a9eeaf5c0635fd989",
        "width" : 640
      }, {
        "height" : 320,
        "url" : "https://i.scdn.co/image/ab6761610000517445bf5b5a9eeaf5c0635fd989",
        "width" : 320
      }, {
        "height" : 160,
        "url" : "https://i.scdn.co/image/ab6761610000f17845bf5b5a9eeaf5c0635fd989",
        "width" : 160
      } ],
      "name" : "Nilhan",
      "popularity" : 26,
      "type" : "artist",
      "uri" : "spotify:artist:04iDbY27hS8SKKr2toc0nD"
    }, {
      "external_urls" : {
        "spotify" : "https://open.spotify.com/artist/51h0CwvWkR2ul6r3P6UCHX"
      },
      "followers" : {
        "href" : null,
        "total" : 6
      },
      "genres" : [ ],
      "href" : "https://api.spotify.com/v1/artists/51h0CwvWkR2ul6r3P6UCHX",
      "id" : "51h0CwvWkR2ul6r3P6UCHX",
      "images" : [ ],
      "name" : "Nilüfer Ay",
      "popularity" : 6,
      "type" : "artist",
      "uri" : "spotify:artist:51h0CwvWkR2ul6r3P6UCHX"
    }, {
      "external_urls" : {
        "spotify" : "https://open.spotify.com/artist/6n7G1HHHH30UEaHRMPftvp"
      },
      "followers" : {
        "href" : null,
        "total" : 7407
      },
      "genres" : [ "deep turkish pop", "turkish pop" ],
      "href" : "https://api.spotify.com/v1/artists/6n7G1HHHH30UEaHRMPftvp",
      "id" : "6n7G1HHHH30UEaHRMPftvp",
      "images" : [ {
        "height" : 640,
        "url" : "https://i.scdn.co/image/ab6761610000e5eb59b8a81e80bc83ce18be241e",
        "width" : 640
      }, {
        "height" : 320,
        "url" : "https://i.scdn.co/image/ab6761610000517459b8a81e80bc83ce18be241e",
        "width" : 320
      }, {
        "height" : 160,
        "url" : "https://i.scdn.co/image/ab6761610000f17859b8a81e80bc83ce18be241e",
        "width" : 160
      } ],
      "name" : "Nilgül",
      "popularity" : 25,
      "type" : "artist",
      "uri" : "spotify:artist:6n7G1HHHH30UEaHRMPftvp"
    }, {
      "external_urls" : {
        "spotify" : "https://open.spotify.com/artist/6ylHhpcNJimGRx4nA2SjNO"
      },
      "followers" : {
        "href" : null,
        "total" : 53
      },
      "genres" : [ ],
      "href" : "https://api.spotify.com/v1/artists/6ylHhpcNJimGRx4nA2SjNO",
      "id" : "6ylHhpcNJimGRx4nA2SjNO",
      "images" : [ ],
      "name" : "Nilüfer",
      "popularity" : 2,
      "type" : "artist",
      "uri" : "spotify:artist:6ylHhpcNJimGRx4nA2SjNO"
    }, {
      "external_urls" : {
        "spotify" : "https://open.spotify.com/artist/32dOOs6QMhi91u0WvwAA6E"
      },
      "followers" : {
        "href" : null,
        "total" : 79
      },
      "genres" : [ ],
      "href" : "https://api.spotify.com/v1/artists/32dOOs6QMhi91u0WvwAA6E",
      "id" : "32dOOs6QMhi91u0WvwAA6E",
      "images" : [ {
        "height" : 640,
        "url" : "https://i.scdn.co/image/ab67616d0000b273c94fd87798b52edba61685b1",
        "width" : 640
      }, {
        "height" : 300,
        "url" : "https://i.scdn.co/image/ab67616d00001e02c94fd87798b52edba61685b1",
        "width" : 300
      }, {
        "height" : 64,
        "url" : "https://i.scdn.co/image/ab67616d00004851c94fd87798b52edba61685b1",
        "width" : 64
      } ],
      "name" : "Nilüfer Avcı Gündoğdu",
      "popularity" : 5,
      "type" : "artist",
      "uri" : "spotify:artist:32dOOs6QMhi91u0WvwAA6E"
    }, {
      "external_urls" : {
        "spotify" : "https://open.spotify.com/artist/1ZMVp0wkGorn6gY4ikHz6M"
      },
      "followers" : {
        "href" : null,
        "total" : 209
      },
      "genres" : [ ],
      "href" : "https://api.spotify.com/v1/artists/1ZMVp0wkGorn6gY4ikHz6M",
      "id" : "1ZMVp0wkGorn6gY4ikHz6M",
      "images" : [ {
        "height" : 640,
        "url" : "https://i.scdn.co/image/ab67616d0000b27349a04e9a0e66acb591d91586",
        "width" : 640
      }, {
        "height" : 300,
        "url" : "https://i.scdn.co/image/ab67616d00001e0249a04e9a0e66acb591d91586",
        "width" : 300
      }, {
        "height" : 64,
        "url" : "https://i.scdn.co/image/ab67616d0000485149a04e9a0e66acb591d91586",
        "width" : 64
      } ],
      "name" : "Nilgün Kızılcı",
      "popularity" : 7,
      "type" : "artist",
      "uri" : "spotify:artist:1ZMVp0wkGorn6gY4ikHz6M"
    }, {
      "external_urls" : {
        "spotify" : "https://open.spotify.com/artist/5LXjj4MJI5CW604d5raV3Y"
      },
      "followers" : {
        "href" : null,
        "total" : 1
      },
      "genres" : [ ],
      "href" : "https://api.spotify.com/v1/artists/5LXjj4MJI5CW604d5raV3Y",
      "id" : "5LXjj4MJI5CW604d5raV3Y",
      "images" : [ ],
      "name" : "Nilüfer Ay",
      "popularity" : 1,
      "type" : "artist",
      "uri" : "spotify:artist:5LXjj4MJI5CW604d5raV3Y"
    }, {
      "external_urls" : {
        "spotify" : "https://open.spotify.com/artist/3ZuL6MT20NwgBuiqNE6CPh"
      },
      "followers" : {
        "href" : null,
        "total" : 2780
      },
      "genres" : [ "cocuk sarkilari" ],
      "href" : "https://api.spotify.com/v1/artists/3ZuL6MT20NwgBuiqNE6CPh",
      "id" : "3ZuL6MT20NwgBuiqNE6CPh",
      "images" : [ {
        "height" : 640,
        "url" : "https://i.scdn.co/image/ab6761610000e5ebded4dd5bdc65d96c06be7449",
        "width" : 640
      }, {
        "height" : 320,
        "url" : "https://i.scdn.co/image/ab67616100005174ded4dd5bdc65d96c06be7449",
        "width" : 320
      }, {
        "height" : 160,
        "url" : "https://i.scdn.co/image/ab6761610000f178ded4dd5bdc65d96c06be7449",
        "width" : 160
      } ],
      "name" : "Niloya",
      "popularity" : 29,
      "type" : "artist",
      "uri" : "spotify:artist:3ZuL6MT20NwgBuiqNE6CPh"
    }, {
      "external_urls" : {
        "spotify" : "https://open.spotify.com/artist/0krnomxDu9wXHjnTFkqCZk"
      },
      "followers" : {
        "href" : null,
        "total" : 33
      },
      "genres" : [ ],
      "href" : "https://api.spotify.com/v1/artists/0krnomxDu9wXHjnTFkqCZk",
      "id" : "0krnomxDu9wXHjnTFkqCZk",
      "images" : [ {
        "height" : 640,
        "url" : "https://i.scdn.co/image/ab6761610000e5eb5a14943c6e3bf881d18a14aa",
        "width" : 640
      }, {
        "height" : 320,
        "url" : "https://i.scdn.co/image/ab676161000051745a14943c6e3bf881d18a14aa",
        "width" : 320
      }, {
        "height" : 160,
        "url" : "https://i.scdn.co/image/ab6761610000f1785a14943c6e3bf881d18a14aa",
        "width" : 160
      } ],
      "name" : "Nilay",
      "popularity" : 34,
      "type" : "artist",
      "uri" : "spotify:artist:0krnomxDu9wXHjnTFkqCZk"
    }, {
      "external_urls" : {
        "spotify" : "https://open.spotify.com/artist/3BslyA3laPoYvt2sY1z9PG"
      },
      "followers" : {
        "href" : null,
        "total" : 4160
      },
      "genres" : [ "turkish folk" ],
      "href" : "https://api.spotify.com/v1/artists/3BslyA3laPoYvt2sY1z9PG",
      "id" : "3BslyA3laPoYvt2sY1z9PG",
      "images" : [ {
        "height" : 640,
        "url" : "https://i.scdn.co/image/ab67616d0000b27399b1094a922935b43dd39481",
        "width" : 640
      }, {
        "height" : 300,
        "url" : "https://i.scdn.co/image/ab67616d00001e0299b1094a922935b43dd39481",
        "width" : 300
      }, {
        "height" : 64,
        "url" : "https://i.scdn.co/image/ab67616d0000485199b1094a922935b43dd39481",
        "width" : 64
      } ],
      "name" : "Nuray Hafiftas",
      "popularity" : 27,
      "type" : "artist",
      "uri" : "spotify:artist:3BslyA3laPoYvt2sY1z9PG"
    } ],
    "limit" : 20,
    "next" : "https://api.spotify.com/v1/search?query=nilufer+yanya&type=artist&market=US&offset=20&limit=20",
    "offset" : 0,
    "previous" : null,
    "total" : 28
  }
}