{
  "artists" : {
    "href" : "https://api.spotify.com/v1/search?query=randy+randall&type=artist&market=US&offset=0&limit=20",
    "items" : [ {
      "external_urls" : {
        "spotify" : "https://open.spotify.com/artist/10xQlFFMkARUiDNXd31XYS"
      },
      "followers" : {
        "href" : null,
        "total" : 182
      },
      "genres" : [ ],
      "href" : "https://api.spotify.com/v1/artists/10xQlFFMkARUiDNXd31XYS",
      "id" : "10xQlFFMkARUiDNXd31XYS",
      "images" : [ {
        "height" : 640,
        "url" : "https://i.scdn.co/image/ab6761610000e5eb39d15551ec2d6cf87f5173b8",
        "width" : 640
      }, {
        "height" : 320,
        "url" : "https://i.scdn.co/image/ab6761610000517439d15551ec2d6cf87f5173b8",
        "width" : 320
      }, {
        "height" : 160,
        "url" : "https://i.scdn.co/image/ab6761610000f17839d15551ec2d6cf87f5173b8",
        "width" : 160
      } ],
      "name" : "Randy Randall",
      "popularity" : 8,
      "type" : "artist",
      "uri" : "spotify:artist:10xQlFFMkARUiDNXd31XYS"
    }, {
      "external_urls" : {
        "spotify" : "https://open.spotify.com/artist/1K7v4JYHhXOfeRoakLO3zY"
      },
      "followers" : {
        "href" : null,
        "total" : 0
      },
      "genres" : [ ],
      "href" : "https://api.spotify.com/v1/artists/1K7v4JYHhXOfeRoakLO3zY",
      "id" : "1K7v4JYHhXOfeRoakLO3zY",
      "images" : [ ],
      "name" : "RANDY RAND",
      "popularity" : 13,
      "type" : "artist",
      "uri" : "spotify:artist:1K7v4JYHhXOfeRoakLO3zY"
    }, {
      "external_urls" : {
        "spotify" : "https://open.spotify.com/artist/1AY1AvkFqcSy9uXeK7f9xK"
      },
      "followers" : {
        "href" : null,
        "total" : 11
      },
      "genres" : [ ],
      "href" : "https://api.spotify.com/v1/artists/1AY1AvkFqcSy9uXeK7f9xK",
      "id" : "1AY1AvkFqcSy9uXeK7f9xK",
      "images" : [ ],
      "name" : "Randy Parsons (a.k.a. Randy Parsons & Friends and/or Randall Parsons)",
      "popularity" : 0,
      "type" : "artist",
      "uri" : "spotify:artist:1AY1AvkFqcSy9uXeK7f9xK"
    }, {
      "external_urls" : {
        "spotify" : "https://open.spotify.com/artist/3VzyzR6DaEIfasrKKcJ8mI"
      },
      "followers" : {
        "href" : null,
        "total" : 381
      },
      "genres" : [ ],
      "href" : "https://api.spotify.com/v1/artists/3VzyzR6DaEIfasrKKcJ8mI",
      "id" : "3VzyzR6DaEIfasrKKcJ8mI",
      "images" : [ {
        "height" : 640,
        "url" : "https://i.scdn.co/image/ab6761610000e5eb097acabee78d95a7b040c831",
        "width" : 640
      }, {
        "height" : 320,
        "url" : "https://i.scdn.co/image/ab67616100005174097acabee78d95a7b040c831",
        "width" : 320
      }, {
        "height" : 160,
        "url" : "https://i.scdn.co/image/ab6761610000f178097acabee78d95a7b040c831",
        "width" : 160
      } ],
      "name" : "Wet Satin",
      "popularity" : 20,
      "type" : "artist",
      "uri" : "spotify:artist:3VzyzR6DaEIfasrKKcJ8mI"
    }, {
      "external_urls" : {
        "spotify" : "https://open.spotify.com/artist/7iKleRyjLc8sVDN551vyiX"
      },
      "followers" : {
        "href" : null,
        "total" : 24580
      },
      "genres" : [ "neo-psychedelic", "swiss alternative rock" ],
      "href" : "https://api.spotify.com/v1/artists/7iKleRyjLc8sVDN551vyiX",
      "id" : "7iKleRyjLc8sVDN551vyiX",
      "images" : [ {
        "height" : 640,
        "url" : "https://i.scdn.co/image/ab6761610000e5ebf9e198a751f3fc6b43843c29",
        "width" : 640
      }, {
        "height" : 320,
        "url" : "https://i.scdn.co/image/ab67616100005174f9e198a751f3fc6b43843c29",
        "width" : 320
      }, {
        "height" : 160,
        "url" : "https://i.scdn.co/image/ab6761610000f178f9e198a751f3fc6b43843c29",
        "width" : 160
      } ],
      "name" : "L'éclair",
      "popularity" : 37,
      "type" : "artist",
      "uri" : "spotify:artist:7iKleRyjLc8sVDN551vyiX"
    }, {
      "external_urls" : {
        "spotify" : "https://open.spotify.com/artist/5vwfxx5HARUqu6DzUVfhJd"
      },
      "followers" : {
        "href" : null,
        "total" : 10
      },
      "genres" : [ ],
      "href" : "https://api.spotify.com/v1/artists/5vwfxx5HARUqu6DzUVfhJd",
      "id" : "5vwfxx5HARUqu6DzUVfhJd",
      "images" : [ ],
      "name" : "Randy-Ran",
      "popularity" : 8,
      "type" : "artist",
      "uri" : "spotify:artist:5vwfxx5HARUqu6DzUVfhJd"
    }, {
      "external_urls" : {
        "spotify" : "https://open.spotify.com/artist/4V5obzWMr7BHZrjOiQwB4K"
      },
      "followers" : {
        "href" : null,
        "total" : 30121
      },
      "genres" : [ "mathcore" ],
      "href" : "https://api.spotify.com/v1/artists/4V5obzWMr7BHZrjOiQwB4K",
      "id" : "4V5obzWMr7BHZrjOiQwB4K",
      "images" : [ {
        "height" : 640,
        "url" : "https://i.scdn.co/image/ab6761610000e5ebd92e0118bad05253ab058304",
        "width" : 640
      }, {
        "height" : 320,
        "url" : "https://i.scdn.co/image/ab67616100005174d92e0118bad05253ab058304",
        "width" : 320
      }, {
        "height" : 160,
        "url" : "https://i.scdn.co/image/ab6761610000f178d92e0118bad05253ab058304",
        "width" : 160
      } ],
      "name" : "The Armed",
      "popularity" : 39,
      "type" : "artist",
      "uri" : "spotify:artist:4V5obzWMr7BHZrjOiQwB4K"
    }, {
      "external_urls" : {
        "spotify" : "https://open.spotify.com/artist/7dlqF0MMY6f1YjNq4Kkc0f"
      },
      "followers" : {
        "href" : null,
        "total" : 11
      },
      "genres" : [ ],
      "href" : "https://api.spotify.com/v1/artists/7dlqF0MMY6f1YjNq4Kkc0f",
      "id" : "7dlqF0MMY6f1YjNq4Kkc0f",
      "images" : [ {
        "height" : 640,
        "url" : "https://i.scdn.co/image/ab6761610000e5ebe9658819843302650911938d",
        "width" : 640
      }, {
        "height" : 320,
        "url" : "https://i.scdn.co/image/ab67616100005174e9658819843302650911938d",
        "width" : 320
      }, {
        "height" : 160,
        "url" : "https://i.scdn.co/image/ab6761610000f178e9658819843302650911938d",
        "width" : 160
      } ],
      "name" : "RandyRan",
      "popularity" : 1,
      "type" : "artist",
      "uri" : "spotify:artist:7dlqF0MMY6f1YjNq4Kkc0f"
    }, {
      "external_urls" : {
        "spotify" : "https://open.spotify.com/artist/34ji1NPhqjImjXwOb2kwg4"
      },
      "followers" : {
        "href" : null,
        "total" : 11127
      },
      "genres" : [ "indie punk", "la indie" ],
      "href" : "https://api.spotify.com/v1/artists/34ji1NPhqjImjXwOb2kwg4",
      "id" : "34ji1NPhqjImjXwOb2kwg4",
      "images" : [ {
        "height" : 640,
        "url" : "https://i.scdn.co/image/ab6761610000e5eba22d6458aa98abcd0b427889",
        "width" : 640
      }, {
        "height" : 320,
        "url" : "https://i.scdn.co/image/ab67616100005174a22d6458aa98abcd0b427889",
        "width" : 320
      }, {
        "height" : 160,
        "url" : "https://i.scdn.co/image/ab6761610000f178a22d6458aa98abcd0b427889",
        "width" : 160
      } ],
      "name" : "The Paranoyds",
      "popularity" : 31,
      "type" : "artist",
      "uri" : "spotify:artist:34ji1NPhqjImjXwOb2kwg4"
    }, {
      "external_urls" : {
        "spotify" : "https://open.spotify.com/artist/0Vll0SNLozOGHbfHbjY4pv"
      },
      "followers" : {
        "href" : null,
        "total" : 17987
      },
      "genres" : [ "art punk" ],
      "href" : "https://api.spotify.com/v1/artists/0Vll0SNLozOGHbfHbjY4pv",
      "id" : "0Vll0SNLozOGHbfHbjY4pv",
      "images" : [ {
        "height" : 640,
        "url" : "https://i.scdn.co/image/ab6761610000e5eb965cefd6fda173748730f748",
        "width" : 640
      }, {
        "height" : 320,
        "url" : "https://i.scdn.co/image/ab67616100005174965cefd6fda173748730f748",
        "width" : 320
      }, {
        "height" : 160,
        "url" : "https://i.scdn.co/image/ab6761610000f178965cefd6fda173748730f748",
        "width" : 160
      } ],
      "name" : "Sloppy Jane",
      "popularity" : 36,
      "type" : "artist",
      "uri" : "spotify:artist:0Vll0SNLozOGHbfHbjY4pv"
    }, {
      "external_urls" : {
        "spotify" : "https://open.spotify.com/artist/6A5Ns1SpGWTt8SzXPwiqVE"
      },
      "followers" : {
        "href" : null,
        "total" : 112266
      },
      "genres" : [ "bay area indie", "garage pop", "indie garage rock", "oakland indie", "power-pop punk" ],
      "href" : "https://api.spotify.com/v1/artists/6A5Ns1SpGWTt8SzXPwiqVE",
      "id" : "6A5Ns1SpGWTt8SzXPwiqVE",
      "images" : [ {
        "height" : 640,
        "url" : "https://i.scdn.co/image/ab6761610000e5eb2a8721bf74d6ce8682d9795b",
        "width" : 640
      }, {
        "height" : 320,
        "url" : "https://i.scdn.co/image/ab676161000051742a8721bf74d6ce8682d9795b",
        "width" : 320
      }, {
        "height" : 160,
        "url" : "https://i.scdn.co/image/ab6761610000f1782a8721bf74d6ce8682d9795b",
        "width" : 160
      } ],
      "name" : "Shannon & The Clams",
      "popularity" : 44,
      "type" : "artist",
      "uri" : "spotify:artist:6A5Ns1SpGWTt8SzXPwiqVE"
    }, {
      "external_urls" : {
        "spotify" : "https://open.spotify.com/artist/0mWrp0C4ShdOjs7P29Gzan"
      },
      "followers" : {
        "href" : null,
        "total" : 29026
      },
      "genres" : [ "art pop", "escape room", "scream rap" ],
      "href" : "https://api.spotify.com/v1/artists/0mWrp0C4ShdOjs7P29Gzan",
      "id" : "0mWrp0C4ShdOjs7P29Gzan",
      "images" : [ {
        "height" : 640,
        "url" : "https://i.scdn.co/image/ab6761610000e5eb9a277645bcc34a7b96d00add",
        "width" : 640
      }, {
        "height" : 320,
        "url" : "https://i.scdn.co/image/ab676161000051749a277645bcc34a7b96d00add",
        "width" : 320
      }, {
        "height" : 160,
        "url" : "https://i.scdn.co/image/ab6761610000f1789a277645bcc34a7b96d00add",
        "width" : 160
      } ],
      "name" : "Soul Glo",
      "popularity" : 38,
      "type" : "artist",
      "uri" : "spotify:artist:0mWrp0C4ShdOjs7P29Gzan"
    }, {
      "external_urls" : {
        "spotify" : "https://open.spotify.com/artist/7kDf1ziRxPFtWbbZB1XmrM"
      },
      "followers" : {
        "href" : null,
        "total" : 10275
      },
      "genres" : [ "breakcore", "deep idm", "drill and bass", "glitch", "intelligent dance music", "plunderphonics" ],
      "href" : "https://api.spotify.com/v1/artists/7kDf1ziRxPFtWbbZB1XmrM",
      "id" : "7kDf1ziRxPFtWbbZB1XmrM",
      "images" : [ {
        "height" : 600,
        "url" : "https://i.scdn.co/image/2e2dd52def89c9e902cb4c986974f418565b2f0d",
        "width" : 900
      }, {
        "height" : 427,
        "url" : "https://i.scdn.co/image/264d610868ea6133a598adce811442055d00c3da",
        "width" : 640
      }, {
        "height" : 133,
        "url" : "https://i.scdn.co/image/b1c3091a06e4f3deaac3430c176eb2d26fec9aeb",
        "width" : 200
      }, {
        "height" : 43,
        "url" : "https://i.scdn.co/image/0f1815d307c4e80187d474e36c5e427cf2f75e7d",
        "width" : 64
      } ],
      "name" : "Kid606",
      "popularity" : 21,
      "type" : "artist",
      "uri" : "spotify:artist:7kDf1ziRxPFtWbbZB1XmrM"
    }, {
      "external_urls" : {
        "spotify" : "https://open.spotify.com/artist/1Kssd2mp7BMKGZUUKncUt6"
      },
      "followers" : {
        "href" : null,
        "total" : 20195
      },
      "genres" : [ "indie folk", "pop folk" ],
      "href" : "https://api.spotify.com/v1/artists/1Kssd2mp7BMKGZUUKncUt6",
      "id" : "1Kssd2mp7BMKGZUUKncUt6",
      "images" : [ {
        "height" : 640,
        "url" : "https://i.scdn.co/image/ab6761610000e5eb44556a78b338ca92357211f1",
        "width" : 640
      }, {
        "height" : 320,
        "url" : "https://i.scdn.co/image/ab6761610000517444556a78b338ca92357211f1",
        "width" : 320
      }, {
        "height" : 160,
        "url" : "https://i.scdn.co/image/ab6761610000f17844556a78b338ca92357211f1",
        "width" : 160
      } ],
      "name" : "Shannon Lay",
      "popularity" : 44,
      "type" : "artist",
      "uri" : "spotify:artist:1Kssd2mp7BMKGZUUKncUt6"
    }, {
      "external_urls" : {
        "spotify" : "https://open.spotify.com/artist/18SJLvRK2C84Ayo1owImsk"
      },
      "followers" : {
        "href" : null,
        "total" : 68
      },
      "genres" : [ ],
      "href" : "https://api.spotify.com/v1/artists/18SJLvRK2C84Ayo1owImsk",
      "id" : "18SJLvRK2C84Ayo1owImsk",
      "images" : [ {
        "height" : 640,
        "url" : "https://i.scdn.co/image/ab6761610000e5eb251081bb7b4eac9994ebe6aa",
        "width" : 640
      }, {
        "height" : 320,
        "url" : "https://i.scdn.co/image/ab67616100005174251081bb7b4eac9994ebe6aa",
        "width" : 320
      }, {
        "height" : 160,
        "url" : "https://i.scdn.co/image/ab6761610000f178251081bb7b4eac9994ebe6aa",
        "width" : 160
      } ],
      "name" : "Heads Are Heavy",
      "popularity" : 6,
      "type" : "artist",
      "uri" : "spotify:artist:18SJLvRK2C84Ayo1owImsk"
    }, {
      "external_urls" : {
        "spotify" : "https://open.spotify.com/artist/53N4oJpWtmnB0KGLLserGC"
      },
      "followers" : {
        "href" : null,
        "total" : 82904
      },
      "genres" : [ "drill and bass", "electronica", "glitch", "intelligent dance music" ],
      "href" : "https://api.spotify.com/v1/artists/53N4oJpWtmnB0KGLLserGC",
      "id" : "53N4oJpWtmnB0KGLLserGC",
      "images" : [ {
        "height" : 640,
        "url" : "https://i.scdn.co/image/ab6761610000e5eb66dd628a7110d390385b3a47",
        "width" : 640
      }, {
        "height" : 320,
        "url" : "https://i.scdn.co/image/ab6761610000517466dd628a7110d390385b3a47",
        "width" : 320
      }, {
        "height" : 160,
        "url" : "https://i.scdn.co/image/ab6761610000f17866dd628a7110d390385b3a47",
        "width" : 160
      } ],
      "name" : "Telefon Tel Aviv",
      "popularity" : 32,
      "type" : "artist",
      "uri" : "spotify:artist:53N4oJpWtmnB0KGLLserGC"
    }, {
      "external_urls" : {
        "spotify" : "https://open.spotify.com/artist/0x9HCT7ZZlOEfLSVCDi5SO"
      },
      "followers" : {
        "href" : null,
        "total" : 43271
      },
      "genres" : [ "french garage rock", "french stoner rock", "neo-psychedelic", "rock alternatif francais" ],
      "href" : "https://api.spotify.com/v1/artists/0x9HCT7ZZlOEfLSVCDi5SO",
      "id" : "0x9HCT7ZZlOEfLSVCDi5SO",
      "images" : [ {
        "height" : 640,
        "url" : "https://i.scdn.co/image/ab6761610000e5eb247ab814d00c3ee319eb2055",
        "width" : 640
      }, {
        "height" : 320,
        "url" : "https://i.scdn.co/image/ab67616100005174247ab814d00c3ee319eb2055",
        "width" : 320
      }, {
        "height" : 160,
        "url" : "https://i.scdn.co/image/ab6761610000f178247ab814d00c3ee319eb2055",
        "width" : 160
      } ],
      "name" : "SLIFT",
      "popularity" : 32,
      "type" : "artist",
      "uri" : "spotify:artist:0x9HCT7ZZlOEfLSVCDi5SO"
    }, {
      "external_urls" : {
        "spotify" : "https://open.spotify.com/artist/2kRFetyCeU3r24DVyTZVFx"
      },
      "followers" : {
        "href" : null,
        "total" : 23280
      },
      "genres" : [ ],
      "href" : "https://api.spotify.com/v1/artists/2kRFetyCeU3r24DVyTZVFx",
      "id" : "2kRFetyCeU3r24DVyTZVFx",
      "images" : [ {
        "height" : 640,
        "url" : "https://i.scdn.co/image/ab6761610000e5ebe6610137da69dcbf94266ef0",
        "width" : 640
      }, {
        "height" : 320,
        "url" : "https://i.scdn.co/image/ab67616100005174e6610137da69dcbf94266ef0",
        "width" : 320
      }, {
        "height" : 160,
        "url" : "https://i.scdn.co/image/ab6761610000f178e6610137da69dcbf94266ef0",
        "width" : 160
      } ],
      "name" : "Surfbort",
      "popularity" : 33,
      "type" : "artist",
      "uri" : "spotify:artist:2kRFetyCeU3r24DVyTZVFx"
    }, {
      "external_urls" : {
        "spotify" : "https://open.spotify.com/artist/1plioVQ0mcgAO7uhvWkJJy"
      },
      "followers" : {
        "href" : null,
        "total" : 67738
      },
      "genres" : [ "alternative r&b", "funk", "indie soul", "neo soul", "soul" ],
      "href" : "https://api.spotify.com/v1/artists/1plioVQ0mcgAO7uhvWkJJy",
      "id" : "1plioVQ0mcgAO7uhvWkJJy",
      "images" : [ {
        "height" : 640,
        "url" : "https://i.scdn.co/image/ab6761610000e5eb99b304bfd6eb8acdb9a1eea2",
        "width" : 640
      }, {
        "height" : 320,
        "url" : "https://i.scdn.co/image/ab6761610000517499b304bfd6eb8acdb9a1eea2",
        "width" : 320
      }, {
        "height" : 160,
        "url" : "https://i.scdn.co/image/ab6761610000f17899b304bfd6eb8acdb9a1eea2",
        "width" : 160
      } ],
      "name" : "Lady Wray",
      "popularity" : 51,
      "type" : "artist",
      "uri" : "spotify:artist:1plioVQ0mcgAO7uhvWkJJy"
    }, {
      "external_urls" : {
        "spotify" : "https://open.spotify.com/artist/4IeWU3NYBI9mISFVhzXG8f"
      },
      "followers" : {
        "href" : null,
        "total" : 126854
      },
      "genres" : [ "chamber psych", "indie rock", "modern alternative rock", "modern rock", "uk post-punk revival" ],
      "href" : "https://api.spotify.com/v1/artists/4IeWU3NYBI9mISFVhzXG8f",
      "id" : "4IeWU3NYBI9mISFVhzXG8f",
      "images" : [ {
        "height" : 640,
        "url" : "https://i.scdn.co/image/ab6761610000e5eb1f4c82dd5578030a1bcbd601",
        "width" : 640
      }, {
        "height" : 320,
        "url" : "https://i.scdn.co/image/ab676161000051741f4c82dd5578030a1bcbd601",
        "width" : 320
      }, {
        "height" : 160,
        "url" : "https://i.scdn.co/image/ab6761610000f1781f4c82dd5578030a1bcbd601",
        "width" : 160
      } ],
      "name" : "shame",
      "popularity" : 42,
      "type" : "artist",
      "uri" : "spotify:artist:4IeWU3NYBI9mISFVhzXG8f"
    } ],
    "limit" : 20,
    "next" : "https://api.spotify.com/v1/search?query=randy+randall&type=artist&market=US&offset=20&limit=20",
    "offset" : 0,
    "previous" : null,
    "total" : 21
  }
}