{
  "artists" : {
    "href" : "https://api.spotify.com/v1/search?query=slift&type=artist&market=US&offset=0&limit=20",
    "items" : [ {
      "external_urls" : {
        "spotify" : "https://open.spotify.com/artist/0x9HCT7ZZlOEfLSVCDi5SO"
      },
      "followers" : {
        "href" : null,
        "total" : 43271
      },
      "genres" : [ "french garage rock", "french stoner rock", "neo-psychedelic", "rock alternatif francais" ],
      "href" : "https://api.spotify.com/v1/artists/0x9HCT7ZZlOEfLSVCDi5SO",
      "id" : "0x9HCT7ZZlOEfLSVCDi5SO",
      "images" : [ {
        "height" : 640,
        "url" : "https://i.scdn.co/image/ab6761610000e5eb247ab814d00c3ee319eb2055",
        "width" : 640
      }, {
        "height" : 320,
        "url" : "https://i.scdn.co/image/ab67616100005174247ab814d00c3ee319eb2055",
        "width" : 320
      }, {
        "height" : 160,
        "url" : "https://i.scdn.co/image/ab6761610000f178247ab814d00c3ee319eb2055",
        "width" : 160
      } ],
      "name" : "SLIFT",
      "popularity" : 32,
      "type" : "artist",
      "uri" : "spotify:artist:0x9HCT7ZZlOEfLSVCDi5SO"
    }, {
      "external_urls" : {
        "spotify" : "https://open.spotify.com/artist/4IDamS1FuFeOvrmoMPtizm"
      },
      "followers" : {
        "href" : null,
        "total" : 1
      },
      "genres" : [ ],
      "href" : "https://api.spotify.com/v1/artists/4IDamS1FuFeOvrmoMPtizm",
      "id" : "4IDamS1FuFeOvrmoMPtizm",
      "images" : [ {
        "height" : 640,
        "url" : "https://i.scdn.co/image/ab67616d0000b2737de013a2c2ecebecbe42ee75",
        "width" : 640
      }, {
        "height" : 300,
        "url" : "https://i.scdn.co/image/ab67616d00001e027de013a2c2ecebecbe42ee75",
        "width" : 300
      }, {
        "height" : 64,
        "url" : "https://i.scdn.co/image/ab67616d000048517de013a2c2ecebecbe42ee75",
        "width" : 64
      } ],
      "name" : "Sliftils",
      "popularity" : 0,
      "type" : "artist",
      "uri" : "spotify:artist:4IDamS1FuFeOvrmoMPtizm"
    }, {
      "external_urls" : {
        "spotify" : "https://open.spotify.com/artist/1lsJmnN90u3KBvF3tGEWr3"
      },
      "followers" : {
        "href" : null,
        "total" : 54104
      },
      "genres" : [ "neo-psychedelic" ],
      "href" : "https://api.spotify.com/v1/artists/1lsJmnN90u3KBvF3tGEWr3",
      "id" : "1lsJmnN90u3KBvF3tGEWr3",
      "images" : [ {
        "height" : 640,
        "url" : "https://i.scdn.co/image/ab6761610000e5eb9d89d1b035a444eba397e87f",
        "width" : 640
      }, {
        "height" : 320,
        "url" : "https://i.scdn.co/image/ab676161000051749d89d1b035a444eba397e87f",
        "width" : 320
      }, {
        "height" : 160,
        "url" : "https://i.scdn.co/image/ab6761610000f1789d89d1b035a444eba397e87f",
        "width" : 160
      } ],
      "name" : "Mildlife",
      "popularity" : 39,
      "type" : "artist",
      "uri" : "spotify:artist:1lsJmnN90u3KBvF3tGEWr3"
    }, {
      "external_urls" : {
        "spotify" : "https://open.spotify.com/artist/3BUpv2goO0OTzcj7yYkRZJ"
      },
      "followers" : {
        "href" : null,
        "total" : 5265
      },
      "genres" : [ ],
      "href" : "https://api.spotify.com/v1/artists/3BUpv2goO0OTzcj7yYkRZJ",
      "id" : "3BUpv2goO0OTzcj7yYkRZJ",
      "images" : [ {
        "height" : 640,
        "url" : "https://i.scdn.co/image/ab6761610000e5eb51ec3e0ad79f0407ed7df130",
        "width" : 640
      }, {
        "height" : 320,
        "url" : "https://i.scdn.co/image/ab6761610000517451ec3e0ad79f0407ed7df130",
        "width" : 320
      }, {
        "height" : 160,
        "url" : "https://i.scdn.co/image/ab6761610000f17851ec3e0ad79f0407ed7df130",
        "width" : 160
      } ],
      "name" : "JJUUJJUU",
      "popularity" : 11,
      "type" : "artist",
      "uri" : "spotify:artist:3BUpv2goO0OTzcj7yYkRZJ"
    }, {
      "external_urls" : {
        "spotify" : "https://open.spotify.com/artist/5UdQDFQ3wgUPuL5kiL7KqU"
      },
      "followers" : {
        "href" : null,
        "total" : 29356
      },
      "genres" : [ "indie garage rock", "neo-psychedelic" ],
      "href" : "https://api.spotify.com/v1/artists/5UdQDFQ3wgUPuL5kiL7KqU",
      "id" : "5UdQDFQ3wgUPuL5kiL7KqU",
      "images" : [ {
        "height" : 640,
        "url" : "https://i.scdn.co/image/ab6761610000e5eb09e8beae46fa1842a49f2bb0",
        "width" : 640
      }, {
        "height" : 320,
        "url" : "https://i.scdn.co/image/ab6761610000517409e8beae46fa1842a49f2bb0",
        "width" : 320
      }, {
        "height" : 160,
        "url" : "https://i.scdn.co/image/ab6761610000f17809e8beae46fa1842a49f2bb0",
        "width" : 160
      } ],
      "name" : "Frankie and the Witch Fingers",
      "popularity" : 35,
      "type" : "artist",
      "uri" : "spotify:artist:5UdQDFQ3wgUPuL5kiL7KqU"
    }, {
      "external_urls" : {
        "spotify" : "https://open.spotify.com/artist/7iKleRyjLc8sVDN551vyiX"
      },
      "followers" : {
        "href" : null,
        "total" : 24580
      },
      "genres" : [ "neo-psychedelic", "swiss alternative rock" ],
      "href" : "https://api.spotify.com/v1/artists/7iKleRyjLc8sVDN551vyiX",
      "id" : "7iKleRyjLc8sVDN551vyiX",
      "images" : [ {
        "height" : 640,
        "url" : "https://i.scdn.co/image/ab6761610000e5ebf9e198a751f3fc6b43843c29",
        "width" : 640
      }, {
        "height" : 320,
        "url" : "https://i.scdn.co/image/ab67616100005174f9e198a751f3fc6b43843c29",
        "width" : 320
      }, {
        "height" : 160,
        "url" : "https://i.scdn.co/image/ab6761610000f178f9e198a751f3fc6b43843c29",
        "width" : 160
      } ],
      "name" : "L'éclair",
      "popularity" : 37,
      "type" : "artist",
      "uri" : "spotify:artist:7iKleRyjLc8sVDN551vyiX"
    }, {
      "external_urls" : {
        "spotify" : "https://open.spotify.com/artist/0hrb5WRiNlj8vh3WnCgXFq"
      },
      "followers" : {
        "href" : null,
        "total" : 211730
      },
      "genres" : [ "instrumental stoner rock", "japanese psychedelic", "japanese psychedelic rock", "neo-psychedelic" ],
      "href" : "https://api.spotify.com/v1/artists/0hrb5WRiNlj8vh3WnCgXFq",
      "id" : "0hrb5WRiNlj8vh3WnCgXFq",
      "images" : [ {
        "height" : 640,
        "url" : "https://i.scdn.co/image/ab6761610000e5eb952b074c07607f6b8afc3f93",
        "width" : 640
      }, {
        "height" : 320,
        "url" : "https://i.scdn.co/image/ab67616100005174952b074c07607f6b8afc3f93",
        "width" : 320
      }, {
        "height" : 160,
        "url" : "https://i.scdn.co/image/ab6761610000f178952b074c07607f6b8afc3f93",
        "width" : 160
      } ],
      "name" : "Kikagaku Moyo",
      "popularity" : 46,
      "type" : "artist",
      "uri" : "spotify:artist:0hrb5WRiNlj8vh3WnCgXFq"
    }, {
      "external_urls" : {
        "spotify" : "https://open.spotify.com/artist/09kXLeOXRyfNQMXRaDO4qA"
      },
      "followers" : {
        "href" : null,
        "total" : 137212
      },
      "genres" : [ "art pop", "uk alternative pop" ],
      "href" : "https://api.spotify.com/v1/artists/09kXLeOXRyfNQMXRaDO4qA",
      "id" : "09kXLeOXRyfNQMXRaDO4qA",
      "images" : [ {
        "height" : 640,
        "url" : "https://i.scdn.co/image/ab6761610000e5eb1772815fafe2bdda56ce532d",
        "width" : 640
      }, {
        "height" : 320,
        "url" : "https://i.scdn.co/image/ab676161000051741772815fafe2bdda56ce532d",
        "width" : 320
      }, {
        "height" : 160,
        "url" : "https://i.scdn.co/image/ab6761610000f1781772815fafe2bdda56ce532d",
        "width" : 160
      } ],
      "name" : "Nilüfer Yanya",
      "popularity" : 51,
      "type" : "artist",
      "uri" : "spotify:artist:09kXLeOXRyfNQMXRaDO4qA"
    }, {
      "external_urls" : {
        "spotify" : "https://open.spotify.com/artist/1GQur7dDvAWhKT9u9YwBJZ"
      },
      "followers" : {
        "href" : null,
        "total" : 36165
      },
      "genres" : [ "afrobeat", "afropop", "world" ],
      "href" : "https://api.spotify.com/v1/artists/1GQur7dDvAWhKT9u9YwBJZ",
      "id" : "1GQur7dDvAWhKT9u9YwBJZ",
      "images" : [ {
        "height" : 640,
        "url" : "https://i.scdn.co/image/ab6761610000e5eb7361c1c60adf83e3d66352ef",
        "width" : 640
      }, {
        "height" : 320,
        "url" : "https://i.scdn.co/image/ab676161000051747361c1c60adf83e3d66352ef",
        "width" : 320
      }, {
        "height" : 160,
        "url" : "https://i.scdn.co/image/ab6761610000f1787361c1c60adf83e3d66352ef",
        "width" : 160
      } ],
      "name" : "Seun Kuti",
      "popularity" : 37,
      "type" : "artist",
      "uri" : "spotify:artist:1GQur7dDvAWhKT9u9YwBJZ"
    }, {
      "external_urls" : {
        "spotify" : "https://open.spotify.com/artist/2Ks1Z1scmEDZfaYaCS7Osj"
      },
      "followers" : {
        "href" : null,
        "total" : 35745
      },
      "genres" : [ "indie jazz", "indie soul", "neo-psychedelic" ],
      "href" : "https://api.spotify.com/v1/artists/2Ks1Z1scmEDZfaYaCS7Osj",
      "id" : "2Ks1Z1scmEDZfaYaCS7Osj",
      "images" : [ {
        "height" : 640,
        "url" : "https://i.scdn.co/image/ab6761610000e5eb0eb5e8b89aa79f62e1bef593",
        "width" : 640
      }, {
        "height" : 320,
        "url" : "https://i.scdn.co/image/ab676161000051740eb5e8b89aa79f62e1bef593",
        "width" : 320
      }, {
        "height" : 160,
        "url" : "https://i.scdn.co/image/ab6761610000f1780eb5e8b89aa79f62e1bef593",
        "width" : 160
      } ],
      "name" : "Surprise Chef",
      "popularity" : 46,
      "type" : "artist",
      "uri" : "spotify:artist:2Ks1Z1scmEDZfaYaCS7Osj"
    }, {
      "external_urls" : {
        "spotify" : "https://open.spotify.com/artist/2kRFetyCeU3r24DVyTZVFx"
      },
      "followers" : {
        "href" : null,
        "total" : 23280
      },
      "genres" : [ ],
      "href" : "https://api.spotify.com/v1/artists/2kRFetyCeU3r24DVyTZVFx",
      "id" : "2kRFetyCeU3r24DVyTZVFx",
      "images" : [ {
        "height" : 640,
        "url" : "https://i.scdn.co/image/ab6761610000e5ebe6610137da69dcbf94266ef0",
        "width" : 640
      }, {
        "height" : 320,
        "url" : "https://i.scdn.co/image/ab67616100005174e6610137da69dcbf94266ef0",
        "width" : 320
      }, {
        "height" : 160,
        "url" : "https://i.scdn.co/image/ab6761610000f178e6610137da69dcbf94266ef0",
        "width" : 160
      } ],
      "name" : "Surfbort",
      "popularity" : 33,
      "type" : "artist",
      "uri" : "spotify:artist:2kRFetyCeU3r24DVyTZVFx"
    }, {
      "external_urls" : {
        "spotify" : "https://open.spotify.com/artist/5Ly0z60jjgsY4rkmjRFtPS"
      },
      "followers" : {
        "href" : null,
        "total" : 12757
      },
      "genres" : [ "electra", "electronica", "float house" ],
      "href" : "https://api.spotify.com/v1/artists/5Ly0z60jjgsY4rkmjRFtPS",
      "id" : "5Ly0z60jjgsY4rkmjRFtPS",
      "images" : [ {
        "height" : 640,
        "url" : "https://i.scdn.co/image/ab6761610000e5eb0b1015b14d90885e67c06b13",
        "width" : 640
      }, {
        "height" : 320,
        "url" : "https://i.scdn.co/image/ab676161000051740b1015b14d90885e67c06b13",
        "width" : 320
      }, {
        "height" : 160,
        "url" : "https://i.scdn.co/image/ab6761610000f1780b1015b14d90885e67c06b13",
        "width" : 160
      } ],
      "name" : "Elkka",
      "popularity" : 41,
      "type" : "artist",
      "uri" : "spotify:artist:5Ly0z60jjgsY4rkmjRFtPS"
    }, {
      "external_urls" : {
        "spotify" : "https://open.spotify.com/artist/4IeWU3NYBI9mISFVhzXG8f"
      },
      "followers" : {
        "href" : null,
        "total" : 126854
      },
      "genres" : [ "chamber psych", "indie rock", "modern alternative rock", "modern rock", "uk post-punk revival" ],
      "href" : "https://api.spotify.com/v1/artists/4IeWU3NYBI9mISFVhzXG8f",
      "id" : "4IeWU3NYBI9mISFVhzXG8f",
      "images" : [ {
        "height" : 640,
        "url" : "https://i.scdn.co/image/ab6761610000e5eb1f4c82dd5578030a1bcbd601",
        "width" : 640
      }, {
        "height" : 320,
        "url" : "https://i.scdn.co/image/ab676161000051741f4c82dd5578030a1bcbd601",
        "width" : 320
      }, {
        "height" : 160,
        "url" : "https://i.scdn.co/image/ab6761610000f1781f4c82dd5578030a1bcbd601",
        "width" : 160
      } ],
      "name" : "shame",
      "popularity" : 42,
      "type" : "artist",
      "uri" : "spotify:artist:4IeWU3NYBI9mISFVhzXG8f"
    }, {
      "external_urls" : {
        "spotify" : "https://open.spotify.com/artist/2nAKP6etu8wXNnezKXgqgg"
      },
      "followers" : {
        "href" : null,
        "total" : 171883
      },
      "genres" : [ "egg punk", "stockholm indie" ],
      "href" : "https://api.spotify.com/v1/artists/2nAKP6etu8wXNnezKXgqgg",
      "id" : "2nAKP6etu8wXNnezKXgqgg",
      "images" : [ {
        "height" : 640,
        "url" : "https://i.scdn.co/image/ab6761610000e5ebf309aa1b63929627f6be0697",
        "width" : 640
      }, {
        "height" : 320,
        "url" : "https://i.scdn.co/image/ab67616100005174f309aa1b63929627f6be0697",
        "width" : 320
      }, {
        "height" : 160,
        "url" : "https://i.scdn.co/image/ab6761610000f178f309aa1b63929627f6be0697",
        "width" : 160
      } ],
      "name" : "Viagra Boys",
      "popularity" : 54,
      "type" : "artist",
      "uri" : "spotify:artist:2nAKP6etu8wXNnezKXgqgg"
    }, {
      "external_urls" : {
        "spotify" : "https://open.spotify.com/artist/0Vll0SNLozOGHbfHbjY4pv"
      },
      "followers" : {
        "href" : null,
        "total" : 17987
      },
      "genres" : [ "art punk" ],
      "href" : "https://api.spotify.com/v1/artists/0Vll0SNLozOGHbfHbjY4pv",
      "id" : "0Vll0SNLozOGHbfHbjY4pv",
      "images" : [ {
        "height" : 640,
        "url" : "https://i.scdn.co/image/ab6761610000e5eb965cefd6fda173748730f748",
        "width" : 640
      }, {
        "height" : 320,
        "url" : "https://i.scdn.co/image/ab67616100005174965cefd6fda173748730f748",
        "width" : 320
      }, {
        "height" : 160,
        "url" : "https://i.scdn.co/image/ab6761610000f178965cefd6fda173748730f748",
        "width" : 160
      } ],
      "name" : "Sloppy Jane",
      "popularity" : 36,
      "type" : "artist",
      "uri" : "spotify:artist:0Vll0SNLozOGHbfHbjY4pv"
    }, {
      "external_urls" : {
        "spotify" : "https://open.spotify.com/artist/6XYvaoDGE0VmRt83Jss9Sn"
      },
      "followers" : {
        "href" : null,
        "total" : 845214
      },
      "genres" : [ "australian indie", "australian psych", "double drumming", "microtonal", "neo-psychedelic" ],
      "href" : "https://api.spotify.com/v1/artists/6XYvaoDGE0VmRt83Jss9Sn",
      "id" : "6XYvaoDGE0VmRt83Jss9Sn",
      "images" : [ {
        "height" : 640,
        "url" : "https://i.scdn.co/image/ab6761610000e5ebae21e90221e814c50033133a",
        "width" : 640
      }, {
        "height" : 320,
        "url" : "https://i.scdn.co/image/ab67616100005174ae21e90221e814c50033133a",
        "width" : 320
      }, {
        "height" : 160,
        "url" : "https://i.scdn.co/image/ab6761610000f178ae21e90221e814c50033133a",
        "width" : 160
      } ],
      "name" : "King Gizzard & The Lizard Wizard",
      "popularity" : 64,
      "type" : "artist",
      "uri" : "spotify:artist:6XYvaoDGE0VmRt83Jss9Sn"
    }, {
      "external_urls" : {
        "spotify" : "https://open.spotify.com/artist/4V5obzWMr7BHZrjOiQwB4K"
      },
      "followers" : {
        "href" : null,
        "total" : 30121
      },
      "genres" : [ "mathcore" ],
      "href" : "https://api.spotify.com/v1/artists/4V5obzWMr7BHZrjOiQwB4K",
      "id" : "4V5obzWMr7BHZrjOiQwB4K",
      "images" : [ {
        "height" : 640,
        "url" : "https://i.scdn.co/image/ab6761610000e5ebd92e0118bad05253ab058304",
        "width" : 640
      }, {
        "height" : 320,
        "url" : "https://i.scdn.co/image/ab67616100005174d92e0118bad05253ab058304",
        "width" : 320
      }, {
        "height" : 160,
        "url" : "https://i.scdn.co/image/ab6761610000f178d92e0118bad05253ab058304",
        "width" : 160
      } ],
      "name" : "The Armed",
      "popularity" : 39,
      "type" : "artist",
      "uri" : "spotify:artist:4V5obzWMr7BHZrjOiQwB4K"
    }, {
      "external_urls" : {
        "spotify" : "https://open.spotify.com/artist/18SJLvRK2C84Ayo1owImsk"
      },
      "followers" : {
        "href" : null,
        "total" : 68
      },
      "genres" : [ ],
      "href" : "https://api.spotify.com/v1/artists/18SJLvRK2C84Ayo1owImsk",
      "id" : "18SJLvRK2C84Ayo1owImsk",
      "images" : [ {
        "height" : 640,
        "url" : "https://i.scdn.co/image/ab6761610000e5eb251081bb7b4eac9994ebe6aa",
        "width" : 640
      }, {
        "height" : 320,
        "url" : "https://i.scdn.co/image/ab67616100005174251081bb7b4eac9994ebe6aa",
        "width" : 320
      }, {
        "height" : 160,
        "url" : "https://i.scdn.co/image/ab6761610000f178251081bb7b4eac9994ebe6aa",
        "width" : 160
      } ],
      "name" : "Heads Are Heavy",
      "popularity" : 6,
      "type" : "artist",
      "uri" : "spotify:artist:18SJLvRK2C84Ayo1owImsk"
    }, {
      "external_urls" : {
        "spotify" : "https://open.spotify.com/artist/34ji1NPhqjImjXwOb2kwg4"
      },
      "followers" : {
        "href" : null,
        "total" : 11127
      },
      "genres" : [ "indie punk", "la indie" ],
      "href" : "https://api.spotify.com/v1/artists/34ji1NPhqjImjXwOb2kwg4",
      "id" : "34ji1NPhqjImjXwOb2kwg4",
      "images" : [ {
        "height" : 640,
        "url" : "https://i.scdn.co/image/ab6761610000e5eba22d6458aa98abcd0b427889",
        "width" : 640
      }, {
        "height" : 320,
        "url" : "https://i.scdn.co/image/ab67616100005174a22d6458aa98abcd0b427889",
        "width" : 320
      }, {
        "height" : 160,
        "url" : "https://i.scdn.co/image/ab6761610000f178a22d6458aa98abcd0b427889",
        "width" : 160
      } ],
      "name" : "The Paranoyds",
      "popularity" : 31,
      "type" : "artist",
      "uri" : "spotify:artist:34ji1NPhqjImjXwOb2kwg4"
    }, {
      "external_urls" : {
        "spotify" : "https://open.spotify.com/artist/5JWBow4ywgKNQ5HBxY8hcz"
      },
      "followers" : {
        "href" : null,
        "total" : 40949
      },
      "genres" : [ "alternative dance", "brooklyn indie" ],
      "href" : "https://api.spotify.com/v1/artists/5JWBow4ywgKNQ5HBxY8hcz",
      "id" : "5JWBow4ywgKNQ5HBxY8hcz",
      "images" : [ {
        "height" : 640,
        "url" : "https://i.scdn.co/image/ab6761610000e5eb8f6273f30a4fa5b2175bf047",
        "width" : 640
      }, {
        "height" : 320,
        "url" : "https://i.scdn.co/image/ab676161000051748f6273f30a4fa5b2175bf047",
        "width" : 320
      }, {
        "height" : 160,
        "url" : "https://i.scdn.co/image/ab6761610000f1788f6273f30a4fa5b2175bf047",
        "width" : 160
      } ],
      "name" : "Nation of Language",
      "popularity" : 45,
      "type" : "artist",
      "uri" : "spotify:artist:5JWBow4ywgKNQ5HBxY8hcz"
    } ],
    "limit" : 20,
    "next" : "https://api.spotify.com/v1/search?query=slift&type=artist&market=US&offset=20&limit=20",
    "offset" : 0,
    "previous" : null,
    "total" : 21
  }
}